,Unnamed: 0,場次,名次,日期,馬場/跑道/賽道,途程,場地狀況,賽事班次,檔位,評分,練馬師,騎師,頭馬距離,獨贏賠率,實際負磅,沿途走位,完成時間,排位體重,配備,賽事重播,馬名
0,1,75,13,04/10/20,"沙田草地""C+3""                                    ",1800,好,5,12,31,大衛希斯,波健士,12-1/4,46,125,2 3 3 4 13,1.49.67,1044,B,,傲龍駒
1,2,32,12,16/09/20,"跑馬地草地""C""                                    ",1650,好/快,5,12,34,大衛希斯,波健士,8-3/4,45,128,11 10 12 12,1.41.63,1040,XB-/B,,傲龍駒
2,3,712,12,03/06/20,"跑馬地草地""A""                                    ",1650,好,4,8,40,苗禮德,波健士,16-1/4,40,114,9 9 11 12,1.42.28,1073,B/XB,,傲龍駒
3,4,645,9,09/05/20,"沙田草地""C""                                    ",1800,好/快,4,14,43,苗禮德,蔡明紹,5,152,116,14 12 11 7 9,1.48.41,1062,B/XB,,傲龍駒
4,5,629,13,03/05/20,"沙田草地""B""                                    ",1400,好/快,4,13,46,苗禮德,史卓豐,8-1/4,65,121,11 12 13 13,1.23.02,1067,B1/XB1,,傲龍駒
5,6,566,7,12/04/20,"沙田草地""C""                                    ",1200,好,4,4,48,苗禮德,史卓豐,4-1/2,21,121,7 7 7,1.10.20,1073,--,,傲龍駒
6,7,474,12,08/03/20,"沙田草地""C""                                    ",1400,好,4,12,50,苗禮德,黃俊,5-1/2,125,120,12 12 14 12,1.23.33,1072,--,,傲龍駒
7,8,440,7,23/02/20,"沙田草地""A+3""                                    ",1400,好,4,4,52,苗禮德,史卓豐,4-3/4,20,127,4 8 8 7,1.23.14,1076,--,,傲龍駒
8,9,362,6,27/01/20,"沙田草地""B+2""                                    ",1000,好,4,10,52,苗禮德,彭國年,4-1/2,170,125,11 14 6,0.57.50,1037,--,,傲龍駒
