,Unnamed: 0,場次,名次,日期,馬場/跑道/賽道,途程,場地狀況,賽事班次,檔位,評分,練馬師,騎師,頭馬距離,獨贏賠率,實際負磅,沿途走位,完成時間,排位體重,配備,賽事重播,馬名
0,1,669,10,12/05/21,沙田全天候                                    ,1200,好,3,2,65,鄭俊偉,巫顯東,5,6.2,116,7 9 10,1.09.39,1124,B,,再大大
1,2,603,3,17/04/21,"沙田草地""C+3""                                    ",1400,好,3,7,65,鄭俊偉,巫顯東,3-1/4,24.0,120,3 3 2 3,1.22.82,1139,B,,再大大
2,3,553,3,31/03/21,沙田全天候                                    ,1200,好,3,4,63,鄭俊偉,蔡明紹,短馬頭位,6.5,117,5 3 3,1.08.67,1136,B,,再大大
3,4,480,1,07/03/21,沙田全天候                                    ,1200,濕慢,4,2,57,鄭俊偉,蔡明紹,1,5.4,132,5 2 1,1.08.54,1138,B,,再大大
4,5,385,3,31/01/21,沙田全天候                                    ,1200,好,4,4,57,鄭俊偉,莫雷拉,1-3/4,7.2,130,5 5 3,1.08.88,1136,B,,再大大
5,6,330,8,10/01/21,"沙田草地""C""                                    ",1000,好,4,12,59,鄭俊偉,史卓豐,2-3/4,8.3,132,13 11 8,0.57.48,1142,H-/B2,,再大大
6,7,304,7,26/12/20,"沙田草地""A+3""                                    ",1000,好,3,3,61,鄭俊偉,黃皓楠,4-1/4,73.0,113,14 12 7,0.57.18,1155,B-/H2,,再大大
7,8,119,6,18/10/20,"沙田草地""B+2""                                    ",1200,好/快,3,2,63,丁冠豪,蔡明紹,2-1/2,20.0,116,4 5 6,1.09.34,1151,B,,再大大
8,9,69,7,01/10/20,"沙田草地""B""                                    ",1200,好,3,6,65,丁冠豪,潘明輝,8-3/4,22.0,116,5 3 7,1.10.34,1144,B,,再大大
9,10,26,8,13/09/20,"沙田草地""A+3""                                    ",1200,好,3,9,66,丁冠豪,史卓豐,5-1/2,22.0,119,9 9 8,1.09.71,1150,B,,再大大
10,11,819,4,12/07/20,"沙田草地""A""                                    ",1200,好/快,3,12,66,丁冠豪,史卓豐,2,141.0,119,12 11 4,1.09.26,1139,CP-/B1,,再大大
11,12,758,10,21/06/20,"沙田草地""A""                                    ",1400,好/快,3,2,68,丁冠豪,梁家俊,6-1/2,88.0,121,3 3 4 10,1.22.36,1154,CP,,再大大
12,13,683,5,24/05/20,"沙田草地""A""                                    ",1200,好,3,1,70,丁冠豪,何澤堯,4-1/4,103.0,125,6 5 5,1.09.45,1143,H-/CP1,,再大大
13,14,589,11,19/04/20,"沙田草地""C+3""                                    ",1200,好,3,8,70,丁冠豪,史卓豐,6-1/4,44.0,123,10 11 11,1.09.65,1136,H1,,再大大
