,Unnamed: 0,場次,名次,日期,馬場/跑道/賽道,途程,場地狀況,賽事班次,檔位,評分,練馬師,騎師,頭馬距離,獨贏賠率,實際負磅,沿途走位,完成時間,排位體重,配備,賽事重播,馬名
0,1,704,7,26/05/21,"跑馬地草地""C""                                    ",1650,好/快,4,1,45,鄭俊偉,馬雅,3-1/4,27,118,7 5 5 7,1.39.75,1054,TT,,勁叻仔
1,2,613,10,25/04/21,"沙田草地""A""                                    ",1400,好,4,8,48,鄭俊偉,黃皓楠,7,108,118,13 14 13 10,1.23.57,1041,TT,,勁叻仔
2,3,560,9,05/04/21,"沙田草地""B+2""                                    ",1400,好,4,12,50,鄭俊偉,黃皓楠,7,161,120,14 14 11 9,1.22.67,1046,TT,,勁叻仔
3,4,435,9,17/02/21,"跑馬地草地""C""                                    ",1200,好,4,10,52,鄭俊偉,黃皓楠,4-3/4,45,124,7 7 9,1.10.91,1043,TT1,,勁叻仔
4,5,360,5,20/01/21,"跑馬地草地""C""                                    ",1200,好,4,9,52,鄭俊偉,黃皓楠,4-1/4,117,122,11 11 5,1.10.31,1052,--,,勁叻仔
