,Unnamed: 0,場次,名次,日期,馬場/跑道/賽道,途程,場地狀況,賽事班次,檔位,評分,練馬師,騎師,頭馬距離,獨贏賠率,實際負磅,沿途走位,完成時間,排位體重,配備,賽事重播,馬名
0,1,719,03,02/06/21,"跑馬地草地""A""                                    ",1000,好,5,1,24,容天鵬,巴度,3-1/2,5.9,117,1 3 3,0.57.64,1079,BO/TT,,勁飛聖
1,2,605,06,21/04/21,"跑馬地草地""C""                                    ",1200,好/快,5,3,24,容天鵬,潘明輝,2-3/4,4.2,116,2 2 6,1.10.36,1088,BO/TT,,勁飛聖
2,3,527,01,24/03/21,"跑馬地草地""C+3""                                    ",1000,好/快,5,8,20,容天鵬,巴度,1/2,8.7,113,3 3 1,0.56.90,1084,BO/TT,,勁飛聖
3,4,434,03,17/02/21,"跑馬地草地""C""                                    ",1000,好,5,7,20,容天鵬,田泰安,1-1/4,6.5,113,2 3 3,0.57.74,1098,BO/TT,,勁飛聖
4,5,357,05,20/01/21,"跑馬地草地""C""                                    ",1000,好,5,1,21,容天鵬,田泰安,1-1/2,4.7,114,5 7 5,0.57.65,1105,BO/TT,,勁飛聖
5,6,296,13,26/12/20,"沙田草地""A+3""                                    ",1200,好,5,8,23,容天鵬,蔡明紹,6-1/4,18,116,5 4 13,1.11.02,1093,BO/TT,,勁飛聖
6,7,233,04,02/12/20,"跑馬地草地""A""                                    ",1000,好,5,10,23,容天鵬,巴度,1-1/2,5.5,116,3 3 4,0.58.33,1084,BO/TT,,勁飛聖
7,8,139,02,28/10/20,"跑馬地草地""C+3""                                    ",1000,好,5,7,23,容天鵬,巴度,2-1/2,8.3,116,2 2 2,0.57.29,1095,BO2/TT,,勁飛聖
8,9,85,03,07/10/20,"跑馬地草地""A""                                    ",1000,好,5,3,24,容天鵬,巴度,2-1/2,4.7,120,4 7 3,0.57.80,1085,TT,,勁飛聖
9,10,31,WV,16/09/20,"跑馬地草地""C""                                    ",1200,好/快,5,--,24,容天鵬,梁家俊,--,--,118,--,--,--,--,--,勁飛聖
10,11,11,03,09/09/20,"跑馬地草地""B""                                    ",1000,好,5,10,24,容天鵬,巴度,3,13,117,4 6 3,0.58.07,1087,BO-/TT,,勁飛聖
11,12,821,08,15/07/20,"跑馬地草地""B""                                    ",1000,好/快,5,9,27,約翰摩亞,波健士,2-1/4,4.5,121,2 4 8,0.57.62,1068,BO/TT,,勁飛聖
12,13,803,04,08/07/20,"跑馬地草地""A""                                    ",1200,好,5,12,28,約翰摩亞,波健士,1,5.9,121,2 2 4,1.10.92,1062,BO/TT,,勁飛聖
13,14,749,05,21/06/20,"沙田草地""A""                                    ",1000,好/快,5,9,30,約翰摩亞,史卓豐,6-1/4,7.7,123,3 3 5,0.56.63,1060,CP-/BO2/TT,,勁飛聖
14,15,700,06,31/05/20,"沙田草地""B""                                    ",1400,好,5,14,31,約翰摩亞,史卓豐,1-1/4,7.7,124,2 2 2 6,1.22.95,1050,CP/TT,,勁飛聖
15,16,653,10,13/05/20,"跑馬地草地""C""                                    ",1200,好,5,5,33,約翰摩亞,波健士,6-1/2,7.7,127,5 5 10,1.11.50,1053,CP1/TT,,勁飛聖
16,17,564,06,12/04/20,"沙田草地""C""                                    ",1000,好,5,4,35,容天鵬,梁家俊,3-1/4,27,128,5 13 6,0.58.25,1075,TT,,勁飛聖
17,18,491,06,14/03/20,"沙田草地""C+3""                                    ",1200,好,5,2,37,容天鵬,梁家俊,2-1/2,60,131,3 3 6,1.10.57,1087,TT,,勁飛聖
18,19,383,14,02/02/20,"沙田草地""C""                                    ",1400,好,5,13,37,容天鵬,巴度,12-1/2,52,130,3 2 4 14,1.24.25,1094,TT,,勁飛聖
19,20,333,02,15/01/20,"跑馬地草地""C+3""                                    ",1000,好,5,8,36,容天鵬,巴度,頸位,18,129,4 5 2,0.57.73,1087,TT,,勁飛聖
20,21,237,08,11/12/19,"跑馬地草地""C""                                    ",1000,好,5,10,39,容天鵬,巴度,5-3/4,18,132,6 8 8,0.58.26,1084,TT,,勁飛聖
21,22,182,09,20/11/19,"跑馬地草地""C+3""                                    ",1200,好/快,4,12,41,容天鵬,巫顯東,9-1/2,84,111,12 12 9,1.10.45,1064,TT,,勁飛聖
22,23,142,08,03/11/19,"沙田草地""C+3""                                    ",1000,好/快,4,4,43,容天鵬,楊明綸,7,58,116,12 14 8,0.57.44,1061,TT,,勁飛聖
23,24,26,09,11/09/19,"跑馬地草地""B""                                    ",1200,好,4,5,44,容天鵬,沈拿,4-1/4,29,117,4 5 9,1.10.95,1047,TT,,勁飛聖
24,25,798,05,10/07/19,"跑馬地草地""A""                                    ",1000,好,4,7,48,容天鵬,沈拿,3-3/4,9.5,121,6 8 5,0.57.68,1073,TT,,勁飛聖
25,26,761,04,26/06/19,"跑馬地草地""B""                                    ",1000,好/快,4,12,49,容天鵬,沈拿,2-3/4,40,122,6 7 4,0.56.82,1069,TT,,勁飛聖
26,27,698,08,29/05/19,"跑馬地草地""C""                                    ",1200,好,4,7,51,容天鵬,楊明綸,6-3/4,50,122,4 5 8,1.11.50,1064,TT,,勁飛聖
27,28,607,10,24/04/19,"跑馬地草地""C""                                    ",1200,好,4,2,53,容天鵬,楊明綸,4-1/4,7.1,125,3 4 10,1.10.74,1058,TT,,勁飛聖
28,29,472,08,06/03/19,"跑馬地草地""A""                                    ",1200,好,4,9,55,容天鵬,蔡明紹,3-1/4,23,128,3 3 8,1.10.80,1090,TT,,勁飛聖
29,30,417,09,13/02/19,"跑馬地草地""B""                                    ",1200,好,4,11,57,容天鵬,楊明綸,4-1/4,26,128,3 3 9,1.10.65,1093,TT,,勁飛聖
30,31,344,08,16/01/19,"跑馬地草地""B""                                    ",1200,好,4,10,58,容天鵬,梁家俊,3,23,131,5 6 8,1.10.86,1093,TT,,勁飛聖
31,32,287,06,26/12/18,"跑馬地草地""C+3""                                    ",1200,好,4,5,59,容天鵬,麥偉利                                    ,1-1/2,51,132,1 1 6,1.10.34,1102,TT,,勁飛聖
32,33,214,04,28/11/18,"跑馬地草地""A""                                    ",1200,好,4,2,60,容天鵬,麥偉利                                    ,1-3/4,41,133,3 3 4,1.10.88,1100,BO-/TT,,勁飛聖
33,34,87,12,10/10/18,"跑馬地草地""B""                                    ",1200,好,4,12,60,容天鵬,黃俊,9,35,123,4 7 12,1.11.77,1088,BO1/TT,,勁飛聖
34,35,13,04,05/09/18,"跑馬地草地""B""                                    ",1000,好/快,4,4,60,容天鵬,梁家俊,3,8.3,133,5 6 4,0.58.65,1081,TT,,勁飛聖
35,36,791,01,11/07/18,"跑馬地草地""A""                                    ",1000,好/快,4,7,54,容天鵬,梁家俊,3/4,10,127,3 4 1,0.57.66,1080,TT,,勁飛聖
36,37,727,06,13/06/18,"跑馬地草地""B""                                    ",1200,好,4,1,56,容天鵬,黃皓楠,5-1/4,5.5,126,2 2 6,1.11.06,1065,TT,,勁飛聖
37,38,670,04,23/05/18,"跑馬地草地""C""                                    ",1000,好/快,4,8,56,容天鵬,黃皓楠,2,12,124,4 5 4,0.57.49,1059,TT,,勁飛聖
38,39,496,02,14/03/18,"跑馬地草地""B""                                    ",1000,好,4,2,55,容天鵬,梁家俊,1/2,18,126,5 5 2,0.57.67,1072,TT,,勁飛聖
39,40,441,09,21/02/18,"跑馬地草地""C""                                    ",1000,好,4,1,57,容天鵬,梁家俊,4-1/2,4.7,128,1 2 9,0.58.35,1074,B-/TT,,勁飛聖
40,41,14,06,06/09/17,"跑馬地草地""A""                                    ",1000,好,4,6,57,蘇偉賢,莫雷拉,2-1/4,2.3,131,3 5 6,0.58.32,1084,B1/TT,,勁飛聖
41,42,788,09,09/07/17,"沙田草地""B+2""                                    ",1400,好,3,2,60,蘇偉賢,田泰安,4-3/4,13,113,1 4 3 9,1.22.15,1060,TT,,勁飛聖
42,43,704,09,04/06/17,"沙田草地""B""                                    ",1200,好/快,3,13,61,蘇偉賢,史卓豐,7-1/2,13,116,2 3 9,1.10.52,1060,TT,,勁飛聖
43,44,677,06,24/05/17,"跑馬地草地""C""                                    ",1000,好,3,4,61,蘇偉賢,史卓豐,5-3/4,7.2,115,6 8 6,0.57.93,1054,TT,,勁飛聖
44,45,649,07,13/05/17,"沙田草地""C""                                    ",1000,好,3,8,61,蘇偉賢,黃皓楠,6-3/4,6.3,108,2 5 7,0.57.78,1055,TT,,勁飛聖
45,46,620,02,03/05/17,"跑馬地草地""C+3""                                    ",1000,好/快,4,5,59,蘇偉賢,莫雷拉,1-1/4,2.2,133,2 2 2,0.57.25,1056,TT,,勁飛聖
46,47,77,02,05/10/16,"跑馬地草地""A""                                    ",1200,好,4,6,58,蘇偉賢,莫雷拉,1-1/4,2.7,131,1 1 2,1.11.00,1075,TT,,勁飛聖
47,48,12,01,07/09/16,"跑馬地草地""B""                                    ",1200,好/黏,4,7,52,蘇偉賢,莫雷拉,1/2,2.5,125,2 2 1,1.10.78,1070,TT1,,勁飛聖
48,49,769,02,06/07/16,"跑馬地草地""A""                                    ",1200,好,4,9,51,蘇偉賢,莫雷拉,1-1/4,3,124,1 1 2,1.10.42,1064,--,,勁飛聖
49,50,736,02,22/06/16,"跑馬地草地""C""                                    ",1200,好/快,4,1,51,蘇偉賢,鄭雨滇                                    ,1-1/2,2.5,124,1 1 2,1.10.27,1064,XB-,,勁飛聖
50,51,680,02,01/06/16,"跑馬地草地""C+3""                                    ",1200,好,4,8,49,蘇偉賢,鄭雨滇                                    ,鼻位,9,123,1 1 2,1.10.43,1063,XB,,勁飛聖
51,52,605,08,01/05/16,"沙田草地""B""                                    ",1400,好,4,13,51,蘇偉賢,寶遜                                    ,2-3/4,37,124,1 2 1 8,1.23.32,1062,XB,,勁飛聖
52,53,530,05,03/04/16,"沙田草地""B+2""                                    ",1200,好,4,5,53,蘇偉賢,史卓豐,4-3/4,12,122,4 3 5,1.10.42,1061,XB,,勁飛聖
53,54,477,08,13/03/16,"沙田草地""C+3""                                    ",1200,好,4,9,54,蘇偉賢,何澤堯,6-1/4,21,124,6 9 8,1.11.48,1077,XB,,勁飛聖
54,55,402,07,14/02/16,"沙田草地""C+3""                                    ",1000,好,4,9,54,蘇偉賢,柏寶                                    ,4,3.5,129,2 2 7,0.57.57,1087,XB,,勁飛聖
55,56,328,02,17/01/16,"沙田草地""C+3""                                    ",1000,好/黏,4,2,52,蘇偉賢,柏寶                                    ,頸位,28,125,4 3 2,0.56.93,1092,XB1,,勁飛聖
