,Unnamed: 0,場次,名次,日期,馬場/跑道/賽道,途程,場地狀況,賽事班次,檔位,評分,練馬師,騎師,頭馬距離,獨贏賠率,實際負磅,沿途走位,完成時間,排位體重,配備,賽事重播,馬名
0,1,654,12,08/05/21,"沙田草地""C""                                    ",1200,好/快,4,12,50,苗禮德,班德禮,15-1/4,36,123,5 8 12,1.11.42,1120,B,,勇寶駒
1,2,578,5,11/04/21,"沙田草地""C""                                    ",1200,好,4,1,52,苗禮德,周俊樂,2-3/4,63,122,4 4 5,1.09.89,1118,B,,勇寶駒
2,3,464,13,28/02/21,"沙田草地""B+2""                                    ",1200,好,4,5,52,苗禮德,馬雅,6-1/2,176,127,8 8 13,1.10.57,1101,B1,,勇寶駒
