,Unnamed: 0,場次,名次,日期,馬場/跑道/賽道,途程,場地狀況,賽事班次,檔位,評分,練馬師,騎師,頭馬距離,獨贏賠率,實際負磅,沿途走位,完成時間,排位體重,配備,賽事重播,馬名
0,1,715,10,30/05/21,"沙田草地""B""                                    ",1200,好/快,3,12,67,蘇偉賢,巴度,6-1/2,5.4,120,7 5 10,1.09.75,1143,TT,,十二馬
1,2,641,1,02/05/21,"沙田草地""B""                                    ",1200,好,3,4,62,蘇偉賢,巴度,短馬頭位,4.0,115,4 3 1,1.08.90,1132,TT,,十二馬
2,3,559,3,05/04/21,"沙田草地""B+2""                                    ",1200,好,3,3,62,蘇偉賢,田泰安,1-1/2,4.0,117,3 4 3,1.09.64,1142,TT,,十二馬
3,4,483,2,07/03/21,"沙田草地""C""                                    ",1200,好,4,4,59,蘇偉賢,何澤堯,短馬頭位,4.2,133,1 1 2,1.09.91,1135,TT,,十二馬
4,5,425,1,14/02/21,"沙田草地""A""                                    ",1200,好,4,8,52,蘇偉賢,何澤堯,3/4,6.1,126,2 2 1,1.09.73,1131,TT,,十二馬
5,6,330,4,10/01/21,"沙田草地""C""                                    ",1000,好,4,6,53,蘇偉賢,何澤堯,2,9.5,126,12 9 4,0.57.34,1125,TT1,,十二馬
6,7,713,5,03/06/20,"跑馬地草地""A""                                    ",1200,好,4,10,54,蘇偉賢,何澤堯,2-3/4,13.0,127,7 6 5,1.10.39,1121,--,,十二馬
7,8,643,3,09/05/20,"沙田草地""C""                                    ",1200,好/快,4,10,54,蘇偉賢,何澤堯,2,5.0,127,3 3 3,1.09.65,1134,--,,十二馬
8,9,545,2,05/04/20,"沙田草地""B+2""                                    ",1000,好,4,13,52,蘇偉賢,何澤堯,1-1/4,2.6,125,10 5 2,0.57.27,1127,--,,十二馬
9,10,454,3,01/03/20,"沙田草地""B+2""                                    ",1000,好,4,9,52,蘇偉賢,何澤堯,1-1/4,3.7,127,2 2 3,0.56.49,1127,--,,十二馬
