,Unnamed: 0,場次,名次,日期,馬場/跑道/賽道,途程,場地狀況,賽事班次,檔位,評分,練馬師,騎師,頭馬距離,獨贏賠率,實際負磅,沿途走位,完成時間,排位體重,配備,賽事重播,馬名
0,1,693,12,23/05/21,"沙田草地""A""                                    ",2000,好/快,4,8,40,蔡約翰,波健士,8-1/4,19,114,3 3 3 5 12,2.03.59,1111,B/E,,叻蝦皇
1,2,656,6,08/05/21,"沙田草地""C""                                    ",1800,好/快,4,14,42,蔡約翰,波健士,6,124,115,3 6 7 8 6,1.48.60,1115,B/E,,叻蝦皇
2,3,607,9,21/04/21,"跑馬地草地""C""                                    ",1650,好/快,4,6,45,蔡約翰,賀銘年,5-1/2,39,118,8 8 9 9,1.40.48,1106,E/B1,,叻蝦皇
3,4,560,11,05/04/21,"沙田草地""B+2""                                    ",1400,好,4,13,48,蔡約翰,波健士,12-3/4,88,121,11 11 13 11,1.23.55,1102,E1,,叻蝦皇
4,5,511,12,17/03/21,"跑馬地草地""C""                                    ",1200,好/快,4,9,50,蔡約翰,田泰安,8-1/4,26,124,12 12 12,1.11.13,1116,--,,叻蝦皇
5,6,475,5,03/03/21,"跑馬地草地""A""                                    ",1200,好,4,2,52,蔡約翰,田泰安,3,16,127,4 4 5,1.10.28,1108,--,,叻蝦皇
6,7,418,6,10/02/21,"跑馬地草地""B""                                    ",1200,好,4,5,52,蔡約翰,田泰安,4,20,125,8 9 6,1.11.26,1107,--,,叻蝦皇
