,Unnamed: 0,場次,名次,日期,馬場/跑道/賽道,途程,場地狀況,賽事班次,檔位,評分,練馬師,騎師,頭馬距離,獨贏賠率,實際負磅,沿途走位,完成時間,排位體重,配備,賽事重播,馬名
0,1,663,14,12/05/21,沙田全天候                                    ,1800,好,5,6,14,鄭俊偉,巴度,14-1/4,10.0,116,8 9 9 8 14,1.51.44,1141,TT,,向前看
1,2,623,12,28/04/21,"跑馬地草地""C+3""                                    ",1650,好,5,9,16,鄭俊偉,楊明綸,12-1/4,36.0,113,12 12 12 12,1.41.76,1131,TT,,向前看
2,3,406,7,06/02/21,沙田全天候                                    ,1650,好,5,9,16,鄭俊偉,楊明綸,4-1/4,40.0,114,12 13 13 7,1.39.73,1134,TT,,向前看
3,4,286,10,23/12/20,"跑馬地草地""C+3""                                    ",1650,好,5,4,18,鄭俊偉,楊明綸,4-3/4,14.0,113,4 4 5 10,1.40.82,1148,TT,,向前看
4,5,242,5,06/12/20,沙田全天候                                    ,1650,好,5,2,19,鄭俊偉,黃俊,2-1/4,8.3,109,1 1 1 5,1.40.10,1136,TT,,向前看
5,6,222,10,29/11/20,"沙田草地""C""                                    ",1400,好,5,12,21,鄭俊偉,楊明綸,4-1/2,224.0,114,13 13 13 10,1.22.87,1142,TT,,向前看
6,7,166,8,08/11/20,"跑馬地草地""A""                                    ",1650,好,5,7,23,鄭俊偉,賀銘年,4-3/4,26.0,117,11 11 9 8,1.41.81,1132,TT,,向前看
7,8,122,6,21/10/20,"跑馬地草地""C""                                    ",1650,好/快,5,12,25,鄭俊偉,梁家俊,2-3/4,39.0,119,12 11 10 6,1.40.49,1140,TT,,向前看
8,9,37,6,20/09/20,沙田全天候                                    ,1650,濕慢,5,3,26,鄭俊偉,賀銘年,3-1/2,7.6,120,5 6 5 6,1.40.25,1121,TT,,向前看
9,10,820,8,15/07/20,"跑馬地草地""B""                                    ",1800,好/快,5,4,29,鄭俊偉,楊明綸,4,32.0,122,6 5 5 7 8,1.50.41,1139,TT,,向前看
10,11,769,12,27/06/20,沙田全天候                                    ,1650,好,5,9,31,鄭俊偉,莫雷拉,14,8.2,124,10 9 11 12,1.42.42,1135,TT,,向前看
11,12,691,3,27/05/20,沙田全天候                                    ,1800,好,5,2,32,鄭俊偉,梁家俊,3-1/2,8.3,125,6 4 4 3 3,1.50.03,1116,TT,,向前看
12,13,539,7,01/04/20,沙田全天候                                    ,1650,濕慢,5,7,33,鄭俊偉,潘明輝,3,27.0,124,11 11 9 7,1.40.18,1126,TT,,向前看
13,14,428,9,19/02/20,沙田全天候                                    ,1650,好,5,4,33,鄭俊偉,史卓豐,6-3/4,13.0,126,9 9 4 9,1.41.09,1126,TT,,向前看
14,15,373,8,29/01/20,"跑馬地草地""B""                                    ",1650,好,5,3,33,鄭俊偉,梁家俊,4,6.9,126,5 8 9 8,1.41.75,1108,TT,,向前看
15,16,285,1,29/12/19,沙田全天候                                    ,1650,濕慢,5,8,27,鄭俊偉,梁家俊,1-1/2,9.3,120,10 10 5 1,1.40.41,1126,TT,,向前看
16,17,256,2,18/12/19,"跑馬地草地""C+3""                                    ",1650,好/快,5,8,27,鄭俊偉,楊明綸,2,23.0,120,9 8 8 2,1.40.13,1125,TT,,向前看
17,18,209,6,01/12/19,沙田全天候                                    ,1650,好,5,7,29,鄭俊偉,梁家俊,6-1/4,17.0,122,5 4 4 6,1.40.49,1115,TT,,向前看
18,19,126,13,27/10/19,沙田全天候                                    ,1650,好,5,13,31,鄭俊偉,梁家俊,25,23.0,124,7 6 5 13,1.44.26,1129,TT,,向前看
19,20,70,5,06/10/19,沙田全天候                                    ,1650,濕慢,5,1,33,鄭俊偉,梁家俊,5-3/4,9.1,126,5 6 5 5,1.41.54,1134,TT,,向前看
20,21,770,5,01/07/19,沙田全天候                                    ,1650,好,5,8,34,鄭俊偉,莫雷拉,5-1/4,3.9,127,10 11 8 5,1.41.45,1133,TT,,向前看
21,22,715,4,05/06/19,"跑馬地草地""A""                                    ",1650,好,5,8,35,鄭俊偉,梁家俊,2-1/2,15.0,128,4 2 1 4,1.41.84,1115,TT,,向前看
22,23,648,10,11/05/19,"沙田草地""C""                                    ",1800,好,5,7,35,鄭俊偉,潘頓,8,6.6,128,4 5 6 8 10,1.49.08,1115,TT,,向前看
23,24,630,9,05/05/19,"沙田草地""B""                                    ",1600,好,5,13,35,鄭俊偉,貝力斯,6-1/2,7.8,128,13 13 12 9,1.36.81,1126,P-/TT,,向前看
24,25,585,2,17/04/19,"跑馬地草地""B""                                    ",1650,好,5,9,35,鄭俊偉,貝力斯,1-1/4,19.0,130,8 8 8 2,1.40.38,1119,P2/TT,,向前看
25,26,548,1,03/04/19,沙田全天候                                    ,1650,好,5,2,30,鄭俊偉,梁家俊,3/4,27.0,124,5 4 4 1,1.40.52,1121,TT1,,向前看
26,27,461,8,02/03/19,沙田全天候                                    ,1200,好,5,6,35,鄭俊偉,梁家俊,7-3/4,168.0,128,10 9 8,1.10.15,1132,P-,,向前看
27,28,405,11,10/02/19,"沙田草地""A""                                    ",1200,好,5,1,40,鄭俊偉,黃皓楠,8-1/2,110.0,130,13 12 11,1.11.58,1115,P1,,向前看
28,29,349,13,20/01/19,"沙田草地""A+3""                                    ",1600,好,4,6,45,鄭俊偉,黃皓楠,11-1/4,285.0,119,12 12 11 13,1.36.79,1127,--,,向前看
29,30,296,12,29/12/18,"沙田草地""B+2""                                    ",1400,好,4,7,50,鄭俊偉,黃皓楠,8,302.0,120,14 14 14 12,1.23.60,1137,--,,向前看
30,31,260,11,16/12/18,"沙田草地""C+3""                                    ",1400,好,4,13,55,鄭俊偉,黃皓楠,10-1/4,230.0,123,12 12 4 11,1.25.00,1138,--,,向前看
31,32,202,14,25/11/18,"沙田草地""C""                                    ",1600,好,4,1,60,鄭俊偉,黃皓楠,10,220.0,130,8 9 8 14,1.37.80,1137,--,,向前看
32,33,172,13,10/11/18,"沙田草地""A""                                    ",1600,好,3,5,64,鄭俊偉,麥偉利                                    ,7-1/2,254.0,119,11 11 12 13,1.36.56,1141,--,,向前看
33,34,126,11,24/10/18,"跑馬地草地""C+3""                                    ",1200,好/快,3,3,67,鄭俊偉,賴維銘                                    ,10-1/4,354.0,121,10 9 11,1.11.03,1153,--,,向前看
34,35,88,12,10/10/18,"跑馬地草地""B""                                    ",1200,好,3,9,69,鄭俊偉,賴維銘                                    ,8-1/4,261.0,122,11 11 12,1.11.52,1156,--,,向前看
35,36,723,14,10/06/18,"沙田草地""C""                                    ",1400,好/快,3,9,73,徐雨石,賴維銘                                    ,19-1/4,353.0,126,6 3 6 14,1.24.92,1147,--,,向前看
36,37,665,11,20/05/18,"沙田草地""C+3""                                    ",1400,好/快,3,5,73,徐雨石,何澤堯,15-3/4,59.0,126,3 2 4 11,1.24.29,1131,--,,向前看
