,Unnamed: 0,場次,名次,日期,馬場/跑道/賽道,途程,場地狀況,賽事班次,檔位,評分,練馬師,騎師,頭馬距離,獨贏賠率,實際負磅,沿途走位,完成時間,排位體重,配備,賽事重播,馬名
0,1,651,9,05/05/21,"跑馬地草地""A""                                    ",1200,好/快,2,9,83,方嘉柏,莫雷拉,9,8.0,117,6 6 9,1.10.10,1188,XB/TT,,喜佳龍
1,2,584,9,11/04/21,"沙田草地""C""                                    ",1400,好,2,1,84,方嘉柏,楊明綸,2-3/4,17.0,117,7 5 7 9,1.21.65,1179,XB/TT,,喜佳龍
2,3,502,3,13/03/21,"沙田草地""C+3""                                    ",1400,好,2,2,84,方嘉柏,莫雷拉,1-1/4,3.1,119,8 7 7 3,1.21.00,1178,XB/TT,,喜佳龍
3,4,392,2,31/01/21,"沙田草地""B+2""                                    ",1200,好,2,8,82,方嘉柏,何澤堯,1-1/4,12.0,119,12 12 2,1.08.57,1177,XB/TT,,喜佳龍
4,5,314,7,01/01/21,"沙田草地""B+2""                                    ",1200,好,2,1,82,方嘉柏,何澤堯,1-1/2,12.0,119,9 5 7,1.09.44,1186,XB/TT,,喜佳龍
5,6,248,10,06/12/20,沙田全天候                                    ,1200,好,2,2,82,方嘉柏,巴度,6-1/2,14.0,119,9 8 10,1.09.31,1180,XB/TT,,喜佳龍
6,7,202,1,18/11/20,"跑馬地草地""C""                                    ",1200,好,3,3,76,方嘉柏,巴度,短馬頭位,4.2,129,7 5 1,1.09.33,1184,XB/TT,,喜佳龍
7,8,82,8,04/10/20,"沙田草地""C+3""                                    ",1400,好,3,12,76,方嘉柏,薛恩,3-3/4,16.0,129,11 10 10 8,1.22.06,1168,XB/TT,,喜佳龍
8,9,18,1,09/09/20,"跑馬地草地""B""                                    ",1200,好,3,5,70,方嘉柏,潘頓,3/4,4.2,123,8 8 1,1.09.64,1171,XB/TT,,喜佳龍
9,10,818,4,12/07/20,"沙田草地""A""                                    ",1400,好/快,3,4,72,蘇偉賢,賀銘年,1-1/2,10.0,125,7 8 8 4,1.21.74,1169,XB/TT,,喜佳龍
10,11,726,5,07/06/20,"沙田草地""C""                                    ",1400,黏,3,14,73,蘇偉賢,田泰安,2-1/4,9.0,126,14 13 10 5,1.23.17,1158,XB/TT,,喜佳龍
11,12,631,5,03/05/20,"沙田草地""B""                                    ",1400,好/快,3,11,75,蘇偉賢,田泰安,4,18.0,129,10 9 10 5,1.22.05,1157,XB/TT,,喜佳龍
12,13,517,8,22/03/20,"沙田草地""A""                                    ",1400,好/快,3,12,75,蘇偉賢,田泰安,2-3/4,11.0,128,9 10 9 8,1.22.41,1164,XB/TT,,喜佳龍
13,14,460,2,01/03/20,"沙田草地""B+2""                                    ",1400,好,3,2,73,蘇偉賢,潘頓,頸位,3.8,128,7 7 7 2,1.21.88,1172,XB/TT,,喜佳龍
14,15,408,2,08/02/20,"沙田草地""C+3""                                    ",1400,好,3,12,71,蘇偉賢,彭國年,頸位,37.0,124,9 12 12 2,1.22.06,1154,XB/TT,,喜佳龍
15,16,274,8,21/12/19,"沙田草地""A+3""                                    ",1400,好,3,6,72,蘇偉賢,史卓豐,3-1/2,8.4,125,11 8 7 8,1.23.01,1153,XB/TT,,喜佳龍
16,17,197,9,23/11/19,"沙田草地""C""                                    ",1600,好/快,3,1,72,蘇偉賢,史卓豐,5,5.9,125,7 5 5 9,1.34.71,1143,XB/TT,,喜佳龍
17,18,148,3,03/11/19,"沙田草地""C+3""                                    ",1400,好/快,3,10,71,蘇偉賢,史卓豐,3/4,7.6,125,8 7 7 3,1.21.30,1156,XB/TT,,喜佳龍
18,19,96,8,12/10/19,"沙田草地""C""                                    ",1400,好/快,3,10,71,蘇偉賢,潘頓,2-3/4,5.2,124,12 10 10 8,1.21.85,1156,XB/TT,,喜佳龍
19,20,797,6,07/07/19,"沙田草地""C""                                    ",1400,好/快,3,6,71,蘇偉賢,史卓豐,3/4,5.0,124,11 12 12 6,1.21.73,1120,XB/TT,,喜佳龍
20,21,728,2,08/06/19,"沙田草地""C""                                    ",1400,好/快,3,3,68,蘇偉賢,史卓豐,頸位,2.1,121,5 6 5 2,1.21.73,1133,XB/TT,,喜佳龍
21,22,657,1,11/05/19,"沙田草地""C""                                    ",1400,好,3,1,62,蘇偉賢,史卓豐,頸位,8.3,118,7 8 8 1,1.21.65,1124,XB/TT,,喜佳龍
22,23,615,7,28/04/19,"沙田草地""A""                                    ",1600,好,3,8,62,蘇偉賢,田泰安,4,10.0,117,3 4 5 7,1.34.62,1149,XB/TT,,喜佳龍
23,24,560,2,07/04/19,"沙田草地""B+2""                                    ",1400,好/快,4,7,60,蘇偉賢,田泰安,1-1/4,5.9,133,11 11 10 2,1.22.27,1137,XB/TT,,喜佳龍
24,25,481,1,10/03/19,"沙田草地""C+3""                                    ",1400,好,4,2,54,蘇偉賢,田泰安,1-1/4,4.5,128,9 9 8 1,1.23.25,1144,XB/TT,,喜佳龍
25,26,410,8,10/02/19,"沙田草地""A""                                    ",1400,好,4,5,56,蘇偉賢,梁家俊,6,17.0,129,9 11 11 8,1.23.34,1147,XB/TT,,喜佳龍
26,27,348,7,20/01/19,"沙田草地""A+3""                                    ",1400,好,4,10,57,蘇偉賢,史卓豐,5,13.0,130,9 10 11 7,1.23.44,1144,XB/TT,,喜佳龍
27,28,278,4,23/12/18,"沙田草地""A+3""                                    ",1200,好,4,10,57,蘇偉賢,史卓豐,2-1/2,192.0,128,12 12 4,1.10.81,1134,XB1/TT1,,喜佳龍
