,Unnamed: 0,場次,名次,日期,馬場/跑道/賽道,途程,場地狀況,賽事班次,檔位,評分,練馬師,騎師,頭馬距離,獨贏賠率,實際負磅,沿途走位,完成時間,排位體重,配備,賽事重播,馬名
0,1,508,02,17/03/21,"跑馬地草地""C""                                    ",2200,好,5,1,37,何良,梁家俊,短馬頭位,15,132,4 3 3 3 2 2,2.16.00,1107,V/TT,,喜盈運
1,2,421,07,14/02/21,"沙田草地""A""                                    ",2000,好,5,7,39,何良,薛恩,4-3/4,31,132,2 3 3 2 7,2.04.44,1129,XB-/V/TT2,,喜盈運
2,3,395,11,03/02/21,"跑馬地草地""A""                                    ",2200,好,4,4,40,何良,巫顯東,5,40,115,6 5 4 4 7 11,2.18.31,1123,XB/V1,,喜盈運
3,4,355,08,20/01/21,"跑馬地草地""C""                                    ",2200,好,5,7,40,何良,梁家俊,5-1/2,14,133,4 4 4 1 2 8,2.17.72,1131,XB,,喜盈運
4,5,231,07,02/12/20,"跑馬地草地""A""                                    ",2200,好,4,3,40,何良,波健士,7-1/2,10,114,3 4 4 5 8 7,2.18.45,1133,XB,,喜盈運
5,6,177,01,11/11/20,"跑馬地草地""B""                                    ",2200,好,5,8,35,何良,梁家俊,短馬頭位,17,128,4 5 5 5 2 1,2.17.88,1122,XB,,喜盈運
6,7,111,06,18/10/20,"沙田草地""B+2""                                    ",2000,好,5,3,36,何良,梁家俊,2-1/2,13,130,3 3 3 4 6,2.02.70,1117,XB,,喜盈運
7,8,75,07,04/10/20,"沙田草地""C+3""                                    ",1800,好,5,11,37,何良,梁家俊,5,24,131,5 4 5 6 7,1.48.52,1111,XB,,喜盈運
8,9,37,09,20/09/20,沙田全天候                                    ,1650,濕慢,5,1,37,何良,梁家俊,6-3/4,7.4,131,6 5 6 9,1.40.79,1106,XB,,喜盈運
9,10,820,04,15/07/20,"跑馬地草地""B""                                    ",1800,好/快,5,11,37,何良,波健士,1-3/4,10,130,5 3 2 2 4,1.50.05,1107,XB,,喜盈運
10,11,791,01,05/07/20,"沙田草地""C+3""                                    ",2200,好/快,5,1,32,何良,梁家俊,頭位,22,126,4 4 4 4 4 1,2.15.42,1106,XB,,喜盈運
11,12,769,09,27/06/20,沙田全天候                                    ,1650,好,5,14,34,何良,梁家俊,6-1/4,31,127,14 14 14 9,1.41.20,1105,XB1,,喜盈運
12,13,691,12,27/05/20,沙田全天候                                    ,1800,好,5,11,36,何良,賀銘年,33-1/4,6.5,129,12 13 13 14 12,1.54.80,1122,--,,喜盈運
13,14,539,03,01/04/20,沙田全天候                                    ,1650,濕慢,5,6,36,何良,梁家俊,1-1/4,12,129,9 9 8 3,1.39.87,1112,--,,喜盈運
14,15,495,08,14/03/20,沙田全天候                                    ,1800,好,4,13,38,何良,巫顯東,7-1/4,66,110,12 14 14 14 8,1.48.89,1123,--,,喜盈運
15,16,428,04,19/02/20,沙田全天候                                    ,1650,好,5,1,40,何良,梁家俊,3-3/4,21,133,5 5 8 4,1.40.61,1124,H-/TT-,,喜盈運
16,17,295,WV,01/01/20,"沙田草地""C""                                    ",1800,好,5,--,40,何良,郭能,--,--,128,--,--,--,--,--,喜盈運
17,18,270,14,21/12/19,"沙田草地""A+3""                                    ",1800,好,4,10,42,何良,巫顯東,9-1/4,170,113,11 12 12 14 14,1.49.86,1134,H/TT,,喜盈運
18,19,212,13,01/12/19,沙田全天候                                    ,1800,好,4,4,44,何良,蔡明紹,12-3/4,18,117,11 11 11 13 13,1.50.20,1134,H/TT,,喜盈運
19,20,163,13,09/11/19,沙田全天候                                    ,1650,好,4,6,46,何良,潘明輝,13,13,117,12 14 14 13,1.41.81,1124,H/TT,,喜盈運
20,21,125,04,27/10/19,沙田全天候                                    ,1800,好,4,9,46,何良,梁家俊,1-1/4,14,123,4 2 2 3 4,1.49.84,1119,H/TT,,喜盈運
21,22,61,07,01/10/19,"沙田草地""A+3""                                    ",1600,好/快,4,12,48,何良,巫顯東,5,72,118,13 13 14 7,1.34.92,1119,P-/H/TT,,喜盈運
22,23,30,06,15/09/19,沙田全天候                                    ,1650,好,4,5,50,何良,郭能,9-1/4,15,126,7 7 8 6,1.40.80,1120,H/P2/TT,,喜盈運
23,24,773,11,01/07/19,沙田全天候                                    ,1650,好,4,10,52,何良,潘明輝,15-3/4,45,123,13 13 13 11,1.43.08,1113,H/TT,,喜盈運
24,25,732,03,12/06/19,沙田全天候                                    ,1650,濕慢,4,4,53,何良,潘明輝,5-1/4,12,123,7 7 7 3,1.40.31,1117,H/TT,,喜盈運
25,26,593,07,22/04/19,沙田全天候                                    ,1650,好,4,6,53,何良,巫顯東,7-3/4,8.5,123,11 10 8 7,1.39.26,1108,H/TT,,喜盈運
26,27,542,10,31/03/19,"沙田草地""A+3""                                    ",1800,好,4,10,53,何良,巫顯東,14,38,125,4 2 3 5 10,1.49.62,1105,H/TT,,喜盈運
27,28,479,01,10/03/19,沙田全天候                                    ,1800,濕慢,4,2,48,何良,巫顯東,頸位,5.9,118,11 6 5 5 1,1.50.59,1095,H/TT,,喜盈運
28,29,447,09,24/02/19,"沙田草地""B+2""                                    ",1600,好,4,7,50,何良,蘇狄雄,3-3/4,42,122,7 5 6 9,1.36.63,1089,H/TT,,喜盈運
29,30,409,08,10/02/19,"沙田草地""A""                                    ",1600,好,4,2,52,何良,郭能,3,12,125,7 7 9 8,1.36.39,1105,CP-/H/TT,,喜盈運
30,31,301,09,01/01/19,"沙田草地""C""                                    ",1600,好,4,3,54,何良,韋達                                    ,11-3/4,9.4,131,8 8 8 9,1.36.49,1109,P-/H/CP1/TT,,喜盈運
31,32,219,08,02/12/18,沙田全天候                                    ,1800,好,4,10,55,何良,郭能,8,6.3,128,7 7 8 8 8,1.50.11,1099,H/P2/TT,,喜盈運
32,33,168,04,10/11/18,"沙田草地""A""                                    ",1800,好,4,10,55,何良,郭能,3/4,10,128,10 12 10 9 4,1.48.96,1101,H/TT,,喜盈運
33,34,142,04,31/10/18,沙田全天候                                    ,1800,好,4,8,55,何良,郭能,2-3/4,4.2,128,9 9 9 8 4,1.49.11,1107,H/TT,,喜盈運
34,35,78,02,07/10/18,"沙田草地""B+2""                                    ",1600,好,4,11,54,何良,郭能,3/4,10,127,7 7 5 2,1.34.69,1117,H/TT,,喜盈運
35,36,799,08,15/07/18,"沙田草地""A""                                    ",1800,黏,4,10,59,何良,史卓豐,4-1/4,18,132,4 2 3 4 8,1.52.47,1108,H/TT,,喜盈運
36,37,718,05,10/06/18,"沙田草地""C""                                    ",1800,好/快,4,4,59,何良,潘頓,2,4.6,132,4 5 5 5 5,1.48.81,1116,P-/H/TT,,喜盈運
37,38,688,02,30/05/18,沙田全天候                                    ,1800,好,4,6,58,何良,潘頓,1,3.2,131,10 9 6 6 2,1.48.61,1113,H/P1/TT,,喜盈運
38,39,618,05,02/05/18,沙田全天候                                    ,1650,好,4,3,59,何良,田泰安,1-3/4,6.6,133,8 10 12 5,1.39.18,1112,H/TT,,喜盈運
39,40,550,03,08/04/18,"沙田草地""C""                                    ",1800,好,4,8,60,何良,羅理雅                                    ,2-3/4,4.8,133,9 10 10 11 3,1.47.88,1105,H/TT,,喜盈運
40,41,488,03,11/03/18,沙田全天候                                    ,1650,好,4,1,60,何良,羅理雅                                    ,1-3/4,6.9,133,8 10 10 3,1.38.69,1108,H/TT,,喜盈運
41,42,429,02,18/02/18,"沙田草地""A""                                    ",1800,好,4,11,58,何良,羅理雅                                    ,短馬頭位,6.6,131,13 14 13 11 2,1.48.49,1100,H/TT,,喜盈運
42,43,374,07,28/01/18,"沙田草地""B""                                    ",2000,好,4,5,60,何良,潘頓,6-1/4,2.8,133,8 9 10 7 7,2.04.70,1082,H/TT,,喜盈運
43,44,344,05,13/01/18,"沙田草地""C+3""                                    ",1600,好,4,5,60,何良,潘頓,3-1/4,5.4,133,11 11 10 5,1.35.89,1095,H/TT,,喜盈運
44,45,287,09,20/12/17,"跑馬地草地""C+3""                                    ",2200,好/快,3,6,62,何良,田泰安,4,4.9,116,10 10 10 11 12 9,2.16.89,1086,H/TT,,喜盈運
45,46,254,06,10/12/17,"沙田草地""A""                                    ",1800,好,3,14,64,何良,史卓豐,2-1/4,9.5,117,14 11 11 12 6,1.48.22,1088,H/TT,,喜盈運
46,47,202,04,19/11/17,"沙田草地""B""                                    ",2000,好,3,7,64,何良,楊明綸,1-1/4,12,115,11 12 11 12 4,2.02.62,1087,H/TT,,喜盈運
47,48,170,05,05/11/17,"沙田草地""C+3""                                    ",1800,好/快,3,11,66,何良,李寶利,5,30,119,8 8 7 8 5,1.47.65,1088,H/TT,,喜盈運
48,49,96,07,08/10/17,"沙田草地""B+2""                                    ",1600,好,3,2,68,何良,楊明綸,3,26,117,8 8 7 7,1.35.39,1095,H/TT,,喜盈運
49,50,46,10,16/09/17,"沙田草地""C+3""                                    ",1400,好/快,3,10,68,何良,楊明綸,3,86,119,12 14 14 10,1.21.99,1096,H/TT1,,喜盈運
50,51,696,06,31/05/17,沙田全天候                                    ,1650,好,3,1,71,呂健威,田泰安,2-3/4,37,125,7 7 7 6,1.38.82,1079,H,,喜盈運
51,52,542,14,02/04/17,"沙田草地""B+2""                                    ",1200,好/快,3,4,73,呂健威,楊明綸,9-1/2,94,126,9 10 14,1.11.60,1080,H,,喜盈運
52,53,490,14,12/03/17,"沙田草地""C+3""                                    ",1400,好,3,14,73,呂健威,何澤堯,17-3/4,189,124,9 5 11 14,1.24.50,1085,H1,,喜盈運
