,Unnamed: 0,場次,名次,日期,馬場/跑道/賽道,途程,場地狀況,賽事班次,檔位,評分,練馬師,騎師,頭馬距離,獨贏賠率,實際負磅,沿途走位,完成時間,排位體重,配備,賽事重播,馬名
0,1,680,2,19/05/21,"跑馬地草地""B""                                    ",1650,好/快,5,1,29,蘇偉賢,賀銘年,1-1/4,20.0,122,5 3 4 2,1.39.58,1049,H/XB/TT,,堅離地
1,2,413,12,10/02/21,"跑馬地草地""B""                                    ",1650,好,5,10,31,蘇偉賢,梁家俊,19,23.0,124,5 2 2 12,1.44.54,1089,H/XB/TT,,堅離地
2,3,338,8,13/01/21,"跑馬地草地""B""                                    ",1650,好,5,4,33,蘇偉賢,史卓豐,6-1/2,9.1,127,8 7 9 8,1.42.34,1096,H/XB/TT,,堅離地
3,4,249,6,09/12/20,"跑馬地草地""B""                                    ",1650,好,5,5,34,蘇偉賢,巴度,1-3/4,10.0,127,7 7 1 6,1.40.34,1075,H/XB/TT,,堅離地
4,5,166,6,08/11/20,"跑馬地草地""A""                                    ",1650,好,5,1,36,蘇偉賢,史卓豐,4-1/4,6.1,129,6 5 7 6,1.41.71,1082,H/XB/TT,,堅離地
5,6,122,7,21/10/20,"跑馬地草地""C""                                    ",1650,好/快,5,11,37,蘇偉賢,潘頓,4,7.6,131,11 10 11 7,1.40.69,1073,H/XB/TT,,堅離地
6,7,32,3,16/09/20,"跑馬地草地""C""                                    ",1650,好/快,5,4,37,蘇偉賢,史卓豐,2,17.0,131,7 7 1 3,1.40.54,1071,H/XB/TT,,堅離地
7,8,731,9,10/06/20,"跑馬地草地""B""                                    ",1650,好/快,5,11,37,蘇偉賢,史卓豐,7-1/2,14.0,130,10 9 8 9,1.41.77,1071,H/XB/TT,,堅離地
8,9,519,1,25/03/20,"跑馬地草地""A""                                    ",1650,好,5,2,30,蘇偉賢,史卓豐,2,9.9,123,3 3 1 1,1.40.27,1070,H/XB/TT,,堅離地
9,10,400,13,08/02/20,"沙田草地""C+3""                                    ",1800,好,5,11,32,蘇偉賢,利敬國,9,23.0,125,14 14 14 12 13,1.50.58,1086,H/XB/TT,,堅離地
10,11,373,4,29/01/20,"跑馬地草地""B""                                    ",1650,好,5,10,33,蘇偉賢,彭國年,2-1/4,16.0,126,10 6 5 4,1.41.43,1049,H/XB/TT,,堅離地
11,12,256,7,18/12/19,"跑馬地草地""C+3""                                    ",1650,好/快,5,11,33,蘇偉賢,田泰安,5,14.0,126,11 12 12 7,1.40.59,1056,H/XB/TT,,堅離地
12,13,219,6,04/12/19,"跑馬地草地""B""                                    ",1650,好,5,7,33,蘇偉賢,田泰安,2-3/4,8.4,126,9 7 6 6,1.40.65,1068,H/XB/TT,,堅離地
13,14,152,1,06/11/19,"跑馬地草地""B""                                    ",1650,好,5,12,27,蘇偉賢,田泰安,頭位,13.0,120,12 12 12 1,1.40.32,1072,H/XB/TT,,堅離地
14,15,115,1,23/10/19,"跑馬地草地""C+3""                                    ",1650,好/快,5,5,22,蘇偉賢,田泰安,1/2,8.6,115,8 8 7 1,1.39.68,1075,H/XB/TT,,堅離地
15,16,70,11,06/10/19,沙田全天候                                    ,1650,濕慢,5,6,24,蘇偉賢,楊明綸,15-3/4,31.0,115,1 1 2 11,1.43.12,1085,H/XB/TT,,堅離地
16,17,23,8,11/09/19,"跑馬地草地""B""                                    ",1650,好,5,11,24,蘇偉賢,田泰安,2,47.0,118,12 12 11 8,1.42.11,1075,H/XB/TT,,堅離地
17,18,676,7,22/05/19,"跑馬地草地""B""                                    ",1650,好,5,10,29,蘇偉賢,貝力斯,5-3/4,32.0,122,11 12 8 7,1.41.24,1087,P-/H/XB/TT,,堅離地
18,19,585,11,17/04/19,"跑馬地草地""B""                                    ",1650,好,5,5,31,蘇偉賢,梁家俊,11-1/4,10.0,126,6 6 6 11,1.42.02,1091,H/XB/P2/TT,,堅離地
19,20,520,5,24/03/19,"沙田草地""C+3""                                    ",1400,好,5,3,33,蘇偉賢,李寶利,2-1/2,21.0,126,11 6 7 5,1.23.61,1084,H/XB/TT,,堅離地
20,21,360,5,23/01/19,"跑馬地草地""C""                                    ",1650,好,5,1,35,蘇偉賢,莫雷拉,2-3/4,7.8,128,4 3 3 5,1.41.28,1082,B-/H/XB/TT,,堅離地
21,22,292,9,29/12/18,"沙田草地""B+2""                                    ",1200,好,5,6,36,蘇偉賢,潘頓,6-1/4,6.6,127,7 8 9,1.11.22,1082,H/XB/B2/TT,,堅離地
22,23,248,6,12/12/18,"跑馬地草地""C""                                    ",1650,好,5,1,36,蘇偉賢,蘇兆輝,2-1/2,7.2,129,2 3 3 6,1.41.17,1072,H/XB/TT,,堅離地
23,24,227,2,05/12/18,"跑馬地草地""B""                                    ",1650,好,5,3,34,蘇偉賢,潘頓,1/2,2.8,128,6 7 6 2,1.41.01,1082,H/XB/TT,,堅離地
24,25,173,2,14/11/18,"跑馬地草地""C""                                    ",1650,好,5,1,32,蘇偉賢,潘頓,頸位,4.6,125,3 3 3 2,1.41.54,1090,H/XB/TT,,堅離地
25,26,119,10,24/10/18,"跑馬地草地""C+3""                                    ",1650,好,5,11,34,蘇偉賢,利敬國,5-3/4,18.0,127,12 12 12 10,1.40.01,1090,B-/H/XB1/TT,,堅離地
26,27,22,9,09/09/18,"沙田草地""C""                                    ",1400,好/快,5,11,36,蘇偉賢,郭能,15,10.0,130,2 1 2 9,1.24.53,1063,B/H/TT,,堅離地
27,28,760,14,01/07/18,沙田全天候                                    ,1650,好,5,11,38,蘇偉賢,郭能,13-1/2,8.6,131,5 3 3 14,1.41.89,1052,B/H/TT,,堅離地
28,29,705,2,06/06/18,"跑馬地草地""A""                                    ",1650,好/黏,5,9,37,蘇偉賢,郭能,3/4,15.0,130,7 6 6 2,1.41.57,1040,B/H/TT,,堅離地
29,30,650,8,16/05/18,"跑馬地草地""B""                                    ",1650,好/快,5,4,39,蘇偉賢,史卓豐,5-1/4,13.0,132,7 7 8 8,1.40.50,1039,B/H/TT,,堅離地
30,31,618,6,02/05/18,沙田全天候                                    ,1650,好,4,7,40,蘇偉賢,楊明綸,2,60.0,112,13 1 2 6,1.39.20,1050,B/H/TT,,堅離地
31,32,569,8,15/04/18,沙田全天候                                    ,1200,濕慢,4,7,43,蘇偉賢,黃皓楠,4-3/4,57.0,111,11 7 8,1.10.24,1055,P-/H/B1/TT1,,堅離地
32,33,406,11,07/02/18,"跑馬地草地""A""                                    ",1650,好,4,10,47,鄭俊偉,巴度,14-1/4,81.0,120,11 11 12 11,1.43.16,1074,H/P,,堅離地
33,34,359,13,21/01/18,"沙田草地""A""                                    ",1400,好,4,10,50,鄭俊偉,郭能,9,106.0,123,6 3 6 13,1.24.44,1072,H/P1,,堅離地
34,35,283,11,20/12/17,"跑馬地草地""C+3""                                    ",1200,好/快,4,1,52,鄭俊偉,賴維銘                                    ,7-1/2,18.0,125,12 12 11,1.10.87,1077,H,,堅離地
35,36,212,8,22/11/17,"跑馬地草地""C+3""                                    ",1200,好,4,7,54,鄭俊偉,賴維銘                                    ,2-3/4,113.0,127,11 10 8,1.10.98,1056,H,,堅離地
36,37,175,10,08/11/17,"跑馬地草地""B""                                    ",1200,好,4,10,56,鄭俊偉,何澤堯,3-1/2,201.0,128,11 10 10,1.11.18,1057,H,,堅離地
37,38,123,11,18/10/17,"跑馬地草地""C""                                    ",1200,好/快,4,8,58,鄭俊偉,賴維銘                                    ,8-1/4,182.0,132,9 9 11,1.12.11,1054,H,,堅離地
38,39,792,12,12/07/17,"跑馬地草地""A""                                    ",1200,好/快,4,2,64,鄭俊偉,沈拿,10-1/4,130.0,132,12 12 12,1.11.70,1074,H,,堅離地
39,40,778,14,01/07/17,"沙田草地""A+3""                                    ",1200,好/快,3,2,67,鄭俊偉,黃皓楠,13-3/4,299.0,112,14 13 14,1.11.71,1089,H,,堅離地
40,41,706,13,04/06/17,"沙田草地""B""                                    ",1400,好/快,3,6,70,鄭俊偉,賴維銘                                    ,16,234.0,118,8 8 13 13,1.24.46,1073,H,,堅離地
41,42,657,10,17/05/17,"跑馬地草地""B""                                    ",1200,好/快,3,6,70,鄭俊偉,賴維銘                                    ,10-1/2,185.0,118,10 10 10,1.11.47,1077,H1,,堅離地
