,Unnamed: 0,場次,名次,日期,馬場/跑道/賽道,途程,場地狀況,賽事班次,檔位,評分,練馬師,騎師,頭馬距離,獨贏賠率,實際負磅,沿途走位,完成時間,排位體重,配備,賽事重播,馬名
0,1,715,9,30/05/21,"沙田草地""B""                                    ",1200,好/快,3,7,73,丁冠豪,黃皓楠,6-1/4,97.0,123,4 7 9,1.09.72,1140,B,,大師級
1,2,440,9,17/02/21,"跑馬地草地""C""                                    ",1200,好,3,6,73,丁冠豪,何澤堯,6-1/4,12.0,126,4 5 9,1.10.27,1160,B,,大師級
2,3,363,5,20/01/21,"跑馬地草地""C""                                    ",1200,好,3,1,73,丁冠豪,波健士,2-3/4,7.9,126,3 3 5,1.09.45,1149,B,,大師級
3,4,275,1,16/12/20,"跑馬地草地""C""                                    ",1200,好,3,6,66,丁冠豪,波健士,1,13.0,120,2 2 1,1.09.40,1143,B,,大師級
4,5,191,6,14/11/20,"沙田草地""C+3""                                    ",1000,好,3,5,68,丁冠豪,波健士,3-1/2,141.0,123,10 8 6,0.57.29,1149,B,,大師級
5,6,146,7,28/10/20,"跑馬地草地""C+3""                                    ",1200,好,3,10,70,丁冠豪,波健士,3-1/2,73.0,123,11 11 7,1.09.86,1143,B,,大師級
6,7,45,12,20/09/20,"沙田草地""B+2""                                    ",1200,好/快,3,9,71,丁冠豪,楊明綸,8-1/4,124.0,124,4 7 12,1.10.02,1133,B,,大師級
7,8,825,12,15/07/20,"跑馬地草地""B""                                    ",1200,好/快,3,5,71,丁冠豪,蘇狄雄,8,21.0,124,6 10 12,1.10.55,1114,B,,大師級
8,9,396,11,05/02/20,"跑馬地草地""C""                                    ",1200,好,3,10,71,丁冠豪,巴度,14-3/4,7.3,127,6 6 11,1.11.95,1155,B,,大師級
9,10,322,1,08/01/20,"跑馬地草地""C""                                    ",1200,好,3,11,66,丁冠豪,蘇兆輝,短馬頭位,9.1,121,4 4 1,1.10.09,1145,B,,大師級
10,11,283,4,26/12/19,"跑馬地草地""A""                                    ",1200,好,3,2,66,丁冠豪,楊明綸,1-3/4,7.9,120,3 3 4,1.09.78,1133,B,,大師級
11,12,188,4,20/11/19,"跑馬地草地""C+3""                                    ",1200,好/快,3,11,66,丁冠豪,楊明綸,3-1/4,36.0,119,9 8 4,1.09.78,1136,B,,大師級
12,13,138,1,30/10/19,"跑馬地草地""A""                                    ",1200,好,3,2,61,丁冠豪,蘇狄雄,頸位,9.5,112,3 3 1,1.10.39,1130,B,,大師級
13,14,104,6,16/10/19,"跑馬地草地""C""                                    ",1650,好,3,6,63,丁冠豪,楊明綸,4-3/4,35.0,118,1 1 1 6,1.40.63,1116,B,,大師級
14,15,784,9,03/07/19,"跑馬地草地""C""                                    ",1650,好,3,3,67,丁冠豪,楊明綸,5,81.0,120,3 3 4 9,1.40.94,1113,H-/B,,大師級
15,16,730,10,08/06/19,"沙田草地""C""                                    ",1400,好/快,3,10,69,丁冠豪,梁家俊,11-3/4,73.0,123,6 6 8 10,1.23.23,1119,B/H1,,大師級
16,17,657,6,11/05/19,"沙田草地""C""                                    ",1400,好,3,12,71,丁冠豪,楊明綸,4,289.0,125,3 4 4 6,1.22.28,1122,B,,大師級
17,18,612,8,28/04/19,"沙田草地""A""                                    ",1200,好,3,3,73,丁冠豪,夏禮賢                                    ,6,303.0,127,10 7 8,1.10.00,1122,B,,大師級
18,19,554,8,03/04/19,沙田全天候                                    ,1200,好,3,3,75,丁冠豪,梁家俊,12-1/4,109.0,128,6 5 8,1.10.85,1134,B,,大師級
19,20,494,12,13/03/19,"跑馬地草地""B""                                    ",1200,好,3,9,75,丁冠豪,梁家俊,12-3/4,74.0,128,2 3 12,1.12.19,1136,B1,,大師級
