,Unnamed: 0,場次,名次,日期,馬場/跑道/賽道,途程,場地狀況,賽事班次,檔位,評分,練馬師,騎師,頭馬距離,獨贏賠率,實際負磅,沿途走位,完成時間,排位體重,配備,賽事重播,馬名
0,1,699,1,23/05/21,"沙田草地""A""                                    ",1200,好/快,3,8,70,方嘉柏,莫雷拉,1-1/2,1.6,127,5 5 1,1.08.73,1162,H/TT,,大紅蜂
1,2,658,1,08/05/21,"沙田草地""C""                                    ",1200,好/快,3,7,63,方嘉柏,莫雷拉,頭位,2.0,118,6 6 1,1.08.68,1164,H1/TT,,大紅蜂
2,3,559,2,05/04/21,"沙田草地""B+2""                                    ",1200,好,3,8,61,方嘉柏,莫雷拉,頸位,1.9,116,4 3 2,1.09.43,1178,TT,,大紅蜂
3,4,498,1,13/03/21,"沙田草地""C+3""                                    ",1000,好,4,9,52,方嘉柏,薛恩,2-1/4,2.5,126,3 1 1,0.56.71,1180,TT1,,大紅蜂
