,Unnamed: 0,場次,名次,日期,馬場/跑道/賽道,途程,場地狀況,賽事班次,檔位,評分,練馬師,騎師,頭馬距離,獨贏賠率,實際負磅,沿途走位,完成時間,排位體重,配備,賽事重播,馬名
0,1,720,12,02/06/21,"跑馬地草地""A""                                    ",1000,好,4,9,45,徐雨石,黃皓楠,7-1/2,29.0,115,2 3 12,0.58.16,1142,V-/B2,,好甜橙
1,2,645,7,05/05/21,"跑馬地草地""A""                                    ",1000,好/快,4,3,47,徐雨石,黃俊,5-1/4,12.0,115,2 2 7,0.57.57,1135,V,,好甜橙
2,3,530,9,24/03/21,"跑馬地草地""C+3""                                    ",1000,好/快,4,12,49,徐雨石,彭國年,4-1/2,41.0,122,2 2 9,0.57.94,1147,V,,好甜橙
3,4,455,6,24/02/21,"跑馬地草地""C+3""                                    ",1000,好/快,4,6,51,徐雨石,彭國年,3,14.0,124,1 1 6,0.57.66,1163,V,,好甜橙
4,5,376,11,27/01/21,"跑馬地草地""C+3""                                    ",1200,好,4,8,53,徐雨石,彭國年,3-1/2,15.0,126,1 1 11,1.10.55,1178,V,,好甜橙
5,6,252,6,09/12/20,"跑馬地草地""B""                                    ",1000,好,4,3,55,徐雨石,馬昆,2-3/4,13.0,129,2 4 6,0.57.63,1180,V,,好甜橙
6,7,178,9,11/11/20,"跑馬地草地""B""                                    ",1200,好,4,4,57,徐雨石,陳嘉熙,6-1/2,17.0,126,1 1 9,1.11.23,1154,V,,好甜橙
7,8,124,7,21/10/20,"跑馬地草地""C""                                    ",1000,好/快,4,3,59,徐雨石,郭能,4-1/2,11.0,132,2 2 7,0.57.70,1153,V,,好甜橙
8,9,99,9,11/10/20,"沙田草地""A+3""                                    ",1200,好,3,2,61,徐雨石,黃皓楠,8-1/2,79.0,112,1 1 9,1.09.94,1146,V,,好甜橙
9,10,53,11,23/09/20,"跑馬地草地""C+3""                                    ",1200,好/快,3,5,63,徐雨石,何澤堯,6,30.0,116,3 3 11,1.10.05,1146,V,,好甜橙
10,11,36,6,16/09/20,"跑馬地草地""C""                                    ",1000,好/快,3,6,64,徐雨石,黃皓楠,3,63.0,114,2 2 6,0.57.27,1140,V,,好甜橙
11,12,807,7,08/07/20,"跑馬地草地""A""                                    ",1000,好,3,10,66,徐雨石,黃俊,5-1/4,23.0,118,1 1 7,0.57.68,1131,V2,,好甜橙
12,13,718,11,03/06/20,"跑馬地草地""A""                                    ",1200,好,3,1,68,徐雨石,巫顯東,6-1/4,17.0,118,1 1 11,1.10.32,1133,V-,,好甜橙
13,14,673,7,20/05/20,"跑馬地草地""C+3""                                    ",1000,好/快,3,7,69,徐雨石,黃皓楠,7,26.0,120,2 2 7,0.57.49,1140,V,,好甜橙
14,15,637,4,06/05/20,"跑馬地草地""B""                                    ",1000,好/快,3,11,69,徐雨石,波健士,4-1/2,28.0,125,3 2 4,0.57.20,1133,V,,好甜橙
15,16,560,6,08/04/20,"跑馬地草地""B""                                    ",1000,好,3,3,69,徐雨石,陳嘉熙,3,4.8,119,1 1 6,0.57.29,1143,V,,好甜橙
16,17,503,1,18/03/20,"跑馬地草地""C+3""                                    ",1000,好,3,1,63,徐雨石,波健士,1/2,6.7,118,1 1 1,0.56.83,1134,V,,好甜橙
17,18,448,1,26/02/20,"跑馬地草地""A""                                    ",1000,好,4,8,58,徐雨石,陳嘉熙,頭位,8.2,121,1 1 1,0.56.86,1124,V,,好甜橙
18,19,356,1,22/01/20,"跑馬地草地""A""                                    ",1000,好,4,10,53,徐雨石,陳嘉熙,短馬頭位,5.1,119,1 1 1,0.57.24,1150,V,,好甜橙
19,20,221,5,04/12/19,"跑馬地草地""B""                                    ",1000,好,4,10,53,徐雨石,蘇兆輝,2,6.5,126,1 2 5,0.57.42,1124,V,,好甜橙
20,21,134,2,30/10/19,"跑馬地草地""A""                                    ",1000,好,4,12,51,徐雨石,何澤堯,1-1/4,9.4,125,2 2 2,0.57.08,1115,V,,好甜橙
21,22,42,10,21/09/19,沙田全天候                                    ,1200,好,4,3,51,徐雨石,黃皓楠,13-1/4,25.0,121,2 2 10,1.11.48,1121,V,,好甜橙
22,23,26,1,11/09/19,"跑馬地草地""B""                                    ",1200,好,4,2,46,徐雨石,黃皓楠,1/2,13.0,116,1 1 1,1.10.29,1113,V,,好甜橙
23,24,761,2,26/06/19,"跑馬地草地""B""                                    ",1000,好/快,4,3,46,徐雨石,莫雷拉,2,1.9,119,1 1 2,0.56.73,1127,V,,好甜橙
24,25,696,1,29/05/19,"跑馬地草地""C""                                    ",1000,好,5,4,39,徐雨石,莫雷拉,2,2.3,132,1 1 1,0.57.31,1126,B-/V1,,好甜橙
25,26,643,6,08/05/19,沙田全天候                                    ,1200,濕慢,4,4,41,徐雨石,吳嘉晉                                    ,6,10.0,112,1 2 6,1.10.83,1126,B,,好甜橙
26,27,590,6,17/04/19,"跑馬地草地""B""                                    ",1200,好,4,6,43,徐雨石,黃皓楠,2-1/4,18.0,114,2 2 6,1.10.40,1135,B,,好甜橙
27,28,551,9,03/04/19,沙田全天候                                    ,1200,好,4,6,43,徐雨石,陳嘉熙,7-1/2,3.3,108,2 1 9,1.10.81,1131,B,,好甜橙
28,29,472,2,06/03/19,"跑馬地草地""A""                                    ",1200,好,4,1,42,徐雨石,黃俊,3/4,2.6,108,1 1 2,1.10.41,1114,B,,好甜橙
29,30,454,4,27/02/19,"跑馬地草地""C+3""                                    ",1000,好/快,4,5,43,徐雨石,蘇兆輝,1-1/2,4.5,116,2 2 4,0.57.08,1123,B,,好甜橙
30,31,361,8,23/01/19,"跑馬地草地""C""                                    ",1200,好,4,9,45,徐雨石,蘇兆輝,3-3/4,16.0,120,1 1 8,1.10.73,1103,B,,好甜橙
31,32,323,4,09/01/19,"跑馬地草地""A""                                    ",1000,好,4,9,45,徐雨石,黃皓楠,1-1/2,35.0,116,1 1 4,0.58.04,1136,B1,,好甜橙
32,33,199,14,25/11/18,"沙田草地""C""                                    ",1000,好,4,1,48,徐雨石,黃皓楠,11-1/2,51.0,120,2 4 14,0.59.55,1125,--,,好甜橙
33,34,94,10,13/10/18,沙田全天候                                    ,1200,好,4,8,50,徐雨石,黃俊,4,30.0,112,2 3 10,1.09.70,1126,H-,,好甜橙
34,35,57,13,01/10/18,"沙田草地""A+3""                                    ",1200,好,4,3,51,徐雨石,梁家俊,9-3/4,17.0,125,2 2 13,1.11.13,1127,H,,好甜橙
35,36,717,7,10/06/18,"沙田草地""C""                                    ",1200,好/快,4,9,51,徐雨石,田泰安,9-1/4,6.3,129,2 3 7,1.10.35,1117,H,,好甜橙
36,37,626,2,06/05/18,"沙田草地""B""                                    ",1200,好,4,9,50,徐雨石,田泰安,3/4,9.7,126,2 1 2,1.10.18,1126,H1,,好甜橙
37,38,409,9,10/02/18,"沙田草地""C+3""                                    ",1000,好,4,8,52,姚本輝,李寶利,8-3/4,8.6,125,2 3 9,0.58.42,1123,--,,好甜橙
38,39,355,5,21/01/18,"沙田草地""A""                                    ",1000,好,4,4,52,姚本輝,郭能,2-1/2,6.7,130,10 8 5,0.58.04,1114,--,,好甜橙
