,Unnamed: 0,場次,名次,日期,馬場/跑道/賽道,途程,場地狀況,賽事班次,檔位,評分,練馬師,騎師,頭馬距離,獨贏賠率,實際負磅,沿途走位,完成時間,排位體重,配備,賽事重播,馬名
0,1,677,8,16/05/21,"沙田草地""C+3""                                    ",1000,好/快,2,6,98,方嘉柏,陳嘉熙,5-1/4,22.0,126,11 9 8,0.55.53,1199,--,,帖木兒
1,2,622,11,25/04/21,"沙田草地""A""                                    ",1200,好,2,9,99,方嘉柏,巴度,6,48.0,128,12 12 11,1.09.19,1196,--,,帖木兒
2,3,567,3,08/04/21,"跑馬地草地""A""                                    ",1000,好/快,2,8,99,方嘉柏,巴度,2-3/4,17.0,133,9 9 3,0.56.88,1204,--,,帖木兒
3,4,456,8,24/02/21,"跑馬地草地""C+3""                                    ",1200,好/快,1,6,99,方嘉柏,田泰安,6,18.0,126,7 8 8,1.09.78,1202,--,,帖木兒
4,5,398,6,03/02/21,"跑馬地草地""A""                                    ",1000,好,2,3,99,方嘉柏,巴度,3-1/2,5.5,133,8 9 6,0.57.11,1216,--,,帖木兒
5,6,308,1,01/01/21,"沙田草地""B+2""                                    ",1000,好,G3,4,92,方嘉柏,巴度,頸位,7.5,113,3 4 1,0.56.66,1191,--,,帖木兒
6,7,294,6,23/12/20,"跑馬地草地""C+3""                                    ",1200,好/快,2,6,92,方嘉柏,蘇銘倫,2-1/4,7.9,127,9 9 6,1.09.14,1196,--,,帖木兒
7,8,219,1,25/11/20,"跑馬地草地""C+3""                                    ",1000,好,2,11,86,方嘉柏,巴度,頸位,6.7,124,8 7 1,0.56.54,1206,--,,帖木兒
8,9,126,1,21/10/20,"跑馬地草地""C""                                    ",1000,好/快,3,10,80,方嘉柏,田泰安,短馬頭位,7.4,133,11 10 1,0.56.62,1193,--,,帖木兒
9,10,807,1,08/07/20,"跑馬地草地""A""                                    ",1000,好,3,8,72,方嘉柏,田泰安,2,5.6,129,9 7 1,0.56.86,1185,--,,帖木兒
10,11,725,3,07/06/20,"沙田草地""C""                                    ",1000,黏,3,11,72,方嘉柏,薛恩,1,10.0,125,4 1 3,0.57.28,1181,--,,帖木兒
11,12,673,5,20/05/20,"跑馬地草地""C+3""                                    ",1000,好/快,3,5,74,方嘉柏,莫雷拉,6,3.7,128,5 6 5,0.57.35,1171,--,,帖木兒
12,13,630,4,03/05/20,沙田全天候                                    ,1200,好,3,6,74,方嘉柏,薛恩,3-1/4,8.1,129,8 6 4,1.09.00,1179,--,,帖木兒
13,14,601,3,22/04/20,"跑馬地草地""C+3""                                    ",1000,好/黏,3,6,72,方嘉柏,薛恩,頸位,11.0,125,8 5 3,0.57.79,1176,--,,帖木兒
14,15,560,5,08/04/20,"跑馬地草地""B""                                    ",1000,好,3,12,74,方嘉柏,薛恩,2-3/4,32.0,131,11 10 5,0.57.25,1183,--,,帖木兒
15,16,503,3,18/03/20,"跑馬地草地""C+3""                                    ",1000,好,3,3,74,方嘉柏,薛恩,1-1/4,30.0,129,7 7 3,0.57.02,1181,TT-,,帖木兒
16,17,54,12,25/09/19,"跑馬地草地""A""                                    ",1000,好/快,3,1,75,方嘉柏,潘頓,7-1/2,7.4,130,5 4 12,0.58.62,1106,TT1,,帖木兒
17,18,382,3,30/01/19,"跑馬地草地""A""                                    ",1000,好,3,3,75,方嘉柏,潘頓,1-3/4,12.0,129,10 8 3,0.57.40,1141,H-/P-,,帖木兒
18,19,355,11,20/01/19,"沙田草地""A+3""                                    ",1000,好/快,3,8,75,方嘉柏,何澤堯,4-3/4,18.0,126,6 4 11,0.57.39,1142,H1/P1,,帖木兒
