,Unnamed: 0,場次,名次,日期,馬場/跑道/賽道,途程,場地狀況,賽事班次,檔位,評分,練馬師,騎師,頭馬距離,獨贏賠率,實際負磅,沿途走位,完成時間,排位體重,配備,賽事重播,馬名
0,1,708,2,26/05/21,"跑馬地草地""C""                                    ",1200,好/快,3,1,80,高伯新,巴度,頸位,7.7,133,8 8 2,1.09.26,1207,TT,,年年旺
1,2,514,2,17/03/21,"跑馬地草地""C""                                    ",1000,好/快,3,12,80,高伯新,潘頓,1,5.3,133,8 9 2,0.56.41,1203,TT,,年年旺
2,3,420,3,10/02/21,"跑馬地草地""B""                                    ",1200,好,3,12,80,高伯新,周俊樂,3/4,11.0,126,12 12 3,1.10.10,1212,TT,,年年旺
3,4,363,2,20/01/21,"跑馬地草地""C""                                    ",1200,好,3,6,80,高伯新,蘇銘倫,2,5.1,133,7 7 2,1.09.31,1217,TT,,年年旺
4,5,291,4,23/12/20,"跑馬地草地""C+3""                                    ",1200,好/快,3,12,80,高伯新,蘇銘倫,3,15.0,133,9 9 4,1.09.29,1217,TT,,年年旺
5,6,217,2,25/11/20,"跑馬地草地""C+3""                                    ",1200,好,3,4,78,高伯新,史卓豐,1/2,7.9,131,7 7 2,1.09.30,1205,TT,,年年旺
6,7,183,5,11/11/20,"跑馬地草地""B""                                    ",1200,好,3,9,79,高伯新,巴度,3-1/4,14.0,132,9 8 5,1.10.19,1212,B-/TT,,年年旺
7,8,108,5,14/10/20,"跑馬地草地""B""                                    ",1200,好,3,1,80,高伯新,潘頓,1-3/4,3.2,133,5 4 5,1.09.76,1213,B/TT,,年年旺
8,9,36,4,16/09/20,"跑馬地草地""C""                                    ",1000,好/快,3,2,80,高伯新,史卓豐,1-3/4,8.2,133,9 6 4,0.57.07,1202,B/TT,,年年旺
9,10,737,9,10/06/20,"跑馬地草地""B""                                    ",1000,好/快,2,10,83,高伯新,蔡明紹,4,26.0,120,10 11 9,0.57.47,1196,B/TT,,年年旺
10,11,648,13,09/05/20,"沙田草地""C""                                    ",1000,好/快,2,12,83,高伯新,史卓豐,11,13.0,120,8 6 13,0.56.84,1205,B/TT,,年年旺
11,12,562,2,08/04/20,"跑馬地草地""B""                                    ",1000,好,2,2,81,高伯新,史卓豐,頸位,9.2,118,8 7 2,0.56.71,1207,B/TT,,年年旺
12,13,453,6,26/02/20,"跑馬地草地""A""                                    ",1200,好,3,5,83,高伯新,彭國年,4,10.0,131,8 6 6,1.09.82,1200,B/TT,,年年旺
13,14,379,6,29/01/20,"跑馬地草地""B""                                    ",1200,好,2,1,85,高伯新,蘇兆輝,3-1/4,6.7,122,6 5 6,1.09.52,1183,B/TT,,年年旺
14,15,350,7,19/01/20,"沙田草地""A+3""                                    ",1200,好,2,12,86,高伯新,潘頓,3-1/2,16.0,120,10 10 7,1.09.10,1208,XB-/B/TT,,年年旺
15,16,264,4,18/12/19,"跑馬地草地""C+3""                                    ",1200,好/快,2,12,86,高伯新,巴度,2-1/2,20.0,121,12 11 4,1.09.05,1208,B/XB/TT1,,年年旺
16,17,186,2,20/11/19,"跑馬地草地""C+3""                                    ",1000,好/快,2,10,84,高伯新,蔡明紹,1,22.0,117,12 8 2,0.56.41,1195,B/XB,,年年旺
17,18,123,11,23/10/19,"跑馬地草地""C+3""                                    ",1200,好/快,2,11,84,高伯新,梁家俊,5-1/4,9.7,120,3 3 11,1.10.08,1189,B/XB,,年年旺
18,19,18,6,08/09/19,沙田全天候                                    ,1200,好,2,8,84,高伯新,梁家俊,7-3/4,8.8,120,10 7 6,1.09.36,1184,B/XB,,年年旺
19,20,806,2,10/07/19,"跑馬地草地""A""                                    ",1200,好,2,9,82,高伯新,蔡明紹,頸位,11.0,119,5 4 2,1.09.78,1194,B/XB,,年年旺
20,21,681,1,22/05/19,"跑馬地草地""B""                                    ",1200,好/快,3,7,73,高伯新,潘頓,2-1/2,2.4,126,5 5 1,1.09.62,1191,B/XB,,年年旺
21,22,625,2,01/05/19,"跑馬地草地""C+3""                                    ",1200,好,3,7,71,高伯新,郭能,短馬頭位,3.5,125,8 8 2,1.09.41,1177,CP-/XB/B1,,年年旺
22,23,496,9,13/03/19,"跑馬地草地""B""                                    ",1200,好,3,1,71,高伯新,蔡明紹,4-3/4,4.0,124,1 1 9,1.10.94,1195,CP/XB,,年年旺
23,24,438,2,20/02/19,"跑馬地草地""C""                                    ",1200,好/快,3,8,71,高伯新,蔡明紹,3-1/4,5.3,127,5 4 2,1.09.21,1189,CP/XB1,,年年旺
24,25,375,10,27/01/19,"沙田草地""B+2""                                    ",1400,好,3,6,71,高伯新,蔡明紹,3-3/4,9.7,124,4 5 5 10,1.22.83,1183,CP1,,年年旺
25,26,339,2,12/01/19,"沙田草地""A""                                    ",1200,好,3,10,71,高伯新,蔡明紹,2-1/2,38.0,124,6 6 2,1.09.20,1195,--,,年年旺
26,27,280,4,23/12/18,"沙田草地""A+3""                                    ",1200,好/黏,3,2,71,高伯新,蔡明紹,3/4,16.0,124,7 7 4,1.10.78,1190,--,,年年旺
27,28,237,8,09/12/18,"沙田草地""A""                                    ",1200,好,3,11,71,高伯新,巴度,7-1/4,5.5,124,10 11 8,1.10.03,1198,--,,年年旺
