,Unnamed: 0,場次,名次,日期,馬場/跑道/賽道,途程,場地狀況,賽事班次,檔位,評分,練馬師,騎師,頭馬距離,獨贏賠率,實際負磅,沿途走位,完成時間,排位體重,配備,賽事重播,馬名
0,1,283,11,20/12/20,"沙田草地""C+3""                                    ",1200,好,3,6,72,姚本輝,波健士,6-3/4,128,125,1 3 11,1.10.16,1093,CP,,御金寶
1,2,228,10,29/11/20,"沙田草地""C""                                    ",1200,好,3,8,72,姚本輝,郭能,6-1/2,78,125,6 7 10,1.10.16,1093,CP1,,御金寶
