,Unnamed: 0,場次,名次,日期,馬場/跑道/賽道,途程,場地狀況,賽事班次,檔位,評分,練馬師,騎師,頭馬距離,獨贏賠率,實際負磅,沿途走位,完成時間,排位體重,配備,賽事重播,馬名
0,1,665,12,12/05/21,沙田全天候                                    ,1200,好,4,7,59,姚本輝,楊明綸,36-1/2,131,133,8 12 12,1.14.84,1094,H,,快快趣
1,2,595,9,17/04/21,"沙田草地""C+3""                                    ",1000,好,3,7,62,姚本輝,波健士,13-3/4,128,115,4 8 9,0.58.81,1089,H,,快快趣
2,3,351,13,17/01/21,"沙田草地""A""                                    ",1000,好,3,8,65,姚本輝,梁家俊,11-1/4,132,120,11 11 13,0.59.01,1115,H,,快快趣
3,4,246,13,06/12/20,"沙田草地""C+3""                                    ",1000,好,3,12,67,姚本輝,黃皓楠,12-1/4,371,119,9 8 13,0.58.12,1115,H1,,快快趣
4,5,191,13,14/11/20,"沙田草地""C+3""                                    ",1000,好,3,13,69,姚本輝,彭國年,16-1/4,188,124,6 6 13,0.59.36,1125,--,,快快趣
5,6,788,14,01/07/20,"沙田草地""C""                                    ",1000,好/快,3,7,70,姚本輝,郭能,20,24,123,3 10 14,0.58.83,1103,--,,快快趣
