,Unnamed: 0,場次,名次,日期,馬場/跑道/賽道,途程,場地狀況,賽事班次,檔位,評分,練馬師,騎師,頭馬距離,獨贏賠率,實際負磅,沿途走位,完成時間,排位體重,配備,賽事重播,馬名
0,1,674,04,16/05/21,"沙田草地""C+3""                                    ",1400,好/快,4,13,49,高伯新,賀銘年,1-3/4,69,124,13 11 9 4,1.21.82,1098,B/TT,,快利寶
1,2,614,06,25/04/21,"沙田草地""A""                                    ",1200,好,4,6,51,高伯新,彭國年,3-3/4,103,123,10 10 6,1.09.81,1097,B/TT,,快利寶
2,3,555,07,05/04/21,"沙田草地""B+2""                                    ",1200,好,4,6,52,高伯新,潘明輝,2,34,124,9 8 7,1.10.04,1100,B/TT,,快利寶
3,4,490,07,10/03/21,"跑馬地草地""B""                                    ",1650,好,4,1,54,高伯新,梁家俊,6-1/2,10,127,2 4 5 7,1.41.11,1092,B/TT,,快利寶
4,5,423,07,14/02/21,"沙田草地""A""                                    ",1400,好,4,6,56,高伯新,彭國年,5,38,129,9 7 6 7,1.23.32,1111,H-/B/TT,,快利寶
5,6,339,08,13/01/21,"跑馬地草地""B""                                    ",1650,好,4,1,57,高伯新,周俊樂,3-1/4,7.7,123,3 4 8 8,1.41.42,1108,B/H/TT,,快利寶
6,7,218,06,25/11/20,"跑馬地草地""C+3""                                    ",1650,好,4,8,57,高伯新,史卓豐,5,11,131,10 10 9 6,1.40.42,1095,CP-/H/B2/TT,,快利寶
7,8,170,05,08/11/20,"跑馬地草地""A""                                    ",1650,好,4,5,57,高伯新,田泰安,1,7.8,130,5 6 6 5,1.41.56,1103,CP/H/TT,,快利寶
8,9,86,02,07/10/20,"跑馬地草地""A""                                    ",1650,好,4,6,55,高伯新,巴度,頭位,9.3,132,11 11 10 2,1.40.12,1077,CP/H/TT,,快利寶
9,10,29,01,16/09/20,"跑馬地草地""C""                                    ",1650,好,4,4,50,高伯新,田泰安,頸位,8.6,124,6 6 6 1,1.39.03,1076,B-/CP2/H2/TT,,快利寶
10,11,636,10,06/05/20,"跑馬地草地""B""                                    ",1200,好/快,4,9,52,高伯新,潘明輝,13-1/4,27,124,4 4 10,1.12.37,1083,H-/B/TT,,快利寶
11,12,578,04,15/04/20,"跑馬地草地""C""                                    ",1200,好,4,10,54,高伯新,史卓豐,3-1/4,42,127,10 10 4,1.10.26,1074,B/H/TT,,快利寶
12,13,523,09,25/03/20,"跑馬地草地""A""                                    ",1200,好,4,8,56,高伯新,利敬國,2-1/2,24,131,9 9 9,1.10.77,1072,B/H/TT,,快利寶
13,14,467,05,04/03/20,"跑馬地草地""B""                                    ",1650,好,4,6,58,高伯新,利敬國,2-1/4,11,131,10 12 11 5,1.40.95,1082,B/H/TT,,快利寶
14,15,326,09,11/01/20,沙田全天候                                    ,1650,好,4,11,58,高伯新,巴度,6-1/4,31,131,11 11 12 9,1.40.36,1085,B/H/TT,,快利寶
15,16,258,08,18/12/19,"跑馬地草地""C+3""                                    ",1650,好/快,4,1,60,高伯新,巴度,3,5,133,5 5 6 8,1.40.01,1089,B/H/TT,,快利寶
16,17,224,07,04/12/19,"跑馬地草地""B""                                    ",1650,好,3,1,62,高伯新,田泰安,3-1/4,9.8,117,5 5 3 7,1.39.83,1097,B/H/TT,,快利寶
17,18,104,05,16/10/19,"跑馬地草地""C""                                    ",1650,好,3,11,64,高伯新,史卓豐,4-1/2,14,119,8 8 10 5,1.40.61,1076,B/H/TT,,快利寶
18,19,27,04,11/09/19,"跑馬地草地""B""                                    ",1650,好,3,4,64,高伯新,梁家俊,2-3/4,19,118,4 6 9 4,1.40.88,1073,B/H/TT,,快利寶
19,20,784,06,03/07/19,"跑馬地草地""C""                                    ",1650,好,3,5,64,高伯新,史卓豐,2-3/4,7.8,119,6 6 6 6,1.40.60,1060,B/H/TT1,,快利寶
20,21,719,02,05/06/19,"跑馬地草地""A""                                    ",1650,好,3,4,62,高伯新,利敬國,1,9.1,115,5 5 7 2,1.40.79,1071,H/B2,,快利寶
21,22,628,07,01/05/19,"跑馬地草地""C+3""                                    ",1650,好/快,3,8,63,高伯新,史卓豐,2-1/2,14,116,11 12 12 7,1.40.63,1071,B-/H,,快利寶
22,23,495,11,13/03/19,"跑馬地草地""B""                                    ",1650,好,3,10,63,高伯新,蘇兆輝,10,3.3,116,5 3 4 11,1.41.66,1071,B/H,,快利寶
23,24,441,03,20/02/19,"跑馬地草地""C""                                    ",1650,好/快,3,9,62,高伯新,蘇兆輝,1-1/4,6.6,119,11 11 12 3,1.39.24,1083,B/H,,快利寶
24,25,378,02,30/01/19,"跑馬地草地""A""                                    ",1650,好,4,11,60,高伯新,莫雷拉,頸位,3.8,133,9 10 8 2,1.41.87,1087,B/H,,快利寶
25,26,233,03,05/12/18,"跑馬地草地""B""                                    ",1650,好,4,9,58,高伯新,蘇兆輝,頸位,3.4,131,10 9 9 3,1.40.66,1067,B/H,,快利寶
26,27,177,01,14/11/18,"跑馬地草地""C""                                    ",1650,好,4,2,51,高伯新,巴度,1-3/4,3,125,5 6 5 1,1.40.71,1068,CP-/H/B2,,快利寶
27,28,85,02,10/10/18,"跑馬地草地""B""                                    ",1650,好,4,3,50,高伯新,韋達                                    ,3/4,3,127,6 6 6 2,1.41.70,1053,CP/H,,快利寶
28,29,52,05,26/09/18,"跑馬地草地""C+3""                                    ",1650,好,4,11,50,高伯新,韋達                                    ,3,11,124,9 10 11 5,1.41.68,1056,H/CP1,,快利寶
29,30,15,05,05/09/18,"跑馬地草地""B""                                    ",1650,好/快,4,7,50,高伯新,韋達                                    ,1-3/4,3.2,124,3 3 4 5,1.41.89,1056,B-/H,,快利寶
30,31,725,WV,13/06/18,"跑馬地草地""B""                                    ",1650,好/黏,4,--,50,高伯新,韋達                                    ,--,--,123,--,--,--,--,--,快利寶
31,32,671,01,23/05/18,"跑馬地草地""C""                                    ",1650,好/快,4,2,43,高伯新,韋達                                    ,1-1/4,7.3,116,5 5 5 1,1.39.80,1040,B/H,,快利寶
32,33,635,04,09/05/18,"跑馬地草地""A""                                    ",1650,好,4,10,43,高伯新,韋達                                    ,1,12,116,12 11 11 4,1.40.83,1045,B/H,,快利寶
33,34,598,07,25/04/18,"跑馬地草地""C""                                    ",1650,好,4,3,45,高伯新,韋達                                    ,2,28,118,6 7 8 7,1.40.86,1065,B/H,,快利寶
34,35,539,07,02/04/18,"沙田草地""B+2""                                    ",1200,好,4,2,47,高伯新,韋達                                    ,4,20,120,7 7 7,1.10.22,1056,B/H,,快利寶
35,36,283,06,20/12/17,"跑馬地草地""C+3""                                    ",1200,好/快,4,2,49,高伯新,韋達                                    ,4-1/4,29,122,6 8 6,1.10.33,1041,B/H,,快利寶
36,37,239,07,03/12/17,沙田全天候                                    ,1200,好,4,6,51,高伯新,韋達                                    ,3,69,124,12 12 7,1.09.56,1038,B/H,,快利寶
37,38,212,11,22/11/17,"跑馬地草地""C+3""                                    ",1200,好,4,2,54,高伯新,祈普敦                                    ,4-3/4,25,127,9 8 11,1.11.31,1037,B1/H1,,快利寶
38,39,163,07,05/11/17,"沙田草地""C+3""                                    ",1200,好/快,4R,7,57,高伯新,韋達                                    ,8,113,127,7 6 7,1.10.20,1039,--,,快利寶
39,40,57,12,24/09/17,"沙田草地""A""                                    ",1200,好,4,4,57,高伯新,史卓豐,9-1/4,6.5,131,7 6 12,1.11.14,1037,--,,快利寶
