,Unnamed: 0,場次,名次,日期,馬場/跑道/賽道,途程,場地狀況,賽事班次,檔位,評分,練馬師,騎師,頭馬距離,獨贏賠率,實際負磅,沿途走位,完成時間,排位體重,配備,賽事重播,馬名
0,1,621,05,25/04/21,"沙田草地""A""                                    ",1600,好,2,3,87,沈集成,巴度,1-1/2,8.9,116,9 9 9 5,1.35.11,1072,SR,,快益善
1,2,488,02,07/03/21,"沙田草地""C""                                    ",1800,好,2,10,86,沈集成,蔡明紹,1-3/4,11,114,11 13 13 11 2,1.47.47,1060,SR,,快益善
2,3,442,05,21/02/21,"沙田草地""A+3""                                    ",2000,好,2,9,86,沈集成,巴度,3,5.3,122,9 9 9 9 5,2.02.04,1064,SR,,快益善
3,4,372,02,24/01/21,"沙田草地""A+3""                                    ",1800,好,2,10,84,沈集成,巴度,短馬頭位,7.3,118,13 14 14 12 2,1.47.72,1062,SR,,快益善
4,5,260,01,13/12/20,"沙田草地""A""                                    ",1800,好,3,11,79,沈集成,布宜學,鼻位,8.8,133,12 11 10 9 1,1.48.40,1064,SR,,快益善
5,6,40,02,20/09/20,"沙田草地""B+2""                                    ",1600,好/快,3,8,78,沈集成,巴度,1-1/2,9.8,131,8 6 6 2,1.34.05,1070,SR,,快益善
6,7,775,03,27/06/20,"沙田草地""B""                                    ",2000,好/快,3,1,78,沈集成,潘頓,1-3/4,2.8,129,3 3 3 2 3,2.02.14,1050,SR,,快益善
7,8,687,05,24/05/20,"沙田草地""A""                                    ",1800,好,3,10,77,沈集成,賀銘年,1/2,6.9,130,6 6 6 5 5,1.47.46,1059,SR,,快益善
8,9,628,02,03/05/20,"沙田草地""B""                                    ",2000,好/快,3,9,74,沈集成,賀銘年,1/2,16,127,9 9 9 7 2,2.00.45,1062,SR,,快益善
9,10,570,03,12/04/20,"沙田草地""C""                                    ",1800,好,3,7,74,沈集成,梁家俊,1-1/2,19,129,3 3 4 3 3,1.47.07,1058,SR,,快益善
10,11,535,08,29/03/20,"沙田草地""A+3""                                    ",1600,好,3,4,76,沈集成,梁家俊,2-1/2,22,124,8 9 7 8,1.35.65,1057,SR,,快益善
11,12,479,05,08/03/20,"沙田草地""C""                                    ",1600,好,3,13,77,沈集成,蔡明紹,2-3/4,24,130,14 14 8 5,1.35.39,1065,SR,,快益善
12,13,403,07,08/02/20,"沙田草地""C+3""                                    ",1800,好,3,2,77,沈集成,彭國年,4-3/4,10,133,11 10 10 8 7,1.47.69,1062,SR,,快益善
13,14,351,05,19/01/20,"沙田草地""A+3""                                    ",1600,好,3,1,77,沈集成,彭國年,4-1/2,7.1,133,6 6 6 5,1.35.22,1054,SR,,快益善
14,15,303,01,01/01/20,"沙田草地""C""                                    ",1600,好,3,13,72,沈集成,彭國年,頭位,25,125,14 14 13 1,1.34.67,1058,H-/SR2,,快益善
15,16,197,10,23/11/19,"沙田草地""C""                                    ",1600,好/快,3,5,74,沈集成,薛恩,6,14,127,4 2 3 10,1.34.86,1049,H,,快益善
16,17,168,10,09/11/19,"沙田草地""A""                                    ",2000,好/快,3,11,76,沈集成,何澤堯,6-3/4,14,129,6 6 3 4 10,2.01.58,1054,SR-/H1,,快益善
17,18,63,08,01/10/19,"沙田草地""A+3""                                    ",1800,好/快,3,9,78,沈集成,利敬國,3-3/4,14,132,10 11 11 14 8,1.47.36,1039,SR,,快益善
18,19,27,11,11/09/19,"跑馬地草地""B""                                    ",1650,好,3,2,79,沈集成,薛恩,4-3/4,7.6,133,6 5 8 11,1.41.21,1033,SR,,快益善
19,20,721,06,05/06/19,"跑馬地草地""A""                                    ",1800,好,2,11,82,沈集成,利敬國,3-1/4,15,117,10 10 10 11 6,1.50.17,1038,SR,,快益善
20,21,675,11,18/05/19,"沙田草地""C+3""                                    ",1600,好/快,2,13,84,沈集成,梁家俊,5-3/4,34,117,4 4 3 11,1.34.61,1026,SR,,快益善
21,22,509,07,20/03/19,"跑馬地草地""C""                                    ",1800,好/快,1,7,86,沈集成,利敬國,5-1/4,14,113,3 3 3 4 7,1.48.65,1022,SR,,快益善
22,23,468,11,02/03/19,"沙田草地""C""                                    ",1800,好,2,9,86,沈集成,何澤堯,7-3/4,7.5,117,5 2 2 2 11,1.48.00,1018,SR,,快益善
23,24,407,03,10/02/19,"沙田草地""A""                                    ",2000,好,2,1,86,沈集成,田泰安,1-1/2,8.3,123,1 2 2 2 3,2.01.50,1015,SR,,快益善
24,25,373,10,27/01/19,"沙田草地""B+2""                                    ",1600,好,4YO,6,86,沈集成,布達德,6,35,126,8 8 9 10,1.35.22,1023,SR,,快益善
25,26,321,06,06/01/19,"沙田草地""C+3""                                    ",1600,好,2,3,86,沈集成,潘頓,4-1/4,2.9,123,8 7 5 6,1.36.01,1025,SR,,快益善
26,27,241,05,09/12/18,"沙田草地""A""                                    ",1600,好,2,14,85,沈集成,何澤堯,3/4,7,119,14 14 14 5,1.36.22,1032,SR,,快益善
27,28,185,03,18/11/18,"沙田草地""B""                                    ",1800,好,2,11,85,沈集成,何澤堯,1-1/2,42,119,1 1 1 1 3,1.47.66,1037,SR1,,快益善
28,29,98,WV-A,13/10/18,"沙田草地""C""                                    ",1600,好,2,--,85,沈集成,沈拿,--,--,122,--,--,--,--,--,快益善
