,Unnamed: 0,場次,名次,日期,馬場/跑道/賽道,途程,場地狀況,賽事班次,檔位,評分,練馬師,騎師,頭馬距離,獨贏賠率,實際負磅,沿途走位,完成時間,排位體重,配備,賽事重播,馬名
0,1,602,02,17/04/21,沙田全天候                                    ,1200,好,2,3,82,蘇偉賢,黃俊,短馬頭位,47,110,4 4 2,1.08.56,1199,B/TT,,新力寶
1,2,545,11,28/03/21,"沙田草地""A+3""                                    ",1200,好/快,2,2,83,蘇偉賢,黃皓楠,5-3/4,143,114,4 5 11,1.09.19,1222,B/TT,,新力寶
2,3,481,07,07/03/21,"沙田草地""C""                                    ",1000,好,2,5,83,蘇偉賢,馬雅,4-1/2,14,119,2 3 7,0.57.09,1213,B/TT,,新力寶
3,4,448,10,21/02/21,沙田全天候                                    ,1200,好,2,5,83,蘇偉賢,蔡明紹,5-1/2,22,116,4 5 10,1.08.92,1218,B/TT,,新力寶
4,5,387,01,31/01/21,沙田全天候                                    ,1200,好,3,1,77,蘇偉賢,周俊樂,3/4,8.5,123,5 6 1,1.08.49,1201,B/TT,,新力寶
5,6,312,12,01/01/21,"沙田草地""B+2""                                    ",1200,好,3,7,79,蘇偉賢,彭國年,5-3/4,49,133,2 4 12,1.10.17,1213,B/TT,,新力寶
6,7,248,09,06/12/20,沙田全天候                                    ,1200,好,2,10,81,蘇偉賢,彭國年,6,38,118,10 10 9,1.09.26,1227,B/TT,,新力寶
7,8,212,05,22/11/20,"沙田草地""B+2""                                    ",1200,好/快,2,2,83,蘇偉賢,彭國年,4,54,119,8 6 5,1.08.79,1222,B/TT,,新力寶
8,9,154,11,01/11/20,"沙田草地""A""                                    ",1000,好/快,2,13,84,蘇偉賢,彭國年,4-1/4,107,121,14 12 11,0.55.94,1208,B/TT,,新力寶
9,10,118,11,18/10/20,沙田全天候                                    ,1200,好,2,3,84,蘇偉賢,蔡明紹,11-3/4,19,118,6 7 11,1.10.26,1214,B/TT,,新力寶
10,11,828,10,15/07/20,"跑馬地草地""B""                                    ",1200,好/快,2,11,84,約翰摩亞,波健士,5,10,117,4 4 10,1.09.36,1220,B/TT,,新力寶
11,12,796,01,05/07/20,沙田全天候                                    ,1200,好,3,1,78,約翰摩亞,潘頓,1/2,2.7,131,1 1 1,1.08.98,1222,B/TT,,新力寶
12,13,747,04,14/06/20,沙田全天候                                    ,1200,濕慢,3,1,79,約翰摩亞,潘頓,3,3.4,133,2 2 4,1.08.50,1221,B/TT,,新力寶
13,14,689,09,24/05/20,"沙田草地""A""                                    ",1400,好,2,12,81,約翰摩亞,楊明綸,3-1/2,48,118,5 4 4 9,1.21.80,1225,B/TT,,新力寶
14,15,453,12,26/02/20,"跑馬地草地""A""                                    ",1200,好,3,7,83,約翰摩亞,薛恩,10-3/4,25,131,7 9 12,1.10.90,1219,CP-/B1/TT1,,新力寶
15,16,310,05,05/01/20,沙田全天候                                    ,1200,好,3,7,84,約翰摩亞,潘頓,3-1/2,3.7,133,1 1 5,1.09.63,1227,CP,,新力寶
16,17,186,09,20/11/19,"跑馬地草地""C+3""                                    ",1000,好/快,2,3,84,約翰摩亞,蘇兆輝,6,3.9,117,8 10 9,0.57.22,1228,CP,,新力寶
17,18,123,WV,23/10/19,"跑馬地草地""C+3""                                    ",1200,好/快,2,--,84,約翰摩亞,史卓豐,--,--,120,--,--,--,--,--,新力寶
18,19,18,03,08/09/19,沙田全天候                                    ,1200,好,2,5,83,約翰摩亞,史卓豐,1/2,4.3,119,2 2 3,1.08.23,1235,CP,,新力寶
19,20,806,06,10/07/19,"跑馬地草地""A""                                    ",1200,好,2,5,83,約翰摩亞,梁家俊,3-1/4,2.6,120,2 1 6,1.10.24,1219,CP,,新力寶
20,21,748,02,16/06/19,"沙田草地""C+3""                                    ",1200,好/快,3,12,80,約翰摩亞,梁家俊,頭位,13,133,1 1 2,1.08.93,1233,CP,,新力寶
21,22,631,01,05/05/19,"沙田草地""B""                                    ",1200,好,3,5,75,約翰摩亞,潘頓,頸位,1.8,133,1 1 1,1.09.73,1231,CP1,,新力寶
22,23,597,05,22/04/19,"沙田草地""C+3""                                    ",1000,好/快,3,3,75,約翰摩亞,史卓豐,5-1/4,35,128,8 7 5,0.55.71,1243,--,,新力寶
