,Unnamed: 0,場次,名次,日期,馬場/跑道/賽道,途程,場地狀況,賽事班次,檔位,評分,練馬師,騎師,頭馬距離,獨贏賠率,實際負磅,沿途走位,完成時間,排位體重,配備,賽事重播,馬名
0,1,699,03,23/05/21,"沙田草地""A""                                    ",1200,好/快,3,13,62,賀賢,巫顯東,1-3/4,59,116,13 12 3,1.09.02,1047,--,,明欣賞
1,2,507,09,13/03/21,"沙田草地""C+3""                                    ",1400,好,3,5,63,賀賢,巫顯東,2-1/2,55,113,9 11 9 9,1.22.30,1052,--,,明欣賞
2,3,486,07,07/03/21,沙田全天候                                    ,1200,好,3,5,63,賀賢,巫顯東,4-1/2,86,114,11 12 7,1.09.05,1072,--,,明欣賞
3,4,440,05,17/02/21,"跑馬地草地""C""                                    ",1200,好,3,4,63,賀賢,巫顯東,3,49,113,10 10 5,1.09.75,1061,--,,明欣賞
4,5,394,01,03/02/21,"跑馬地草地""A""                                    ",1200,好,4,5,58,賀賢,潘頓,1,4,132,8 8 1,1.10.51,1065,--,,明欣賞
5,6,349,02,17/01/21,"沙田草地""A""                                    ",1200,好,4,5,58,賀賢,周俊樂,1-3/4,8.6,126,11 10 2,1.10.25,1091,--,,明欣賞
6,7,204,04,22/11/20,"沙田草地""B+2""                                    ",1200,好/快,4,2,60,賀賢,周俊樂,5,3.8,126,7 7 4,1.09.24,1070,--,,明欣賞
7,8,156,05,01/11/20,"沙田草地""A""                                    ",1200,好/快,3,10,61,賀賢,巫顯東,2,135,111,14 11 5,1.09.24,1070,--,,明欣賞
8,9,100,06,11/10/20,"沙田草地""A+3""                                    ",1200,好,3,3,61,賀賢,潘明輝,4-3/4,18,112,4 9 6,1.09.32,1071,--,,明欣賞
9,10,42,02,20/09/20,"沙田草地""B+2""                                    ",1200,好/快,4,3,59,賀賢,周俊樂,頸位,7.9,123,9 10 2,1.09.47,1051,--,,明欣賞
10,11,814,02,12/07/20,"沙田草地""A""                                    ",1200,好/快,4,6,59,賀賢,周俊樂,4,29,123,12 12 2,1.09.40,1056,--,,明欣賞
11,12,712,11,03/06/20,"跑馬地草地""A""                                    ",1650,好,4,4,59,賀賢,潘頓,12-1/4,4.8,133,3 3 4 11,1.41.66,1058,--,,明欣賞
12,13,663,01,17/05/20,"沙田草地""C+3""                                    ",1400,好/快,4,2,54,賀賢,潘頓,短馬頭位,6.7,128,5 6 4 1,1.21.87,1058,--,,明欣賞
13,14,566,04,12/04/20,"沙田草地""C""                                    ",1200,好,4,11,56,賀賢,薛恩,3-1/2,13,129,10 8 4,1.10.01,1042,B-,,明欣賞
14,15,512,09,22/03/20,"沙田草地""A""                                    ",1400,好,4,2,58,賀賢,梁家俊,4-1/4,15,132,3 5 5 9,1.22.45,1048,B,,明欣賞
15,16,466,06,04/03/20,"跑馬地草地""B""                                    ",1200,好,4,4,60,賀賢,潘頓,3-1/2,2.4,133,5 5 6,1.10.87,1062,B1,,明欣賞
16,17,232,08,08/12/19,"沙田草地""A""                                    ",1400,好,3,5,62,賀賢,蔡明紹,4,15,117,6 6 5 8,1.21.99,1076,H-,,明欣賞
17,18,174,07,17/11/19,"沙田草地""B""                                    ",1400,好,3,12,64,賀賢,潘明輝,4,10,117,13 14 14 7,1.22.00,1062,H1,,明欣賞
18,19,148,07,03/11/19,"沙田草地""C+3""                                    ",1400,好/快,3,4,66,賀賢,何澤堯,2-3/4,16,120,2 3 4 7,1.21.60,1050,--,,明欣賞
19,20,66,07,01/10/19,"沙田草地""A+3""                                    ",1400,好/快,3,2,67,賀賢,潘明輝,3,19,118,3 4 3 7,1.21.80,1054,--,,明欣賞
20,21,813,04,14/07/19,"沙田草地""A""                                    ",1200,好/快,3,8,70,賀賢,何澤堯,4-3/4,189,123,9 11 4,1.09.27,1036,--,,明欣賞
21,22,731,WV-A,08/06/19,"沙田草地""C""                                    ",1200,好/快,3,--,70,賀賢,蘇狄雄,--,--,121,--,--,--,--,--,明欣賞
22,23,687,07,26/05/19,"沙田草地""A""                                    ",1000,好/黏,3,4,70,賀賢,何澤堯,11,118,125,9 10 7,0.57.75,1060,--,,明欣賞
