,Unnamed: 0,場次,名次,日期,馬場/跑道/賽道,途程,場地狀況,賽事班次,檔位,評分,練馬師,騎師,頭馬距離,獨贏賠率,實際負磅,沿途走位,完成時間,排位體重,配備,賽事重播,馬名
0,1,705,9,26/05/21,"跑馬地草地""C""                                    ",1200,好/快,4,10,49,丁冠豪,楊明綸,5-1/4,110,124,11 11 9,1.10.39,1129,--,,易來豐
1,2,635,11,02/05/21,"沙田草地""B""                                    ",1200,好,4,8,52,丁冠豪,楊明綸,11,187,127,9 10 11,1.10.83,1148,--,,易來豐
2,3,498,13,13/03/21,"沙田草地""C+3""                                    ",1000,好,4,1,52,丁冠豪,楊明綸,8,61,126,7 8 13,0.57.98,1141,--,,易來豐
