,Unnamed: 0,場次,名次,日期,馬場/跑道/賽道,途程,場地狀況,賽事班次,檔位,評分,練馬師,騎師,頭馬距離,獨贏賠率,實際負磅,沿途走位,完成時間,排位體重,配備,賽事重播,馬名
0,1,723,2,02/06/21,"跑馬地草地""A""                                    ",1200,好,4,6,46,沈集成,何澤堯,短馬頭位,5.0,119,3 3 2,1.10.09,1152,B,,有運來
1,2,683,2,19/05/21,"跑馬地草地""B""                                    ",1200,好/快,4,11,46,沈集成,何澤堯,2-1/4,15.0,119,2 2 2,1.10.22,1156,B2,,有運來
2,3,541,13,28/03/21,"沙田草地""A+3""                                    ",1200,好/快,4,14,48,沈集成,黃皓楠,10,87.0,118,13 14 13,1.10.25,1145,B-,,有運來
3,4,455,10,24/02/21,"跑馬地草地""C+3""                                    ",1000,好/快,4,7,50,沈集成,潘頓,5-1/4,3.0,123,2 2 10,0.58.03,1147,B/TT-,,有運來
4,5,396,7,03/02/21,"跑馬地草地""A""                                    ",1200,好,4,7,52,沈集成,潘頓,2-1/2,3.5,126,2 2 7,1.10.73,1154,B1/TT1,,有運來
5,6,306,9,01/01/21,"沙田草地""B+2""                                    ",1200,好,4,10,52,沈集成,巴度,6,12.0,126,2 2 9,1.10.63,1145,--,,有運來
