,Unnamed: 0,場次,名次,日期,馬場/跑道/賽道,途程,場地狀況,賽事班次,檔位,評分,練馬師,騎師,頭馬距離,獨贏賠率,實際負磅,沿途走位,完成時間,排位體重,配備,賽事重播,馬名
0,1,712,1,30/05/21,"沙田草地""B""                                    ",1400,好/快,4,5,46,方嘉柏,莫雷拉,1/2,8.5,119,1 2 1 1,1.21.89,1176,V/TT,,果然友
1,2,674,10,16/05/21,"沙田草地""C+3""                                    ",1400,好/快,4,14,48,方嘉柏,莫雷拉,6-1/4,7.6,123,10 13 12 10,1.22.55,1168,V/TT,,果然友
2,3,637,4,02/05/21,"沙田草地""B""                                    ",1400,好,4,9,48,方嘉柏,莫雷拉,2-1/2,8.5,121,1 3 3 4,1.21.96,1165,V/TT,,果然友
3,4,580,2,11/04/21,"沙田草地""C""                                    ",1400,好,4,2,46,方嘉柏,莫雷拉,1/2,4.6,121,3 2 1 2,1.22.00,1157,V/TT,,果然友
4,5,542,5,28/03/21,"沙田草地""A+3""                                    ",1400,好/快,4,4,46,方嘉柏,巴度,4-1/2,4.2,119,7 8 8 5,1.21.86,1168,V/TT,,果然友
5,6,465,4,28/02/21,"沙田草地""B+2""                                    ",1600,好,4,5,46,方嘉柏,莫雷拉,2-1/4,3.2,119,3 5 5 4,1.34.93,1155,V/TT,,果然友
6,7,426,2,14/02/21,"沙田草地""A""                                    ",1600,好,4,5,45,方嘉柏,田泰安,1,4.1,121,5 5 1 2,1.35.51,1157,V/TT,,果然友
7,8,390,2,31/01/21,"沙田草地""B+2""                                    ",1400,好,4,8,43,方嘉柏,莫雷拉,頸位,4.8,117,5 6 5 2,1.22.28,1171,V/TT,,果然友
8,9,329,3,10/01/21,"沙田草地""C""                                    ",1400,好,4,12,42,方嘉柏,莫雷拉,1/2,2.5,116,10 11 11 3,1.22.67,1149,V/TT,,果然友
9,10,297,1,26/12/20,"沙田草地""A+3""                                    ",1400,好,5,2,32,方嘉柏,莫雷拉,4-3/4,5.5,125,3 3 3 1,1.22.01,1171,V/TT,,果然友
10,11,222,7,29/11/20,"沙田草地""C""                                    ",1400,好,5,11,34,方嘉柏,賀銘年,3-1/2,18.0,127,12 12 12 7,1.22.70,1162,V/TT,,果然友
11,12,196,3,18/11/20,"跑馬地草地""C""                                    ",1200,好,5,9,34,方嘉柏,賀銘年,2-1/4,11.0,128,7 10 3,1.10.46,1152,V/TT,,果然友
12,13,176,6,11/11/20,"跑馬地草地""B""                                    ",1000,好,5,6,36,方嘉柏,賀銘年,2-1/4,8.3,129,12 12 6,0.58.13,1144,V/TT,,果然友
13,14,149,4,01/11/20,"沙田草地""A""                                    ",1200,好/快,5,11,37,方嘉柏,莫雷拉,2-1/2,5.7,130,13 10 4,1.09.81,1170,V1/TT,,果然友
14,15,103,7,14/10/20,"跑馬地草地""B""                                    ",1200,好,5,12,37,方嘉柏,賀銘年,4-1/4,12.0,130,10 12 7,1.11.20,1169,TT,,果然友
15,16,55,2,27/09/20,"沙田草地""A""                                    ",1000,好,5,11,35,方嘉柏,賀銘年,頸位,19.0,129,11 8 2,0.57.28,1165,TT,,果然友
16,17,800,9,08/07/20,"跑馬地草地""A""                                    ",1650,好,5,11,39,方嘉柏,郭能,8,8.0,133,9 9 9 9,1.41.47,1158,TT,,果然友
17,18,750,9,21/06/20,"沙田草地""A""                                    ",1200,好/快,4,3,41,方嘉柏,蔡明紹,7,9.8,114,10 9 9,1.10.09,1145,TT,,果然友
18,19,712,5,03/06/20,"跑馬地草地""A""                                    ",1650,好,4,3,43,方嘉柏,莫雷拉,4,6.3,117,5 5 5 5,1.40.34,1134,TT,,果然友
19,20,594,7,22/04/20,"跑馬地草地""C+3""                                    ",1200,好,4,10,45,方嘉柏,何澤堯,2-1/2,87.0,120,12 11 7,1.11.07,1136,TT,,果然友
20,21,569,10,12/04/20,"沙田草地""C""                                    ",1400,好,4,3,47,方嘉柏,郭能,4-1/4,112.0,121,8 8 8 10,1.22.73,1155,TT,,果然友
21,22,532,8,29/03/20,"沙田草地""A+3""                                    ",1400,好,4,3,49,方嘉柏,郭能,4-3/4,216.0,122,9 8 8 8,1.23.60,1146,B-/TT1,,果然友
22,23,595,11,22/04/19,"沙田草地""C+3""                                    ",1400,好,4,12,52,方嘉柏,蔡明紹,10,128.0,126,10 1 2 11,1.23.53,1186,B1,,果然友
23,24,543,11,31/03/19,"沙田草地""A+3""                                    ",1400,好,4,10,52,方嘉柏,夏禮賢                                    ,6-1/2,52.0,125,11 12 13 11,1.23.58,1174,--,,果然友
