,Unnamed: 0,場次,名次,日期,馬場/跑道/賽道,途程,場地狀況,賽事班次,檔位,評分,練馬師,騎師,頭馬距離,獨贏賠率,實際負磅,沿途走位,完成時間,排位體重,配備,賽事重播,馬名
0,1,719,7,02/06/21,"跑馬地草地""A""                                    ",1000,好,5,6,38,徐雨石,郭能,5-1/4,13,131,3 5 7,0.57.93,1073,TT,,椰子糖
1,2,575,4,11/04/21,"沙田草地""C""                                    ",1000,好,5,14,40,徐雨石,何澤堯,3-1/2,11,133,3 5 4,0.57.96,1051,TT,,椰子糖
2,3,483,8,07/03/21,"沙田草地""C""                                    ",1200,好,4,6,42,徐雨石,楊明綸,3-3/4,73,116,2 2 8,1.10.52,1056,TT,,椰子糖
3,4,394,9,03/02/21,"跑馬地草地""A""                                    ",1200,好,4,2,45,徐雨石,黃皓楠,4-1/4,36,116,5 4 9,1.11.17,1065,TT,,椰子糖
4,5,259,12,13/12/20,"沙田草地""A""                                    ",1400,好,4,5,48,徐雨石,巫顯東,11-1/2,177,118,1 1 1 12,1.24.21,1071,B-/TT1,,椰子糖
5,6,204,12,22/11/20,"沙田草地""B+2""                                    ",1200,好/快,4,9,50,徐雨石,巴度,11-1/2,46,123,5 5 12,1.10.30,1073,B1,,椰子糖
6,7,130,7,24/10/20,"沙田草地""C""                                    ",1000,好,4,9,52,徐雨石,巴度,3-1/4,103,129,6 7 7,0.57.99,1094,H-,,椰子糖
7,8,93,7,11/10/20,"沙田草地""A+3""                                    ",1200,好,4,9,52,徐雨石,何澤堯,5-3/4,37,125,9 9 7,1.10.01,1091,H1,,椰子糖
