,Unnamed: 0,場次,名次,日期,馬場/跑道/賽道,途程,場地狀況,賽事班次,檔位,評分,練馬師,騎師,頭馬距離,獨贏賠率,實際負磅,沿途走位,完成時間,排位體重,配備,賽事重播,馬名
0,1,658,11,08/05/21,"沙田草地""C""                                    ",1200,好/快,3,10,72,告東尼,蔡明紹,16-1/2,34.0,127,10 11 11,1.11.34,1095,B/H/TT,,樂滿貫
1,2,591,11,14/04/21,"跑馬地草地""B""                                    ",1200,好/快,3,6,74,告東尼,蔡明紹,6,8.6,128,10 11 11,1.10.57,1085,CP-/H/B2/TT,,樂滿貫
2,3,522,13,21/03/21,"沙田草地""A""                                    ",1400,好,3,13,76,告東尼,彭國年,5-1/4,38.0,129,13 13 13 13,1.22.46,1081,CP/H/TT,,樂滿貫
3,4,485,6,07/03/21,"沙田草地""C""                                    ",1200,好,3,12,78,告東尼,蔡明紹,3-1/2,27.0,131,11 10 6,1.10.01,1079,CP/H/TT,,樂滿貫
4,5,430,3,14/02/21,"沙田草地""A""                                    ",1200,好,3,6,78,告東尼,潘頓,1-1/2,10.0,131,7 6 3,1.09.41,1077,CP/H/TT,,樂滿貫
5,6,362,12,20/01/21,"跑馬地草地""C""                                    ",1200,好,3,2,78,告東尼,周俊樂,30-1/2,2.7,124,12 12 12,1.14.54,1095,CP/H/TT,,樂滿貫
6,7,324,6,06/01/21,"跑馬地草地""A""                                    ",1200,好,3,5,79,告東尼,蔡明紹,1-3/4,7.5,133,6 6 6,1.10.08,1105,CP/H/TT,,樂滿貫
7,8,291,5,23/12/20,"跑馬地草地""C+3""                                    ",1200,好/快,3,6,80,告東尼,蔡明紹,3-1/4,25.0,133,7 8 5,1.09.33,1098,B-/CP1/H1/TT,,樂滿貫
8,9,173,6,08/11/20,"跑馬地草地""A""                                    ",1000,好,3,9,80,告東尼,陳嘉熙,3-1/2,13.0,126,6 6 6,0.57.71,1091,B1/TT1,,樂滿貫
