,Unnamed: 0,場次,名次,日期,馬場/跑道/賽道,途程,場地狀況,賽事班次,檔位,評分,練馬師,騎師,頭馬距離,獨贏賠率,實際負磅,沿途走位,完成時間,排位體重,配備,賽事重播,馬名
0,1,693,2,23/05/21,"沙田草地""A""                                    ",2000,好/快,4,13,43,告東尼,黃皓楠,3/4,37.0,113,14 13 14 12 2,2.02.38,1031,B/H/TT,,樂盈盈
1,2,625,4,28/04/21,"跑馬地草地""C+3""                                    ",2200,好/快,4,10,43,告東尼,蔡明紹,4-3/4,6.5,116,2 2 2 2 3 4,2.16.00,1044,B/H/TT,,樂盈盈
2,3,508,1,17/03/21,"跑馬地草地""C""                                    ",2200,好,5,4,38,告東尼,郭能,短馬頭位,5.2,133,1 1 1 1 1 1,2.15.98,1042,B/H/TT,,樂盈盈
3,4,421,8,14/02/21,"沙田草地""A""                                    ",2000,好,5,11,38,告東尼,郭能,5-1/2,6.4,131,3 1 1 1 8,2.04.57,1055,B/H/TT,,樂盈盈
4,5,355,2,20/01/21,"跑馬地草地""C""                                    ",2200,好,5,3,36,告東尼,郭能,頸位,21.0,129,1 1 1 3 1 2,2.16.91,1053,B/H/TT,,樂盈盈
5,6,297,5,26/12/20,"沙田草地""A+3""                                    ",1400,好,5,1,38,告東尼,郭能,7-1/4,34.0,131,4 4 5 5,1.23.19,1055,B/H/TT,,樂盈盈
6,7,222,8,29/11/20,"沙田草地""C""                                    ",1400,好,5,4,40,告東尼,郭能,3-1/2,135.0,133,11 11 11 8,1.22.71,1058,B/H/TT,,樂盈盈
7,8,98,9,11/10/20,"沙田草地""A+3""                                    ",1800,好,4,9,43,告東尼,巫顯東,10-3/4,160.0,116,3 5 6 9 9,1.49.02,1039,B/H1/TT,,樂盈盈
8,9,43,13,20/09/20,"沙田草地""B+2""                                    ",1400,好/快,4,10,46,告東尼,巫顯東,11,260.0,115,12 12 14 13,1.23.65,1051,B/TT,,樂盈盈
9,10,762,9,24/06/20,"跑馬地草地""C""                                    ",1650,好/快,4,4,55,告東尼,巫顯東,9-1/4,62.0,127,9 9 9 9,1.40.68,1058,B/TT,,樂盈盈
10,11,627,13,03/05/20,"沙田草地""B""                                    ",1600,好/快,4,12,59,告東尼,田泰安,20-3/4,43.0,132,14 14 14 13,1.37.39,1042,B/TT,,樂盈盈
11,12,586,8,19/04/20,沙田全天候                                    ,1650,好,3,1,62,告東尼,黃皓楠,7,333.0,112,10 11 8 8,1.39.09,1040,B/TT,,樂盈盈
12,13,529,8,29/03/20,"沙田草地""A+3""                                    ",1200,好,3,3,65,告東尼,黃皓楠,6-1/4,472.0,115,9 10 8,1.10.67,1038,B/TT,,樂盈盈
13,14,479,11,08/03/20,"沙田草地""C""                                    ",1600,好,3,11,68,告東尼,郭能,7-1/2,341.0,121,9 9 9 11,1.36.18,1036,B/TT,,樂盈盈
14,15,424,14,16/02/20,"沙田草地""A""                                    ",1200,好,3,9,70,告東尼,史卓豐,13,259.0,125,12 14 14,1.12.12,1037,B/TT,,樂盈盈
15,16,388,13,02/02/20,"沙田草地""C""                                    ",1000,好,3,12,70,告東尼,田泰安,9,52.0,127,14 14 13,0.57.96,1044,B1/TT1,,樂盈盈
