,Unnamed: 0,場次,名次,日期,馬場/跑道/賽道,途程,場地狀況,賽事班次,檔位,評分,練馬師,騎師,頭馬距離,獨贏賠率,實際負磅,沿途走位,完成時間,排位體重,配備,賽事重播,馬名
0,1,638,2,02/05/21,"沙田草地""B""                                    ",2400,好,G3,2,92,沈集成,巴度,短馬頭位,3.5,113,6 6 4 2 2 2,2.28.16,1158,TT,,樂益善
1,2,593,1,14/04/21,"跑馬地草地""B""                                    ",1800,好/快,2,2,86,沈集成,潘頓,3/4,2.2,123,6 6 4 5 1,1.49.42,1144,TT,,樂益善
2,3,519,1,21/03/21,"沙田草地""A""                                    ",2000,好,3,5,78,沈集成,潘頓,1-1/4,2.3,133,7 7 8 5 1,2.02.41,1128,TT,,樂益善
3,4,466,8,28/02/21,"沙田草地""B+2""                                    ",1800,好,3,11,78,沈集成,田泰安,4-3/4,2.8,131,3 2 2 2 8,1.47.41,1145,TT,,樂益善
4,5,437,1,17/02/21,"跑馬地草地""C""                                    ",2200,好,3,1,68,沈集成,田泰安,4,4.8,123,3 5 4 4 1 1,2.16.48,1147,TT,,樂益善
5,6,361,4,20/01/21,"跑馬地草地""C""                                    ",1650,好,3,10,68,沈集成,田泰安,2,76.0,123,12 11 11 4,1.40.16,1167,TT1,,樂益善
