,Unnamed: 0,場次,名次,日期,馬場/跑道/賽道,途程,場地狀況,賽事班次,檔位,評分,練馬師,騎師,頭馬距離,獨贏賠率,實際負磅,沿途走位,完成時間,排位體重,配備,賽事重播,馬名
0,1,662,11,12/05/21,沙田全天候                                    ,1200,好,5,11,39,葉楚航,巴度,11-1/2,28,133,11 11 11,1.11.53,1249,P1,,正時機
1,2,416,09,10/02/21,"跑馬地草地""B""                                    ",1200,好,4,5,41,葉楚航,波健士,7-1/4,70,114,10 11 9,1.11.66,1262,B-,,正時機
2,3,774,WV,27/06/20,"沙田草地""B""                                    ",1400,好/快,4,--,43,葉楚航,蘇狄雄,--,--,115,--,--,--,--,--,正時機
3,4,626,08,03/05/20,沙田全天候                                    ,1200,好,4,4,46,葉楚航,蘇狄雄,5-3/4,39,117,10 11 8,1.09.77,1288,B,,正時機
4,5,587,06,19/04/20,沙田全天候                                    ,1200,好,4,10,48,葉楚航,蘇狄雄,3-1/4,122,120,10 9 6,1.09.07,1276,B,,正時機
5,6,538,09,01/04/20,沙田全天候                                    ,1200,濕慢,4,10,51,葉楚航,蘇狄雄,6,51,123,12 12 9,1.10.44,1283,B,,正時機
6,7,488,12,11/03/20,"跑馬地草地""C""                                    ",1650,好,4,7,54,葉楚航,史卓豐,28-1/4,55,127,3 3 8 12,1.44.29,1271,B,,正時機
7,8,353,09,22/01/20,"跑馬地草地""A""                                    ",1200,好,4,7,56,葉楚航,潘明輝,7-1/2,25,127,10 11 9,1.10.91,1250,B/TT-,,正時機
8,9,329,14,11/01/20,"沙田草地""A""                                    ",1400,好,4,11,58,葉楚航,郭能,9,14,132,13 11 12 14,1.24.33,1251,B/TT1,,正時機
9,10,71,05,06/10/19,"沙田草地""B+2""                                    ",1200,好,4,5,58,鄭俊偉,沈拿,3-1/4,16,133,11 11 5,1.10.62,1310,B,,正時機
10,11,732,05,12/06/19,沙田全天候                                    ,1650,濕慢,4,2,60,鄭俊偉,潘頓,8-1/4,3.6,133,2 1 2 5,1.40.75,1308,B,,正時機
11,12,706,06,02/06/19,"沙田草地""B""                                    ",1200,好/快,3,4,62,鄭俊偉,蘇狄雄,3-3/4,137,112,7 7 6,1.09.36,1317,B,,正時機
12,13,674,08,18/05/19,"沙田草地""C+3""                                    ",1600,好/快,3,7,64,鄭俊偉,利敬國,5-3/4,109,117,5 5 4 8,1.35.05,1318,B,,正時機
13,14,600,09,22/04/19,沙田全天候                                    ,1650,好,3,14,66,鄭俊偉,蘇狄雄,7,107,113,12 12 14 9,1.38.34,1307,B1,,正時機
14,15,547,13,31/03/19,"沙田草地""A+3""                                    ",1600,好,3,12,68,鄭俊偉,郭能,7,90,125,6 6 8 13,1.36.52,1299,--,,正時機
15,16,467,08,02/03/19,"沙田草地""C""                                    ",1400,好,3,2,70,鄭俊偉,史卓豐,3-1/2,46,125,7 8 9 8,1.22.85,1299,--,,正時機
16,17,403,09,07/02/19,"沙田草地""C+3""                                    ",1400,好,3,11,70,鄭俊偉,郭能,4-1/4,258,123,13 13 12 9,1.22.59,1296,--,,正時機
