,Unnamed: 0,場次,名次,日期,馬場/跑道/賽道,途程,場地狀況,賽事班次,檔位,評分,練馬師,騎師,頭馬距離,獨贏賠率,實際負磅,沿途走位,完成時間,排位體重,配備,賽事重播,馬名
0,1,703,8,26/05/21,"跑馬地草地""C""                                    ",1200,好/快,4,4,48,韋達,巴度,3,3.9,121,1 1 8,1.10.18,1157,H/TT1,,海精英
1,2,569,10,08/04/21,"跑馬地草地""A""                                    ",1200,好/快,4,9,50,韋達,周俊樂,5-1/4,7.5,117,3 3 10,1.10.34,1158,H,,海精英
2,3,475,3,03/03/21,"跑馬地草地""A""                                    ",1200,好,4,5,50,韋達,周俊樂,1,11.0,118,1 1 3,1.10.00,1173,H,,海精英
3,4,394,3,03/02/21,"跑馬地草地""A""                                    ",1200,好,4,6,50,韋達,周俊樂,1,26.0,117,2 3 3,1.10.66,1172,H,,海精英
4,5,341,9,13/01/21,"跑馬地草地""B""                                    ",1200,好,4,10,52,韋達,賀銘年,8-1/2,130.0,128,7 8 9,1.11.38,1185,H,,海精英
5,6,289,12,23/12/20,"跑馬地草地""C+3""                                    ",1000,好,4,11,52,韋達,賀銘年,4-3/4,61.0,125,12 12 12,0.57.82,1176,H1,,海精英
