,Unnamed: 0,場次,名次,日期,馬場/跑道/賽道,途程,場地狀況,賽事班次,檔位,評分,練馬師,騎師,頭馬距離,獨贏賠率,實際負磅,沿途走位,完成時間,排位體重,配備,賽事重播,馬名
0,1,705,7,26/05/21,"跑馬地草地""C""                                    ",1200,好/快,4,1,50,蘇偉賢,何澤堯,2-3/4,5.8,125,6 6 7,1.10.01,1198,TT,,添有運
1,2,635,5,02/05/21,"沙田草地""B""                                    ",1200,好,4,6,52,蘇偉賢,波健士,3-1/2,10.0,127,8 8 5,1.09.60,1192,TT1,,添有運
2,3,558,6,05/04/21,"沙田草地""B+2""                                    ",1200,好,4,4,52,蘇偉賢,波健士,4-1/2,77.0,125,8 10 6,1.10.32,1193,--,,添有運
