,Unnamed: 0,場次,名次,日期,馬場/跑道/賽道,途程,場地狀況,賽事班次,檔位,評分,練馬師,騎師,頭馬距離,獨贏賠率,實際負磅,沿途走位,完成時間,排位體重,配備,賽事重播,馬名
0,1,661,4,08/05/21,沙田全天候                                    ,1650,好,2,14,84,霍利時,蔡明紹,7-1/4,57.0,114,14 13 13 4,1.37.32,1057,--,,滿冠熊
1,2,506,6,13/03/21,沙田全天候                                    ,1650,好,3,6,84,霍利時,薛恩,7,14.0,133,8 7 7 6,1.38.00,1050,--,,滿冠熊
2,3,408,1,06/02/21,沙田全天候                                    ,1800,好,3,8,78,霍利時,薛恩,1-3/4,23.0,131,4 4 4 3 1,1.46.76,1064,--,,滿冠熊
3,4,160,5,04/11/20,沙田全天候                                    ,1800,好,3,6,80,霍利時,周俊樂,6-3/4,7.1,123,3 4 4 5 5,1.50.52,1062,--,,滿冠熊
4,5,118,12,18/10/20,沙田全天候                                    ,1200,好,2,7,81,霍利時,波健士,15-1/4,147.0,115,12 12 12,1.10.84,1056,--,,滿冠熊
5,6,74,12,01/10/20,"沙田草地""B""                                    ",1400,好,2,2,82,霍利時,黎海榮,14,191.0,115,4 3 4 12,1.23.19,1054,--,,滿冠熊
6,7,544,14,01/04/20,沙田全天候                                    ,1650,濕慢,2,2,82,霍利時,利敬國,19-3/4,15.0,119,6 5 7 14,1.41.06,998,--,,滿冠熊
7,8,497,11,14/03/20,沙田全天候                                    ,1650,好,3,7,82,霍利時,莫雷拉,4-1/4,2.6,130,11 11 10 11,1.38.97,1006,--,,滿冠熊
8,9,330,1,11/01/20,沙田全天候                                    ,1650,好,3,5,76,霍利時,莫雷拉,1-1/4,3.6,132,5 5 5 1,1.38.55,1015,--,,滿冠熊
9,10,131,1,27/10/19,沙田全天候                                    ,1650,好,3,2,70,霍利時,莫雷拉,1-1/2,2.1,126,5 4 3 1,1.39.00,1009,--,,滿冠熊
10,11,74,4,06/10/19,沙田全天候                                    ,1650,濕慢,3,4,70,霍利時,郭能,3-3/4,3.0,125,5 6 4 4,1.39.92,1019,--,,滿冠熊
11,12,36,2,15/09/19,沙田全天候                                    ,1650,好,3,11,69,霍利時,郭能,1-1/4,15.0,123,3 3 3 2,1.38.78,1022,--,,滿冠熊
12,13,774,6,01/07/19,沙田全天候                                    ,1650,好,3,12,72,霍利時,郭能,5-3/4,21.0,124,9 8 8 6,1.39.35,1017,--,,滿冠熊
13,14,739,7,12/06/19,沙田全天候                                    ,1650,濕慢,3,2,74,霍利時,田泰安,10-1/4,7.2,127,8 9 8 7,1.39.77,1017,--,,滿冠熊
14,15,665,11,15/05/19,"跑馬地草地""A""                                    ",1800,好,3,6,76,霍利時,郭能,6,8.9,129,1 3 3 3 11,1.51.04,1010,--,,滿冠熊
15,16,600,4,22/04/19,沙田全天候                                    ,1650,好,3,9,77,霍利時,郭能,2,12.0,126,5 6 6 4,1.37.53,1011,--,,滿冠熊
16,17,555,3,03/04/19,沙田全天候                                    ,1800,好,3,10,78,霍利時,郭能,3-1/2,41.0,132,6 6 6 4 3,1.48.01,1007,--,,滿冠熊
17,18,486,8,10/03/19,沙田全天候                                    ,1650,濕慢,2,8,80,霍利時,田泰安,13-3/4,45.0,118,8 8 8 8,1.41.02,1009,--,,滿冠熊
18,19,338,6,12/01/19,沙田全天候                                    ,1650,好,2,13,81,霍利時,楊明綸,5,321.0,113,14 14 12 6,1.38.12,1045,--,,滿冠熊
19,20,300,11,29/12/18,"沙田草地""B+2""                                    ",1400,好,2,9,83,霍利時,史卓豐,11,368.0,120,12 9 11 11,1.23.34,1041,--,,滿冠熊
20,21,262,9,16/12/18,"沙田草地""C+3""                                    ",1400,好,2,11,85,霍利時,史卓豐,6-3/4,320.0,117,12 12 12 9,1.22.26,1043,--,,滿冠熊
21,22,225,12,02/12/18,沙田全天候                                    ,1200,好,2,12,85,霍利時,利敬國,11-1/2,63.0,122,12 12 12,1.09.56,1048,--,,滿冠熊
