,Unnamed: 0,場次,名次,日期,馬場/跑道/賽道,途程,場地狀況,賽事班次,檔位,評分,練馬師,騎師,頭馬距離,獨贏賠率,實際負磅,沿途走位,完成時間,排位體重,配備,賽事重播,馬名
0,1,647,10,05/05/21,"跑馬地草地""A""                                    ",1200,好/快,4,9,58,大衛希斯,薛恩,6-1/2,10,133,7 7 10,1.10.69,1040,B,,發贏喜
1,2,588,1,14/04/21,"跑馬地草地""B""                                    ",1200,好/快,4,12,52,大衛希斯,薛恩,3/4,13,125,1 1 1,1.10.35,1035,B,,發贏喜
2,3,530,5,24/03/21,"跑馬地草地""C+3""                                    ",1000,好/快,4,2,52,大衛希斯,楊明綸,1,18,125,7 5 5,0.57.36,1037,CP-/B1,,發贏喜
3,4,461,6,28/02/21,"沙田草地""B+2""                                    ",1000,好,4,4,52,大衛希斯,蔡明紹,3-1/4,59,126,10 12 6,0.57.20,1024,CP1,,發贏喜
