,Unnamed: 0,場次,名次,日期,馬場/跑道/賽道,途程,場地狀況,賽事班次,檔位,評分,練馬師,騎師,頭馬距離,獨贏賠率,實際負磅,沿途走位,完成時間,排位體重,配備,賽事重播,馬名
0,1,523,10,21/03/21,"沙田草地""A""                                    ",1200,好,3,10,77,鄭俊偉,梁家俊,7-1/2,54,132,12 12 10,1.10.13,1174,B/H/TT,,百勝龍
1,2,420,10,10/02/21,"跑馬地草地""B""                                    ",1200,好,3,9,79,鄭俊偉,巴度,4-1/4,35,132,10 11 10,1.10.66,1179,B/H/TT,,百勝龍
2,3,388,08,31/01/21,"沙田草地""B+2""                                    ",1400,好,2,5,81,鄭俊偉,黃皓楠,4,18,112,11 11 12 8,1.21.74,1180,B/H/TT,,百勝龍
3,4,314,08,01/01/21,"沙田草地""B+2""                                    ",1200,好,2,11,82,鄭俊偉,黃皓楠,1-1/2,45,116,14 14 8,1.09.46,1177,B/H/TT,,百勝龍
4,5,230,10,29/11/20,"沙田草地""C""                                    ",1400,好,2,11,84,呂健威,楊明綸,5,60,122,11 11 14 10,1.21.51,1171,B/H/TT,,百勝龍
5,6,190,08,14/11/20,"沙田草地""C+3""                                    ",1400,好,1,1,85,呂健威,巫顯東,4,14,110,2 3 3 8,1.22.44,1158,B/H/TT,,百勝龍
6,7,138,05,24/10/20,"沙田草地""C""                                    ",1400,好,2,5,86,呂健威,彭國年,2,27,121,10 11 11 5,1.21.11,1180,B/H/TT,,百勝龍
7,8,102,06,11/10/20,"沙田草地""A+3""                                    ",1200,好/快,2,3,87,呂健威,巫顯東,2-3/4,26,117,9 9 6,1.09.07,1186,B/H/TT,,百勝龍
8,9,64,08,27/09/20,"沙田草地""A""                                    ",1200,好,2,12,87,呂健威,何澤堯,4,11,124,12 13 8,1.09.38,1168,B/H/TT,,百勝龍
9,10,817,08,12/07/20,"沙田草地""A""                                    ",1400,好/快,2,1,87,呂健威,黃皓楠,4-1/2,23,121,3 4 3 8,1.21.51,1169,B/H/TT,,百勝龍
10,11,778,01,27/06/20,"沙田草地""B""                                    ",1400,好/快,2,7,82,呂健威,黃皓楠,1/2,44,116,10 10 9 1,1.20.69,1178,B/H/TT,,百勝龍
11,12,728,05,07/06/20,"沙田草地""C""                                    ",1400,黏,2,6,84,呂健威,蔡明紹,2-3/4,47,121,8 8 9 5,1.22.75,1173,B/H/TT,,百勝龍
12,13,689,13,24/05/20,"沙田草地""A""                                    ",1400,好,2,4,86,呂健威,蔡明紹,5,17,123,10 11 10 13,1.22.02,1188,B/H/TT,,百勝龍
13,14,610,05,26/04/20,"沙田草地""A""                                    ",1200,好,2,12,88,呂健威,何澤堯,2-1/2,18,123,12 10 5,1.09.01,1182,B/H/TT,,百勝龍
14,15,536,05,29/03/20,"沙田草地""A+3""                                    ",1200,好,2,8,89,呂健威,何澤堯,3-1/4,18,124,13 13 5,1.09.84,1187,B/H/TT,,百勝龍
15,16,481,07,08/03/20,"沙田草地""C""                                    ",1000,好,2,13,91,呂健威,何澤堯,2-1/4,29,128,13 11 7,0.55.47,1198,B/H/TT,,百勝龍
16,17,407,07,08/02/20,"沙田草地""C+3""                                    ",1200,好,2,8,93,呂健威,何澤堯,2,9.8,123,9 9 7,1.09.33,1193,B/H/TT,,百勝龍
17,18,350,08,19/01/20,"沙田草地""A+3""                                    ",1200,好,2,13,94,呂健威,何澤堯,4,15,127,11 11 8,1.09.22,1194,B/H/TT,,百勝龍
18,19,299,04,01/01/20,"沙田草地""C""                                    ",1000,好,2,12,94,呂健威,何澤堯,3-1/4,5.3,127,13 13 4,0.56.48,1198,B/H/TT,,百勝龍
19,20,235,03,08/12/19,"沙田草地""A""                                    ",1200,好,2,4,94,呂健威,潘頓,2-1/4,5,125,8 8 3,1.09.34,1186,B/H/TT,,百勝龍
20,21,178,02,17/11/19,"沙田草地""B""                                    ",1200,好/快,2,5,93,呂健威,楊明綸,1,33,131,9 6 2,1.08.72,1183,B/H/TT,,百勝龍
21,22,123,08,23/10/19,"跑馬地草地""C+3""                                    ",1200,好/快,2,7,93,呂健威,蔡明紹,3-3/4,12,129,11 12 8,1.09.86,1188,B/H/TT,,百勝龍
22,23,37,01,15/09/19,"沙田草地""C+3""                                    ",1200,好/快,2,8,88,呂健威,蔡明紹,短馬頭位,30,121,9 5 1,1.08.19,1178,B/H/TT,,百勝龍
23,24,806,04,10/07/19,"跑馬地草地""A""                                    ",1200,好,2,8,87,呂健威,何澤堯,3/4,19,124,7 7 4,1.09.85,1172,B/H/TT,,百勝龍
24,25,713,09,02/06/19,"沙田草地""B""                                    ",1200,好/快,2,8,87,呂健威,梁家俊,2-3/4,30,121,2 2 9,1.09.69,1161,B/H/TT,,百勝龍
25,26,563,11,07/04/19,"沙田草地""B+2""                                    ",1200,好/快,2,5,87,呂健威,貝力斯,5-3/4,24,117,8 8 11,1.09.37,1165,B/H/TT,,百勝龍
26,27,503,02,17/03/19,"沙田草地""A""                                    ",1200,好,2,11,86,呂健威,何澤堯,3/4,25,121,1 1 2,1.09.37,1178,B/H/TT,,百勝龍
27,28,459,01,27/02/19,"跑馬地草地""C+3""                                    ",1200,好/快,3,1,80,呂健威,何澤堯,3/4,21,131,5 6 1,1.09.42,1192,B/H/TT,,百勝龍
28,29,423,10,13/02/19,"跑馬地草地""B""                                    ",1200,好,3,4,81,呂健威,梁家俊,8,52,129,5 5 10,1.11.05,1204,B/H/TT,,百勝龍
29,30,474,12,03/03/18,"沙田草地""C""                                    ",1000,好,3,3,83,呂健威,蔡明紹,7-1/4,13,132,3 9 12,0.57.38,1196,B/H/TT,,百勝龍
30,31,378,03,28/01/18,"沙田草地""B""                                    ",1000,好,3,4,83,呂健威,羅理雅                                    ,2-1/4,4.6,131,3 3 3,0.57.69,1192,B/H/TT,,百勝龍
31,32,295,02,23/12/17,"沙田草地""A+3""                                    ",1000,好,2,5,81,呂健威,蔡明紹,1-1/4,31,116,4 3 2,0.56.79,1191,B/H/TT,,百勝龍
32,33,223,WV-A,26/11/17,"沙田草地""C""                                    ",1000,好,2,--,81,呂健威,楊明綸,--,--,112,--,--,--,--,--,百勝龍
33,34,508,10,19/03/17,"沙田草地""A""                                    ",1400,好/黏,2,2,82,呂健威,韋紀力                                    ,5-3/4,16,119,11 11 11 10,1.24.00,1178,B/H/TT,,百勝龍
34,35,469,07,05/03/17,"沙田草地""C""                                    ",1200,好/快,3,1,82,呂健威,韋達                                    ,3-3/4,7.2,130,6 7 7,1.09.36,1158,B/H/TT,,百勝龍
35,36,359,07,22/01/17,"沙田草地""A""                                    ",1200,好,2,13,82,呂健威,羅理雅                                    ,4-1/4,6.4,126,13 11 7,1.10.00,1187,B/H/TT,,百勝龍
36,37,250,01,11/12/16,"沙田草地""A""                                    ",1200,好,3,14,77,呂健威,韋紀力                                    ,頸位,21,130,13 13 1,1.09.41,1214,B/H/TT,,百勝龍
37,38,182,01,12/11/16,"沙田草地""A+3""                                    ",1000,好,3,11,71,呂健威,羅理雅                                    ,鼻位,8.4,124,3 4 1,0.56.90,1220,B1/H1/TT1,,百勝龍
