,Unnamed: 0,場次,名次,日期,馬場/跑道/賽道,途程,場地狀況,賽事班次,檔位,評分,練馬師,騎師,頭馬距離,獨贏賠率,實際負磅,沿途走位,完成時間,排位體重,配備,賽事重播,馬名
0,1,544,12,28/03/21,"沙田草地""A+3""                                    ",1200,好/快,3,10,61,鄭俊偉,黃俊,6-3/4,58.0,109,12 13 12,1.09.78,1015,B-,,眾歡笑
1,2,458,9,24/02/21,"跑馬地草地""C+3""                                    ",1200,好/快,3,1,63,鄭俊偉,潘明輝,5-1/4,18.0,112,5 6 9,1.09.91,1005,B,,眾歡笑
2,3,332,8,10/01/21,"沙田草地""C""                                    ",1200,好,3,8,65,鄭俊偉,蔡明紹,5-1/4,20.0,120,11 11 8,1.09.97,984,B1,,眾歡笑
3,4,263,8,13/12/20,"沙田草地""A""                                    ",1400,好,3,5,67,鄭俊偉,巴米高,6-1/2,14.0,121,10 12 12 8,1.22.66,1027,--,,眾歡笑
4,5,211,5,22/11/20,"沙田草地""B+2""                                    ",1400,好/快,3,12,68,鄭俊偉,蔡明紹,2-1/2,32.0,121,12 12 10 5,1.21.51,1026,--,,眾歡笑
5,6,120,10,18/10/20,"沙田草地""B+2""                                    ",1400,好/快,3,7,68,鄭俊偉,潘頓,4,5.7,124,8 6 8 10,1.22.67,1020,--,,眾歡笑
6,7,63,2,27/09/20,"沙田草地""A""                                    ",1200,好,3,12,67,鄭俊偉,潘頓,1/2,8.4,120,6 6 2,1.09.06,1047,--,,眾歡笑
7,8,819,13,12/07/20,"沙田草地""A""                                    ",1200,好/快,3,4,67,鄭俊偉,賀銘年,6-1/2,15.0,120,9 8 13,1.09.98,1014,--,,眾歡笑
8,9,748,5,14/06/20,"沙田草地""C+3""                                    ",1200,好/快,3,9,67,鄭俊偉,田泰安,4-1/4,5.3,125,9 9 5,1.09.97,1009,--,,眾歡笑
9,10,669,2,17/05/20,"沙田草地""C+3""                                    ",1200,好/快,3,1,65,鄭俊偉,田泰安,1/2,4.8,118,4 4 2,1.08.97,1014,--,,眾歡笑
10,11,568,1,12/04/20,"沙田草地""C""                                    ",1200,好,4,10,58,鄭俊偉,田泰安,1-1/4,7.3,133,11 8 1,1.09.52,1006,--,,眾歡笑
11,12,476,1,08/03/20,"沙田草地""C""                                    ",1200,好,4,11,53,鄭俊偉,田泰安,頸位,44.0,129,8 8 1,1.09.83,1002,--,,眾歡笑
12,13,362,9,27/01/20,"沙田草地""B+2""                                    ",1000,好,4,2,53,鄭俊偉,莫雷拉,4-3/4,14.0,126,7 5 9,0.57.54,997,H-,,眾歡笑
13,14,304,2,05/01/20,"沙田草地""C+3""                                    ",1000,好,4,3,52,鄭俊偉,蘇兆輝,1-1/2,27.0,127,13 13 2,0.57.24,1002,H1,,眾歡笑
