,Unnamed: 0,場次,名次,日期,馬場/跑道/賽道,途程,場地狀況,賽事班次,檔位,評分,練馬師,騎師,頭馬距離,獨贏賠率,實際負磅,沿途走位,完成時間,排位體重,配備,賽事重播,馬名
0,1,701,1,26/05/21,"跑馬地草地""C""                                    ",1200,好/快,5,4,39,文家良,巴度,1-1/4,2.9,132,1 1 1,1.09.62,1164,--,,種福者
1,2,606,1,21/04/21,"跑馬地草地""C""                                    ",1200,好/快,5,10,32,文家良,潘頓,1-1/2,4.8,125,1 1 1,1.10.54,1154,--,,種福者
2,3,536,3,28/03/21,"沙田草地""A+3""                                    ",1400,好,5,7,32,文家良,郭能,3,5.1,125,10 9 6 3,1.22.22,1148,--,,種福者
3,4,482,2,07/03/21,"沙田草地""C""                                    ",1400,好,5,11,31,文家良,郭能,3/4,7.3,124,6 10 9 2,1.23.26,1152,--,,種福者
4,5,374,4,27/01/21,"跑馬地草地""C+3""                                    ",1200,好,5,9,30,文家良,巴度,1/2,6.4,124,5 5 4,1.10.14,1150,--,,種福者
5,6,250,1,09/12/20,"跑馬地草地""B""                                    ",1200,好,5,12,26,文家良,巴度,平頭馬,12.0,119,8 8 1,1.10.62,1131,--,,種福者
6,7,194,4,18/11/20,"跑馬地草地""C""                                    ",1200,好,5,3,26,文家良,陳嘉熙,1-1/4,9.2,112,2 2 4,1.10.01,1137,B-,,種福者
7,8,131,10,24/10/20,"沙田草地""C""                                    ",1400,好,5,10,28,文家良,郭能,9-1/2,6.5,121,2 3 3 10,1.23.78,1124,B,,種福者
8,9,96,6,11/10/20,"沙田草地""A+3""                                    ",1600,好,5,4,30,文家良,賀銘年,3-1/4,4.9,124,4 3 4 6,1.35.63,1106,B,,種福者
9,10,56,3,27/09/20,"沙田草地""A""                                    ",1400,好,5,13,31,文家良,蔡明紹,3-3/4,37.0,125,7 5 5 3,1.22.60,1117,B,,種福者
10,11,644,11,09/05/20,"沙田草地""C""                                    ",1600,好/快,5,6,35,文家良,蔡明紹,7-1/4,9.2,128,1 1 1 11,1.36.57,1113,B,,種福者
11,12,519,8,25/03/20,"跑馬地草地""A""                                    ",1650,好,5,4,37,文家良,蔡明紹,9-3/4,3.7,130,2 1 2 8,1.41.82,1113,B,,種福者
12,13,400,4,08/02/20,"沙田草地""C+3""                                    ",1800,好,5,7,37,文家良,蔡明紹,1-1/4,10.0,130,3 1 1 2 4,1.49.31,1115,B,,種福者
13,14,247,9,15/12/19,"沙田草地""C+3""                                    ",1400,好,5,10,39,文家良,蘇兆輝,4,3.5,133,3 2 2 9,1.22.81,1108,B,,種福者
14,15,110,5,20/10/19,"沙田草地""A""                                    ",1400,好/快,4,10,40,文家良,潘明輝,3,101.0,111,1 1 1 5,1.22.13,1099,B,,種福者
15,16,793,6,07/07/19,"沙田草地""C""                                    ",1400,好,4,7,44,文家良,潘明輝,6,80.0,114,2 2 1 6,1.22.98,1085,B,,種福者
16,17,634,14,05/05/19,"沙田草地""B""                                    ",1400,好/黏,4,12,46,文家良,貝力斯,26-1/4,167.0,120,12 13 14 14,1.27.68,1075,B,,種福者
17,18,577,13,14/04/19,"沙田草地""C""                                    ",1400,好,4,1,48,文家良,貝力斯,18-3/4,17.0,122,6 5 7 13,1.24.82,1084,B,,種福者
18,19,521,5,24/03/19,"沙田草地""C+3""                                    ",1000,好,4,9,50,文家良,貝力斯,6-3/4,75.0,124,3 4 5,0.57.74,1090,B,,種福者
19,20,445,5,24/02/19,"沙田草地""B+2""                                    ",1400,好,4,14,52,文家良,巫顯東,4-3/4,249.0,120,6 6 8 5,1.22.88,1084,B,,種福者
20,21,349,12,20/01/19,"沙田草地""A+3""                                    ",1600,好,4,5,52,文家良,沈拿,11-1/4,158.0,129,7 6 8 12,1.36.77,1099,B1,,種福者
