,Unnamed: 0,場次,名次,日期,馬場/跑道/賽道,途程,場地狀況,賽事班次,檔位,評分,練馬師,騎師,頭馬距離,獨贏賠率,實際負磅,沿途走位,完成時間,排位體重,配備,賽事重播,馬名
0,1,681,11,19/05/21,"跑馬地草地""B""                                    ",1650,好/快,5,6,27,文家良,梁家俊,21-1/4,74,120,3 2 2 11,1.42.70,1063,H,,紅鞋兒
1,2,605,11,21/04/21,"跑馬地草地""C""                                    ",1200,好/快,5,11,32,文家良,黎海榮,9-1/4,184,126,12 12 11,1.11.41,1078,H,,紅鞋兒
2,3,501,11,13/03/21,"沙田草地""C+3""                                    ",1600,好,5,8,36,文家良,黃皓楠,7,185,126,5 6 7 11,1.37.31,1075,H1,,紅鞋兒
3,4,195,10,18/11/20,"跑馬地草地""C""                                    ",1650,好,4,2,41,文家良,黎海榮,13,143,116,3 3 9 10,1.42.41,1058,XB-,,紅鞋兒
4,5,141,12,28/10/20,"跑馬地草地""C+3""                                    ",1200,好,4,11,44,文家良,黎海榮,11-1/4,229,117,8 10 12,1.11.74,1063,XB,,紅鞋兒
5,6,771,12,27/06/20,"沙田草地""B""                                    ",1200,好/快,4,2,49,徐雨石,巫顯東,12-3/4,229,119,6 7 12,1.10.82,1062,XB,,紅鞋兒
6,7,711,12,03/06/20,"跑馬地草地""A""                                    ",1200,好,4,3,52,徐雨石,黎海榮,9-1/2,311,125,10 11 12,1.11.57,1066,XB,,紅鞋兒
7,8,654,11,13/05/20,"跑馬地草地""C""                                    ",1200,好,4,2,52,徐雨石,巫顯東,11,77,124,5 7 11,1.11.90,1067,XB1,,紅鞋兒
