,Unnamed: 0,場次,名次,日期,馬場/跑道/賽道,途程,場地狀況,賽事班次,檔位,評分,練馬師,騎師,頭馬距離,獨贏賠率,實際負磅,沿途走位,完成時間,排位體重,配備,賽事重播,馬名
0,1,688,7,19/05/21,"跑馬地草地""B""                                    ",1800,好/快,3,6,62,羅富全,莫雷拉,3-3/4,2.2,119,4 5 5 7 7,1.49.21,1119,V/TT,,西利哥
1,2,566,1,08/04/21,"跑馬地草地""A""                                    ",1800,好/快,4,11,52,羅富全,莫雷拉,4-3/4,9.4,128,9 8 7 6 1,1.48.55,1125,V/TT,,西利哥
2,3,512,6,17/03/21,"跑馬地草地""C""                                    ",1650,好/快,4,4,54,羅富全,莫雷拉,2-1/2,4.5,127,10 11 9 6,1.39.93,1124,V/TT,,西利哥
3,4,452,4,24/02/21,"跑馬地草地""C+3""                                    ",1650,好/快,4,4,54,羅富全,莫雷拉,1-1/4,3.5,127,6 7 8 4,1.40.71,1124,V/TT,,西利哥
4,5,397,4,03/02/21,"跑馬地草地""A""                                    ",1650,好,4,10,54,羅富全,潘明輝,1-1/2,112.0,125,10 11 9 4,1.41.52,1115,V/TT,,西利哥
5,6,339,10,13/01/21,"跑馬地草地""B""                                    ",1650,好,4,12,57,羅富全,梁家俊,8-1/4,68.0,130,2 2 3 10,1.42.22,1112,CP-/V2/TT,,西利哥
6,7,287,10,23/12/20,"跑馬地草地""C+3""                                    ",1650,好,4,4,60,羅富全,梁家俊,8-3/4,35.0,133,7 6 8 10,1.40.41,1111,CP/TT,,西利哥
7,8,237,12,02/12/20,"跑馬地草地""A""                                    ",1800,好,3,6,62,羅富全,陳嘉熙,10,39.0,112,5 3 5 7 12,1.51.11,1109,V-/CP1/TT1,,西利哥
8,9,143,9,28/10/20,"跑馬地草地""C+3""                                    ",1650,好,3,5,64,羅富全,梁家俊,3-1/2,85.0,117,2 3 3 9,1.39.76,1097,V,,西利哥
9,10,80,11,04/10/20,沙田全天候                                    ,1650,好,3,10,67,羅富全,陳嘉熙,16,131.0,113,2 2 4 11,1.42.48,1087,B-/V1,,西利哥
10,11,798,11,05/07/20,"沙田草地""C+3""                                    ",1400,好/快,3,4,72,羅富全,黃皓楠,8-3/4,210.0,123,13 14 14 11,1.22.73,1056,B,,西利哥
11,12,403,14,08/02/20,"沙田草地""C+3""                                    ",1800,好,3,12,74,羅富全,利敬國,33-1/4,70.0,130,1 1 1 14 14,1.52.26,1096,B1,,西利哥
12,13,337,9,15/01/20,"跑馬地草地""C+3""                                    ",1650,好,3,6,74,羅富全,巴度,4-3/4,36.0,128,7 7 7 9,1.40.08,1107,--,,西利哥
