,Unnamed: 0,場次,名次,日期,馬場/跑道/賽道,途程,場地狀況,賽事班次,檔位,評分,練馬師,騎師,頭馬距離,獨贏賠率,實際負磅,沿途走位,完成時間,排位體重,配備,賽事重播,馬名
0,1,672,11,16/05/21,"沙田草地""C+3""                                    ",1200,好/快,4,6,42,徐雨石,黃皓楠,9-1/2,116.0,112,2 2 11,1.09.90,1158,B,,豹子膽
1,2,558,10,05/04/21,"沙田草地""B+2""                                    ",1200,好,4,10,44,徐雨石,黃俊,9-1/2,108.0,112,3 4 10,1.11.14,1164,B2,,豹子膽
2,3,494,9,10/03/21,"跑馬地草地""B""                                    ",1000,好,4,2,45,徐雨石,賀銘年,4-1/4,15.0,119,3 4 9,0.58.26,1170,--,,豹子膽
3,4,412,12,10/02/21,"跑馬地草地""B""                                    ",1000,好,4,11,45,徐雨石,莫雷拉,9-1/2,5.1,120,1 2 12,0.58.64,1175,--,,豹子膽
4,5,340,5,13/01/21,"跑馬地草地""B""                                    ",1000,好,4,5,45,徐雨石,莫雷拉,2-1/2,3.1,119,2 3 5,0.57.93,1175,--,,豹子膽
5,6,289,2,23/12/20,"跑馬地草地""C+3""                                    ",1000,好,4,6,42,徐雨石,莫雷拉,短馬頭位,3.3,116,1 1 2,0.57.07,1172,--,,豹子膽
6,7,198,2,18/11/20,"跑馬地草地""C""                                    ",1000,好,4,2,41,徐雨石,黃俊,1-1/2,4.3,113,2 3 2,0.57.24,1173,--,,豹子膽
7,8,139,1,28/10/20,"跑馬地草地""C+3""                                    ",1000,好,5,1,32,徐雨石,莫雷拉,2-1/2,2.1,125,1 1 1,0.56.87,1165,--,,豹子膽
8,9,55,3,27/09/20,"沙田草地""A""                                    ",1000,好,5,10,31,徐雨石,莫雷拉,1/2,2.6,125,5 1 3,0.57.34,1146,--,,豹子膽
9,10,2,7,06/09/20,"沙田草地""A""                                    ",1200,好,5,4,32,徐雨石,史卓豐,3-1/4,6.6,126,1 1 7,1.10.23,1143,--,,豹子膽
10,11,593,11,22/04/20,"跑馬地草地""C+3""                                    ",1200,好,5,11,36,徐雨石,田泰安,8-1/2,9.6,129,9 10 11,1.11.77,1110,B-,,豹子膽
11,12,564,8,12/04/20,"沙田草地""C""                                    ",1000,好,5,5,38,徐雨石,郭能,5-1/4,6.4,131,1 1 8,0.58.55,1118,B,,豹子膽
12,13,464,9,04/03/20,"跑馬地草地""B""                                    ",1000,好,5,9,40,徐雨石,黃皓楠,3-3/4,6.1,129,3 2 9,0.58.58,1133,B1,,豹子膽
13,14,372,6,29/01/20,"跑馬地草地""B""                                    ",1200,好,4,1,41,徐雨石,巫顯東,2-1/2,6.6,113,2 1 6,1.10.46,1127,--,,豹子膽
14,15,325,4,11/01/20,"沙田草地""A""                                    ",1200,好,4,4,42,徐雨石,巫顯東,2-1/2,29.0,112,4 3 4,1.09.79,1140,--,,豹子膽
15,16,286,4,29/12/19,"沙田草地""B+2""                                    ",1200,好,4,6,42,徐雨石,巫顯東,1-1/4,34.0,115,3 2 4,1.10.80,1137,--,,豹子膽
16,17,208,10,01/12/19,"沙田草地""C+3""                                    ",1400,好,4R,13,44,徐雨石,希威森,4-1/2,55.0,120,14 14 13 10,1.23.08,1138,P-,,豹子膽
17,18,128,9,27/10/19,沙田全天候                                    ,1200,好,4,2,46,徐雨石,李寶利,10,21.0,119,4 5 9,1.11.14,1124,P1,,豹子膽
18,19,83,6,09/10/19,"跑馬地草地""B""                                    ",1200,好,4,1,48,徐雨石,史卓豐,2-1/2,34.0,122,5 6 6,1.11.21,1111,--,,豹子膽
19,20,59,11,01/10/19,"沙田草地""A+3""                                    ",1200,好/快,4,4,50,徐雨石,希威森,8,60.0,126,8 6 11,1.10.14,1123,--,,豹子膽
20,21,6,13,01/09/19,"沙田草地""B""                                    ",1000,好,4,14,50,徐雨石,梁家俊,6-1/2,80.0,122,6 7 13,0.58.77,1121,--,,豹子膽
21,22,787,6,07/07/19,"沙田草地""C""                                    ",1200,好,GRIFFIN,2,--,徐雨石,梁家俊,9-1/2,8.8,120,6 5 6,1.10.99,1120,--,,豹子膽
22,23,740,2,16/06/19,"沙田草地""C+3""                                    ",1000,好,GRIFFIN,7,--,徐雨石,梁家俊,4-1/2,33.0,120,2 3 2,0.57.48,1126,--,,豹子膽
23,24,684,6,26/05/19,"沙田草地""A""                                    ",1200,好,GRIFFIN,2,--,徐雨石,梁家俊,9-3/4,49.0,120,3 3 6,1.11.66,1118,--,,豹子膽
