,Unnamed: 0,場次,名次,日期,馬場/跑道/賽道,途程,場地狀況,賽事班次,檔位,評分,練馬師,騎師,頭馬距離,獨贏賠率,實際負磅,沿途走位,完成時間,排位體重,配備,賽事重播,馬名
0,1,651,11,05/05/21,"跑馬地草地""A""                                    ",1200,好/快,2,12,99,韋達,周俊樂,12-1/4,14.0,126,8 10 11,1.10.61,1144,XB,,超能力
1,2,602,5,17/04/21,沙田全天候                                    ,1200,好,2,8,100,韋達,周俊樂,2-1/2,6.5,126,11 10 5,1.08.95,1142,XB,,超能力
2,3,516,3,17/03/21,"跑馬地草地""C""                                    ",1200,好/快,2,3,100,韋達,田泰安,1-3/4,16.0,133,7 6 3,1.09.19,1143,XB,,超能力
3,4,448,6,21/02/21,沙田全天候                                    ,1200,好,2,4,100,韋達,田泰安,1-3/4,4.2,133,8 9 6,1.08.32,1152,XB,,超能力
4,5,294,2,23/12/20,"跑馬地草地""C+3""                                    ",1200,好/快,2,2,98,韋達,周俊樂,頸位,7.9,126,4 4 2,1.08.83,1153,XB,,超能力
5,6,248,2,06/12/20,沙田全天候                                    ,1200,好,2,7,95,韋達,田泰安,頸位,3.2,132,6 4 2,1.08.33,1167,XB,,超能力
6,7,118,1,18/10/20,沙田全天候                                    ,1200,好,2,12,88,韋達,田泰安,1,3.0,122,9 9 1,1.08.40,1154,XB,,超能力
7,8,25,1,13/09/20,沙田全天候                                    ,1200,好,3,2,80,韋達,田泰安,1-3/4,3.0,133,6 5 1,1.08.58,1141,B-/XB,,超能力
8,9,745,5,14/06/20,沙田全天候                                    ,1200,濕慢,2,6,81,韋達,田泰安,2-3/4,4.6,118,7 5 5,1.08.32,1153,XB/B1,,超能力
9,10,689,8,24/05/20,"沙田草地""A""                                    ",1400,好,2,1,81,韋達,田泰安,3-1/4,4.1,118,6 6 5 8,1.21.74,1147,XB,,超能力
10,11,591,3,19/04/20,沙田全天候                                    ,1200,好,2,5,81,韋達,田泰安,4-1/4,2.3,118,6 6 3,1.07.94,1167,XB,,超能力
11,12,478,1,08/03/20,沙田全天候                                    ,1200,好,3,5,73,韋達,田泰安,1-1/2,1.9,127,8 5 1,1.09.03,1179,XB,,超能力
12,13,432,2,19/02/20,沙田全天候                                    ,1200,好,3,6,70,韋達,田泰安,1-1/4,2.3,123,6 4 2,1.08.52,1179,XB,,超能力
13,14,308,1,05/01/20,沙田全天候                                    ,1200,好,4,10,60,韋達,田泰安,2-1/4,1.7,133,6 7 1,1.09.62,1183,XB,,超能力
14,15,248,1,15/12/19,沙田全天候                                    ,1200,好,4,10,52,韋達,田泰安,1-1/2,4.0,126,7 6 1,1.09.38,1176,XB1,,超能力
