,Unnamed: 0,場次,名次,日期,馬場/跑道/賽道,途程,場地狀況,賽事班次,檔位,評分,練馬師,騎師,頭馬距離,獨贏賠率,實際負磅,沿途走位,完成時間,排位體重,配備,賽事重播,馬名
0,1,640,1,02/05/21,"沙田草地""B""                                    ",1800,好,3,10,76,羅富全,莫雷拉,1-1/4,3.0,130,8 7 6 6 1,1.47.09,1069,--,,路路醒
1,2,582,1,11/04/21,"沙田草地""C""                                    ",1800,好,3,3,69,羅富全,莫雷拉,1-3/4,2.5,123,5 5 6 4 1,1.46.30,1076,--,,路路醒
2,3,543,2,28/03/21,"沙田草地""A+3""                                    ",1600,好/快,3,10,66,羅富全,莫雷拉,頭位,2.9,122,2 4 3 2,1.34.06,1071,--,,路路醒
3,4,466,2,28/02/21,"沙田草地""B+2""                                    ",1800,好,3,10,66,羅富全,蔡明紹,1-3/4,14.0,119,2 3 5 4 2,1.46.93,1074,--,,路路醒
4,5,436,4,17/02/21,"跑馬地草地""C""                                    ",1650,好,3,7,67,羅富全,郭能,2,14.0,124,2 2 2 4,1.39.40,1085,--,,路路醒
5,6,391,6,31/01/21,"沙田草地""B+2""                                    ",1600,好,3,2,68,羅富全,潘頓,2,4.4,121,6 6 6 6,1.34.25,1071,--,,路路醒
6,7,315,5,01/01/21,"沙田草地""B+2""                                    ",1400,好,3,7,68,羅富全,潘頓,2-1/2,16.0,121,9 7 8 5,1.22.26,1072,--,,路路醒
