,Unnamed: 0,場次,名次,日期,馬場/跑道/賽道,途程,場地狀況,賽事班次,檔位,評分,練馬師,騎師,頭馬距離,獨贏賠率,實際負磅,沿途走位,完成時間,排位體重,配備,賽事重播,馬名
0,1,675,11,16/05/21,"沙田草地""C+3""                                    ",1400,好/快,4,8,52,韋達,周俊樂,8-1/2,8.0,120,11 12 13 11,1.22.92,1081,B/SR,,軍威振
1,2,636,4,02/05/21,"沙田草地""B""                                    ",1600,好,4,12,52,韋達,周俊樂,1-3/4,11.0,122,13 14 13 4,1.34.73,1073,B/SR,,軍威振
2,3,597,4,17/04/21,"沙田草地""C+3""                                    ",1800,好,4,6,53,韋達,班德禮,2,29.0,127,11 10 10 11 4,1.50.46,1077,B/SR2,,軍威振
3,4,537,12,28/03/21,"沙田草地""A+3""                                    ",2000,好,4,3,56,韋達,彭國年,6-1/4,13.0,130,8 7 8 8 12,2.03.01,1088,SR-/B,,軍威振
4,5,444,7,21/02/21,"沙田草地""A+3""                                    ",1800,好,4,2,58,韋達,周俊樂,2-3/4,10.0,124,11 13 13 14 7,1.48.23,1082,V-/B2/SR2,,軍威振
5,6,336,11,13/01/21,"跑馬地草地""B""                                    ",2200,好,4,7,60,韋達,潘頓,34-1/4,5.5,133,9 9 10 10 7 11,2.22.00,1093,V,,軍威振
6,7,291,9,23/12/20,"跑馬地草地""C+3""                                    ",1200,好/快,3,7,61,韋達,楊明綸,8-3/4,119.0,114,10 10 9,1.10.20,1090,H-/V1,,軍威振
7,8,160,10,04/11/20,沙田全天候                                    ,1800,好,3,2,63,韋達,田泰安,22-3/4,9.1,116,9 9 9 10 10,1.53.09,1070,B-/SR-/H1,,軍威振
8,9,66,5,01/10/20,"沙田草地""B""                                    ",1800,好,3,7,64,韋達,賀銘年,2-1/4,10.0,118,7 8 8 8 5,1.48.00,1063,B/SR,,軍威振
9,10,775,9,27/06/20,"沙田草地""B""                                    ",2000,好/快,3,9,67,韋達,黃皓楠,5-3/4,10.0,115,12 12 12 12 9,2.02.83,1065,B/SR,,軍威振
10,11,727,4,07/06/20,"沙田草地""C""                                    ",1600,黏,3,13,68,韋達,周俊樂,2-3/4,13.0,111,13 13 13 4,1.36.06,1064,P-/B2/SR2,,軍威振
11,12,543,11,01/04/20,沙田全天候                                    ,1800,濕慢,3,3,68,韋達,史卓豐,13-3/4,5.9,122,7 8 7 13 11,1.49.74,1066,B-/SR-/P1,,軍威振
12,13,514,4,22/03/20,"沙田草地""A""                                    ",2000,好/快,3,10,68,韋達,莫雷拉,2-1/4,3.6,116,8 8 8 8 4,2.00.81,1061,B/SR,,軍威振
13,14,450,2,26/02/20,"跑馬地草地""A""                                    ",2200,好,3,7,66,韋達,巴度,3/4,11.0,120,5 4 4 3 3 2,2.16.75,1055,B/SR,,軍威振
14,15,403,4,08/02/20,"沙田草地""C+3""                                    ",1800,好,3,6,66,韋達,巴度,1-3/4,32.0,122,10 11 11 6 4,1.47.22,1053,B/SR,,軍威振
15,16,385,7,02/02/20,"沙田草地""C""                                    ",1600,好,3,10,68,韋達,薛恩,4-3/4,73.0,121,10 9 10 7,1.35.31,1054,B/SR,,軍威振
16,17,347,12,19/01/20,"沙田草地""A+3""                                    ",1200,好,3,11,70,韋達,田泰安,3-3/4,24.0,125,14 12 12,1.09.93,1056,B/SR,,軍威振
17,18,274,9,21/12/19,"沙田草地""A+3""                                    ",1400,好,3,9,70,韋達,巴度,4-1/2,11.0,123,2 2 2 9,1.23.16,1055,B1/SR1,,軍威振
