,Unnamed: 0,場次,名次,日期,馬場/跑道/賽道,途程,場地狀況,賽事班次,檔位,評分,練馬師,騎師,頭馬距離,獨贏賠率,實際負磅,沿途走位,完成時間,排位體重,配備,賽事重播,馬名
0,1,694,1,23/05/21,"沙田草地""A""                                    ",1600,好/快,4,9,46,羅富全,蔡明紹,短馬頭位,6.9,119,2 2 3 1,1.35.43,1100,--,,逍遙駒
1,2,636,6,02/05/21,"沙田草地""B""                                    ",1600,好,4,13,47,羅富全,蔡明紹,2-1/4,8.5,124,3 1 1 6,1.34.83,1119,--,,逍遙駒
2,3,589,6,14/04/21,"跑馬地草地""B""                                    ",1650,好/快,4,11,48,羅富全,蔡明紹,1-1/2,7.9,121,10 10 10 6,1.40.10,1110,--,,逍遙駒
3,4,521,10,21/03/21,"沙田草地""A""                                    ",1600,好,4,14,50,羅富全,蔡明紹,2-3/4,29.0,123,5 5 5 10,1.35.73,1109,--,,逍遙駒
4,5,464,8,28/02/21,"沙田草地""B+2""                                    ",1200,好,4,8,52,羅富全,蔡明紹,2-1/4,26.0,127,9 10 8,1.09.90,1100,--,,逍遙駒
5,6,298,3,26/12/20,"沙田草地""A+3""                                    ",1200,好,4,3,52,羅富全,史卓豐,3,77.0,126,8 7 3,1.09.70,1098,--,,逍遙駒
