,Unnamed: 0,場次,名次,日期,馬場/跑道/賽道,途程,場地狀況,賽事班次,檔位,評分,練馬師,騎師,頭馬距離,獨贏賠率,實際負磅,沿途走位,完成時間,排位體重,配備,賽事重播,馬名
0,1,655,6,08/05/21,"沙田草地""C""                                    ",1400,好/快,5,3,26,葉楚航,蔡明紹,2-3/4,26.0,118,10 8 6 6,1.22.47,1133,E/TT,,醉開心
1,2,586,8,14/04/21,"跑馬地草地""B""                                    ",1800,好/快,5,5,28,葉楚航,潘頓,5-1/4,7.2,122,6 7 5 5 8,1.51.21,1133,CP-/E/TT,,醉開心
2,3,470,7,03/03/21,"跑馬地草地""A""                                    ",1650,好,5,6,29,葉楚航,潘明輝,2,11.0,120,11 11 11 7,1.41.21,1129,E/CP1/TT,,醉開心
3,4,375,5,27/01/21,"跑馬地草地""C+3""                                    ",1650,好,5,1,29,葉楚航,潘頓,4,2.4,120,5 6 6 5,1.41.14,1142,E/TT,,醉開心
4,5,286,2,23/12/20,"跑馬地草地""C+3""                                    ",1650,好,5,7,27,葉楚航,潘頓,鼻位,8.6,120,8 8 9 2,1.40.06,1121,E/TT,,醉開心
5,6,140,9,28/10/20,"跑馬地草地""C+3""                                    ",1800,好,5,12,30,葉楚航,薛恩,9-1/4,85.0,125,9 9 9 9 9,1.50.91,1101,E/TT,,醉開心
6,7,47,7,23/09/20,"跑馬地草地""C+3""                                    ",1800,好/快,5,4,32,葉楚航,莫雷拉,6,19.0,126,6 7 7 7 7,1.49.65,1076,E/TT,,醉開心
7,8,22,12,13/09/20,"沙田草地""A+3""                                    ",1400,好,5,9,34,葉楚航,史卓豐,6-1/2,79.0,127,13 13 11 12,1.23.38,1092,E/TT,,醉開心
8,9,800,10,08/07/20,"跑馬地草地""A""                                    ",1650,好,5,3,37,葉楚航,潘明輝,8-1/4,17.0,129,4 4 5 10,1.41.52,1115,E/TT,,醉開心
9,10,731,11,10/06/20,"跑馬地草地""B""                                    ",1650,好/快,5,4,39,葉楚航,潘頓,8,7.3,132,4 5 7 11,1.41.82,1105,P-/E/TT,,醉開心
10,11,541,14,01/04/20,沙田全天候                                    ,1650,濕慢,4,4,41,葉楚航,蘇狄雄,23-1/4,181.0,112,9 11 12 14,1.43.10,1122,E/P2/TT,,醉開心
11,12,467,8,04/03/20,"跑馬地草地""B""                                    ",1650,好,4,1,43,葉楚航,黃皓楠,3,65.0,113,7 6 7 8,1.41.04,1120,E/TT,,醉開心
12,13,412,10,12/02/20,"跑馬地草地""C+3""                                    ",1800,好/快,4,4,44,葉楚航,潘明輝,8,30.0,117,9 10 10 8 10,1.49.40,1123,E/TT,,醉開心
13,14,355,8,22/01/20,"跑馬地草地""A""                                    ",1650,好,4,4,44,葉楚航,潘明輝,4-1/4,5.1,116,6 6 6 8,1.40.81,1105,E/TT,,醉開心
14,15,316,9,08/01/20,"跑馬地草地""C""                                    ",1650,好,4,12,44,葉楚航,蘇兆輝,5-1/2,10.0,117,1 1 1 9,1.41.33,1101,E/TT,,醉開心
15,16,256,1,18/12/19,"跑馬地草地""C+3""                                    ",1650,好/快,5,3,37,葉楚航,潘頓,2,2.8,130,6 6 6 1,1.39.80,1105,E/TT,,醉開心
16,17,219,8,04/12/19,"跑馬地草地""B""                                    ",1650,好,5,5,37,葉楚航,蘇兆輝,3-1/4,5.8,130,5 5 7 8,1.40.74,1100,E/TT,,醉開心
17,18,180,3,20/11/19,"跑馬地草地""C+3""                                    ",1650,好/快,5,12,38,葉楚航,蘇兆輝,3,15.0,131,12 12 12 3,1.40.91,1098,E/TT,,醉開心
18,19,133,6,30/10/19,"跑馬地草地""A""                                    ",2200,好,5,9,40,葉楚航,潘頓,5-1/4,5.9,133,8 9 9 9 4 6,2.20.01,1092,E/TT,,醉開心
19,20,82,4,09/10/19,"跑馬地草地""B""                                    ",1650,好,4,11,41,葉楚航,潘明輝,3-3/4,101.0,112,12 12 12 4,1.41.31,1073,E/TT,,醉開心
20,21,16,8,08/09/19,"沙田草地""C""                                    ",1400,好/快,4,13,42,葉楚航,潘明輝,5,47.0,115,11 11 10 8,1.22.21,1062,P-/E/TT,,醉開心
21,22,773,12,01/07/19,沙田全天候                                    ,1650,好,4,12,46,葉楚航,巫顯東,15-3/4,118.0,117,10 9 10 12,1.43.09,1076,B-/E1/P1/TT,,醉開心
22,23,663,9,15/05/19,"跑馬地草地""A""                                    ",1650,好,4,8,48,葉楚航,利敬國,6-1/2,24.0,121,5 5 7 9,1.42.45,1085,B/TT,,醉開心
23,24,543,9,31/03/19,"沙田草地""A+3""                                    ",1400,好,4,13,50,葉楚航,黃俊,5-1/4,23.0,118,14 13 11 9,1.23.37,1073,B1/TT,,醉開心
24,25,481,3,10/03/19,"沙田草地""C+3""                                    ",1400,好,4,12,50,葉楚航,潘頓,1-1/2,12.0,124,8 8 9 3,1.23.51,1086,TT,,醉開心
25,26,394,9,07/02/19,"沙田草地""C+3""                                    ",1800,好,4,1,52,葉楚航,李寶利,11,8.3,125,3 3 3 3 9,1.49.69,1067,TT,,醉開心
26,27,305,4,01/01/19,"沙田草地""C""                                    ",1400,好,4,11,54,葉楚航,李寶利,4,57.0,125,12 12 9 4,1.23.11,1083,TT,,醉開心
27,28,255,8,16/12/18,"沙田草地""C+3""                                    ",1200,好,4,11,56,葉楚航,李寶利,5-3/4,119.0,131,10 11 8,1.11.09,1089,TT1,,醉開心
28,29,55,12,01/10/18,"沙田草地""A+3""                                    ",1000,好,4,1,59,葉楚航,賴維銘                                    ,17,77.0,133,9 8 12,0.59.98,1064,--,,醉開心
29,30,767,8,01/07/18,"沙田草地""B""                                    ",1200,好,3,9,64,葉楚航,吳嘉晉                                    ,6-3/4,372.0,119,12 11 8,1.10.72,1092,--,,醉開心
30,31,720,11,10/06/18,"沙田草地""C""                                    ",1200,好/快,3,10,67,葉楚航,賴維銘                                    ,8-1/4,246.0,122,11 11 11,1.10.31,1107,--,,醉開心
31,32,666,11,20/05/18,"沙田草地""C+3""                                    ",1200,好/快,3,3,69,葉楚航,田泰安,8-3/4,196.0,122,9 8 11,1.10.69,1097,--,,醉開心
32,33,591,7,21/04/18,"沙田草地""C+3""                                    ",1200,好,3,1,71,葉楚航,何澤堯,7-3/4,172.0,122,9 9 7,1.10.88,1090,--,,醉開心
33,34,542,10,02/04/18,"沙田草地""B+2""                                    ",1200,好,3,2,71,葉楚航,史卓豐,7-3/4,36.0,124,6 7 10,1.10.52,1060,--,,醉開心
