,Unnamed: 0,場次,名次,日期,馬場/跑道/賽道,途程,場地狀況,賽事班次,檔位,評分,練馬師,騎師,頭馬距離,獨贏賠率,實際負磅,沿途走位,完成時間,排位體重,配備,賽事重播,馬名
0,1,509,12,17/03/21,"跑馬地草地""C""                                    ",1200,好/快,4,8,57,呂健威,楊明綸,30-3/4,214,130,2 3 12,1.14.16,1127,B-/PC2,,錶之鈴
1,2,454,12,24/02/21,"跑馬地草地""C+3""                                    ",1000,好/快,3,2,61,呂健威,楊明綸,13-1/4,97,115,3 3 12,0.58.99,1126,B,,錶之鈴
2,3,419,11,10/02/21,"跑馬地草地""B""                                    ",1000,好,3,8,64,呂健威,楊明綸,13,243,119,2 4 11,0.59.13,1118,B,,錶之鈴
3,4,380,12,27/01/21,"跑馬地草地""C+3""                                    ",1000,好,3,1,67,呂健威,潘明輝,12,80,121,7 6 12,0.58.64,1125,PC-/B2/TT-,,錶之鈴
4,5,274,11,16/12/20,"跑馬地草地""C""                                    ",1000,好,3,2,70,呂健威,潘明輝,5-1/4,116,122,10 8 11,0.57.65,1116,PC/TT,,錶之鈴
5,6,224,9,29/11/20,沙田全天候                                    ,1200,好,3,3,72,呂健威,巴度,8,31,125,3 5 9,1.10.12,1118,B-/PC1/TT,,錶之鈴
6,7,119,12,18/10/20,"沙田草地""B+2""                                    ",1200,好/快,3,7,74,呂健威,楊明綸,10-1/2,132,127,1 1 12,1.10.63,1110,B1/TT1,,錶之鈴
7,8,807,8,08/07/20,"跑馬地草地""A""                                    ",1000,好,3,6,75,呂健威,楊明綸,8-1/2,54,132,10 10 8,0.58.24,1150,--,,錶之鈴
