,Unnamed: 0,場次,名次,日期,馬場/跑道/賽道,途程,場地狀況,賽事班次,檔位,評分,練馬師,騎師,頭馬距離,獨贏賠率,實際負磅,沿途走位,完成時間,排位體重,配備,賽事重播,馬名
0,1,699,5,23/05/21,"沙田草地""A""                                    ",1200,好/快,3,3,71,告東尼,潘明輝,3-1/4,15.0,126,3 3 5,1.09.23,1126,XB/TT,,風雨駒
1,2,611,5,21/04/21,"跑馬地草地""C""                                    ",1200,好/快,3,3,72,告東尼,潘頓,1-3/4,8.5,128,6 6 5,1.09.74,1123,XB/TT,,風雨駒
2,3,562,6,05/04/21,"沙田草地""B+2""                                    ",1200,好,3,7,74,告東尼,周俊樂,2-1/4,12.0,120,9 10 6,1.09.53,1128,XB/TT,,風雨駒
3,4,486,10,07/03/21,沙田全天候                                    ,1200,好,3,9,76,告東尼,何澤堯,7-1/4,41.0,130,10 10 10,1.09.49,1136,XB/TT,,風雨駒
4,5,400,6,03/02/21,"跑馬地草地""A""                                    ",1200,好,3,3,78,告東尼,蔡明紹,5,8.8,132,5 7 6,1.10.15,1139,XB/TT,,風雨駒
5,6,344,9,13/01/21,"跑馬地草地""B""                                    ",1200,好,3,9,79,告東尼,周俊樂,2-1/2,8.3,126,7 7 9,1.10.25,1149,XB/TT,,風雨駒
6,7,293,4,23/12/20,"跑馬地草地""C+3""                                    ",1200,好/快,3,3,79,告東尼,賀銘年,2-1/4,8.3,132,7 7 4,1.09.64,1141,XB/TT,,風雨駒
7,8,238,4,02/12/20,"跑馬地草地""A""                                    ",1200,好,3,2,79,告東尼,周俊樂,1-1/4,4.2,125,6 7 4,1.10.23,1139,XB/TT,,風雨駒
8,9,200,1,18/11/20,"跑馬地草地""C""                                    ",1200,好,3,4,72,告東尼,周俊樂,1,6.5,118,7 7 1,1.09.34,1127,XB/TT,,風雨駒
9,10,145,10,28/10/20,"跑馬地草地""C+3""                                    ",1200,好,3,8,73,告東尼,周俊樂,6-1/2,4.0,118,2 2 10,1.10.75,1144,XB/TT,,風雨駒
10,11,91,4,07/10/20,"跑馬地草地""A""                                    ",1200,好,3,12,73,告東尼,潘頓,1,4.1,131,2 2 4,1.10.29,1145,XB/TT,,風雨駒
11,12,30,2,16/09/20,"跑馬地草地""C""                                    ",1200,好/快,3,7,73,告東尼,潘頓,1-3/4,4.5,128,1 1 2,1.09.30,1128,XB/TT,,風雨駒
12,13,785,4,01/07/20,"沙田草地""C""                                    ",1200,好/快,3,7,73,告東尼,潘頓,4-1/2,2.0,130,1 2 4,1.09.11,1131,XB/TT,,風雨駒
13,14,748,2,14/06/20,"沙田草地""C+3""                                    ",1200,好/快,3,1,70,告東尼,潘頓,短馬頭位,2.9,128,6 4 2,1.09.29,1132,XB1/TT,,風雨駒
14,15,669,5,17/05/20,"沙田草地""C+3""                                    ",1200,好/快,3,12,70,告東尼,何澤堯,3,5.3,123,1 2 5,1.09.36,1132,TT,,風雨駒
15,16,625,3,03/05/20,"沙田草地""B""                                    ",1200,好/快,3,14,69,告東尼,田泰安,1-1/2,7.5,122,13 12 3,1.08.93,1140,TT,,風雨駒
16,17,581,5,15/04/20,"跑馬地草地""C""                                    ",1200,好,3,3,71,告東尼,田泰安,2-1/2,8.2,124,3 2 5,1.09.72,1137,TT,,風雨駒
17,18,533,5,29/03/20,"沙田草地""A+3""                                    ",1000,好,3,3,73,告東尼,何澤堯,2-3/4,36.0,126,13 10 5,0.56.84,1135,TT,,風雨駒
18,19,503,6,18/03/20,"跑馬地草地""C+3""                                    ",1000,好,3,5,73,告東尼,何澤堯,2-3/4,10.0,128,6 6 6,0.57.26,1133,TT1,,風雨駒
