,Unnamed: 0,場次,名次,日期,馬場/跑道/賽道,途程,場地狀況,賽事班次,檔位,評分,練馬師,騎師,頭馬距離,獨贏賠率,實際負磅,沿途走位,完成時間,排位體重,配備,賽事重播,馬名
0,1,684,12,19/05/21,"跑馬地草地""B""                                    ",1200,好/快,4,9,50,蘇偉賢,賀銘年,10-1/4,41,123,11 12 12,1.11.26,1136,B/E/TT,,馬功臣
1,2,643,4,05/05/21,"跑馬地草地""A""                                    ",1200,好,4,5,50,蘇偉賢,賀銘年,1,18,123,5 6 4,1.09.84,1136,B/E/TT,,馬功臣
2,3,587,11,14/04/21,"跑馬地草地""B""                                    ",1200,好/快,4,12,52,蘇偉賢,賀銘年,8-3/4,32,125,12 12 11,1.11.46,1146,B/E/TT,,馬功臣
3,4,510,7,17/03/21,"跑馬地草地""C""                                    ",1200,好/快,4,12,54,蘇偉賢,賀銘年,6,29,128,11 10 7,1.11.14,1141,B/E/TT,,馬功臣
4,5,433,3,17/02/21,"跑馬地草地""C""                                    ",1200,好,4,7,54,蘇偉賢,賀銘年,2,14,127,5 5 3,1.10.05,1152,B/E/TT,,馬功臣
5,6,341,8,13/01/21,"跑馬地草地""B""                                    ",1200,好,4,9,56,蘇偉賢,彭國年,7,18,132,12 11 8,1.11.12,1168,B/E/TT,,馬功臣
6,7,215,7,25/11/20,"跑馬地草地""C+3""                                    ",1200,好,4,10,58,蘇偉賢,周俊樂,1-3/4,15,124,11 12 7,1.10.14,1152,B/E/TT,,馬功臣
7,8,150,6,01/11/20,"沙田草地""A""                                    ",1200,好/快,4,11,59,蘇偉賢,周俊樂,2-1/2,15,123,11 11 6,1.09.40,1150,B/E/TT,,馬功臣
8,9,119,9,18/10/20,"沙田草地""B+2""                                    ",1200,好/快,3,4,61,蘇偉賢,波健士,4-1/4,45,114,9 10 9,1.09.62,1148,B/E/TT,,馬功臣
9,10,69,5,01/10/20,"沙田草地""B""                                    ",1200,好,3,4,63,蘇偉賢,波健士,3-1/2,41,116,7 7 5,1.09.49,1143,B/E/TT,,馬功臣
10,11,30,5,16/09/20,"跑馬地草地""C""                                    ",1200,好/快,3,8,64,蘇偉賢,波健士,3-3/4,18,119,8 6 5,1.09.64,1144,B/E/TT,,馬功臣
11,12,17,4,09/09/20,"跑馬地草地""B""                                    ",1200,好,3,11,64,蘇偉賢,波健士,2-3/4,80,118,10 10 4,1.09.73,1146,B/E/TT,,馬功臣
12,13,806,6,08/07/20,"跑馬地草地""A""                                    ",1200,好,3,4,64,蘇偉賢,賀銘年,5-1/2,14,118,4 4 6,1.10.36,1149,B/E/TT,,馬功臣
13,14,733,1,10/06/20,"跑馬地草地""B""                                    ",1200,好/快,4,3,58,蘇偉賢,賀銘年,1/2,9,132,3 3 1,1.10.23,1146,B/E/TT,,馬功臣
14,15,654,3,13/05/20,"跑馬地草地""C""                                    ",1200,好,4,6,58,蘇偉賢,賀銘年,2-1/2,12,133,7 5 3,1.10.53,1138,B/E/TT,,馬功臣
15,16,594,6,22/04/20,"跑馬地草地""C+3""                                    ",1200,好,4,12,58,蘇偉賢,田泰安,2,18,133,11 10 6,1.10.97,1138,B/E/TT,,馬功臣
16,17,557,8,08/04/20,"跑馬地草地""B""                                    ",1200,好,4,11,58,蘇偉賢,田泰安,2-1/2,14,131,11 11 8,1.10.85,1140,B/E/TT,,馬功臣
17,18,466,1,04/03/20,"跑馬地草地""B""                                    ",1200,好,4,6,52,蘇偉賢,田泰安,3/4,4.5,125,8 8 1,1.10.31,1119,B/E/TT,,馬功臣
18,19,374,1,29/01/20,"跑馬地草地""B""                                    ",1200,好,4,3,46,蘇偉賢,田泰安,1,5.7,119,6 6 1,1.09.75,1111,B/E/TT,,馬功臣
19,20,315,3,08/01/20,"跑馬地草地""C""                                    ",1200,好,4,11,47,蘇偉賢,田泰安,1-1/2,20,121,10 12 3,1.10.10,1116,B/E/TT,,馬功臣
20,21,279,5,26/12/19,"跑馬地草地""A""                                    ",1200,好,4,8,47,蘇偉賢,田泰安,3,9.8,120,10 10 5,1.10.77,1130,B/E/TT,,馬功臣
21,22,220,2,04/12/19,"跑馬地草地""B""                                    ",1200,好,4,5,46,蘇偉賢,田泰安,1/2,5.2,121,6 5 2,1.10.22,1116,B/E/TT,,馬功臣
22,23,153,2,06/11/19,"跑馬地草地""B""                                    ",1200,好,4,4,44,蘇偉賢,田泰安,頸位,4.5,117,7 7 2,1.10.16,1105,B/E/TT,,馬功臣
23,24,106,4,20/10/19,"沙田草地""A""                                    ",1200,好/快,4,11,46,蘇偉賢,田泰安,2-3/4,17,119,5 5 4,1.08.91,1129,B/E/TT,,馬功臣
24,25,58,4,01/10/19,"沙田草地""A+3""                                    ",1200,好/快,4,12,47,蘇偉賢,田泰安,2-3/4,8.6,123,13 8 4,1.09.53,1120,B/E/TT,,馬功臣
25,26,14,3,08/09/19,"沙田草地""C""                                    ",1200,好/快,4,11,47,蘇偉賢,田泰安,3-1/4,16,123,11 9 3,1.09.33,1117,B/E/TT,,馬功臣
26,27,671,11,18/05/19,"沙田草地""C+3""                                    ",1400,好/快,4,10,52,蘇偉賢,貝力斯,5-1/4,46,125,10 10 9 11,1.22.73,1102,B/E/TT,,馬功臣
27,28,623,6,01/05/19,"跑馬地草地""C+3""                                    ",1200,好,4,5,54,蘇偉賢,利敬國,2-3/4,11,127,11 10 6,1.10.42,1122,E/B2/TT,,馬功臣
28,29,557,8,07/04/19,"沙田草地""B+2""                                    ",1400,好/快,4,11,57,蘇偉賢,夏禮賢                                    ,8-1/4,34,130,14 13 11 8,1.22.97,1121,E/TT,,馬功臣
29,30,518,7,23/03/19,"從化草地""A""                                    ",1200,好,4R,5,59,蘇偉賢,蔡明紹,3-1/4,--,130,7 7 7,1.11.94,1126,E/TT,,馬功臣
30,31,450,5,24/02/19,"沙田草地""B+2""                                    ",1200,好,3,9,61,蘇偉賢,蔡明紹,4-1/4,37,114,14 13 5,1.10.17,1128,E/TT,,馬功臣
31,32,427,10,17/02/19,"沙田草地""A+3""                                    ",1200,好,3,14,63,蘇偉賢,梁家俊,4-1/2,35,118,13 13 10,1.10.46,1136,E1/TT,,馬功臣
32,33,355,9,20/01/19,"沙田草地""A+3""                                    ",1000,好/快,3,2,65,蘇偉賢,史卓豐,4-1/4,34,118,13 10 9,0.57.31,1135,TT,,馬功臣
33,34,295,4,29/12/18,"沙田草地""B+2""                                    ",1000,好,3,5,67,蘇偉賢,史卓豐,3,10,122,9 9 4,0.57.90,1130,TT,,馬功臣
34,35,237,9,09/12/18,"沙田草地""A""                                    ",1200,好,3,1,69,蘇偉賢,莫艾誠,7-3/4,11,122,7 7 9,1.10.14,1126,TT,,馬功臣
35,36,159,11,07/11/18,"跑馬地草地""B""                                    ",1200,好,3,1,71,蘇偉賢,潘明輝,8,5.8,121,10 10 11,1.11.17,1148,TT,,馬功臣
36,37,106,5,18/10/18,"跑馬地草地""C""                                    ",1000,好,3,6,71,蘇偉賢,沈拿,2-3/4,13,125,10 10 5,0.57.71,1157,TT,,馬功臣
37,38,806,13,15/07/18,"沙田草地""A""                                    ",1200,黏,3,13,71,蘇偉賢,梁家俊,12-3/4,26,125,13 11 13,1.11.73,1118,TT,,馬功臣
38,39,749,4,24/06/18,"沙田草地""A""                                    ",1200,好/快,3,4,71,蘇偉賢,梁家俊,4-1/4,7.5,124,10 9 4,1.09.31,1121,TT,,馬功臣
39,40,721,1,10/06/18,"沙田草地""C""                                    ",1200,好/快,3,4,64,蘇偉賢,梁家俊,1-1/4,5.4,118,9 9 1,1.08.76,1112,TT,,馬功臣
40,41,655,7,16/05/18,"跑馬地草地""B""                                    ",1200,好/快,3,10,66,蘇偉賢,李寶利,4,12,119,12 11 7,1.10.62,1114,TT,,馬功臣
41,42,602,4,25/04/18,"跑馬地草地""C""                                    ",1200,好,3,9,66,蘇偉賢,李寶利,1-1/4,7.1,122,11 10 4,1.10.18,1111,TT,,馬功臣
42,43,583,2,18/04/18,"跑馬地草地""B""                                    ",1200,好,3,7,65,蘇偉賢,梁家俊,1-1/4,9.5,119,8 8 2,1.10.18,1112,B-/TT,,馬功臣
43,44,516,5,21/03/18,"跑馬地草地""C""                                    ",1200,好,3,12,67,蘇偉賢,梁家俊,2-1/2,17,118,7 7 5,1.10.37,1124,B/TT,,馬功臣
44,45,432,12,18/02/18,"沙田草地""A""                                    ",1000,好,3,9,69,蘇偉賢,莫雷拉,7-1/2,3.9,122,1 1 12,0.58.03,1126,B/TT,,馬功臣
45,46,305,3,27/12/17,"跑馬地草地""A""                                    ",1000,好,3,11,70,蘇偉賢,潘頓,1-3/4,4.8,123,9 8 3,0.57.33,1133,B1/TT1,,馬功臣
46,47,232,3,29/11/17,"跑馬地草地""A""                                    ",1200,好,3,8,71,蘇偉賢,莫雷拉,1-3/4,2.9,125,6 6 3,1.10.41,1136,--,,馬功臣
47,48,124,3,18/10/17,"跑馬地草地""C""                                    ",1200,好/快,3,3,71,蘇偉賢,莫雷拉,3/4,2.1,124,4 3 3,1.10.09,1124,--,,馬功臣
48,49,61,4,24/09/17,"沙田草地""A""                                    ",1200,好,3,13,71,蘇偉賢,莫雷拉,2-1/2,1.9,127,13 12 4,1.09.83,1125,--,,馬功臣
49,50,778,4,01/07/17,"沙田草地""A+3""                                    ",1200,好/快,3,13,71,蘇偉賢,莫雷拉,1-1/4,2.5,126,9 9 4,1.09.69,1098,--,,馬功臣
50,51,720,3,11/06/17,"沙田草地""C""                                    ",1200,好/快,3,10,71,蘇偉賢,莫雷拉,1-1/2,2.1,124,10 9 3,1.09.35,1094,--,,馬功臣
