,Unnamed: 0,場次,名次,日期,馬場/跑道/賽道,途程,場地狀況,賽事班次,檔位,評分,練馬師,騎師,頭馬距離,獨贏賠率,實際負磅,沿途走位,完成時間,排位體重,配備,賽事重播,馬名
0,1,666,8,12/05/21,沙田全天候                                    ,1200,好,4,7,59,文家良,巴度,5-1/2,4.0,133,7 6 8,1.09.62,1092,CP/TT,,駿皇星
1,2,552,1,31/03/21,沙田全天候                                    ,1200,好,4,10,52,文家良,巴度,1-1/4,4.7,125,4 3 1,1.08.85,1080,CP/TT,,駿皇星
2,3,480,2,07/03/21,沙田全天候                                    ,1200,濕慢,4,1,51,文家良,賀銘年,1,6.5,126,1 1 2,1.08.71,1082,CP/TT,,駿皇星
3,4,360,10,20/01/21,"跑馬地草地""C""                                    ",1200,好,4,2,52,文家良,梁家俊,9-1/2,12.0,125,3 3 10,1.11.14,1089,CP/TT,,駿皇星
4,5,234,6,02/12/20,"跑馬地草地""A""                                    ",1200,好,4,8,54,文家良,陳嘉熙,4,58.0,120,1 1 6,1.11.29,1079,XB-/CP/TT,,駿皇星
5,6,178,6,11/11/20,"跑馬地草地""B""                                    ",1200,好,4,5,56,文家良,莫雷拉,5,16.0,132,4 4 6,1.11.00,1076,CP/XB/TT,,駿皇星
6,7,132,8,24/10/20,"沙田草地""C""                                    ",1200,好,4,12,58,文家良,陳嘉熙,10,94.0,125,6 6 8,1.10.45,1076,H-/XB/CP2/TT,,駿皇星
7,8,76,8,04/10/20,"沙田草地""C+3""                                    ",1200,好,4,1,59,文家良,梁家俊,6-3/4,17.0,133,3 4 8,1.10.34,1059,H/XB/TT,,駿皇星
8,9,792,6,05/07/20,"沙田草地""C+3""                                    ",1000,好/快,4,4,59,約翰摩亞,陳嘉熙,6,46.0,124,6 7 6,0.56.05,1082,H/XB/TT,,駿皇星
9,10,752,12,21/06/20,"沙田草地""A""                                    ",1200,好/快,4,2,59,約翰摩亞,陳嘉熙,6-1/4,7.5,126,5 4 12,1.10.17,1072,H/XB/TT,,駿皇星
10,11,720,1,07/06/20,"沙田草地""C""                                    ",1200,黏,4,2,52,約翰摩亞,陳嘉熙,1-3/4,10.0,118,3 3 1,1.09.98,1088,CP-/H1/XB2/TT,,駿皇星
11,12,654,10,13/05/20,"跑馬地草地""C""                                    ",1200,好,4,1,55,約翰摩亞,郭能,9-1/2,8.1,130,1 1 10,1.11.64,1098,XB-/CP1/TT,,駿皇星
12,13,624,6,03/05/20,"沙田草地""B""                                    ",1000,好,4,11,57,約翰摩亞,薛恩,4-1/4,35.0,130,8 8 6,0.56.46,1098,XB2/TT,,駿皇星
13,14,578,11,15/04/20,"跑馬地草地""C""                                    ",1200,好,4,8,60,約翰摩亞,潘頓,8-1/4,25.0,133,4 4 11,1.11.05,1109,TT,,駿皇星
14,15,553,8,05/04/20,"沙田草地""B+2""                                    ",1200,好,3,6,62,約翰摩亞,梁家俊,12-3/4,37.0,118,5 4 8,1.11.61,1095,XB-/TT,,駿皇星
15,16,507,9,18/03/20,"跑馬地草地""C+3""                                    ",1200,好,3,8,64,約翰摩亞,蔡明紹,7,21.0,117,11 10 9,1.10.68,1099,XB/TT,,駿皇星
16,17,461,5,01/03/20,"沙田草地""B+2""                                    ",1200,好,3,6,66,約翰摩亞,潘頓,4,9.1,121,9 7 5,1.09.66,1095,XB/TT,,駿皇星
17,18,398,6,05/02/20,"跑馬地草地""C""                                    ",1200,好,3,7,68,約翰摩亞,利敬國,3-3/4,44.0,121,2 2 6,1.10.11,1089,XB2/TT1,,駿皇星
18,19,341,11,15/01/20,"跑馬地草地""C+3""                                    ",1200,好,3,8,70,約翰摩亞,利敬國,8-1/4,26.0,123,1 1 11,1.10.76,1082,--,,駿皇星
19,20,271,8,21/12/19,"沙田草地""A+3""                                    ",1200,好,3,9,72,約翰摩亞,貝力斯,5-3/4,78.0,125,9 9 8,1.10.29,1087,XB-,,駿皇星
20,21,229,14,08/12/19,"沙田草地""A""                                    ",1200,好,3,12,72,約翰摩亞,麥道朗,10-3/4,15.0,125,4 4 14,1.10.76,1084,XB1,,駿皇星
