,Unnamed: 0,場次,名次,日期,馬場/跑道/賽道,途程,場地狀況,賽事班次,檔位,評分,練馬師,騎師,頭馬距離,獨贏賠率,實際負磅,沿途走位,完成時間,排位體重,配備,賽事重播,馬名
0,1,314,11,01/01/21,"沙田草地""B+2""                                    ",1200,好,2,9,96,大衛希斯,薛恩,5,21.0,133,6 7 11,1.09.99,1019,H-/XB1/TT-,,駿龍駒
1,2,649,3,09/05/20,"沙田草地""C""                                    ",1400,好/快,1,8,95,羅富全,潘頓,1-1/4,7.0,126,10 9 8 3,1.21.09,1044,H/TT,,駿龍駒
2,3,573,3,12/04/20,"沙田草地""C""                                    ",1400,好,2,10,95,羅富全,潘頓,2-1/4,4.4,128,4 4 3 3,1.21.10,1030,H/TT,,駿龍駒
3,4,516,7,22/03/20,"沙田草地""A""                                    ",2000,好/快,4YO,14,95,羅富全,史卓豐,5-1/4,121.0,126,13 14 14 13 7,2.00.97,1043,H/TT,,駿龍駒
4,5,463,2,01/03/20,"沙田草地""B+2""                                    ",1400,好,2,8,93,羅富全,潘頓,頸位,4.8,131,4 5 3 2,1.21.19,1053,H1/TT,,駿龍駒
5,6,368,8,27/01/20,"沙田草地""B+2""                                    ",1600,好,4YO,2,93,羅富全,蘇兆輝,6-1/2,25.0,126,2 3 3 8,1.34.66,1044,TT1,,駿龍駒
6,7,313,3,05/01/20,"沙田草地""C+3""                                    ",1400,好,2,9,93,羅富全,潘頓,2,4.7,130,9 12 11 3,1.21.70,1050,--,,駿龍駒
7,8,253,3,15/12/19,"沙田草地""C+3""                                    ",1400,好,2,9,93,羅富全,潘頓,1-3/4,9.9,123,8 7 7 3,1.21.08,1038,--,,駿龍駒
