,Unnamed: 0,場次,名次,日期,馬場/跑道/賽道,途程,場地狀況,賽事班次,檔位,評分,練馬師,騎師,頭馬距離,獨贏賠率,實際負磅,沿途走位,完成時間,排位體重,配備,賽事重播,馬名
0,1,309,13,01/01/21,"沙田草地""B+2""                                    ",1800,好,5,9,36,蘇偉賢,彭國年,6-1/4,16.0,130,5 3 4 4 13,1.49.81,1137,B,,驃騎飛
1,2,242,1,06/12/20,沙田全天候                                    ,1650,好,5,3,30,蘇偉賢,彭國年,2,8.5,125,4 5 3 1,1.39.72,1132,B,,驃騎飛
2,3,159,5,04/11/20,沙田全天候                                    ,1650,好,5,5,32,蘇偉賢,彭國年,6,10.0,125,11 11 9 5,1.41.82,1120,B,,驃騎飛
3,4,820,10,15/07/20,"跑馬地草地""B""                                    ",1800,好/快,5,3,36,蘇偉賢,田泰安,4-1/4,5.8,129,7 8 9 6 10,1.50.45,1111,B,,驃騎飛
4,5,769,4,27/06/20,沙田全天候                                    ,1650,好,5,3,36,蘇偉賢,田泰安,2-1/4,5.0,129,6 6 3 4,1.40.54,1106,B,,驃騎飛
5,6,472,9,08/03/20,"沙田草地""C""                                    ",1400,好,5,4,38,蘇偉賢,黎海榮,5-1/4,84.0,131,12 13 12 9,1.23.53,1107,B1,,驃騎飛
6,7,402,12,08/02/20,"沙田草地""C+3""                                    ",1400,好,4,14,40,蘇偉賢,黎海榮,9-1/4,136.0,114,14 12 13 12,1.23.55,1110,--,,驃騎飛
7,8,355,5,22/01/20,"跑馬地草地""A""                                    ",1650,好,4,8,42,蘇偉賢,黃皓楠,3-3/4,174.0,113,9 9 9 5,1.40.73,1126,--,,驃騎飛
8,9,277,10,26/12/19,"跑馬地草地""A""                                    ",1650,好,4,9,44,蘇偉賢,蘇狄雄,5-1/4,175.0,117,11 10 10 10,1.41.46,1110,--,,驃騎飛
9,10,243,8,11/12/19,"跑馬地草地""C""                                    ",1650,好,4,11,46,蘇偉賢,蘇狄雄,4-1/2,229.0,118,12 12 12 8,1.40.88,1119,--,,驃騎飛
10,11,184,9,20/11/19,"跑馬地草地""C+3""                                    ",1650,好/快,4,12,48,蘇偉賢,梁家俊,6,147.0,122,12 12 11 9,1.41.29,1130,--,,驃騎飛
11,12,129,8,27/10/19,沙田全天候                                    ,1200,好,4,4,50,蘇偉賢,蘇狄雄,5-1/2,180.0,121,11 11 8,1.10.53,1125,--,,驃騎飛
12,13,59,13,01/10/19,"沙田草地""A+3""                                    ",1200,好/快,4,6,52,蘇偉賢,貝力斯,8-1/2,419.0,128,13 13 13,1.10.19,1128,--,,驃騎飛
13,14,15,10,08/09/19,沙田全天候                                    ,1200,好,4,3,52,蘇偉賢,蘇狄雄,7-3/4,309.0,125,12 12 10,1.10.72,1133,--,,驃騎飛
