,Unnamed: 0,場次,名次,日期,馬場/跑道/賽道,途程,場地狀況,賽事班次,檔位,評分,練馬師,騎師,頭馬距離,獨贏賠率,實際負磅,沿途走位,完成時間,排位體重,配備,賽事重播,馬名
0,1,661,14,08/05/21,沙田全天候                                    ,1650,好,2,12,103,羅富全,梁家俊,28-3/4,20,133,5 3 12 14,1.40.74,1138,CP,,黃金甲
1,2,554,05,31/03/21,沙田全天候                                    ,1650,好,2,3,104,羅富全,梁家俊,2-3/4,10,133,1 3 3 5,1.37.71,1127,CP,,黃金甲
2,3,499,06,13/03/21,"沙田草地""C+3""                                    ",1600,好,1,7,106,羅富全,何澤堯,6-1/4,61,117,1 1 1 6,1.34.65,1124,CP,,黃金甲
3,4,428,09,14/02/21,"沙田草地""A""                                    ",1400,好,1,8,108,羅富全,潘明輝,14-1/2,67,130,1 1 1 9,1.23.66,1133,CP,,黃金甲
4,5,347,05,17/01/21,沙田全天候                                    ,1650,好,1,3,109,羅富全,潘頓,8,1.7,133,1 1 2 5,1.39.15,1140,CP,,黃金甲
5,6,313,08,01/01/21,"沙田草地""B+2""                                    ",1400,好,G3,6,109,羅富全,梁家俊,12,67,118,1 2 7 8,1.22.89,1145,CP,,黃金甲
6,7,227,12,29/11/20,"沙田草地""C""                                    ",1600,好,1,7,109,羅富全,史卓豐,5-3/4,115,132,1 1 1 12,1.35.02,1154,CP,,黃金甲
7,8,165,01,04/11/20,沙田全天候                                    ,1650,好,2,10,98,羅富全,潘頓,3-3/4,2.3,129,1 1 1 1,1.39.22,1152,CP,,黃金甲
8,9,118,07,18/10/20,沙田全天候                                    ,1200,好,2,10,99,羅富全,梁家俊,3-3/4,10,133,5 6 7,1.08.98,1158,CP,,黃金甲
9,10,812,08,12/07/20,"沙田草地""A""                                    ",1600,好/快,1,5,99,羅富全,梁家俊,5-3/4,35,124,1 1 1 8,1.35.20,1139,CP,,黃金甲
10,11,766,12,24/06/20,"跑馬地草地""C""                                    ",1650,好/快,2,2,99,羅富全,陳嘉熙,5-1/4,5.9,126,1 1 1 12,1.39.86,1151,CP,,黃金甲
11,12,693,01,27/05/20,沙田全天候                                    ,1650,好,2,6,90,羅富全,潘頓,2-1/2,1.8,126,1 1 1 1,1.36.75,1147,CP,,黃金甲
12,13,649,10,09/05/20,"沙田草地""C""                                    ",1400,好/快,1,12,91,羅富全,楊明綸,6-1/2,85,122,7 10 11 10,1.21.92,1151,CP,,黃金甲
13,14,591,04,19/04/20,沙田全天候                                    ,1200,好,2,3,91,羅富全,梁家俊,5,6.4,128,3 4 4,1.08.07,1147,CP,,黃金甲
14,15,544,02,01/04/20,沙田全天候                                    ,1650,濕慢,2,12,88,羅富全,梁家俊,1-1/4,6.9,125,1 1 1 2,1.38.09,1148,CP,,黃金甲
15,16,481,09,08/03/20,"沙田草地""C""                                    ",1000,好,2,4,88,羅富全,梁家俊,4,271,125,8 12 9,0.55.74,1150,CP,,黃金甲
16,17,407,12,08/02/20,"沙田草地""C+3""                                    ",1200,好,2,3,88,羅富全,梁家俊,8-1/2,87,118,3 4 12,1.10.36,1139,CP,,黃金甲
17,18,739,01,12/06/19,沙田全天候                                    ,1650,濕慢,3,7,77,羅富全,梁家俊,4-3/4,7.6,130,1 1 1 1,1.38.13,1125,CP,,黃金甲
18,19,674,WV-A,18/05/19,"沙田草地""C+3""                                    ",1600,好/快,3,--,77,羅富全,梁家俊,--,--,130,--,--,--,--,--,黃金甲
19,20,592,03,17/04/19,"跑馬地草地""B""                                    ",1650,好,3,7,78,羅富全,梁家俊,2-1/2,14,131,1 1 2 3,1.40.21,1124,CP1,,黃金甲
20,21,529,06,24/03/19,"沙田草地""C+3""                                    ",1400,好,3,5,79,羅富全,梁家俊,2-1/4,20,132,7 8 7 6,1.23.09,1121,--,,黃金甲
21,22,495,05,13/03/19,"跑馬地草地""B""                                    ",1650,好,3,3,80,羅富全,梁家俊,2,15,133,4 5 5 5,1.40.38,1130,--,,黃金甲
22,23,428,09,17/02/19,"沙田草地""A+3""                                    ",1400,好,2,10,82,羅富全,梁家俊,4-3/4,154,118,9 10 10 9,1.23.52,1133,--,,黃金甲
23,24,393,10,02/02/19,"沙田草地""C""                                    ",1600,好,2,2,84,羅富全,楊明綸,6,150,118,7 6 7 10,1.35.29,1141,--,,黃金甲
24,25,300,12,29/12/18,"沙田草地""B+2""                                    ",1400,好,2,7,86,羅富全,祈普敦                                    ,11-1/4,98,123,9 10 9 12,1.23.34,1137,--,,黃金甲
25,26,244,12,09/12/18,"沙田草地""A""                                    ",1200,好,2,13,86,羅富全,巴米高,4-3/4,16,121,12 13 12,1.10.51,1125,--,,黃金甲
