,Unnamed: 0,場次,名次,日期,馬場/跑道/賽道,途程,場地狀況,賽事班次,檔位,評分,練馬師,騎師,頭馬距離,獨贏賠率,實際負磅,沿途走位,完成時間,排位體重,配備,賽事重播,馬名
0,1,689,4,23/05/21,"沙田草地""A""                                    ",1200,好/快,GRIFFIN,5,--,韋達,班德禮,5,11.0,126,5 5 4,1.10.05,1226,B,,龍來了
1,2,632,7,02/05/21,"沙田草地""B""                                    ",1000,好,GRIFFIN,4,--,韋達,周俊樂,4-1/4,3.7,119,8 7 7,0.57.74,1231,B,,龍來了
2,3,574,3,11/04/21,"沙田草地""C""                                    ",1000,好,GRIFFIN,9,--,韋達,周俊樂,1-1/4,7.5,119,8 7 3,0.57.15,1221,B1,,龍來了
