,Unnamed: 0,場次,名次,日期,馬場/跑道/賽道,途程,場地狀況,賽事班次,檔位,評分,練馬師,騎師,頭馬距離,獨贏賠率,實際負磅,沿途走位,完成時間,排位體重,配備,賽事重播,馬名
0,1,727,6,02/06/21,"跑馬地草地""A""                                    ",1650,好,3,11,76,蔡約翰,潘頓,2-1/4,5.6,133,10 10 11 6,1.40.47,1170,E,,一定美麗
1,2,678,1,16/05/21,"沙田草地""C+3""                                    ",1600,好/快,3,2,70,蔡約翰,潘頓,頸位,2.7,127,7 7 4 1,1.33.99,1167,E,,一定美麗
2,3,640,4,02/05/21,"沙田草地""B""                                    ",1800,好,3,6,71,蔡約翰,潘頓,2,5.0,125,7 5 2 2 4,1.47.42,1157,E,,一定美麗
3,4,616,6,25/04/21,"沙田草地""A""                                    ",1600,好,3,12,72,蔡約翰,史卓豐,1-3/4,5.4,130,3 4 4 6,1.35.12,1164,E,,一定美麗
4,5,583,5,11/04/21,"沙田草地""C""                                    ",1400,好,3,6,72,蔡約翰,莫雷拉,2-1/4,3.7,125,11 11 10 5,1.21.77,1161,E,,一定美麗
5,6,540,3,28/03/21,"沙田草地""A+3""                                    ",1400,好/快,3,8,72,蔡約翰,莫雷拉,1,3.6,127,7 8 7 3,1.21.47,1176,E1,,一定美麗
