,Unnamed: 0,場次,名次,日期,馬場/跑道/賽道,途程,場地狀況,賽事班次,檔位,評分,練馬師,騎師,頭馬距離,獨贏賠率,實際負磅,沿途走位,完成時間,排位體重,配備,賽事重播,馬名
0,1,712,14,30/05/21,"沙田草地""B""                                    ",1400,好/快,4,13,50,呂健威,巴度,13-1/4,14.0,123,10 14 14 14,1.24.00,1062,B,,五邑之星
1,2,629,7,28/04/21,"跑馬地草地""C+3""                                    ",1200,好,4,11,50,呂健威,莫雷拉,2-1/4,3.3,123,9 9 7,1.10.52,1079,B,,五邑之星
2,3,570,2,08/04/21,"跑馬地草地""A""                                    ",1200,好/快,4,10,50,呂健威,潘頓,2,2.5,123,11 10 2,1.10.33,1072,B,,五邑之星
3,4,492,2,10/03/21,"跑馬地草地""B""                                    ",1200,好,4,4,48,呂健威,莫雷拉,短馬頭位,2.6,121,3 3 2,1.10.07,1078,B,,五邑之星
4,5,405,4,06/02/21,"沙田草地""C""                                    ",1200,好,4,12,50,呂健威,何澤堯,2-1/2,10.0,123,2 3 4,1.09.66,1068,B1,,五邑之星
5,6,298,7,26/12/20,"沙田草地""A+3""                                    ",1200,好,4,8,52,呂健威,何澤堯,4-3/4,17.0,126,10 11 7,1.10.01,1095,--,,五邑之星
6,7,243,6,06/12/20,"沙田草地""C+3""                                    ",1200,好,4,11,52,呂健威,何澤堯,2,31.0,125,6 6 6,1.10.11,1099,--,,五邑之星
