,Unnamed: 0,場次,名次,日期,馬場/跑道/賽道,途程,場地狀況,賽事班次,檔位,評分,練馬師,騎師,頭馬距離,獨贏賠率,實際負磅,沿途走位,完成時間,排位體重,配備,賽事重播,馬名
0,1,711,2,30/05/21,"沙田草地""B""                                    ",1600,好/快,G3,7,106,羅富全,巴度,短馬頭位,5.8,114,2 2 2 2,1.33.47,1160,V/TT,,健康愉快
1,2,619,4,25/04/21,"沙田草地""A""                                    ",1600,好,G1,2,101,羅富全,巴度,4,20.0,126,1 1 1 4,1.34.08,1161,V/TT,,健康愉快
2,3,524,6,21/03/21,"沙田草地""A""                                    ",2000,好,4YO,3,101,羅富全,巴度,2-1/4,10.0,126,1 1 1 2 6,2.01.68,1155,V/TT,,健康愉快
3,4,449,1,21/02/21,"沙田草地""A+3""                                    ",1800,好,4YO,8,94,羅富全,巴度,頸位,22.0,126,1 1 1 1 1,1.47.21,1156,V/TT,,健康愉快
4,5,371,7,24/01/21,"沙田草地""A+3""                                    ",1600,好,4YO,14,94,羅富全,何澤堯,4,20.0,126,8 7 7 7,1.34.47,1171,V/TT,,健康愉快
5,6,285,1,20/12/20,"沙田草地""C+3""                                    ",1400,好,2,6,88,羅富全,田泰安,短馬頭位,5.6,124,3 3 2 1,1.21.66,1185,V/TT1,,健康愉快
6,7,230,6,29/11/20,"沙田草地""C""                                    ",1400,好,2,8,88,羅富全,史卓豐,2-1/4,2.9,126,4 5 4 6,1.21.09,1191,V,,健康愉快
7,8,100,1,11/10/20,"沙田草地""A+3""                                    ",1200,好,3,2,80,羅富全,史卓豐,1/2,9.2,133,5 3 1,1.08.54,1169,V1,,健康愉快
