,Unnamed: 0,場次,名次,日期,馬場/跑道/賽道,途程,場地狀況,賽事班次,檔位,評分,練馬師,騎師,頭馬距離,獨贏賠率,實際負磅,沿途走位,完成時間,排位體重,配備,賽事重播,馬名
0,1,699,4,23/05/21,"沙田草地""A""                                    ",1200,好/快,3,10,61,韋達,楊明綸,2-3/4,73,118,12 13 4,1.09.18,1141,SR/XB/TT-,,全勝神駒
1,2,668,9,12/05/21,"沙田草地""C+3""                                    ",1400,好/快,3,6,64,韋達,班德禮,16-1/2,67,118,5 2 4 9,1.23.71,1140,SR/XB/TT1,,全勝神駒
2,3,522,12,21/03/21,"沙田草地""A""                                    ",1400,好,3,3,66,韋達,周俊樂,4-3/4,63,114,5 6 7 12,1.22.36,1151,XB/SR1,,全勝神駒
3,4,431,11,14/02/21,"沙田草地""A""                                    ",1600,好,3,9,68,韋達,周俊樂,8-1/4,101,115,1 1 1 11,1.36.06,1150,XB,,全勝神駒
4,5,367,11,24/01/21,"沙田草地""A+3""                                    ",1400,好,3,6,68,韋達,周俊樂,3-3/4,50,115,4 2 2 11,1.22.76,1145,XB1,,全勝神駒
