,Unnamed: 0,場次,名次,日期,馬場/跑道/賽道,途程,場地狀況,賽事班次,檔位,評分,練馬師,騎師,頭馬距離,獨贏賠率,實際負磅,沿途走位,完成時間,排位體重,配備,賽事重播,馬名
0,1,680,8,19/05/21,"跑馬地草地""B""                                    ",1650,好/快,5,6,38,姚本輝,黃俊,4-1/2,16.0,126,2 1 1 8,1.40.13,1044,B-/CP1,,全心全意
1,2,601,14,17/04/21,"沙田草地""C+3""                                    ",1400,好,4,8,41,姚本輝,黃俊,23-1/4,187.0,110,4 2 5 14,1.26.06,1049,B,,全心全意
2,3,472,12,03/03/21,"跑馬地草地""A""                                    ",1200,好,4,8,44,姚本輝,馬雅,7-3/4,23.0,117,5 4 12,1.11.26,1044,B2,,全心全意
3,4,416,11,10/02/21,"跑馬地草地""B""                                    ",1200,好,4,7,47,姚本輝,梁家俊,8-1/2,17.0,120,5 6 11,1.11.85,1057,--,,全心全意
4,5,364,11,24/01/21,"沙田草地""A+3""                                    ",1000,好,4,14,49,姚本輝,黎海榮,7-3/4,72.0,122,4 5 11,0.57.78,1059,--,,全心全意
5,6,337,7,13/01/21,"跑馬地草地""B""                                    ",1200,好,4,12,51,姚本輝,梁家俊,3-1/2,55.0,125,3 3 7,1.11.23,1067,--,,全心全意
6,7,290,8,23/12/20,"跑馬地草地""C+3""                                    ",1200,好,4,5,53,姚本輝,梁家俊,4-3/4,42.0,126,4 4 8,1.10.31,1080,--,,全心全意
7,8,235,10,02/12/20,"跑馬地草地""A""                                    ",1200,好,4,9,55,姚本輝,波健士,13-1/2,85.0,128,7 7 10,1.12.21,1081,--,,全心全意
8,9,171,11,08/11/20,"跑馬地草地""A""                                    ",1200,好,4,7,56,姚本輝,潘明輝,7-1/4,22.0,127,3 3 11,1.11.68,1074,--,,全心全意
9,10,29,10,16/09/20,"跑馬地草地""C""                                    ",1650,好,4,8,56,姚本輝,莫雷拉,21-3/4,4.5,130,1 1 2 10,1.42.53,1092,--,,全心全意
10,11,762,11,24/06/20,"跑馬地草地""C""                                    ",1650,好/快,4,10,56,姚本輝,田泰安,11-3/4,7.8,131,1 1 2 11,1.41.06,1089,--,,全心全意
11,12,672,2,20/05/20,"跑馬地草地""C+3""                                    ",1650,好/快,4,3,54,姚本輝,田泰安,1-1/4,5.8,128,3 3 2 2,1.39.41,1078,--,,全心全意
12,13,614,2,29/04/20,"跑馬地草地""A""                                    ",1650,好/快,4,4,52,姚本輝,田泰安,3/4,5.1,126,1 1 1 2,1.40.29,1090,--,,全心全意
13,14,556,1,08/04/20,"跑馬地草地""B""                                    ",1650,好,4,10,47,姚本輝,田泰安,頸位,11.0,123,2 2 2 1,1.39.76,1089,B-,,全心全意
14,15,477,10,08/03/20,"沙田草地""C""                                    ",1400,好,4,4,49,姚本輝,史卓豐,5-3/4,21.0,124,5 5 5 10,1.23.32,1101,B/TT-,,全心全意
15,16,411,4,12/02/20,"跑馬地草地""C+3""                                    ",1200,好/快,4,9,50,姚本輝,史卓豐,4,23.0,124,7 7 4,1.09.84,1099,B/TT,,全心全意
16,17,353,6,22/01/20,"跑馬地草地""A""                                    ",1200,好,4,12,50,姚本輝,彭國年,5,8.9,123,1 1 6,1.10.52,1097,B/TT1,,全心全意
17,18,314,5,08/01/20,"跑馬地草地""C""                                    ",1200,好,4,5,50,姚本輝,史卓豐,2,4.0,123,4 3 5,1.10.34,1088,B,,全心全意
18,19,261,1,18/12/19,"跑馬地草地""C+3""                                    ",1200,好/快,4,1,43,姚本輝,史卓豐,1-1/2,15.0,117,5 3 1,1.09.64,1096,B1,,全心全意
19,20,200,9,27/11/19,"跑馬地草地""A""                                    ",1200,好,4,4,44,姚本輝,巴度,4-3/4,5.2,118,5 5 9,1.10.52,1102,--,,全心全意
20,21,156,4,06/11/19,"跑馬地草地""B""                                    ",1200,好,4,11,44,姚本輝,利敬國,2-1/4,9.6,117,4 4 4,1.10.52,1105,--,,全心全意
21,22,102,2,16/10/19,"跑馬地草地""C""                                    ",1200,好,4,2,43,姚本輝,利敬國,3/4,11.0,116,9 10 2,1.10.22,1104,--,,全心全意
22,23,795,12,07/07/19,"沙田草地""C""                                    ",1200,好/快,4,12,48,姚本輝,波健士,17,246.0,121,12 12 12,1.12.49,1050,--,,全心全意
23,24,746,13,16/06/19,"沙田草地""C+3""                                    ",1400,好/快,4,14,50,姚本輝,潘明輝,10-3/4,386.0,118,4 2 2 13,1.23.85,1069,--,,全心全意
24,25,685,11,26/05/19,"沙田草地""A""                                    ",1200,好/黏,4,2,52,姚本輝,梁家俊,8-1/4,107.0,130,5 4 11,1.11.70,1079,--,,全心全意
25,26,639,9,05/05/19,"沙田草地""B""                                    ",1200,好/黏,4,7,52,姚本輝,梁家俊,6-1/2,46.0,125,8 9 9,1.11.74,1091,--,,全心全意
