,Unnamed: 0,場次,名次,日期,馬場/跑道/賽道,途程,場地狀況,賽事班次,檔位,評分,練馬師,騎師,頭馬距離,獨贏賠率,實際負磅,沿途走位,完成時間,排位體重,配備,賽事重播,馬名
0,1,680,9,19/05/21,"跑馬地草地""B""                                    ",1650,好/快,5,11,40,告東尼,楊明綸,5-1/2,23.0,133,10 10 9 9,1.40.26,1128,TT,,加州明雋
1,2,624,9,28/04/21,"跑馬地草地""C+3""                                    ",1200,好,4,9,41,告東尼,楊明綸,7,43.0,115,5 7 9,1.10.41,1125,TT,,加州明雋
2,3,561,11,05/04/21,"沙田草地""B+2""                                    ",1600,好,4,2,43,告東尼,楊明綸,12-1/2,24.0,116,1 3 2 11,1.36.61,1127,TT,,加州明雋
3,4,521,5,21/03/21,"沙田草地""A""                                    ",1600,好,4,3,44,告東尼,黃俊,1-3/4,89.0,112,3 3 3 5,1.35.57,1127,TT,,加州明雋
4,5,484,14,07/03/21,"沙田草地""C""                                    ",1400,好,4,10,44,告東尼,楊明綸,6-3/4,24.0,118,5 5 7 14,1.23.20,1136,TT,,加州明雋
5,6,417,8,10/02/21,"跑馬地草地""B""                                    ",1650,好,4,11,44,告東尼,蔡明紹,4,7.1,117,2 2 2 8,1.41.92,1128,TT,,加州明雋
6,7,375,1,27/01/21,"跑馬地草地""C+3""                                    ",1650,好,5,3,36,告東尼,蘇銘倫,3,3.7,127,2 2 2 1,1.40.50,1135,TT,,加州明雋
7,8,327,3,10/01/21,"沙田草地""C""                                    ",1400,好,5,11,37,告東尼,蘇銘倫,2-1/4,2.8,130,4 5 5 3,1.23.43,1126,TT,,加州明雋
8,9,286,3,23/12/20,"跑馬地草地""C+3""                                    ",1650,好,5,8,38,告東尼,周俊樂,1-3/4,4.9,124,1 1 1 3,1.40.32,1147,TT,,加州明雋
9,10,239,6,06/12/20,沙田全天候                                    ,1800,好,4,6,40,告東尼,波健士,4-1/2,15.0,116,2 2 2 2 6,1.49.72,1139,TT,,加州明雋
10,11,189,7,14/11/20,"沙田草地""C+3""                                    ",1600,好,4,1,42,告東尼,黃俊,2-1/2,15.0,110,3 3 2 7,1.35.29,1146,TT,,加州明雋
11,12,144,9,28/10/20,"跑馬地草地""C+3""                                    ",1650,好,4,6,44,告東尼,蔡明紹,5-1/4,9.7,118,3 2 2 9,1.41.27,1142,TT,,加州明雋
12,13,104,5,14/10/20,"跑馬地草地""B""                                    ",1650,好,4,1,45,告東尼,蔡明紹,2-3/4,6.5,119,1 1 1 5,1.39.81,1135,TT,,加州明雋
13,14,797,3,05/07/20,"沙田草地""C+3""                                    ",1600,好/快,4,14,45,告東尼,巫顯東,4-1/4,15.0,115,1 1 1 3,1.34.73,1140,TT,,加州明雋
14,15,755,2,21/06/20,"沙田草地""A""                                    ",1600,好/快,4,7,44,告東尼,巫顯東,1-1/2,40.0,116,2 2 2 2,1.35.08,1131,TT,,加州明雋
15,16,681,14,24/05/20,"沙田草地""A""                                    ",1600,好,4,6,46,告東尼,巫顯東,13-3/4,10.0,116,1 1 2 14,1.36.79,1134,TT,,加州明雋
16,17,645,12,09/05/20,"沙田草地""C""                                    ",1800,好/快,4,1,48,告東尼,田泰安,10,6.8,121,1 1 1 1 12,1.49.20,1129,TT,,加州明雋
17,18,584,4,19/04/20,"沙田草地""C+3""                                    ",1800,好,4,5,49,告東尼,田泰安,2-1/2,13.0,122,1 1 1 1 4,1.47.82,1123,TT,,加州明雋
18,19,541,12,01/04/20,沙田全天候                                    ,1650,濕慢,4,11,51,告東尼,莫雷拉,17-1/4,22.0,124,8 8 9 12,1.42.14,1145,TT,,加州明雋
19,20,504,11,18/03/20,"跑馬地草地""C+3""                                    ",1650,好,4,1,52,告東尼,郭能,9,10.0,125,2 2 2 11,1.40.64,1140,TT,,加州明雋
20,21,465,11,04/03/20,"跑馬地草地""B""                                    ",1800,好,4,1,52,告東尼,利敬國,7-1/4,6.4,125,1 1 1 1 11,1.50.86,1136,TT,,加州明雋
21,22,412,7,12/02/20,"跑馬地草地""C+3""                                    ",1800,好/快,4,3,52,告東尼,田泰安,6,4.5,127,1 1 1 1 7,1.49.08,1132,TT,,加州明雋
22,23,376,1,29/01/20,"跑馬地草地""B""                                    ",1800,好,4,2,47,告東尼,田泰安,1/2,4.3,121,2 1 1 1 1,1.49.20,1127,TT,,加州明雋
23,24,287,8,29/12/19,沙田全天候                                    ,1650,濕慢,4,6,49,告東尼,陳嘉熙,8-1/2,8.0,113,1 1 1 8,1.40.80,1124,TT,,加州明雋
24,25,212,3,01/12/19,沙田全天候                                    ,1800,好,4,13,49,告東尼,田泰安,2-1/4,4.6,122,3 3 4 3 3,1.48.53,1118,TT,,加州明雋
25,26,163,3,09/11/19,沙田全天候                                    ,1650,好,4,8,49,告東尼,陳嘉熙,2,6.7,112,2 3 4 3,1.40.07,1116,TT,,加州明雋
26,27,109,9,20/10/19,"沙田草地""A""                                    ",1600,好/快,4,14,49,告東尼,田泰安,4-3/4,7.1,123,2 2 1 9,1.35.14,1120,TT,,加州明雋
27,28,61,2,01/10/19,"沙田草地""A+3""                                    ",1600,好/快,4,5,49,告東尼,田泰安,2,2.7,122,1 1 1 2,1.34.44,1110,TT,,加州明雋
28,29,12,1,08/09/19,"沙田草地""C""                                    ",1600,好,4,4,42,告東尼,田泰安,2,3.8,115,1 1 1 1,1.34.59,1123,B-/TT,,加州明雋
29,30,812,5,14/07/19,"沙田草地""A""                                    ",1800,好/快,4,13,43,告東尼,潘明輝,1-1/2,30.0,113,2 1 1 1 5,1.48.42,1101,B/TT,,加州明雋
30,31,769,9,01/07/19,"沙田草地""B""                                    ",1200,好,4,12,45,告東尼,田泰安,5-3/4,15.0,118,12 12 9,1.09.95,1097,B/TT,,加州明雋
31,32,729,8,08/06/19,"沙田草地""C""                                    ",1400,好/快,4,7,47,告東尼,沈拿,3-3/4,22.0,121,1 1 2 8,1.22.41,1107,B/TT,,加州明雋
32,33,668,9,18/05/19,"沙田草地""C+3""                                    ",1200,好,4,5,49,告東尼,蔡明紹,3-1/2,33.0,123,4 5 9,1.10.32,1110,B/TT,,加州明雋
33,34,634,8,05/05/19,"沙田草地""B""                                    ",1400,好/黏,4,3,51,告東尼,蔡明紹,8,27.0,125,5 5 6 8,1.24.75,1117,B/TT,,加州明雋
34,35,568,5,10/04/19,"跑馬地草地""A""                                    ",1650,好,4,4,53,告東尼,田泰安,4,14.0,126,7 8 9 5,1.40.79,1100,B/TT,,加州明雋
35,36,530,8,27/03/19,"跑馬地草地""C+3""                                    ",1650,好/快,4,7,55,告東尼,田泰安,4-3/4,12.0,128,1 1 1 8,1.39.95,1110,B/TT,,加州明雋
36,37,510,6,20/03/19,"跑馬地草地""C""                                    ",1650,好/快,4,10,57,告東尼,田泰安,4-1/4,90.0,131,2 2 2 6,1.40.79,1118,B/TT,,加州明雋
37,38,472,12,06/03/19,"跑馬地草地""A""                                    ",1200,好,4,7,57,告東尼,田泰安,5-1/4,63.0,130,11 9 12,1.11.14,1112,B1/TT1,,加州明雋
