,Unnamed: 0,場次,名次,日期,馬場/跑道/賽道,途程,場地狀況,賽事班次,檔位,評分,練馬師,騎師,頭馬距離,獨贏賠率,實際負磅,沿途走位,完成時間,排位體重,配備,賽事重播,馬名
0,1,679,6,16/05/21,"沙田草地""C+3""                                    ",1400,好/快,2,13,82,呂健威,何澤堯,5,35.0,116,13 14 14 6,1.21.08,1094,V,,勁力勇士
1,2,488,12,07/03/21,"沙田草地""C""                                    ",1800,好,2,12,83,呂健威,波健士,5-3/4,17.0,114,4 4 4 5 12,1.48.12,1101,V,,勁力勇士
2,3,449,9,21/02/21,"沙田草地""A+3""                                    ",1800,好,4YO,14,83,呂健威,賀銘年,3,113.0,126,11 10 10 7 9,1.47.70,1113,V,,勁力勇士
3,4,404,5,06/02/21,"沙田草地""C""                                    ",1600,好,2,2,83,呂健威,何澤堯,1-1/2,3.5,120,3 4 4 5,1.34.42,1123,V,,勁力勇士
4,5,367,1,24/01/21,"沙田草地""A+3""                                    ",1400,好,3,5,78,呂健威,何澤堯,頸位,8.1,132,3 4 5 1,1.22.15,1114,V,,勁力勇士
5,6,312,1,01/01/21,"沙田草地""B+2""                                    ",1200,好,3,1,71,呂健威,何澤堯,1-1/4,9.8,125,7 5 1,1.09.26,1124,V,,勁力勇士
6,7,228,6,29/11/20,"沙田草地""C""                                    ",1200,好,3,7,73,呂健威,史卓豐,4-1/4,16.0,126,11 8 6,1.09.80,1120,V1,,勁力勇士
7,8,136,10,24/10/20,"沙田草地""C""                                    ",1000,好,3,11,73,呂健威,黃皓楠,2-1/2,93.0,124,12 9 10,0.56.99,1114,--,,勁力勇士
