,Unnamed: 0,場次,名次,日期,馬場/跑道/賽道,途程,場地狀況,賽事班次,檔位,評分,練馬師,騎師,頭馬距離,獨贏賠率,實際負磅,沿途走位,完成時間,排位體重,配備,賽事重播,馬名
0,1,696,1,23/05/21,"沙田草地""A""                                    ",2400,好/快,G1,4,100,苗禮德,田泰安,1/2,18.0,126,3 4 4 4 2 1,2.25.25,1231,TT,,勇戰神駒
1,2,638,5,02/05/21,"沙田草地""B""                                    ",2400,好,G3,3,100,苗禮德,莫雷拉,2-1/4,5.0,121,3 4 5 6 6 5,2.28.51,1229,TT,,勇戰神駒
2,3,524,3,21/03/21,"沙田草地""A""                                    ",2000,好,4YO,12,90,苗禮德,史卓豐,3/4,26.0,126,10 9 9 10 3,2.01.45,1217,TT,,勇戰神駒
3,4,442,1,21/02/21,"沙田草地""A+3""                                    ",2000,好,2,1,84,苗禮德,莫雷拉,1/2,1.8,120,4 3 3 3 1,2.01.55,1235,TT,,勇戰神駒
4,5,372,4,24/01/21,"沙田草地""A+3""                                    ",1800,好,2,13,84,苗禮德,莫雷拉,1,5.4,118,8 7 6 5 4,1.47.86,1227,TT,,勇戰神駒
5,6,302,5,26/12/20,"沙田草地""A+3""                                    ",2000,好,2,1,85,苗禮德,巴度,1-3/4,9.1,118,3 4 3 6 5,2.02.15,1232,TT,,勇戰神駒
6,7,201,8,18/11/20,"跑馬地草地""C""                                    ",1650,好,2,6,85,苗禮德,巴度,3-3/4,14.0,120,8 9 9 8,1.39.20,1240,TT1,,勇戰神駒
