,Unnamed: 0,場次,名次,日期,馬場/跑道/賽道,途程,場地狀況,賽事班次,檔位,評分,練馬師,騎師,頭馬距離,獨贏賠率,實際負磅,沿途走位,完成時間,排位體重,配備,賽事重播,馬名
0,1,690,08,23/05/21,"沙田草地""A""                                    ",1400,好/快,5,8,29,告東尼,何澤堯,6-1/2,30,122,13 11 13 8,1.22.95,1150,B/TT,,勇敢動力
1,2,623,10,28/04/21,"跑馬地草地""C+3""                                    ",1650,好,5,8,32,告東尼,蔡明紹,9-3/4,52,125,9 9 11 10,1.41.36,1147,B/TT,,勇敢動力
2,3,585,09,14/04/21,"跑馬地草地""B""                                    ",1800,好/快,5,8,35,告東尼,巴度,16-1/4,9.1,128,3 3 4 6 9,1.51.89,1152,B/TT,,勇敢動力
3,4,528,10,24/03/21,"跑馬地草地""C+3""                                    ",1650,好/快,5,3,38,告東尼,周俊樂,4-3/4,7.3,123,8 8 8 10,1.41.05,1155,B/TT,,勇敢動力
4,5,386,11,31/01/21,"沙田草地""B+2""                                    ",1600,好,4,10,40,告東尼,蔡明紹,4-1/2,17,113,6 6 7 11,1.35.18,1162,B/TT,,勇敢動力
5,6,331,12,10/01/21,"沙田草地""C""                                    ",1600,好,4,5,42,告東尼,何澤堯,12-1/4,9.8,117,7 7 9 12,1.36.82,1147,B/TT,,勇敢動力
6,7,245,05,06/12/20,"沙田草地""C+3""                                    ",1400,好,4,7,44,告東尼,何澤堯,6-3/4,28,119,13 12 13 5,1.22.94,1177,CP-/B1/TT,,勇敢動力
7,8,188,06,14/11/20,"沙田草地""C+3""                                    ",1400,好,4,4,46,告東尼,何澤堯,4-1/2,9.4,119,12 10 10 6,1.22.25,1177,CP/TT,,勇敢動力
8,9,132,04,24/10/20,"沙田草地""C""                                    ",1200,好,4,9,48,告東尼,梁家俊,9,16,122,10 11 4,1.10.30,1178,CP/TT,,勇敢動力
9,10,79,06,04/10/20,"沙田草地""C+3""                                    ",1000,好,4,9,49,告東尼,何澤堯,2-3/4,36,124,13 12 6,0.56.34,1194,CP/TT,,勇敢動力
10,11,39,07,20/09/20,"沙田草地""B+2""                                    ",1000,好,4,7,51,告東尼,何澤堯,6-1/2,75,124,10 10 7,0.56.45,1190,CP1/TT,,勇敢動力
11,12,356,WV,22/01/20,"跑馬地草地""A""                                    ",1000,好,4,--,52,告東尼,彭國年,--,--,128,--,--,--,--,--,勇敢動力
12,13,294,WV,01/01/20,"沙田草地""C""                                    ",1200,好,4,--,52,告東尼,何澤堯,--,--,127,--,--,--,--,--,勇敢動力
13,14,238,08,11/12/19,"跑馬地草地""C""                                    ",1200,好,4,4,52,告東尼,田泰安,3-1/2,20,126,11 11 8,1.10.35,1144,TT1,,勇敢動力
