,Unnamed: 0,場次,名次,日期,馬場/跑道/賽道,途程,場地狀況,賽事班次,檔位,評分,練馬師,騎師,頭馬距離,獨贏賠率,實際負磅,沿途走位,完成時間,排位體重,配備,賽事重播,馬名
0,1,615,2,25/04/21,"沙田草地""A""                                    ",1200,好,3,9,79,蔡約翰,莫雷拉,1/2,1.7,133,7 7 2,1.09.22,1119,--,,勝得威風
1,2,525,1,21/03/21,"沙田草地""A""                                    ",1200,好,3,10,69,蔡約翰,莫雷拉,1-1/2,1.9,124,1 1 1,1.08.98,1105,--,,勝得威風
2,3,467,1,28/02/21,"沙田草地""B+2""                                    ",1200,好,3,13,62,蔡約翰,莫雷拉,1,1.8,115,6 5 1,1.09.22,1105,--,,勝得威風
3,4,383,1,31/01/21,"沙田草地""B+2""                                    ",1200,好,4,1,52,蔡約翰,莫雷拉,3/4,1.4,125,1 1 1,1.08.97,1108,--,,勝得威風
