,Unnamed: 0,場次,名次,日期,馬場/跑道/賽道,途程,場地狀況,賽事班次,檔位,評分,練馬師,騎師,頭馬距離,獨贏賠率,實際負磅,沿途走位,完成時間,排位體重,配備,賽事重播,馬名
0,1,661,9,08/05/21,沙田全天候                                    ,1650,好,2,13,85,呂健威,黃皓楠,9-1/2,85.0,112,7 6 8 9,1.37.65,1066,B-/TT-,,勝利威龍
1,2,602,7,17/04/21,沙田全天候                                    ,1200,好,2,5,87,呂健威,何澤堯,3-1/4,7.9,120,9 8 7,1.09.04,1074,B/TT,,勝利威龍
2,3,481,9,07/03/21,"沙田草地""C""                                    ",1000,好,2,6,87,呂健威,何澤堯,7-3/4,6.1,123,5 5 9,0.57.61,1075,B/TT,,勝利威龍
3,4,448,4,21/02/21,沙田全天候                                    ,1200,好,2,10,86,呂健威,何澤堯,1/2,41.0,119,5 4 4,1.08.13,1076,B/TT,,勝利威龍
4,5,392,4,31/01/21,"沙田草地""B+2""                                    ",1200,好,2,2,87,呂健威,田泰安,2-3/4,10.0,124,5 4 4,1.08.82,1091,B/TT1,,勝利威龍
5,6,314,12,01/01/21,"沙田草地""B+2""                                    ",1200,好,2,7,87,呂健威,蘇銘倫,5-1/4,8.7,124,7 9 12,1.10.06,1090,B,,勝利威龍
6,7,175,3,08/11/20,"跑馬地草地""A""                                    ",1200,好,2,10,86,呂健威,潘頓,1-1/4,3.6,121,10 11 3,1.10.07,1069,B1,,勝利威龍
7,8,92,4,07/10/20,"跑馬地草地""A""                                    ",1000,好,2,2,86,呂健威,潘頓,2,2.1,122,6 5 4,0.57.02,1078,--,,勝利威龍
8,9,828,2,15/07/20,"跑馬地草地""B""                                    ",1200,好/快,2,10,82,呂健威,何澤堯,頸位,3.3,117,8 6 2,1.08.62,1071,--,,勝利威龍
9,10,765,1,24/06/20,"跑馬地草地""C""                                    ",1200,好/快,3,7,74,呂健威,潘頓,頸位,7.0,127,5 2 1,1.08.72,1066,--,,勝利威龍
10,11,718,1,03/06/20,"跑馬地草地""A""                                    ",1200,好,3,4,69,呂健威,潘頓,1/2,2.9,122,4 3 1,1.09.31,1064,--,,勝利威龍
11,12,656,3,13/05/20,"跑馬地草地""C""                                    ",1200,好,3,6,68,呂健威,何澤堯,3/4,18.0,122,4 4 3,1.09.73,1068,--,,勝利威龍
12,13,592,12,19/04/20,"沙田草地""C+3""                                    ",1400,好,3,7,70,呂健威,何澤堯,7-1/2,21.0,124,10 7 6 12,1.22.30,1067,--,,勝利威龍
13,14,542,6,01/04/20,沙田全天候                                    ,1200,濕慢,3,7,72,呂健威,何澤堯,8-1/4,12.0,129,8 6 6,1.09.87,1073,--,,勝利威龍
14,15,478,4,08/03/20,沙田全天候                                    ,1200,好,3,9,73,呂健威,何澤堯,4-1/2,42.0,127,11 8 4,1.09.74,1068,--,,勝利威龍
15,16,794,6,07/07/19,"沙田草地""C""                                    ",1000,好/快,3,1,76,呂健威,郭能,6,40.0,124,10 8 6,0.56.06,1059,--,,勝利威龍
16,17,747,8,16/06/19,"沙田草地""C+3""                                    ",1200,好/快,3,3,76,呂健威,何澤堯,4-3/4,2.9,125,8 7 8,1.09.89,1061,--,,勝利威龍
17,18,669,2,18/05/19,"沙田草地""C+3""                                    ",1200,好,3,1,76,呂健威,何澤堯,3,34.0,121,5 4 2,1.08.87,1072,--,,勝利威龍
