,Unnamed: 0,場次,名次,日期,馬場/跑道/賽道,途程,場地狀況,賽事班次,檔位,評分,練馬師,騎師,頭馬距離,獨贏賠率,實際負磅,沿途走位,完成時間,排位體重,配備,賽事重播,馬名
0,1,669,02,12/05/21,沙田全天候                                    ,1200,好,3,9,69,韋達,周俊樂,頸位,10,118,11 10 2,1.08.64,1085,CP/XB,,協進神駒
1,2,599,03,17/04/21,沙田全天候                                    ,1200,好,3,2,68,韋達,周俊樂,頸位,5.7,117,8 7 3,1.09.18,1094,CP/XB,,協進神駒
2,3,476,09,03/03/21,"跑馬地草地""A""                                    ",1650,好,3,6,69,韋達,周俊樂,5-3/4,10,115,11 10 10 9,1.41.01,1102,CP/XB,,協進神駒
3,4,415,03,10/02/21,"跑馬地草地""B""                                    ",1650,好,3,1,69,韋達,周俊樂,2,11,117,4 3 4 3,1.40.21,1095,CP/XB,,協進神駒
4,5,352,04,17/01/21,沙田全天候                                    ,1650,好,3,4,70,韋達,周俊樂,4-3/4,19,113,7 8 8 4,1.38.64,1104,CP/XB,,協進神駒
5,6,315,12,01/01/21,"沙田草地""B+2""                                    ",1400,好,3,12,72,韋達,周俊樂,4-3/4,47,118,12 13 13 12,1.22.62,1106,B-/XB/CP2,,協進神駒
6,7,191,08,14/11/20,"沙田草地""C+3""                                    ",1000,好,3,10,74,韋達,周俊樂,6,67,122,9 7 8,0.57.71,1090,CP-/XB/B1,,協進神駒
7,8,657,09,13/05/20,"跑馬地草地""C""                                    ",1200,好,3,12,76,韋達,賀銘年,5-1/4,20,130,10 9 9,1.10.79,1085,XB/CP1,,協進神駒
8,9,607,07,26/04/20,"沙田草地""A""                                    ",1400,好,3,9,78,韋達,薛恩,3-1/4,86,132,11 11 10 7,1.22.04,1078,XB,,協進神駒
9,10,546,06,05/04/20,"沙田草地""B+2""                                    ",1200,好,3,7,80,韋達,薛恩,2-3/4,56,133,8 5 6,1.10.04,1081,XB,,協進神駒
10,11,496,WV,14/03/20,"沙田草地""C+3""                                    ",1400,好,3,--,80,韋達,利敬國,--,--,133,--,--,--,--,--,協進神駒
11,12,425,10,16/02/20,"沙田草地""A""                                    ",1200,好,3,14,80,韋達,田泰安,5-1/4,59,133,12 12 10,1.10.63,1071,XB1,,協進神駒
