,Unnamed: 0,場次,名次,日期,馬場/跑道/賽道,途程,場地狀況,賽事班次,檔位,評分,練馬師,騎師,頭馬距離,獨贏賠率,實際負磅,沿途走位,完成時間,排位體重,配備,賽事重播,馬名
0,1,691,4,23/05/21,"沙田草地""A""                                    ",1200,好/快,4,2,52,丁冠豪,楊明綸,4-3/4,82,127,3 3 4,1.09.66,991,H-/B1/TT,,南莊精神
1,2,358,12,20/01/21,"跑馬地草地""C""                                    ",1200,好,4,10,52,沈集成,巫顯東,8,124,122,11 11 12,1.11.24,997,H1/TT1,,南莊精神
