,Unnamed: 0,場次,名次,日期,馬場/跑道/賽道,途程,場地狀況,賽事班次,檔位,評分,練馬師,騎師,頭馬距離,獨贏賠率,實際負磅,沿途走位,完成時間,排位體重,配備,賽事重播,馬名
0,1,672,6,16/05/21,"沙田草地""C+3""                                    ",1200,好/快,4,4,60,丁冠豪,梁家俊,6-1/2,14.0,133,8 7 6,1.09.42,1102,--,,南莊加好
1,2,615,4,25/04/21,"沙田草地""A""                                    ",1200,好,3,2,60,丁冠豪,楊明綸,1-1/4,43.0,114,9 9 4,1.09.33,1087,--,,南莊加好
2,3,525,8,21/03/21,"沙田草地""A""                                    ",1200,好,3,13,62,丁冠豪,楊明綸,4-1/2,128.0,117,11 10 8,1.09.71,1112,--,,南莊加好
3,4,476,6,03/03/21,"跑馬地草地""A""                                    ",1650,好,3,9,63,丁冠豪,楊明綸,2-1/4,39.0,116,8 8 8 6,1.40.46,1111,--,,南莊加好
4,5,401,7,03/02/21,"跑馬地草地""A""                                    ",1200,好,3,12,65,丁冠豪,楊明綸,5-3/4,37.0,118,12 10 7,1.10.10,1102,H-,,南莊加好
5,6,324,7,06/01/21,"跑馬地草地""A""                                    ",1200,好,3,10,66,丁冠豪,蘇銘倫,2-3/4,12.0,120,11 11 7,1.10.27,1105,H,,南莊加好
6,7,200,4,18/11/20,"跑馬地草地""C""                                    ",1200,好,3,6,67,丁冠豪,田泰安,2,7.1,120,6 6 4,1.09.68,1109,H,,南莊加好
7,8,145,3,28/10/20,"跑馬地草地""C+3""                                    ",1200,好,3,1,67,丁冠豪,巴度,2-1/2,6.3,122,6 6 3,1.10.09,1110,H,,南莊加好
8,9,91,3,07/10/20,"跑馬地草地""A""                                    ",1200,好,3,7,66,丁冠豪,巴度,3/4,3.3,124,10 10 3,1.10.27,1101,H,,南莊加好
9,10,17,2,09/09/20,"跑馬地草地""B""                                    ",1200,好,3,4,65,丁冠豪,巴度,1-1/4,10.0,119,9 8 2,1.09.48,1088,H,,南莊加好
10,11,772,7,27/06/20,"沙田草地""B""                                    ",1200,好/快,3,1,67,丁冠豪,賀銘年,5-1/2,5.9,120,6 5 7,1.09.20,1103,H,,南莊加好
11,12,718,8,03/06/20,"跑馬地草地""A""                                    ",1200,好,3,10,69,丁冠豪,楊明綸,5,9.3,122,12 12 8,1.10.11,1102,H,,南莊加好
12,13,534,4,29/03/20,"沙田草地""A+3""                                    ",1400,好,3,12,70,丁冠豪,楊明綸,2-3/4,13.0,123,13 12 11 4,1.22.85,1085,H,,南莊加好
13,14,460,6,01/03/20,"沙田草地""B+2""                                    ",1400,好,3,4,70,丁冠豪,楊明綸,1-3/4,11.0,125,4 5 4 6,1.22.10,1095,H,,南莊加好
14,15,378,3,29/01/20,"跑馬地草地""B""                                    ",1200,好,3,1,70,丁冠豪,楊明綸,2-3/4,3.6,125,3 3 3,1.10.19,1089,H,,南莊加好
15,16,185,1,20/11/19,"跑馬地草地""C+3""                                    ",1200,好/快,3,2,63,丁冠豪,楊明綸,3/4,3.2,116,9 8 1,1.09.60,1097,H,,南莊加好
16,17,80,1,09/10/19,"跑馬地草地""B""                                    ",1200,好,4,7,57,丁冠豪,楊明綸,頭位,5.6,128,8 7 1,1.09.98,1093,H,,南莊加好
17,18,25,1,11/09/19,"跑馬地草地""B""                                    ",1000,好,4,12,51,丁冠豪,楊明綸,頸位,65.0,123,10 10 1,0.57.43,1083,H,,南莊加好
18,19,761,9,26/06/19,"跑馬地草地""B""                                    ",1000,好/快,4,2,52,丁冠豪,潘明輝,4-1/4,39.0,122,9 9 9,0.57.08,1074,H1,,南莊加好
