,Unnamed: 0,場次,名次,日期,馬場/跑道/賽道,途程,場地狀況,賽事班次,檔位,評分,練馬師,騎師,頭馬距離,獨贏賠率,實際負磅,沿途走位,完成時間,排位體重,配備,賽事重播,馬名
0,1,661,08,08/05/21,沙田全天候                                    ,1650,好,2,7,95,姚本輝,彭國年,8,14,125,9 7 4 8,1.37.42,1007,XB,,友誼至好
1,2,554,02,31/03/21,沙田全天候                                    ,1650,好,2,6,93,姚本輝,彭國年,頸位,33,122,7 7 6 2,1.37.34,1000,XB,,友誼至好
2,3,526,04,21/03/21,"沙田草地""A""                                    ",1600,好,2,9,94,姚本輝,賀銘年,2-1/2,66,130,9 9 9 4,1.34.90,1014,XB,,友誼至好
3,4,404,06,06/02/21,"沙田草地""C""                                    ",1600,好,2,6,96,姚本輝,賀銘年,3-1/4,18,133,6 5 6 6,1.34.70,1004,XB,,友誼至好
4,5,335,08,10/01/21,"沙田草地""C""                                    ",1400,好,2,11,98,姚本輝,周俊樂,4,125,125,14 14 14 8,1.21.72,1017,XB,,友誼至好
5,6,267,11,13/12/20,"沙田草地""A""                                    ",1600,好,2,13,100,姚本輝,蔡明紹,7-1/4,54,133,14 14 11 11,1.35.68,1009,XB,,友誼至好
6,7,227,09,29/11/20,"沙田草地""C""                                    ",1600,好,1,10,102,姚本輝,薛恩,3-3/4,23,125,10 10 9 9,1.34.71,1014,XB,,友誼至好
7,8,155,07,01/11/20,"沙田草地""A""                                    ",1800,好/快,G3,1,102,姚本輝,波健士,3,82,113,7 8 9 7 7,1.46.40,1015,XB,,友誼至好
8,9,110,07,14/10/20,"跑馬地草地""B""                                    ",1650,好,2,4,104,姚本輝,陳嘉熙,4-1/2,27,126,4 4 5 7,1.39.75,1023,XB,,友誼至好
9,10,62,08,27/09/20,"沙田草地""A""                                    ",1400,好,G3,7,104,姚本輝,潘明輝,7-1/2,63,113,10 7 10 8,1.21.73,1020,XB,,友誼至好
10,11,812,02,12/07/20,"沙田草地""A""                                    ",1600,好/快,1,7,102,姚本輝,周俊樂,1/2,8.1,117,8 8 7 2,1.34.34,1002,XB,,友誼至好
11,12,756,04,21/06/20,"沙田草地""A""                                    ",1800,好/快,G3,6,102,姚本輝,潘明輝,5-1/2,11,113,6 8 8 8 4,1.46.71,1020,XB,,友誼至好
12,13,707,05,31/05/20,"沙田草地""B""                                    ",1600,好,G3,3,102,姚本輝,蔡明紹,1-3/4,14,113,6 6 5 5,1.33.23,1008,XB,,友誼至好
13,14,611,08,26/04/20,"沙田草地""A""                                    ",1600,好,2,13,102,姚本輝,何澤堯,3-3/4,6.1,133,12 10 9 8,1.34.86,1008,XB,,友誼至好
14,15,498,05,14/03/20,"沙田草地""C+3""                                    ",1600,好,1,3,99,姚本輝,何澤堯,1/2,2.9,114,8 9 9 5,1.33.74,1010,XB,,友誼至好
15,16,405,01,08/02/20,"沙田草地""C+3""                                    ",1600,好,2,1,93,姚本輝,何澤堯,頭位,1.8,121,7 7 7 1,1.34.34,1008,XB,,友誼至好
16,17,332,01,11/01/20,"沙田草地""A""                                    ",1600,好,2,1,86,姚本輝,何澤堯,3/4,3.6,123,6 6 6 1,1.33.94,1012,XB,,友誼至好
17,18,236,02,08/12/19,"沙田草地""A""                                    ",1600,好,2,9,83,姚本輝,何澤堯,頭位,10,120,11 10 10 2,1.33.93,1004,XB,,友誼至好
18,19,197,01,23/11/19,"沙田草地""C""                                    ",1600,好/快,3,12,76,姚本輝,何澤堯,3/4,7.8,129,12 12 10 1,1.33.89,1013,XB,,友誼至好
19,20,114,01,20/10/19,"沙田草地""A""                                    ",1400,好/快,3,3,70,姚本輝,何澤堯,頸位,8.4,123,6 6 5 1,1.20.62,1031,XB,,友誼至好
20,21,48,14,21/09/19,"沙田草地""A""                                    ",1400,好/快,3,2,71,姚本輝,潘明輝,9-1/4,9.3,122,6 7 6 14,1.22.76,1027,V-/XB1,,友誼至好
21,22,774,07,01/07/19,沙田全天候                                    ,1650,好,3,13,75,姚本輝,杜美爾,9-1/4,46,127,10 10 9 7,1.39.91,988,V1,,友誼至好
22,23,712,10,02/06/19,"沙田草地""B""                                    ",1400,好/快,3,3,77,姚本輝,夏禮賢                                    ,7-3/4,19,132,3 2 2 10,1.22.85,1005,--,,友誼至好
23,24,619,08,28/04/19,"沙田草地""A""                                    ",1400,好,3,5,78,姚本輝,夏禮賢                                    ,2-1/4,89,131,10 9 8 8,1.22.18,1013,--,,友誼至好
24,25,583,12,14/04/19,"沙田草地""C""                                    ",1600,好/黏,3,13,80,姚本輝,陳嘉熙,5,45,123,3 4 4 12,1.36.93,1005,--,,友誼至好
25,26,546,12,31/03/19,"沙田草地""A+3""                                    ",1400,好,2,5,81,姚本輝,潘明輝,6-1/2,37,112,5 5 6 12,1.23.06,1003,--,,友誼至好
26,27,506,08,17/03/19,"沙田草地""A""                                    ",1400,好,2,3,81,姚本輝,史卓豐,4-3/4,21,118,6 9 9 8,1.22.43,1003,--,,友誼至好
27,28,428,06,17/02/19,"沙田草地""A+3""                                    ",1400,好,2,5,82,姚本輝,蔡明紹,2-3/4,28,118,6 6 6 6,1.23.20,1008,--,,友誼至好
28,29,368,07,27/01/19,"沙田草地""B+2""                                    ",1200,好,2,8,82,姚本輝,蔡明紹,2-1/2,96,118,8 8 7,1.09.55,1018,--,,友誼至好
29,30,244,WV-A,09/12/18,"沙田草地""A""                                    ",1200,好,2,--,82,姚本輝,梁家俊,--,--,117,--,--,--,--,--,友誼至好
