,Unnamed: 0,場次,名次,日期,馬場/跑道/賽道,途程,場地狀況,賽事班次,檔位,評分,練馬師,騎師,頭馬距離,獨贏賠率,實際負磅,沿途走位,完成時間,排位體重,配備,賽事重播,馬名
0,1,717,7,30/05/21,"沙田草地""B""                                    ",1200,好/快,3,2,75,賀賢,梁家俊,2,31.0,128,3 3 7,1.08.60,1093,TT,,合衷共濟
1,2,669,9,12/05/21,沙田全天候                                    ,1200,好,3,10,77,賀賢,潘明輝,5,43.0,129,12 12 9,1.09.38,1088,TT,,合衷共濟
2,3,641,12,02/05/21,"沙田草地""B""                                    ",1200,好,3,9,79,賀賢,陳嘉熙,8,39.0,125,8 9 12,1.10.19,1089,TT,,合衷共濟
3,4,157,12,01/11/20,"沙田草地""A""                                    ",1400,好/快,3,2,80,賀賢,潘明輝,10-1/2,52.0,131,3 3 3 12,1.22.80,1093,TT,,合衷共濟
4,5,99,8,11/10/20,"沙田草地""A+3""                                    ",1200,好,3,7,80,賀賢,何澤堯,5-1/2,9.1,133,8 9 8,1.09.48,1082,TT,,合衷共濟
5,6,819,10,12/07/20,"沙田草地""A""                                    ",1200,好/快,3,9,80,賀賢,陳嘉熙,5,18.0,126,1 2 10,1.09.75,1099,TT,,合衷共濟
6,7,702,3,31/05/20,"沙田草地""B""                                    ",1200,好,3,5,79,賀賢,周俊樂,1/2,2.0,122,3 1 3,1.09.24,1085,TT,,合衷共濟
7,8,625,1,03/05/20,"沙田草地""B""                                    ",1200,好/快,3,6,73,賀賢,潘明輝,1/2,3.7,124,2 2 1,1.08.70,1097,TT,,合衷共濟
8,9,413,11,12/02/20,"跑馬地草地""C+3""                                    ",1000,好/快,3,5,74,賀賢,潘明輝,5-3/4,13.0,120,6 7 11,0.57.04,1119,TT1,,合衷共濟
9,10,360,3,22/01/20,"跑馬地草地""A""                                    ",1200,好,3,1,74,賀賢,潘明輝,2,3.3,126,2 3 3,1.09.79,1113,--,,合衷共濟
10,11,301,4,01/01/20,"沙田草地""C""                                    ",1200,好,3,8,74,賀賢,潘明輝,3-1/4,2.4,129,1 1 4,1.09.68,1107,--,,合衷共濟
11,12,254,1,15/12/19,"沙田草地""C+3""                                    ",1200,好,3,1,66,賀賢,潘明輝,2-1/4,3.1,117,1 1 1,1.08.63,1112,--,,合衷共濟
12,13,210,1,01/12/19,"沙田草地""C+3""                                    ",1200,好,4,1,60,賀賢,潘明輝,1-1/4,1.7,131,1 1 1,1.09.72,1108,--,,合衷共濟
13,14,106,2,20/10/19,"沙田草地""A""                                    ",1200,好/快,4,1,58,賀賢,薛恩,3/4,3.0,131,1 1 2,1.08.59,1104,--,,合衷共濟
14,15,59,1,01/10/19,"沙田草地""A+3""                                    ",1200,好/快,4,10,51,賀賢,潘明輝,2,4.5,125,2 2 1,1.08.85,1099,--,,合衷共濟
15,16,40,3,21/09/19,"沙田草地""A""                                    ",1000,好/快,4,7,52,賀賢,潘明輝,4,10.0,123,2 1 3,0.57.44,1105,--,,合衷共濟
16,17,334,6,12/01/19,"沙田草地""A""                                    ",1400,好,4,11,54,賀賢,史卓豐,3,16.0,128,1 2 2 6,1.22.92,1092,--,,合衷共濟
17,18,275,2,23/12/18,"沙田草地""A+3""                                    ",1400,好,R,5,53,賀賢,史卓豐,1-1/2,24.0,120,1 1 1 2,1.22.87,1071,--,,合衷共濟
18,19,260,5,16/12/18,"沙田草地""C+3""                                    ",1400,好,4,9,54,賀賢,潘頓,2,9.7,125,2 2 2 5,1.23.68,1086,--,,合衷共濟
19,20,212,7,28/11/18,"跑馬地草地""A""                                    ",1200,好,4,2,54,賀賢,蘇兆輝,4-1/4,4.5,127,6 8 7,1.11.34,1083,--,,合衷共濟
20,21,145,2,04/11/18,"沙田草地""C+3""                                    ",1200,好,4R,4,52,賀賢,黃俊,鼻位,11.0,120,1 1 2,1.10.08,1096,--,,合衷共濟
21,22,91,7,13/10/18,"沙田草地""C""                                    ",1000,好,4R,9,52,賀賢,潘頓,4-1/4,4.5,120,3 4 7,0.57.77,1109,--,,合衷共濟
22,23,713,3,10/06/18,"沙田草地""C""                                    ",1000,好,GRIFFIN,7,--,賀賢,潘頓,3-3/4,1.2,120,3 1 3,0.57.60,1056,--,,合衷共濟
23,24,621,2,06/05/18,"沙田草地""B""                                    ",1000,好,GRIFFIN,1,--,賀賢,潘頓,2-1/2,6.5,120,3 2 2,0.56.75,1061,--,,合衷共濟
24,25,566,2,15/04/18,"沙田草地""C+3""                                    ",1000,好/黏,GRIFFIN,6,--,賀賢,潘明輝,6-1/2,2.1,115,2 2 2,0.58.87,1070,--,,合衷共濟
