,Unnamed: 0,場次,名次,日期,馬場/跑道/賽道,途程,場地狀況,賽事班次,檔位,評分,練馬師,騎師,頭馬距離,獨贏賠率,實際負磅,沿途走位,完成時間,排位體重,配備,賽事重播,馬名
0,1,674,8,16/05/21,"沙田草地""C+3""                                    ",1400,好/快,4,2,49,呂健威,何澤堯,4,10.0,124,4 4 3 8,1.22.21,1051,PC-/TT,,名牌效應
1,2,578,9,11/04/21,"沙田草地""C""                                    ",1200,好,4,12,51,呂健威,潘頓,8-1/4,4.4,128,1 1 9,1.10.79,1051,B-/PC1/TT1,,名牌效應
2,3,425,6,14/02/21,"沙田草地""A""                                    ",1200,好,4,3,52,呂健威,潘明輝,3,4.8,124,3 4 6,1.10.20,1052,B1,,名牌效應
3,4,326,3,10/01/21,"沙田草地""C""                                    ",1200,好,4,5,52,呂健威,何澤堯,2-1/4,4.0,129,6 5 3,1.10.33,1053,--,,名牌效應
4,5,271,2,16/12/20,"跑馬地草地""C""                                    ",1200,好,4,2,52,呂健威,巴度,1-3/4,7.3,125,6 6 2,1.10.14,1058,--,,名牌效應
5,6,215,6,25/11/20,"跑馬地草地""C+3""                                    ",1200,好,4,11,52,呂健威,巴度,1-3/4,85.0,125,9 9 6,1.10.12,1059,--,,名牌效應
