,Unnamed: 0,場次,名次,日期,馬場/跑道/賽道,途程,場地狀況,賽事班次,檔位,評分,練馬師,騎師,頭馬距離,獨贏賠率,實際負磅,沿途走位,完成時間,排位體重,配備,賽事重播,馬名
0,1,659,3,08/05/21,沙田全天候                                    ,1650,好,3,12,61,霍利時,蔡明紹,2-1/2,12.0,114,7 11 8 3,1.37.28,966,B/XB,,團結一致
1,2,598,1,17/04/21,沙田全天候                                    ,1650,好,4,6,56,霍利時,薛恩,頸位,14.0,130,8 9 8 1,1.39.01,963,B/XB,,團結一致
2,3,500,5,13/03/21,沙田全天候                                    ,1800,好,4,4,58,霍利時,莫雷拉,2,5.4,131,2 4 6 7 5,1.48.66,980,B/XB,,團結一致
3,4,407,3,06/02/21,沙田全天候                                    ,1650,好,4,8,58,霍利時,莫雷拉,2-3/4,6.2,132,9 6 7 3,1.39.31,976,B/XB,,團結一致
4,5,300,2,26/12/20,沙田全天候                                    ,1650,好,4,2,57,霍利時,蘇銘倫,3/4,4.2,130,10 10 8 2,1.39.41,974,XB/B1,,團結一致
5,6,239,4,06/12/20,沙田全天候                                    ,1800,好,4,2,56,霍利時,田泰安,1,8.8,132,5 6 6 6 4,1.49.14,975,XB,,團結一致
6,7,163,4,04/11/20,沙田全天候                                    ,1650,好,4,7,58,霍利時,史卓豐,4-3/4,21.0,131,9 10 9 4,1.40.83,983,XB2,,團結一致
7,8,81,7,04/10/20,沙田全天候                                    ,1650,好,4,2,60,霍利時,周俊樂,5-1/2,12.0,123,4 6 7 7,1.40.76,977,XB-,,團結一致
8,9,38,3,20/09/20,沙田全天候                                    ,1650,濕慢,4,2,60,霍利時,周俊樂,3-1/2,9.9,123,5 5 3 3,1.38.60,987,XB,,團結一致
9,10,698,11,27/05/20,沙田全天候                                    ,1650,好,3,11,61,霍利時,潘明輝,7-1/4,6.6,112,10 10 13 11,1.38.98,973,XB,,團結一致
10,11,642,3,09/05/20,沙田全天候                                    ,1650,好,3,7,60,霍利時,潘明輝,1/2,12.0,112,9 9 8 3,1.38.80,967,XB,,團結一致
11,12,543,4,01/04/20,沙田全天候                                    ,1800,濕慢,3,11,62,霍利時,潘明輝,6,98.0,114,12 12 13 9 4,1.48.50,967,XB,,團結一致
12,13,433,8,19/02/20,沙田全天候                                    ,1800,好,3,8,64,霍利時,潘明輝,5,25.0,119,11 12 8 12 8,1.48.84,967,XB,,團結一致
13,14,387,7,02/02/20,沙田全天候                                    ,1650,好,3,9,66,霍利時,潘明輝,2-1/4,284.0,121,12 13 13 7,1.39.82,971,XB,,團結一致
14,15,351,14,19/01/20,"沙田草地""A+3""                                    ",1600,好,3,3,68,霍利時,陳嘉熙,12,359.0,114,10 10 13 14,1.36.44,971,XB,,團結一致
15,16,302,12,01/01/20,"沙田草地""C""                                    ",1400,好,3,5,70,霍利時,彭國年,8-1/2,73.0,123,14 14 14 12,1.23.00,965,XB,,團結一致
16,17,196,8,23/11/19,沙田全天候                                    ,1200,好,3,3,70,霍利時,希威森,8,43.0,126,8 11 8,1.10.28,975,XB1,,團結一致
