,Unnamed: 0,場次,名次,日期,馬場/跑道/賽道,途程,場地狀況,賽事班次,檔位,評分,練馬師,騎師,頭馬距離,獨贏賠率,實際負磅,沿途走位,完成時間,排位體重,配備,賽事重播,馬名
0,1,668,6,12/05/21,"沙田草地""C+3""                                    ",1400,好/快,3,4,63,羅富全,巴度,6-3/4,4.0,117,7 9 9 6,1.22.15,1080,V/TT,,大眾開心
1,2,580,1,11/04/21,"沙田草地""C""                                    ",1400,好,4,12,57,羅富全,巴度,1/2,11.0,132,8 6 6 1,1.21.90,1095,V/TT,,大眾開心
2,3,520,5,21/03/21,"沙田草地""A""                                    ",1400,好,4,13,58,羅富全,巴度,4-3/4,5.1,132,13 13 13 5,1.22.74,1077,V/TT1,,大眾開心
3,4,424,4,14/02/21,"沙田草地""A""                                    ",1200,好,4,9,59,羅富全,周俊樂,2,5.8,126,7 9 4,1.10.52,1093,B-/V1,,大眾開心
4,5,350,4,17/01/21,"沙田草地""A""                                    ",1200,好,4,5,59,羅富全,潘頓,1-3/4,1.9,132,7 5 4,1.10.76,1096,CP-/B1,,大眾開心
5,6,279,6,20/12/20,"沙田草地""C+3""                                    ",1400,好,4,11,59,羅富全,潘頓,4-1/2,2.0,133,2 2 2 6,1.22.96,1098,CP,,大眾開心
6,7,204,2,22/11/20,"沙田草地""B+2""                                    ",1200,好/快,4,12,58,羅富全,潘頓,2,4.7,131,3 3 2,1.08.77,1100,CP,,大眾開心
7,8,132,2,24/10/20,"沙田草地""C""                                    ",1200,好,4,1,58,羅富全,潘頓,5-1/4,1.4,132,3 3 2,1.09.67,1104,CP,,大眾開心
8,9,68,1,01/10/20,"沙田草地""B""                                    ",1200,好,4,4,52,羅富全,潘頓,頸位,5.7,129,5 5 1,1.09.43,1105,CP1,,大眾開心
