,Unnamed: 0,場次,名次,日期,馬場/跑道/賽道,途程,場地狀況,賽事班次,檔位,評分,練馬師,騎師,頭馬距離,獨贏賠率,實際負磅,沿途走位,完成時間,排位體重,配備,賽事重播,馬名
0,1,710,4,30/05/21,"沙田草地""B""                                    ",1400,好/快,4,12,41,徐雨石,蔡明紹,2-1/2,42.0,114,1 1 1 4,1.21.81,1099,--,,天地同心
1,2,636,8,02/05/21,"沙田草地""B""                                    ",1600,好,4,6,41,徐雨石,田泰安,5-1/4,10.0,118,4 4 3 8,1.35.28,1078,--,,天地同心
2,3,561,5,05/04/21,"沙田草地""B+2""                                    ",1600,好,4,14,41,徐雨石,田泰安,4,36.0,114,3 4 5 5,1.35.22,1100,--,,天地同心
3,4,501,1,13/03/21,"沙田草地""C+3""                                    ",1600,好,5,11,35,徐雨石,莫雷拉,3/4,4.8,128,3 4 3 1,1.36.17,1095,--,,天地同心
4,5,422,6,14/02/21,"沙田草地""A""                                    ",1400,好,5,9,35,徐雨石,彭國年,2-1/4,15.0,128,12 12 13 6,1.24.18,1095,--,,天地同心
5,6,384,2,31/01/21,"沙田草地""B+2""                                    ",1400,好,5,9,34,徐雨石,彭國年,3/4,90.0,127,10 9 9 2,1.22.63,1117,--,,天地同心
6,7,297,13,26/12/20,"沙田草地""A+3""                                    ",1400,好,5,8,37,徐雨石,彭國年,12-3/4,42.0,130,10 10 9 13,1.24.04,1106,--,,天地同心
7,8,222,14,29/11/20,"沙田草地""C""                                    ",1400,好,5,9,39,徐雨石,巴度,13-1/2,29.0,132,3 5 6 14,1.24.33,1088,--,,天地同心
8,9,150,10,01/11/20,"沙田草地""A""                                    ",1200,好/快,4,3,41,徐雨石,黃皓楠,3-1/2,67.0,112,6 8 10,1.09.56,1111,--,,天地同心
9,10,774,10,27/06/20,"沙田草地""B""                                    ",1400,好/快,4,11,41,徐雨石,巫顯東,6-1/2,20.0,112,14 14 13 10,1.21.98,1084,--,,天地同心
10,11,700,3,31/05/20,"沙田草地""B""                                    ",1400,好,5,8,40,徐雨石,賀銘年,頭位,3.6,133,9 10 12 3,1.22.78,1086,--,,天地同心
11,12,672,3,20/05/20,"跑馬地草地""C+3""                                    ",1650,好/快,4,4,40,徐雨石,何澤堯,2-3/4,7.4,116,4 4 4 3,1.39.67,1083,--,,天地同心
12,13,614,4,29/04/20,"跑馬地草地""A""                                    ",1650,好/快,4,5,40,徐雨石,黃俊,3-1/4,15.0,109,2 5 8 4,1.40.68,1092,--,,天地同心
13,14,583,7,19/04/20,"沙田草地""C+3""                                    ",1400,好,5,7,40,徐雨石,波健士,2-3/4,10.0,133,5 6 7 7,1.22.75,1091,--,,天地同心
14,15,383,1,02/02/20,"沙田草地""C""                                    ",1400,好,5,10,35,徐雨石,莫雷拉,1/2,7.1,128,13 11 11 1,1.22.26,1084,--,,天地同心
15,16,307,2,05/01/20,"沙田草地""C+3""                                    ",1400,好,5,3,33,徐雨石,希威森,頸位,18.0,126,3 3 3 2,1.23.14,1082,--,,天地同心
16,17,247,2,15/12/19,"沙田草地""C+3""                                    ",1400,好,5,5,33,徐雨石,希威森,2-1/4,73.0,127,4 5 3 2,1.22.50,1090,B-,,天地同心
17,18,789,11,07/07/19,"沙田草地""C""                                    ",1400,好,5,5,38,徐雨石,波健士,13-1/2,25.0,131,7 6 8 11,1.24.97,1117,B,,天地同心
18,19,676,9,22/05/19,"跑馬地草地""B""                                    ",1650,好,5,4,40,徐雨石,田泰安,8-1/4,6.1,133,5 7 9 9,1.41.62,1108,B,,天地同心
19,20,568,8,10/04/19,"跑馬地草地""A""                                    ",1650,好,4,6,42,徐雨石,梁家俊,5,28.0,115,2 2 1 8,1.40.98,1114,B,,天地同心
20,21,493,3,13/03/19,"跑馬地草地""B""                                    ",1650,好,4,2,42,徐雨石,田泰安,3-1/2,41.0,115,4 5 9 3,1.41.23,1105,B,,天地同心
21,22,445,7,24/02/19,"沙田草地""B+2""                                    ",1400,好,4,2,44,徐雨石,黃俊,5-3/4,197.0,110,7 7 6 7,1.23.04,1103,B,,天地同心
22,23,304,11,01/01/19,"沙田草地""C""                                    ",1200,好,4,12,47,徐雨石,黃俊,8-3/4,35.0,113,12 12 11,1.11.30,1105,B1,,天地同心
23,24,260,10,16/12/18,"沙田草地""C+3""                                    ",1400,好,4,2,49,徐雨石,潘明輝,9-3/4,21.0,117,6 8 13 10,1.24.95,1104,--,,天地同心
24,25,181,6,18/11/18,"沙田草地""B""                                    ",1200,好,4,1,50,徐雨石,黃俊,2-1/4,81.0,118,6 7 6,1.10.03,1101,--,,天地同心
25,26,782,8,08/07/18,"沙田草地""C""                                    ",1200,好/快,4,8,52,徐雨石,黃皓楠,6-3/4,122.0,119,11 11 8,1.10.73,1093,--,,天地同心
