,Unnamed: 0,場次,名次,日期,馬場/跑道/賽道,途程,場地狀況,賽事班次,檔位,評分,練馬師,騎師,頭馬距離,獨贏賠率,實際負磅,沿途走位,完成時間,排位體重,配備,賽事重播,馬名
0,1,452,11,24/02/21,"跑馬地草地""C+3""                                    ",1650,好/快,4,10,60,何良,巫顯東,13-1/2,150,130,2 2 2 11,1.42.71,1217,B/TT-,,奮鬥從心
1,2,334,14,10/01/21,"沙田草地""C""                                    ",1600,好,3,14,64,何良,黃俊,21-1/2,396,112,3 2 11 14,1.37.64,1222,B1/TT,,奮鬥從心
2,3,263,12,13/12/20,"沙田草地""A""                                    ",1400,好,3,9,67,何良,巫顯東,9-3/4,346,118,14 13 13 12,1.23.18,1238,TT1,,奮鬥從心
3,4,192,14,14/11/20,"沙田草地""C+3""                                    ",1400,好,3,7,70,何良,巫顯東,9,320,115,11 10 12 14,1.22.99,1253,--,,奮鬥從心
4,5,120,12,18/10/20,"沙田草地""B+2""                                    ",1400,好/快,3,9,72,何良,巫顯東,6,163,125,12 9 7 12,1.23.02,1223,--,,奮鬥從心
5,6,63,13,27/09/20,"沙田草地""A""                                    ",1200,好,3,2,72,何良,郭能,9-3/4,131,125,11 12 13,1.10.51,1224,--,,奮鬥從心
