,Unnamed: 0,場次,名次,日期,馬場/跑道/賽道,途程,場地狀況,賽事班次,檔位,評分,練馬師,騎師,頭馬距離,獨贏賠率,實際負磅,沿途走位,完成時間,排位體重,配備,賽事重播,馬名
0,1,716,12,30/05/21,"沙田草地""B""                                    ",1400,好/快,3,6,64,韋達,周俊樂,4-1/2,9.6,114,6 1 3 12,1.22.08,1080,XB/TT,,奮鬥雄才
1,2,650,7,05/05/21,"跑馬地草地""A""                                    ",1200,好/快,3,7,66,韋達,巴度,3-1/4,11.0,120,9 10 7,1.10.05,1070,XB/TT,,奮鬥雄才
2,3,572,4,08/04/21,"跑馬地草地""A""                                    ",1200,好/快,3,10,66,韋達,巴度,1-3/4,28.0,122,2 2 4,1.10.26,1077,XB/TT,,奮鬥雄才
3,4,525,7,21/03/21,"沙田草地""A""                                    ",1200,好,3,2,68,韋達,彭國年,4-1/2,85.0,123,9 9 7,1.09.68,1078,XB/TT,,奮鬥雄才
4,5,468,8,28/02/21,"沙田草地""B+2""                                    ",1000,好,3,9,68,韋達,何澤堯,5-1/4,24.0,122,9 12 8,0.56.82,1082,XB1/TT1,,奮鬥雄才
