,Unnamed: 0,場次,名次,日期,馬場/跑道/賽道,途程,場地狀況,賽事班次,檔位,評分,練馬師,騎師,頭馬距離,獨贏賠率,實際負磅,沿途走位,完成時間,排位體重,配備,賽事重播,馬名
0,1,675,3,16/05/21,"沙田草地""C+3""                                    ",1400,好/快,4,5,57,文家良,巴度,3/4,3.5,130,6 5 6 3,1.21.68,1085,--,,好運寶馬
1,2,578,1,11/04/21,"沙田草地""C""                                    ",1200,好,4,7,52,文家良,巴度,頸位,5.2,129,8 8 1,1.09.46,1091,--,,好運寶馬
2,3,337,3,13/01/21,"跑馬地草地""B""                                    ",1200,好,4,3,52,文家良,巴度,1-1/4,11.0,126,10 10 3,1.10.86,1080,--,,好運寶馬
