,Unnamed: 0,場次,名次,日期,馬場/跑道/賽道,途程,場地狀況,賽事班次,檔位,評分,練馬師,騎師,頭馬距離,獨贏賠率,實際負磅,沿途走位,完成時間,排位體重,配備,賽事重播,馬名
0,1,663,5,12/05/21,沙田全天候                                    ,1800,好,5,1,39,高伯新,周俊樂,6-1/4,11,127,7 5 7 6 5,1.50.16,1037,XB/CP1,,威力爆發
1,2,623,6,28/04/21,"跑馬地草地""C+3""                                    ",1650,好,5,7,39,高伯新,巴度,6,10,132,8 8 8 6,1.40.79,1045,XB,,威力爆發
2,3,565,2,08/04/21,"跑馬地草地""A""                                    ",1650,好,5,1,39,高伯新,何澤堯,2-1/4,32,133,4 3 3 2,1.40.48,1035,XB1,,威力爆發
3,4,341,12,13/01/21,"跑馬地草地""B""                                    ",1200,好,4,12,42,賀賢,潘明輝,13,129,116,4 5 12,1.12.10,1038,--,,威力爆發
4,5,287,7,23/12/20,"跑馬地草地""C+3""                                    ",1650,好,4,3,45,賀賢,潘明輝,8,20,116,9 9 10 7,1.40.25,1045,--,,威力爆發
5,6,234,8,02/12/20,"跑馬地草地""A""                                    ",1200,好,4,7,47,賀賢,楊明綸,4-1/2,177,120,12 12 8,1.11.37,1045,H-,,威力爆發
6,7,162,11,04/11/20,沙田全天候                                    ,1200,好,4,11,50,賀賢,潘明輝,7,95,121,12 12 11,1.11.02,1041,H,,威力爆發
7,8,116,7,18/10/20,沙田全天候                                    ,1200,好,4,12,52,賀賢,潘明輝,7-1/4,144,123,9 11 7,1.10.50,1045,H,,威力爆發
8,9,79,11,04/10/20,"沙田草地""C+3""                                    ",1000,好,4,1,52,賀賢,潘明輝,8-1/2,129,125,14 14 11,0.57.27,1051,H1,,威力爆發
