,Unnamed: 0,場次,名次,日期,馬場/跑道/賽道,途程,場地狀況,賽事班次,檔位,評分,練馬師,騎師,頭馬距離,獨贏賠率,實際負磅,沿途走位,完成時間,排位體重,配備,賽事重播,馬名
0,1,667,8,17/05/20,"沙田草地""C+3""                                    ",1800,好/快,2,10,89,告東尼,郭能,4,31.0,126,2 2 3 5 8,1.48.14,1015,H/TT,,孖寶兄弟
1,2,640,12,06/05/20,"跑馬地草地""B""                                    ",1650,好/快,2,8,91,告東尼,田泰安,9-1/2,12.0,127,5 7 7 12,1.40.66,1016,H/TT,,孖寶兄弟
2,3,582,7,15/04/20,"跑馬地草地""C""                                    ",1800,好,2,1,93,告東尼,賀銘年,4-1/2,8.7,130,4 4 4 6 7,1.49.17,1008,H/TT,,孖寶兄弟
3,4,516,13,22/03/20,"沙田草地""A""                                    ",2000,好/快,4YO,13,94,告東尼,潘明輝,15,71.0,126,12 10 12 14 13,2.02.54,1000,H/TT,,孖寶兄弟
4,5,441,9,23/02/20,"沙田草地""A+3""                                    ",1800,好,4YO,1,94,告東尼,史卓豐,5,35.0,126,4 5 5 6 9,1.46.67,1011,H1/TT,,孖寶兄弟
5,6,332,10,11/01/20,"沙田草地""A""                                    ",1600,好,2,6,94,告東尼,彭國年,4-1/2,5.4,131,2 4 4 10,1.34.66,1001,TT,,孖寶兄弟
6,7,282,1,26/12/19,"跑馬地草地""A""                                    ",1650,好,2,1,87,告東尼,何澤堯,1,11.0,123,4 5 5 1,1.39.82,1002,TT1,,孖寶兄弟
