,Unnamed: 0,場次,名次,日期,馬場/跑道/賽道,途程,場地狀況,賽事班次,檔位,評分,練馬師,騎師,頭馬距離,獨贏賠率,實際負磅,沿途走位,完成時間,排位體重,配備,賽事重播,馬名
0,1,708,4,26/05/21,"跑馬地草地""C""                                    ",1200,好/快,3,11,78,丁冠豪,潘頓,3/4,17.0,131,1 1 4,1.09.36,1103,B/H,,宜春輝煌
1,2,590,2,14/04/21,"跑馬地草地""B""                                    ",1200,好/快,3,7,76,丁冠豪,潘頓,頸位,7.1,129,2 1 2,1.10.16,1097,B/H,,宜春輝煌
2,3,497,11,10/03/21,"跑馬地草地""B""                                    ",1200,好,3,11,76,丁冠豪,梁家俊,4-1/2,10.0,129,10 11 11,1.10.52,1093,B/H,,宜春輝煌
3,4,420,1,10/02/21,"跑馬地草地""B""                                    ",1200,好,3,3,71,丁冠豪,莫雷拉,頸位,2.9,124,3 3 1,1.09.97,1095,B/H,,宜春輝煌
4,5,362,4,20/01/21,"跑馬地草地""C""                                    ",1200,好,3,12,72,丁冠豪,史卓豐,2-3/4,13.0,125,5 3 4,1.10.12,1099,B/H,,宜春輝煌
5,6,305,6,26/12/20,"沙田草地""A+3""                                    ",1400,好,3,10,73,丁冠豪,史卓豐,2-1/4,11.0,127,1 1 1 6,1.22.21,1095,B/H1,,宜春輝煌
6,7,211,8,22/11/20,"沙田草地""B+2""                                    ",1400,好/快,3,6,73,丁冠豪,巴度,5,13.0,126,14 14 13 8,1.21.90,1103,B,,宜春輝煌
7,8,99,5,11/10/20,"沙田草地""A+3""                                    ",1200,好,3,3,73,丁冠豪,巴度,2,40.0,126,5 5 5,1.08.93,1115,B1,,宜春輝煌
