,Unnamed: 0,場次,名次,日期,馬場/跑道/賽道,途程,場地狀況,賽事班次,檔位,評分,練馬師,騎師,頭馬距離,獨贏賠率,實際負磅,沿途走位,完成時間,排位體重,配備,賽事重播,馬名
0,1,723,12,02/06/21,"跑馬地草地""A""                                    ",1200,好,4,11,46,高伯新,田泰安,14-3/4,6.8,119,7 8 12,1.12.43,1157,B/TT,,富存英雄
1,2,646,1,05/05/21,"跑馬地草地""A""                                    ",1200,好/快,4,3,41,高伯新,田泰安,1/2,3.1,114,1 1 1,1.09.66,1161,B/TT,,富存英雄
2,3,474,3,03/03/21,"跑馬地草地""A""                                    ",1200,好,4,7,41,高伯新,蔡明紹,2-1/4,7.1,115,1 1 3,1.10.40,1161,B/TT,,富存英雄
3,4,394,5,03/02/21,"跑馬地草地""A""                                    ",1200,好,4,4,41,高伯新,巴度,2-1/4,2.6,115,6 6 5,1.10.86,1160,B/TT,,富存英雄
4,5,317,1,06/01/21,"跑馬地草地""A""                                    ",1200,好,5,6,36,高伯新,周俊樂,1,10.0,122,2 2 1,1.10.04,1171,B2/TT,,富存英雄
5,6,222,6,29/11/20,"沙田草地""C""                                    ",1400,好,5,6,38,高伯新,黃俊,3,21.0,126,1 1 1 6,1.22.64,1165,TT,,富存英雄
6,7,135,11,24/10/20,"沙田草地""C""                                    ",1400,好,4,14,40,高伯新,波健士,5-1/2,80.0,113,1 1 2 11,1.22.53,1167,TT,,富存英雄
7,8,94,3,11/10/20,"沙田草地""A+3""                                    ",1400,好,4,4,40,高伯新,黃俊,1-3/4,148.0,110,1 1 1 3,1.22.15,1169,B-/TT1,,富存英雄
8,9,783,12,01/07/20,"沙田草地""C""                                    ",1200,好/快,4,5,45,賀賢,潘明輝,11-1/4,75.0,117,10 12 12,1.11.09,1126,B,,富存英雄
9,10,753,10,21/06/20,"沙田草地""A""                                    ",1200,好/快,4,10,48,賀賢,蔡明紹,10-1/2,50.0,121,4 4 10,1.10.56,1134,B1,,富存英雄
10,11,632,12,06/05/20,"跑馬地草地""B""                                    ",1200,好,4,8,50,賀賢,蔡明紹,6,83.0,123,8 9 12,1.10.96,1132,--,,富存英雄
11,12,597,8,22/04/20,"跑馬地草地""C+3""                                    ",1000,好,4,12,52,賀賢,蘇狄雄,6,230.0,123,12 11 8,0.58.63,1133,--,,富存英雄
12,13,493,11,14/03/20,"沙田草地""C+3""                                    ",1000,好,4,3,52,賀賢,蔡明紹,6,14.0,126,9 6 11,0.57.84,1146,--,,富存英雄
