,Unnamed: 0,場次,名次,日期,馬場/跑道/賽道,途程,場地狀況,賽事班次,檔位,評分,練馬師,騎師,頭馬距離,獨贏賠率,實際負磅,沿途走位,完成時間,排位體重,配備,賽事重播,馬名
0,1,631,09,28/04/21,"跑馬地草地""C+3""                                    ",1000,好,3,9,61,姚本輝,黃皓楠,5,53,114,4 4 9,0.58.17,1121,TT,,富高八斗
1,2,568,04,08/04/21,"跑馬地草地""A""                                    ",1000,好/快,3,1,63,姚本輝,馬雅,4-1/2,5.4,119,4 3 4,0.57.12,1121,CP-/TT,,富高八斗
2,3,503,08,13/03/21,"沙田草地""C+3""                                    ",1000,好,3,4,65,姚本輝,梁家俊,5-1/2,17,118,5 5 8,0.56.83,1114,CP1/TT,,富高八斗
3,4,446,07,21/02/21,沙田全天候                                    ,1200,好,3,7,67,姚本輝,梁家俊,5-1/4,37,120,5 6 7,1.08.88,1125,TT,,富高八斗
4,5,380,07,27/01/21,"跑馬地草地""C+3""                                    ",1000,好,3,6,68,姚本輝,莫雷拉,3-1/4,5.3,124,10 9 7,0.57.26,1120,TT,,富高八斗
5,6,322,03,06/01/21,"跑馬地草地""A""                                    ",1000,好,3,7,68,姚本輝,莫雷拉,3-3/4,2.8,123,3 2 3,0.57.29,1142,TT,,富高八斗
6,7,274,04,16/12/20,"跑馬地草地""C""                                    ",1000,好,3,12,68,姚本輝,波健士,2,14,122,5 2 4,0.57.14,1126,TT,,富高八斗
7,8,173,WV,08/11/20,"跑馬地草地""A""                                    ",1000,好,3,--,68,姚本輝,田泰安,--,--,121,--,--,--,--,--,富高八斗
8,9,126,02,21/10/20,"跑馬地草地""C""                                    ",1000,好/快,3,11,66,姚本輝,莫雷拉,短馬頭位,5,119,4 2 2,0.56.64,1137,TT,,富高八斗
9,10,83,04,04/10/20,"沙田草地""C+3""                                    ",1000,好,3,4,66,姚本輝,莫雷拉,1-3/4,4.3,119,3 1 4,0.55.58,1135,TT,,富高八斗
10,11,39,01,20/09/20,"沙田草地""B+2""                                    ",1000,好,4,8,60,姚本輝,莫雷拉,1/2,4.2,133,2 1 1,0.55.40,1131,TT,,富高八斗
11,12,792,02,05/07/20,"沙田草地""C+3""                                    ",1000,好/快,4,8,60,姚本輝,周俊樂,4-3/4,4.3,122,4 2 2,0.55.82,1114,TT,,富高八斗
12,13,740,02,14/06/20,"沙田草地""C+3""                                    ",1000,好,4,13,60,姚本輝,莫雷拉,5,1.7,131,8 2 2,0.56.01,1099,TT,,富高八斗
13,14,701,02,31/05/20,"沙田草地""B""                                    ",1000,好,4,1,58,姚本輝,莫雷拉,1-3/4,4,131,4 3 2,0.55.89,1099,TT,,富高八斗
14,15,624,01,03/05/20,"沙田草地""B""                                    ",1000,好,4,13,52,姚本輝,莫雷拉,1/2,3.3,125,7 6 1,0.55.79,1117,TT,,富高八斗
15,16,545,03,05/04/20,"沙田草地""B+2""                                    ",1000,好,4,4,52,姚本輝,田泰安,2-1/2,14,125,13 8 3,0.57.44,1116,TT,,富高八斗
16,17,493,08,14/03/20,"沙田草地""C+3""                                    ",1000,好,4,2,54,姚本輝,何澤堯,4-1/2,8.7,128,8 3 8,0.57.58,1127,TT1,,富高八斗
17,18,541,10,31/03/19,"沙田草地""A+3""                                    ",1200,好,4,8,55,姚本輝,李寶利,7-1/4,7.8,128,10 8 10,1.10.72,1097,--,,富高八斗
18,19,351,12,20/01/19,"沙田草地""A+3""                                    ",1200,好/快,4,5,55,姚本輝,李寶利,6-3/4,16,124,4 6 12,1.10.63,1137,--,,富高八斗
19,20,297,03,29/12/18,"沙田草地""B+2""                                    ",1000,好,4,11,54,姚本輝,李寶利,3/4,3.1,126,6 5 3,0.57.99,1135,--,,富高八斗
20,21,256,02,16/12/18,"沙田草地""C+3""                                    ",1000,好,4,4,52,姚本輝,李寶利,短馬頭位,8.3,125,8 9 2,0.57.00,1150,--,,富高八斗
