,Unnamed: 0,場次,名次,日期,馬場/跑道/賽道,途程,場地狀況,賽事班次,檔位,評分,練馬師,騎師,頭馬距離,獨贏賠率,實際負磅,沿途走位,完成時間,排位體重,配備,賽事重播,馬名
0,1,654,9,08/05/21,"沙田草地""C""                                    ",1200,好/快,4,10,40,葉楚航,波健士,6,129,114,7 7 9,1.09.96,1055,--,,寶成智叻
1,2,509,10,17/03/21,"跑馬地草地""C""                                    ",1200,好/快,4,7,43,葉楚航,潘明輝,9-1/2,50,114,5 6 10,1.10.77,1075,--,,寶成智叻
2,3,433,6,17/02/21,"跑馬地草地""C""                                    ",1200,好,4,10,45,葉楚航,梁家俊,4-1/2,89,118,8 7 6,1.10.41,1078,--,,寶成智叻
3,4,376,10,27/01/21,"跑馬地草地""C+3""                                    ",1200,好,4,9,47,葉楚航,梁家俊,3,70,120,11 11 10,1.10.48,1088,XB-,,寶成智叻
4,5,692,12,27/05/20,沙田全天候                                    ,1200,好,4,10,52,姚本輝,黃皓楠,18-1/4,59,123,2 7 12,1.11.67,1017,XB,,寶成智叻
5,6,538,11,01/04/20,沙田全天候                                    ,1200,濕慢,4,11,52,姚本輝,薛恩,15-1/4,17,126,9 11 11,1.11.91,1034,XB1,,寶成智叻
