,Unnamed: 0,場次,名次,日期,馬場/跑道/賽道,途程,場地狀況,賽事班次,檔位,評分,練馬師,騎師,頭馬距離,獨贏賠率,實際負磅,沿途走位,完成時間,排位體重,配備,賽事重播,馬名
0,1,684,9,19/05/21,"跑馬地草地""B""                                    ",1200,好/快,4,7,49,文家良,黎海榮,5-1/2,101.0,122,4 4 9,1.10.49,1204,B-/V2/TT,,小鳥敖翔
1,2,643,11,05/05/21,"跑馬地草地""A""                                    ",1200,好,4,4,52,文家良,黎海榮,7-3/4,15.0,125,11 11 11,1.10.94,1206,B/TT,,小鳥敖翔
2,3,579,12,11/04/21,"沙田草地""C""                                    ",1400,好,4,7,55,文家良,黎海榮,6-1/2,53.0,129,1 2 2 12,1.22.87,1218,B/TT,,小鳥敖翔
3,4,518,4,21/03/21,"沙田草地""A""                                    ",1200,好,4,6,57,文家良,黎海榮,5-1/2,120.0,130,6 5 4,1.10.30,1198,B/TT,,小鳥敖翔
4,5,454,9,24/02/21,"跑馬地草地""C+3""                                    ",1000,好/快,3,5,60,文家良,黎海榮,6-1/4,54.0,114,9 9 9,0.57.85,1215,B/TT2,,小鳥敖翔
5,6,401,11,03/02/21,"跑馬地草地""A""                                    ",1200,好,3,8,63,文家良,黎海榮,11-3/4,146.0,116,3 3 11,1.11.07,1218,V-/B2,,小鳥敖翔
6,7,362,10,20/01/21,"跑馬地草地""C""                                    ",1200,好,3,6,66,文家良,梁家俊,8-3/4,73.0,119,4 7 10,1.11.07,1210,V,,小鳥敖翔
7,8,322,8,06/01/21,"跑馬地草地""A""                                    ",1000,好,3,6,68,文家良,梁家俊,5,47.0,123,8 8 8,0.57.50,1213,V,,小鳥敖翔
8,9,246,10,06/12/20,"沙田草地""C+3""                                    ",1000,好,3,6,70,文家良,彭國年,3-1/4,293.0,125,10 12 10,0.56.69,1200,V,,小鳥敖翔
9,10,183,12,11/11/20,"跑馬地草地""B""                                    ",1200,好,3,8,73,文家良,陳嘉熙,16,96.0,119,5 6 12,1.12.23,1221,V,,小鳥敖翔
10,11,126,12,21/10/20,"跑馬地草地""C""                                    ",1000,好/快,3,1,75,文家良,陳嘉熙,8-1/4,14.0,121,7 9 12,0.57.93,1212,V,,小鳥敖翔
11,12,17,10,09/09/20,"跑馬地草地""B""                                    ",1200,好,3,7,75,姚本輝,賀銘年,7,12.0,129,2 3 10,1.10.42,1216,V,,小鳥敖翔
12,13,806,2,08/07/20,"跑馬地草地""A""                                    ",1200,好,3,2,74,姚本輝,潘明輝,1/2,7.7,126,2 2 2,1.09.59,1198,V,,小鳥敖翔
13,14,677,10,20/05/20,"跑馬地草地""C+3""                                    ",1200,好/快,3,7,75,姚本輝,梁家俊,9-1/4,33.0,128,8 9 10,1.10.74,1203,V,,小鳥敖翔
14,15,620,3,29/04/20,"跑馬地草地""A""                                    ",1200,好/快,3,9,75,姚本輝,賀銘年,2-3/4,18.0,128,2 2 3,1.09.85,1190,V/TT-,,小鳥敖翔
15,16,542,3,01/04/20,沙田全天候                                    ,1200,濕慢,3,11,76,姚本輝,梁家俊,5-1/2,39.0,133,2 3 3,1.09.44,1211,V/TT,,小鳥敖翔
16,17,503,5,18/03/20,"跑馬地草地""C+3""                                    ",1000,好,3,2,78,姚本輝,潘頓,2-1/2,3.5,133,4 5 5,0.57.24,1206,V2/TT2,,小鳥敖翔
17,18,413,7,12/02/20,"跑馬地草地""C+3""                                    ",1000,好/快,3,11,80,姚本輝,希威森,5,112.0,128,8 8 7,0.56.91,1219,--,,小鳥敖翔
18,19,350,14,19/01/20,"沙田草地""A+3""                                    ",1200,好,2,9,82,姚本輝,希威森,6-1/2,186.0,116,12 12 14,1.09.60,1215,--,,小鳥敖翔
19,20,299,10,01/01/20,"沙田草地""C""                                    ",1000,好,2,3,84,姚本輝,希威森,6-3/4,149.0,117,10 11 10,0.57.04,1212,--,,小鳥敖翔
20,21,253,12,15/12/19,"沙田草地""C+3""                                    ",1400,好,2,14,86,姚本輝,何澤堯,8,163.0,116,7 9 11 12,1.22.06,1212,V-,,小鳥敖翔
21,22,235,13,08/12/19,"沙田草地""A""                                    ",1200,好,2,1,88,姚本輝,貝力斯,8-1/2,178.0,119,2 3 13,1.10.34,1214,V/TT-,,小鳥敖翔
22,23,186,12,20/11/19,"跑馬地草地""C+3""                                    ",1000,好/快,2,5,89,姚本輝,何澤堯,12-1/2,13.0,122,9 11 12,0.58.24,1222,V/TT,,小鳥敖翔
23,24,683,12,22/05/19,"跑馬地草地""B""                                    ",1200,好/快,2,6,89,姚本輝,貝力斯,14,68.0,127,8 8 12,1.11.03,1233,V/TT,,小鳥敖翔
24,25,620,14,28/04/19,"沙田草地""A""                                    ",1200,好,2,6,89,姚本輝,莫艾誠,14-1/4,42.0,119,3 7 14,1.11.02,1254,V/TT,,小鳥敖翔
25,26,536,2,27/03/19,"跑馬地草地""C+3""                                    ",1000,好/快,2,4,87,姚本輝,潘頓,1-1/4,2.1,122,2 2 2,0.56.98,1238,V/TT,,小鳥敖翔
26,27,440,1,20/02/19,"跑馬地草地""C""                                    ",1000,好/快,3,5,78,姚本輝,潘頓,2,3.3,133,1 1 1,0.56.73,1248,CP-/V1/TT,,小鳥敖翔
27,28,346,11,16/01/19,"跑馬地草地""B""                                    ",1200,好,3,8,78,姚本輝,蔡明紹,2-3/4,10.0,133,1 1 11,1.10.44,1242,CP/TT,,小鳥敖翔
28,29,288,2,26/12/18,"跑馬地草地""C+3""                                    ",1200,好,3,6,76,姚本輝,梁家俊,頭位,4.2,129,2 2 2,1.10.17,1250,B-/CP2/TT,,小鳥敖翔
29,30,216,6,28/11/18,"跑馬地草地""A""                                    ",1200,好,3,12,76,姚本輝,利敬國,3-1/4,5.2,132,1 1 6,1.10.59,1235,B/TT,,小鳥敖翔
30,31,159,1,07/11/18,"跑馬地草地""B""                                    ",1200,好,3,2,65,姚本輝,利敬國,3-1/2,2.5,118,1 1 1,1.09.90,1229,B/TT,,小鳥敖翔
31,32,108,2,18/10/18,"跑馬地草地""C""                                    ",1200,好,3,12,63,姚本輝,利敬國,1-1/4,14.0,120,1 1 2,1.09.86,1221,B/TT1,,小鳥敖翔
32,33,44,11,22/09/18,"沙田草地""A""                                    ",1000,好/快,3,6,63,姚本輝,沈拿,8-1/2,4.8,116,2 2 11,0.57.62,1224,B,,小鳥敖翔
33,34,767,3,01/07/18,"沙田草地""B""                                    ",1200,好,3,10,63,姚本輝,田泰安,2-3/4,2.3,121,1 1 3,1.10.10,1208,B,,小鳥敖翔
34,35,717,1,10/06/18,"沙田草地""C""                                    ",1200,好/快,4,2,52,姚本輝,潘頓,3-3/4,1.9,130,1 1 1,1.08.86,1213,CP-/B1,,小鳥敖翔
35,36,625,5,06/05/18,"沙田草地""B""                                    ",1200,好,4,1,52,姚本輝,李寶利,4,2.3,128,3 2 5,1.11.03,1212,CP,,小鳥敖翔
36,37,541,2,02/04/18,"沙田草地""B+2""                                    ",1200,好,4,7,50,姚本輝,羅理雅                                    ,3/4,5.8,124,1 1 2,1.10.19,1199,CP1,,小鳥敖翔
37,38,506,7,18/03/18,"沙田草地""A""                                    ",1200,好,4,14,52,姚本輝,李寶利,5-1/4,57.0,123,14 12 7,1.10.67,1213,--,,小鳥敖翔
38,39,450,7,25/02/18,"沙田草地""B""                                    ",1200,好,4,5,52,姚本輝,李寶利,3-1/2,40.0,125,8 10 7,1.10.44,1217,--,,小鳥敖翔
