,Unnamed: 0,場次,名次,日期,馬場/跑道/賽道,途程,場地狀況,賽事班次,檔位,評分,練馬師,騎師,頭馬距離,獨贏賠率,實際負磅,沿途走位,完成時間,排位體重,配備,賽事重播,馬名
0,1,722,10,02/06/21,"跑馬地草地""A""                                    ",1650,好,4,4,60,沈集成,潘頓,8,3.8,133,9 10 10 10,1.41.57,1033,B/TT,,帝豪大師
1,2,648,6,05/05/21,"跑馬地草地""A""                                    ",1650,好/快,4,9,60,沈集成,潘頓,1-3/4,9.5,133,11 9 10 6,1.40.77,1034,B/TT,,帝豪大師
2,3,589,2,14/04/21,"跑馬地草地""B""                                    ",1650,好/快,4,10,58,沈集成,潘頓,短馬頭位,9.6,131,8 8 8 2,1.39.88,1023,B/TT,,帝豪大師
3,4,532,2,24/03/21,"跑馬地草地""C+3""                                    ",1650,好/快,4,8,56,沈集成,潘明輝,短馬頭位,23.0,128,10 10 10 2,1.39.64,1015,B1/TT,,帝豪大師
4,5,489,8,10/03/21,"跑馬地草地""B""                                    ",1650,好,4,6,58,沈集成,潘明輝,3-3/4,12.0,129,9 9 9 8,1.40.46,1015,TT,,帝豪大師
5,6,465,13,28/02/21,"沙田草地""B+2""                                    ",1600,好,4,11,59,沈集成,蔡明紹,8-3/4,29.0,132,11 11 13 13,1.36.00,1032,TT,,帝豪大師
6,7,323,11,06/01/21,"跑馬地草地""A""                                    ",1650,好,4,9,59,沈集成,莫雷拉,13-1/2,3.3,133,8 5 8 11,1.42.87,1033,TT,,帝豪大師
7,8,253,4,09/12/20,"跑馬地草地""B""                                    ",1650,好,4,9,59,沈集成,布宜學,1-1/2,4.7,133,7 7 7 4,1.40.55,1035,TT,,帝豪大師
8,9,218,2,25/11/20,"跑馬地草地""C+3""                                    ",1650,好,4,9,59,沈集成,潘頓,3-1/4,3.2,133,5 5 5 2,1.40.15,1032,TT,,帝豪大師
9,10,144,3,28/10/20,"跑馬地草地""C+3""                                    ",1650,好,4,11,59,沈集成,潘頓,3/4,3.9,133,1 1 1 3,1.40.55,1037,TT,,帝豪大師
10,11,89,1,07/10/20,"跑馬地草地""A""                                    ",1650,好,4,2,52,沈集成,巴度,1-1/4,3.5,127,5 4 4 1,1.40.41,1028,TT,,帝豪大師
11,12,23,3,13/09/20,"沙田草地""A+3""                                    ",1600,好,4,1,52,沈集成,潘頓,2-3/4,2.1,128,1 3 4 3,1.35.53,1031,TT,,帝豪大師
12,13,755,1,21/06/20,"沙田草地""A""                                    ",1600,好/快,4,4,45,沈集成,潘頓,1-1/2,8.7,120,7 7 6 1,1.34.85,1023,TT,,帝豪大師
13,14,681,3,24/05/20,"沙田草地""A""                                    ",1600,好,4,4,46,沈集成,潘明輝,3-1/2,128.0,117,3 3 5 3,1.35.15,1012,TT,,帝豪大師
14,15,567,10,12/04/20,"沙田草地""C""                                    ",1400,好,4,8,48,沈集成,田泰安,7-1/4,20.0,122,14 14 10 10,1.23.30,1009,TT,,帝豪大師
15,16,530,5,29/03/20,"沙田草地""A+3""                                    ",1400,好,4,7,50,沈集成,潘頓,4-1/4,22.0,125,3 4 7 5,1.23.23,1028,TT,,帝豪大師
16,17,477,9,08/03/20,"沙田草地""C""                                    ",1400,好,4,5,52,沈集成,郭能,5-1/2,128.0,127,4 6 8 9,1.23.30,1032,TT,,帝豪大師
17,18,417,10,16/02/20,"沙田草地""A""                                    ",1200,好,4,11,52,沈集成,田泰安,5-3/4,40.0,125,2 2 10,1.11.04,1035,TT1,,帝豪大師
