,Unnamed: 0,場次,名次,日期,馬場/跑道/賽道,途程,場地狀況,賽事班次,檔位,評分,練馬師,騎師,頭馬距離,獨贏賠率,實際負磅,沿途走位,完成時間,排位體重,配備,賽事重播,馬名
0,1,573,8,08/04/21,"跑馬地草地""A""                                    ",1650,好/快,3,6,76,呂健威,何澤堯,5-1/2,29,129,6 6 5 8,1.40.31,1139,XB/B1,,幸福人民
1,2,476,8,03/03/21,"跑馬地草地""A""                                    ",1650,好,3,8,78,呂健威,薛恩,3-3/4,113,131,10 11 11 8,1.40.70,1141,XB1,,幸福人民
2,3,408,10,06/02/21,沙田全天候                                    ,1800,好,3,10,80,呂健威,何澤堯,20-1/4,31,133,7 7 7 10 10,1.50.00,1159,TT-,,幸福人民
3,4,372,13,24/01/21,"沙田草地""A+3""                                    ",1800,好,2,7,80,呂健威,巫顯東,6-3/4,31,111,12 11 12 14 13,1.48.78,1156,TT1,,幸福人民
