,Unnamed: 0,場次,名次,日期,馬場/跑道/賽道,途程,場地狀況,賽事班次,檔位,評分,練馬師,騎師,頭馬距離,獨贏賠率,實際負磅,沿途走位,完成時間,排位體重,配備,賽事重播,馬名
0,1,711,7,30/05/21,"沙田草地""B""                                    ",1600,好/快,G3,6,122,沈集成,田泰安,6-1/2,2.9,130,6 6 7 7,1.34.50,1233,--,,幸福笑容
1,2,619,2,25/04/21,"沙田草地""A""                                    ",1600,好,G1,3,117,呂健威,莫雷拉,頭位,9.1,126,6 5 6 2,1.33.49,1226,--,,幸福笑容
2,3,557,3,05/04/21,"沙田草地""B+2""                                    ",1600,好,G2,5,117,呂健威,梁家俊,2-1/4,5.8,123,5 5 5 3,1.35.44,1216,--,,幸福笑容
3,4,499,2,13/03/21,"沙田草地""C+3""                                    ",1600,好,1,1,116,呂健威,巴度,頸位,2.3,126,7 7 7 2,1.33.69,1234,--,,幸福笑容
4,5,443,4,21/02/21,"沙田草地""A+3""                                    ",1400,好,G1,5,111,呂健威,梁家俊,1-3/4,13.0,126,8 8 8 4,1.21.07,1222,--,,幸福笑容
5,6,370,6,24/01/21,"沙田草地""A+3""                                    ",1600,好,G1,4,111,呂健威,梁家俊,2-3/4,31.0,126,5 4 4 6,1.33.79,1232,CP-,,幸福笑容
6,7,756,6,21/06/20,"沙田草地""A""                                    ",1800,好/快,G3,7,111,呂健威,潘頓,6-3/4,2.9,120,3 1 1 1 6,1.46.92,1189,CP,,幸福笑容
7,8,608,5,26/04/20,"沙田草地""A""                                    ",1600,好,G1,7,107,呂健威,田泰安,3-1/2,6.2,126,7 8 8 5,1.33.68,1236,CP,,幸福笑容
8,9,516,3,22/03/20,"沙田草地""A""                                    ",2000,好/快,4YO,1,107,呂健威,潘頓,3,3.3,126,5 5 5 3 3,2.00.61,1218,CP1,,幸福笑容
9,10,441,3,23/02/20,"沙田草地""A+3""                                    ",1800,好,4YO,10,107,呂健威,潘頓,1,2.8,126,9 9 9 7 3,1.46.05,1222,--,,幸福笑容
10,11,368,2,27/01/20,"沙田草地""B+2""                                    ",1600,好,4YO,9,97,呂健威,莫雅,1-1/4,4.4,126,9 9 9 2,1.33.80,1217,--,,幸福笑容
11,12,236,1,08/12/19,"沙田草地""A""                                    ",1600,好,2,10,90,呂健威,田泰安,頭位,2.8,127,12 13 14 1,1.33.90,1211,--,,幸福笑容
12,13,150,1,03/11/19,"沙田草地""C+3""                                    ",1600,好/快,2,12,83,呂健威,田泰安,1,5.1,121,9 8 9 1,1.33.28,1215,--,,幸福笑容
13,14,46,1,21/09/19,"沙田草地""A""                                    ",1600,好/快,3,5,77,呂健威,田泰安,1-1/4,9.6,133,4 4 5 1,1.33.31,1191,--,,幸福笑容
14,15,815,1,14/07/19,"沙田草地""A""                                    ",1400,好/快,3,1,72,呂健威,陳嘉熙,3/4,23.0,110,4 4 5 1,1.21.90,1187,B-,,幸福笑容
15,16,759,11,23/06/19,"沙田草地""A""                                    ",1600,好/快,3,6,74,呂健威,杜美爾,3-1/2,44.0,122,4 4 4 11,1.34.65,1191,B,,幸福笑容
16,17,710,8,02/06/19,"沙田草地""B""                                    ",1600,好/快,3,6,76,呂健威,何澤堯,5-1/2,61.0,126,2 1 1 8,1.35.70,1185,B,,幸福笑容
17,18,657,11,11/05/19,"沙田草地""C""                                    ",1400,好,3,5,76,呂健威,何澤堯,7,27.0,127,12 13 14 11,1.22.75,1205,B1,,幸福笑容
