,Unnamed: 0,場次,名次,日期,馬場/跑道/賽道,途程,場地狀況,賽事班次,檔位,評分,練馬師,騎師,頭馬距離,獨贏賠率,實際負磅,沿途走位,完成時間,排位體重,配備,賽事重播,馬名
0,1,701,4,26/05/21,"跑馬地草地""C""                                    ",1200,好/快,5,5,14,丁冠豪,楊明綸,2,38,113,2 2 4,1.09.94,1178,B/TT,,幸運勝駒
1,2,670,6,16/05/21,沙田全天候                                    ,1200,好,5,1,14,丁冠豪,楊明綸,4-1/2,40,113,6 3 6,1.10.56,1180,B/TT,,幸運勝駒
2,3,575,8,11/04/21,"沙田草地""C""                                    ",1000,好,5,9,16,丁冠豪,巴度,6-1/2,27,114,9 7 8,0.58.45,1167,B/TT,,幸運勝駒
3,4,536,11,28/03/21,"沙田草地""A+3""                                    ",1400,好,5,4,20,丁冠豪,黃俊,8-3/4,55,108,3 2 1 11,1.23.17,1163,B/TT,,幸運勝駒
4,5,527,6,24/03/21,"跑馬地草地""C+3""                                    ",1000,好/快,5,3,20,丁冠豪,黃俊,2-1/2,63,108,9 8 6,0.57.30,1170,B/TT,,幸運勝駒
5,6,491,11,10/03/21,"跑馬地草地""B""                                    ",1200,好,5,3,24,丁冠豪,黃皓楠,4-1/2,36,114,3 4 11,1.11.41,1171,B1/TT,,幸運勝駒
6,7,451,11,24/02/21,"跑馬地草地""C+3""                                    ",1800,好/快,5,6,29,丁冠豪,何澤堯,7-1/2,25,122,2 2 2 3 11,1.51.56,1167,TT,,幸運勝駒
7,8,375,8,27/01/21,"跑馬地草地""C+3""                                    ",1650,好,5,12,32,丁冠豪,楊明綸,7,217,123,1 1 1 8,1.41.60,1175,TT,,幸運勝駒
8,9,782,11,01/07/20,"沙田草地""C""                                    ",1800,好/快,4,10,41,丁冠豪,黎海榮,9-1/2,145,119,11 12 12 12 11,1.49.48,1166,TT,,幸運勝駒
9,10,646,13,09/05/20,沙田全天候                                    ,1650,好,4,10,46,丁冠豪,黎海榮,28,391,120,6 6 14 13,1.43.59,1157,TT,,幸運勝駒
10,11,494,14,14/03/20,"沙田草地""C+3""                                    ",1400,好,4,14,49,丁冠豪,黃俊,25,374,119,5 6 13 14,1.25.80,1148,TT,,幸運勝駒
11,12,457,14,01/03/20,"沙田草地""B+2""                                    ",1200,好,4,1,52,丁冠豪,陳嘉熙,12,159,120,4 4 14,1.11.35,1163,TT1,,幸運勝駒
12,13,365,13,27/01/20,"沙田草地""B+2""                                    ",1200,好,4,13,52,丁冠豪,潘明輝,13,223,122,10 13 13,1.11.46,1152,--,,幸運勝駒
