,Unnamed: 0,場次,名次,日期,馬場/跑道/賽道,途程,場地狀況,賽事班次,檔位,評分,練馬師,騎師,頭馬距離,獨贏賠率,實際負磅,沿途走位,完成時間,排位體重,配備,賽事重播,馬名
0,1,709,1,30/05/21,"沙田草地""B""                                    ",1800,好/快,5,6,36,方嘉柏,何澤堯,頸位,10.0,130,10 10 9 8 1,1.48.54,1063,V-/TT,,度身訂做
1,2,626,10,28/04/21,"跑馬地草地""C+3""                                    ",1650,好/快,5,7,38,方嘉柏,何澤堯,6-1/4,7.6,132,6 7 6 10,1.41.24,1045,V/TT,,度身訂做
2,3,528,5,24/03/21,"跑馬地草地""C+3""                                    ",1650,好/快,5,1,38,方嘉柏,何澤堯,2,3.2,130,5 5 7 5,1.40.61,1049,V/TT1,,度身訂做
3,4,470,2,03/03/21,"跑馬地草地""A""                                    ",1650,好,5,3,36,方嘉柏,何澤堯,頸位,3.1,129,6 6 5 2,1.40.95,1010,V1,,度身訂做
4,5,375,2,27/01/21,"跑馬地草地""C+3""                                    ",1650,好,5,2,36,鄭俊偉,潘明輝,3,10.0,125,6 5 5 2,1.40.96,1033,--,,度身訂做
5,6,345,12,17/01/21,"沙田草地""A""                                    ",1600,好,5,12,36,鄭俊偉,楊明綸,14,12.0,129,13 13 12 12,1.38.39,1049,--,,度身訂做
6,7,277,2,20/12/20,"沙田草地""C+3""                                    ",1600,好,5,2,36,鄭俊偉,楊明綸,2,10.0,129,6 8 10 2,1.36.41,1040,B-,,度身訂做
7,8,158,8,04/11/20,沙田全天候                                    ,1200,好,5,4,38,鄭俊偉,潘頓,4-1/4,6.8,132,5 5 8,1.11.12,1044,B2,,度身訂做
8,9,77,7,04/10/20,"沙田草地""C+3""                                    ",1400,好,4,6,40,鄭俊偉,楊明綸,3-3/4,27.0,113,7 8 8 7,1.22.39,1038,B-,,度身訂做
9,10,753,5,21/06/20,"沙田草地""A""                                    ",1200,好/快,4,12,44,鄭俊偉,楊明綸,5-1/4,69.0,117,13 13 5,1.09.71,1024,B,,度身訂做
10,11,743,11,14/06/20,沙田全天候                                    ,1200,濕慢,4,2,46,鄭俊偉,楊明綸,15-1/4,11.0,119,7 10 11,1.11.48,1034,B,,度身訂做
11,12,680,10,24/05/20,"沙田草地""A""                                    ",1400,好,4,3,49,鄭俊偉,楊明綸,6-3/4,14.0,122,7 7 8 10,1.22.97,1022,B,,度身訂做
12,13,552,8,05/04/20,"沙田草地""B+2""                                    ",1200,好,4,2,52,鄭俊偉,薛恩,6-1/2,79.0,125,9 6 8,1.11.14,1035,B2,,度身訂做
13,14,512,10,22/03/20,"沙田草地""A""                                    ",1400,好,4,5,55,鄭俊偉,薛恩,6,93.0,129,12 11 9 10,1.22.70,1034,--,,度身訂做
14,15,492,7,14/03/20,"沙田草地""C+3""                                    ",1200,好,4,4,57,鄭俊偉,薛恩,4-1/2,93.0,130,10 9 7,1.10.22,1034,--,,度身訂做
15,16,437,9,23/02/20,"沙田草地""A+3""                                    ",1200,好,4,10,59,鄭俊偉,楊明綸,5,204.0,133,13 13 9,1.10.50,1024,B-,,度身訂做
16,17,385,10,02/02/20,"沙田草地""C""                                    ",1600,好,3,3,61,鄭俊偉,蔡明紹,8-1/2,73.0,114,1 1 2 10,1.35.91,1022,B1,,度身訂做
17,18,341,6,15/01/20,"跑馬地草地""C+3""                                    ",1200,好,3,6,63,鄭俊偉,何澤堯,4-1/2,87.0,117,9 8 6,1.10.15,1032,--,,度身訂做
18,19,301,6,01/01/20,"沙田草地""C""                                    ",1200,好,3,5,65,鄭俊偉,黃皓楠,6-1/2,179.0,119,9 9 6,1.10.20,1025,--,,度身訂做
19,20,232,14,08/12/19,"沙田草地""A""                                    ",1400,好,3,12,68,鄭俊偉,薛恩,21-1/2,388.0,123,3 3 12 14,1.24.75,1031,--,,度身訂做
20,21,172,10,17/11/19,"沙田草地""B""                                    ",1200,好,3,2,70,鄭俊偉,黃皓楠,7-1/4,342.0,120,12 13 10,1.09.96,1047,--,,度身訂做
21,22,144,9,03/11/19,"沙田草地""C+3""                                    ",1200,好/快,3,6,70,鄭俊偉,黃皓楠,6,251.0,120,9 9 9,1.09.61,1051,--,,度身訂做
