,Unnamed: 0,場次,名次,日期,馬場/跑道/賽道,途程,場地狀況,賽事班次,檔位,評分,練馬師,騎師,頭馬距離,獨贏賠率,實際負磅,沿途走位,完成時間,排位體重,配備,賽事重播,馬名
0,1,675,5,16/05/21,"沙田草地""C+3""                                    ",1400,好/快,4,2,45,丁冠豪,史卓豐,2,15.0,120,8 8 7 5,1.21.86,1029,SR/TT,,御風超影
1,2,627,5,28/04/21,"跑馬地草地""C+3""                                    ",1650,好/快,4,4,45,丁冠豪,史卓豐,2-1/2,9.2,121,7 7 6 5,1.40.26,1017,SR/TT,,御風超影
2,3,513,11,17/03/21,"跑馬地草地""C""                                    ",1800,好/快,4,12,47,丁冠豪,梁家俊,9,11.0,121,2 1 1 1 11,1.50.19,1023,SR/TT,,御風超影
3,4,438,8,17/02/21,"跑馬地草地""C""                                    ",1650,好,4,4,47,丁冠豪,楊明綸,2-1/2,11.0,120,1 1 1 8,1.40.47,1022,SR/TT,,御風超影
4,5,365,2,24/01/21,"沙田草地""A+3""                                    ",1800,好,4,5,46,丁冠豪,楊明綸,2,39.0,120,4 5 5 3 2,1.47.59,1040,SR/TT,,御風超影
5,6,301,8,26/12/20,"沙田草地""A+3""                                    ",1600,好,4,6,48,丁冠豪,楊明綸,4-1/2,177.0,122,10 10 10 8,1.35.12,1029,SR/TT,,御風超影
6,7,272,8,16/12/20,"跑馬地草地""C""                                    ",1650,好,4,10,50,丁冠豪,黃皓楠,5-1/2,40.0,121,9 3 3 8,1.40.84,1016,SR/TT,,御風超影
7,8,214,11,25/11/20,"跑馬地草地""C+3""                                    ",1650,好,4,8,52,丁冠豪,郭能,5-1/2,33.0,125,1 1 1 11,1.40.96,1026,SR/TT,,御風超影
8,9,167,11,08/11/20,"跑馬地草地""A""                                    ",1800,好,4,5,54,丁冠豪,史卓豐,4,11.0,128,2 1 1 1 11,1.50.76,1027,SR1/TT,,御風超影
9,10,123,7,21/10/20,"跑馬地草地""C""                                    ",1650,好/快,4,8,55,丁冠豪,巴度,4-1/2,15.0,129,7 4 3 7,1.40.13,1034,TT,,御風超影
10,11,51,10,23/09/20,"跑馬地草地""C+3""                                    ",1800,好/快,4,12,56,丁冠豪,周俊樂,8-1/2,8.5,119,6 1 1 1 10,1.50.16,1019,TT,,御風超影
11,12,29,9,16/09/20,"跑馬地草地""C""                                    ",1650,好,4,7,56,丁冠豪,史卓豐,5-3/4,8.7,130,2 2 1 9,1.39.94,1035,TT,,御風超影
12,13,763,3,24/06/20,"跑馬地草地""C""                                    ",1650,好/快,4,2,55,丁冠豪,史卓豐,1/2,7.1,128,3 4 2 3,1.40.18,1016,TT1,,御風超影
13,14,671,6,20/05/20,"跑馬地草地""C+3""                                    ",1800,好/快,4,11,55,丁冠豪,史卓豐,2-1/2,9.1,130,1 1 1 1 6,1.48.98,1018,--,,御風超影
14,15,555,1,08/04/20,"跑馬地草地""B""                                    ",1800,好,4,6,49,丁冠豪,史卓豐,1-1/4,29.0,122,2 1 1 1 1,1.49.25,1021,--,,御風超影
15,16,495,11,14/03/20,沙田全天候                                    ,1800,好,4,10,51,丁冠豪,楊明綸,9-3/4,118.0,125,3 4 5 8 11,1.49.29,1041,--,,御風超影
16,17,419,9,16/02/20,"沙田草地""A""                                    ",1600,好,4,2,53,丁冠豪,史卓豐,4-1/2,23.0,126,6 8 9 9,1.36.52,1055,--,,御風超影
17,18,329,7,11/01/20,"沙田草地""A""                                    ",1400,好,4,9,55,丁冠豪,巴度,3-1/4,33.0,129,9 10 9 7,1.23.38,1048,--,,御風超影
18,19,787,3,07/07/19,"沙田草地""C""                                    ",1200,好,GRIFFIN,5,--,鄭俊偉,陳嘉熙,4-1/2,20.0,119,7 9 3,1.10.17,1022,--,,御風超影
19,20,684,4,26/05/19,"沙田草地""A""                                    ",1200,好,GRIFFIN,7,--,鄭俊偉,陳嘉熙,5-1/2,41.0,119,6 5 4,1.11.00,1006,CP-,,御風超影
20,21,629,6,05/05/19,"沙田草地""B""                                    ",1000,好,GRIFFIN,6,--,鄭俊偉,黃皓楠,7-3/4,28.0,126,6 7 6,0.57.88,1009,CP1,,御風超影
21,22,574,4,14/04/19,"沙田草地""C""                                    ",1000,好,GRIFFIN,7,--,鄭俊偉,黃皓楠,8-1/2,42.0,126,5 6 4,0.57.64,1008,--,,御風超影
