,Unnamed: 0,場次,名次,日期,馬場/跑道/賽道,途程,場地狀況,賽事班次,檔位,評分,練馬師,騎師,頭馬距離,獨贏賠率,實際負磅,沿途走位,完成時間,排位體重,配備,賽事重播,馬名
0,1,720,4,02/06/21,"跑馬地草地""A""                                    ",1000,好,4,8,46,蘇偉賢,何澤堯,1-3/4,9.9,119,10 10 4,0.57.25,1163,TT,,快樂歡騰
1,2,645,4,05/05/21,"跑馬地草地""A""                                    ",1000,好/快,4,12,48,蘇偉賢,何澤堯,3-1/2,17.0,121,9 9 4,0.57.31,1152,TT,,快樂歡騰
2,3,541,9,28/03/21,"沙田草地""A+3""                                    ",1200,好/快,4,9,50,蘇偉賢,郭能,6-1/4,119.0,123,1 2 9,1.09.63,1171,TT,,快樂歡騰
3,4,393,10,03/02/21,"跑馬地草地""A""                                    ",1200,好,4,1,51,蘇偉賢,薛恩,4-1/4,3.6,124,1 1 10,1.10.87,1179,TT,,快樂歡騰
4,5,321,3,06/01/21,"跑馬地草地""A""                                    ",1200,好,4,8,51,蘇偉賢,薛恩,3/4,27.0,125,1 1 3,1.10.60,1187,TT,,快樂歡騰
5,6,234,11,02/12/20,"跑馬地草地""A""                                    ",1200,好,4,9,53,蘇偉賢,薛恩,8,10.0,126,3 5 11,1.11.91,1174,TT,,快樂歡騰
6,7,142,7,28/10/20,"跑馬地草地""C+3""                                    ",1200,好,4,11,54,蘇偉賢,薛恩,2-1/2,13.0,127,10 11 7,1.10.75,1183,TT,,快樂歡騰
7,8,810,6,12/07/20,"沙田草地""A""                                    ",1200,好/快,4,3,57,蘇偉賢,薛恩,2-1/2,17.0,132,5 3 6,1.09.66,1169,TT,,快樂歡騰
8,9,771,9,27/06/20,"沙田草地""B""                                    ",1200,好/快,4,11,59,蘇偉賢,田泰安,4-1/2,16.0,132,11 9 9,1.09.48,1152,TT,,快樂歡騰
9,10,683,10,24/05/20,"沙田草地""A""                                    ",1200,好,3,12,61,蘇偉賢,蔡明紹,10,23.0,116,9 9 10,1.10.36,1154,TT,,快樂歡騰
10,11,625,8,03/05/20,"沙田草地""B""                                    ",1200,好/快,3,12,61,蘇偉賢,蔡明紹,5-1/4,17.0,114,10 11 8,1.09.52,1151,TT,,快樂歡騰
11,12,513,2,22/03/20,"沙田草地""A""                                    ",1200,好,3,10,61,蘇偉賢,蔡明紹,1-1/2,54.0,114,10 11 2,1.09.44,1145,TT,,快樂歡騰
12,13,461,3,01/03/20,"沙田草地""B+2""                                    ",1200,好,3,5,62,蘇偉賢,蔡明紹,2,104.0,117,2 2 3,1.09.35,1152,TT,,快樂歡騰
13,14,404,7,08/02/20,沙田全天候                                    ,1200,好,3,3,64,蘇偉賢,蔡明紹,7,25.0,118,7 7 7,1.10.31,1159,TT,,快樂歡騰
14,15,306,10,05/01/20,"沙田草地""C+3""                                    ",1000,好,3,13,65,蘇偉賢,梁家俊,5-3/4,14.0,122,10 8 10,0.57.34,1167,TT,,快樂歡騰
15,16,260,12,18/12/19,"跑馬地草地""C+3""                                    ",1200,好/快,3,8,65,蘇偉賢,梁家俊,7,9.6,119,1 1 12,1.10.90,1155,TT,,快樂歡騰
16,17,188,12,20/11/19,"跑馬地草地""C+3""                                    ",1200,好/快,3,10,65,蘇偉賢,田泰安,10-1/2,7.5,118,1 1 12,1.10.91,1160,TT,,快樂歡騰
17,18,120,1,23/10/19,"跑馬地草地""C+3""                                    ",1200,好/快,4,4,58,蘇偉賢,潘頓,1-1/4,2.1,131,2 2 1,1.09.67,1158,H-/TT,,快樂歡騰
18,19,51,3,25/09/19,"跑馬地草地""A""                                    ",1200,好/快,4,8,58,蘇偉賢,潘頓,1-1/4,3.4,131,10 10 3,1.09.91,1175,B-/H/TT2,,快樂歡騰
19,20,804,10,10/07/19,"跑馬地草地""A""                                    ",1200,好,3,10,62,呂健威,史卓豐,7-1/2,10.0,118,11 11 10,1.10.97,1178,H/B1,,快樂歡騰
20,21,757,10,23/06/19,"沙田草地""A""                                    ",1000,好/快,3,6,64,呂健威,利敬國,9-1/4,11.0,117,12 11 10,0.56.86,1183,H,,快樂歡騰
21,22,682,7,22/05/19,"跑馬地草地""B""                                    ",1200,好/快,3,8,66,呂健威,梁家俊,3-1/2,5.6,119,1 1 7,1.10.26,1167,H,,快樂歡騰
22,23,636,10,05/05/19,"沙田草地""B""                                    ",1000,好/黏,3,6,66,呂健威,梁家俊,10-3/4,2.1,119,13 10 10,0.58.40,1174,H,,快樂歡騰
23,24,597,2,22/04/19,"沙田草地""C+3""                                    ",1000,好/快,3,10,65,呂健威,梁家俊,1-3/4,18.0,118,2 2 2,0.55.16,1182,H,,快樂歡騰
24,25,513,6,20/03/19,"跑馬地草地""C""                                    ",1200,好/快,3,8,66,呂健威,史卓豐,2-1/4,5.1,119,12 11 6,1.09.82,1168,H,,快樂歡騰
25,26,363,3,23/01/19,"跑馬地草地""C""                                    ",1200,好,3,7,67,呂健威,韋達                                    ,3-1/2,5.0,121,5 6 3,1.10.11,1165,H,,快樂歡騰
26,27,288,4,26/12/18,"跑馬地草地""C+3""                                    ",1200,好,3,7,67,呂健威,韋達                                    ,3/4,7.6,120,4 4 4,1.10.28,1162,H,,快樂歡騰
27,28,232,8,05/12/18,"跑馬地草地""B""                                    ",1200,好,3,12,68,呂健威,梁家俊,4-1/4,17.0,121,12 12 8,1.10.87,1169,H,,快樂歡騰
28,29,178,3,14/11/18,"跑馬地草地""C""                                    ",1200,好,3,9,68,呂健威,梁家俊,1,33.0,126,4 3 3,1.10.33,1179,H1/TT-,,快樂歡騰
29,30,125,10,24/10/18,"跑馬地草地""C+3""                                    ",1200,好/快,3,6,69,呂健威,楊明綸,3-3/4,50.0,122,12 12 10,1.10.71,1195,TT,,快樂歡騰
30,31,757,10,27/06/18,"跑馬地草地""C""                                    ",1000,好/快,3,9,73,呂健威,梁家俊,5,25.0,130,8 9 10,0.58.00,1152,TT,,快樂歡騰
31,32,702,7,03/06/18,"沙田草地""B""                                    ",1000,好/快,3,10,73,呂健威,梁家俊,6,10.0,126,4 3 7,0.56.80,1142,TT1,,快樂歡騰
