,Unnamed: 0,場次,名次,日期,馬場/跑道/賽道,途程,場地狀況,賽事班次,檔位,評分,練馬師,騎師,頭馬距離,獨贏賠率,實際負磅,沿途走位,完成時間,排位體重,配備,賽事重播,馬名
0,1,360,4,20/01/21,"跑馬地草地""C""                                    ",1200,好,4,4,47,大衛希斯,彭國年,4-1/4,18,120,10 10 4,1.10.30,1076,CP/H/XB,,怡昌勇士
1,2,279,11,20/12/20,"沙田草地""C+3""                                    ",1400,好,4,4,49,大衛希斯,楊明綸,9-1/4,34,123,7 8 11 11,1.23.72,1071,CP1/H1/XB1,,怡昌勇士
2,3,226,12,29/11/20,"沙田草地""C""                                    ",1400,好,4,11,51,大衛希斯,楊明綸,8-1/2,29,124,5 2 2 12,1.23.35,1078,--,,怡昌勇士
3,4,178,4,11/11/20,"跑馬地草地""B""                                    ",1200,好,4,2,52,大衛希斯,楊明綸,2-3/4,46,128,9 9 4,1.10.64,1069,--,,怡昌勇士
4,5,121,11,21/10/20,"跑馬地草地""C""                                    ",1200,好/快,4,11,52,大衛希斯,楊明綸,7-1/2,52,128,12 12 11,1.10.35,1045,--,,怡昌勇士
