,Unnamed: 0,場次,名次,日期,馬場/跑道/賽道,途程,場地狀況,賽事班次,檔位,評分,練馬師,騎師,頭馬距離,獨贏賠率,實際負磅,沿途走位,完成時間,排位體重,配備,賽事重播,馬名
0,1,725,4,02/06/21,"跑馬地草地""A""                                    ",1200,好,3,3,61,霍利時,巴度,1-1/4,4.2,116,9 9 4,1.09.89,1218,TT,,戰熊三千
1,2,686,3,19/05/21,"跑馬地草地""B""                                    ",1200,好/快,3,3,61,霍利時,莫雷拉,1-3/4,5.1,118,9 9 3,1.09.42,1208,TT1,,戰熊三千
2,3,363,7,20/01/21,"跑馬地草地""C""                                    ",1200,好,3,2,61,霍利時,田泰安,3-3/4,5.7,114,8 6 7,1.09.60,1251,--,,戰熊三千
3,4,290,1,23/12/20,"跑馬地草地""C+3""                                    ",1200,好,4,2,56,霍利時,蘇銘倫,短馬頭位,2.5,129,5 5 1,1.09.55,1248,--,,戰熊三千
4,5,254,5,09/12/20,"跑馬地草地""B""                                    ",1200,好,4,11,55,霍利時,莫雅,1/2,7.0,131,8 8 5,1.09.97,1240,CP-,,戰熊三千
5,6,178,3,11/11/20,"跑馬地草地""B""                                    ",1200,好,4,8,55,霍利時,田泰安,2-1/2,2.6,131,8 8 3,1.10.60,1229,CP,,戰熊三千
6,7,107,1,14/10/20,"跑馬地草地""B""                                    ",1200,好,4,11,50,霍利時,田泰安,頸位,9.1,124,1 1 1,1.09.96,1205,CP,,戰熊三千
7,8,15,3,09/09/20,"跑馬地草地""B""                                    ",1200,好,4,10,49,霍利時,田泰安,1/2,9.9,122,8 7 3,1.09.81,1204,CP,,戰熊三千
8,9,734,2,10/06/20,"跑馬地草地""B""                                    ",1200,好/快,4,8,48,霍利時,田泰安,2,7.1,121,6 6 2,1.09.85,1178,CP,,戰熊三千
9,10,670,1,20/05/20,"跑馬地草地""C+3""                                    ",1200,好,4,8,43,霍利時,田泰安,頸位,11.0,118,9 6 1,1.10.02,1167,B-/CP1,,戰熊三千
10,11,624,8,03/05/20,"沙田草地""B""                                    ",1000,好,4,6,45,霍利時,田泰安,4-1/2,9.5,118,6 7 8,0.56.50,1169,B,,戰熊三千
11,12,545,8,05/04/20,"沙田草地""B+2""                                    ",1000,好,4,1,45,霍利時,利敬國,3-3/4,10.0,118,8 12 8,0.57.68,1168,B,,戰熊三千
12,13,493,2,14/03/20,"沙田草地""C+3""                                    ",1000,好,4,14,44,霍利時,利敬國,1-1/4,5.2,118,7 7 2,0.57.04,1155,B,,戰熊三千
13,14,399,4,08/02/20,"沙田草地""C+3""                                    ",1000,好,4,1,45,霍利時,黃皓楠,2,32.0,118,3 4 4,0.57.51,1161,B,,戰熊三千
14,15,384,13,02/02/20,"沙田草地""C""                                    ",1400,好,4,14,47,霍利時,郭能,8-1/2,70.0,120,9 11 13 13,1.23.06,1174,B1,,戰熊三千
15,16,325,7,11/01/20,"沙田草地""A""                                    ",1200,好,4,1,49,霍利時,郭能,4,17.0,122,6 6 7,1.10.05,1179,--,,戰熊三千
16,17,239,9,11/12/19,"跑馬地草地""C""                                    ",1200,好,4,10,51,霍利時,莫雷拉,7-1/4,6.4,126,10 9 9,1.10.75,1175,--,,戰熊三千
17,18,191,4,23/11/19,"沙田草地""C""                                    ",1000,好/快,4,11,52,霍利時,郭能,5-1/2,13.0,125,12 8 4,0.56.88,1176,--,,戰熊三千
18,19,142,3,03/11/19,"沙田草地""C+3""                                    ",1000,好/快,4,7,52,霍利時,郭能,2-3/4,167.0,125,13 10 3,0.56.75,1176,--,,戰熊三千
