,Unnamed: 0,場次,名次,日期,馬場/跑道/賽道,途程,場地狀況,賽事班次,檔位,評分,練馬師,騎師,頭馬距離,獨贏賠率,實際負磅,沿途走位,完成時間,排位體重,配備,賽事重播,馬名
0,1,583,8,11/04/21,"沙田草地""C""                                    ",1400,好,3,2,75,韋達,周俊樂,4-1/4,9.2,121,5 6 6 8,1.22.08,1184,B-/XB/V1/TT,,明月輝煌
1,2,487,6,07/03/21,"沙田草地""C""                                    ",1600,好,3,1,77,韋達,周俊樂,2-1/2,10.0,126,3 4 4 6,1.35.93,1189,B/XB/TT,,明月輝煌
2,3,450,5,21/02/21,"沙田草地""A+3""                                    ",1400,好,3,7,78,韋達,周俊樂,2-1/2,15.0,124,7 7 7 5,1.21.50,1190,B/XB/TT,,明月輝煌
3,4,361,8,20/01/21,"跑馬地草地""C""                                    ",1650,好,3,3,78,韋達,潘頓,5-3/4,5.5,133,4 4 4 8,1.40.76,1185,B/XB/TT,,明月輝煌
4,5,305,2,26/12/20,"沙田草地""A+3""                                    ",1400,好,3,7,76,韋達,周俊樂,短馬頭位,25.0,123,4 4 3 2,1.21.87,1161,B/XB/TT1,,明月輝煌
5,6,263,9,13/12/20,"沙田草地""A""                                    ",1400,好,3,6,76,韋達,田泰安,6-3/4,32.0,130,5 8 7 9,1.22.69,1173,B1/XB1,,明月輝煌
