,Unnamed: 0,場次,名次,日期,馬場/跑道/賽道,途程,場地狀況,賽事班次,檔位,評分,練馬師,騎師,頭馬距離,獨贏賠率,實際負磅,沿途走位,完成時間,排位體重,配備,賽事重播,馬名
0,1,657,11,08/05/21,"沙田草地""C""                                    ",1400,好/快,4,14,49,葉楚航,梁家俊,4-1/2,21,123,3 1 2 11,1.22.49,1125,--,,星夢帝國
1,2,579,02,11/04/21,"沙田草地""C""                                    ",1400,好,4,9,49,葉楚航,田泰安,2,6.1,123,3 1 1 2,1.22.15,1120,--,,星夢帝國
2,3,153,06,01/11/20,"沙田草地""A""                                    ",1400,好/快,4,7,51,何良,梁家俊,3-1/2,11,125,1 3 4 6,1.22.02,1116,--,,星夢帝國
3,4,94,07,11/10/20,"沙田草地""A+3""                                    ",1400,好,4,3,51,何良,梁家俊,2-3/4,7.3,126,2 3 4 7,1.22.30,1112,--,,星夢帝國
4,5,58,02,27/09/20,"沙田草地""A""                                    ",1400,好,4,1,49,何良,梁家俊,頸位,11,122,3 4 4 2,1.22.61,1103,--,,星夢帝國
5,6,811,08,12/07/20,"沙田草地""A""                                    ",1400,好/快,4,12,52,何良,楊明綸,4,29,128,11 10 11 8,1.22.38,1100,--,,星夢帝國
6,7,771,08,27/06/20,"沙田草地""B""                                    ",1200,好/快,4,6,54,何良,楊明綸,3,78,127,10 10 8,1.09.27,1110,--,,星夢帝國
7,8,740,09,14/06/20,"沙田草地""C+3""                                    ",1000,好,4,5,57,何良,薛恩,12-3/4,30,128,13 12 9,0.57.24,1114,B-/XB-,,星夢帝國
8,9,684,WV,24/05/20,"沙田草地""A""                                    ",1200,好,4,--,57,何良,梁家俊,--,--,133,--,--,--,--,--,星夢帝國
9,10,325,09,11/01/20,"沙田草地""A""                                    ",1200,好,4,2,57,何良,蘇狄雄,5,19,128,12 13 9,1.10.21,1106,B1/XB1,,星夢帝國
