,Unnamed: 0,場次,名次,日期,馬場/跑道/賽道,途程,場地狀況,賽事班次,檔位,評分,練馬師,騎師,頭馬距離,獨贏賠率,實際負磅,沿途走位,完成時間,排位體重,配備,賽事重播,馬名
0,1,681,9,19/05/21,"跑馬地草地""B""                                    ",1650,好/快,5,8,29,高伯新,史卓豐,14-3/4,14.0,122,9 10 10 9,1.41.68,1137,B/H/TT,,星河戰駒
1,2,528,8,24/03/21,"跑馬地草地""C+3""                                    ",1650,好/快,5,4,31,高伯新,潘明輝,3-1/4,18.0,121,9 10 10 8,1.40.80,1115,B/H1/TT,,星河戰駒
2,3,470,6,03/03/21,"跑馬地草地""A""                                    ",1650,好,5,5,31,高伯新,潘頓,1-3/4,5.4,124,9 9 9 6,1.41.20,1129,B/TT,,星河戰駒
3,4,413,3,10/02/21,"跑馬地草地""B""                                    ",1650,好,5,8,29,高伯新,蔡明紹,頭位,14.0,122,9 8 7 3,1.41.55,1116,B2/TT,,星河戰駒
4,5,384,9,31/01/21,"沙田草地""B+2""                                    ",1400,好,5,8,31,高伯新,蔡明紹,3-3/4,73.0,124,9 8 8 9,1.23.11,1118,V-/TT,,星河戰駒
5,6,78,8,04/10/20,"沙田草地""C+3""                                    ",1400,好,5,7,33,方嘉柏,史卓豐,5,58.0,126,10 10 9 8,1.22.81,1105,V/TT,,星河戰駒
6,7,22,13,13/09/20,"沙田草地""A+3""                                    ",1400,好,5,6,35,方嘉柏,莫雷拉,8,9.3,128,10 12 13 13,1.23.64,1098,V/TT,,星河戰駒
7,8,739,9,14/06/20,"沙田草地""C+3""                                    ",1400,好,5,3,39,方嘉柏,薛恩,9-1/4,10.0,132,8 9 8 9,1.23.32,1115,V/TT,,星河戰駒
8,9,700,10,31/05/20,"沙田草地""B""                                    ",1400,好,5,11,39,方嘉柏,莫雷拉,4-1/2,3.3,132,10 9 8 10,1.23.47,1110,V/TT,,星河戰駒
9,10,651,4,13/05/20,"跑馬地草地""C""                                    ",1200,好,5,7,38,方嘉柏,薛恩,1/2,9.4,131,10 9 4,1.10.55,1116,B-/V1/TT1,,星河戰駒
10,11,574,4,15/04/20,"跑馬地草地""C""                                    ",1650,好,5,7,40,方嘉柏,莫雷拉,2-3/4,4.2,133,3 3 3 4,1.40.36,1106,B,,星河戰駒
11,12,519,3,25/03/20,"跑馬地草地""A""                                    ",1650,好,5,3,40,方嘉柏,何澤堯,3-1/4,3.0,133,6 5 3 3,1.40.78,1098,B,,星河戰駒
12,13,483,3,11/03/20,"跑馬地草地""C""                                    ",1650,好,5,7,39,方嘉柏,潘頓,3/4,2.9,132,8 8 8 3,1.41.77,1099,B,,星河戰駒
13,14,383,2,02/02/20,"沙田草地""C""                                    ",1400,好,5,1,37,方嘉柏,何澤堯,1/2,9.9,130,5 5 5 2,1.22.35,1096,B1,,星河戰駒
14,15,247,7,15/12/19,"沙田草地""C+3""                                    ",1400,好,5,9,39,丁冠豪,黃皓楠,3-1/2,30.0,130,10 10 10 7,1.22.73,1107,--,,星河戰駒
15,16,191,14,23/11/19,"沙田草地""C""                                    ",1000,好/快,4,5,41,丁冠豪,黃皓楠,15-3/4,78.0,111,13 13 14,0.58.51,1103,--,,星河戰駒
16,17,137,8,30/10/19,"跑馬地草地""A""                                    ",1200,好,4,11,43,丁冠豪,黃皓楠,2-3/4,211.0,113,11 11 8,1.10.79,1111,--,,星河戰駒
17,18,71,9,06/10/19,"沙田草地""B+2""                                    ",1200,好,4,4,45,丁冠豪,黃皓楠,7-3/4,295.0,117,12 9 9,1.11.34,1094,--,,星河戰駒
18,19,14,10,08/09/19,"沙田草地""C""                                    ",1200,好/快,4,10,47,丁冠豪,潘明輝,8,243.0,120,12 12 10,1.10.08,1108,--,,星河戰駒
19,20,793,14,07/07/19,"沙田草地""C""                                    ",1400,好,4,4,52,丁冠豪,黃皓楠,17-1/2,417.0,122,6 7 13 14,1.24.80,1100,--,,星河戰駒
20,21,704,14,02/06/19,"沙田草地""B""                                    ",1000,好/快,4,1,52,丁冠豪,黃皓楠,17-1/4,260.0,123,14 14 14,0.57.90,1113,--,,星河戰駒
