,Unnamed: 0,場次,名次,日期,馬場/跑道/賽道,途程,場地狀況,賽事班次,檔位,評分,練馬師,騎師,頭馬距離,獨贏賠率,實際負磅,沿途走位,完成時間,排位體重,配備,賽事重播,馬名
0,1,695,1,23/05/21,"沙田草地""A""                                    ",1400,好/快,3,10,70,方嘉柏,田泰安,1-3/4,5.1,125,8 9 9 1,1.21.17,1135,--,,星運明爵
1,2,639,1,02/05/21,"沙田草地""B""                                    ",1200,好,3,5,64,方嘉柏,田泰安,1-1/2,8.3,118,8 5 1,1.08.86,1110,--,,星運明爵
2,3,573,7,08/04/21,"跑馬地草地""A""                                    ",1650,好/快,3,12,66,方嘉柏,楊明綸,4-3/4,14.0,119,12 12 12 7,1.40.20,1133,--,,星運明爵
3,4,515,4,17/03/21,"跑馬地草地""C""                                    ",1650,好/快,3,5,68,方嘉柏,何澤堯,2,4.0,125,3 3 6 4,1.39.47,1129,V-,,星運明爵
4,5,411,10,06/02/21,"沙田草地""C""                                    ",1400,好,3,6,68,方嘉柏,陳嘉熙,5-3/4,11.0,118,5 7 7 10,1.22.57,1139,V,,星運明爵
5,6,354,2,17/01/21,"沙田草地""A""                                    ",1400,好,3,6,67,方嘉柏,陳嘉熙,1-1/4,9.4,113,6 5 5 2,1.22.14,1131,H-/PC-/V2,,星運明爵
6,7,299,10,26/12/20,沙田全天候                                    ,1800,好,3,9,69,方嘉柏,史卓豐,8-1/2,7.7,124,4 2 2 1 10,1.50.26,1132,PC/H1,,星運明爵
7,8,247,8,06/12/20,沙田全天候                                    ,1650,好,3,12,71,方嘉柏,薛恩,3-1/4,14.0,124,13 13 11 8,1.39.32,1144,PC2,,星運明爵
8,9,211,4,22/11/20,"沙田草地""B+2""                                    ",1400,好/快,3,2,71,方嘉柏,莫雷拉,2,5.0,124,5 9 8 4,1.21.44,1140,--,,星運明爵
9,10,120,2,18/10/20,"沙田草地""B+2""                                    ",1400,好/快,3,6,70,方嘉柏,莫雷拉,3/4,5.9,126,4 5 5 2,1.22.15,1124,--,,星運明爵
10,11,80,3,04/10/20,沙田全天候                                    ,1650,好,3,4,70,方嘉柏,史卓豐,1-3/4,5.6,123,1 1 1 3,1.40.19,1128,--,,星運明爵
11,12,40,5,20/09/20,"沙田草地""B+2""                                    ",1600,好/快,3,5,72,方嘉柏,莫雷拉,3,4.0,125,1 1 1 5,1.34.31,1124,--,,星運明爵
12,13,9,6,06/09/20,"沙田草地""A""                                    ",1400,好,3,14,72,方嘉柏,郭能,1-1/2,12.0,125,11 12 12 6,1.21.88,1132,--,,星運明爵
13,14,818,7,12/07/20,"沙田草地""A""                                    ",1400,好/快,3,1,75,方嘉柏,史卓豐,2,14.0,128,6 5 5 7,1.21.81,1114,--,,星運明爵
14,15,777,6,27/06/20,"沙田草地""B""                                    ",1400,好/快,3,11,76,方嘉柏,何澤堯,2-1/2,27.0,130,6 11 11 6,1.21.37,1102,V-,,星運明爵
15,16,554,9,05/04/20,"沙田草地""B+2""                                    ",1400,好,3,1,78,方嘉柏,薛恩,6-1/4,14.0,132,7 10 10 9,1.23.72,1124,V,,星運明爵
16,17,469,9,04/03/20,"跑馬地草地""B""                                    ",1650,好,3,11,80,方嘉柏,潘頓,10-1/2,4.2,133,2 1 1 9,1.41.47,1104,B-/XB-/V1/TT-,,星運明爵
17,18,369,11,27/01/20,"沙田草地""B+2""                                    ",1400,好,3,5,82,方嘉柏,何澤堯,3-1/2,6.1,130,7 8 8 11,1.22.65,1096,XB/B1/TT,,星運明爵
18,19,312,11,05/01/20,"沙田草地""C+3""                                    ",1800,好,2,4,84,方嘉柏,郭能,6,23.0,120,6 6 7 7 11,1.47.70,1090,XB/TT1,,星運明爵
19,20,282,9,26/12/19,"跑馬地草地""A""                                    ",1650,好,2,7,84,方嘉柏,莫雷拉,5-1/4,4.1,120,2 3 4 9,1.40.64,1112,XB,,星運明爵
20,21,225,2,04/12/19,"跑馬地草地""B""                                    ",1800,好,2,12,82,方嘉柏,蘇兆輝,短馬頭位,27.0,119,1 1 1 1 2,1.49.05,1097,XB,,星運明爵
21,22,179,11,17/11/19,"沙田草地""B""                                    ",1800,好/快,2,14,84,方嘉柏,莫雷拉,3-1/2,15.0,121,13 14 14 13 11,1.47.79,1090,PC-/XB,,星運明爵
22,23,150,11,03/11/19,"沙田草地""C+3""                                    ",1600,好/快,2,9,85,方嘉柏,蔡明紹,6-3/4,14.0,123,2 2 2 11,1.34.36,1098,PC/XB,,星運明爵
23,24,113,3,20/10/19,"沙田草地""A""                                    ",1400,好/快,2,5,85,方嘉柏,蔡明紹,3-1/2,56.0,115,4 5 5 3,1.20.84,1089,PC1/XB1,,星運明爵
