,Unnamed: 0,場次,名次,日期,馬場/跑道/賽道,途程,場地狀況,賽事班次,檔位,評分,練馬師,騎師,頭馬距離,獨贏賠率,實際負磅,沿途走位,完成時間,排位體重,配備,賽事重播,馬名
0,1,673,04,16/05/21,"沙田草地""C+3""                                    ",1000,好/快,4,11,44,方嘉柏,莫雷拉,3,3.5,118,12 10 4,0.55.41,1051,V-/TT,,春風得意
1,2,579,11,11/04/21,"沙田草地""C""                                    ",1400,好,4,10,46,丁冠豪,梁家俊,6-1/4,14,120,11 9 9 11,1.22.83,1068,V2/TT,,春風得意
2,3,521,07,21/03/21,"沙田草地""A""                                    ",1600,好,4,2,46,丁冠豪,田泰安,2,10,119,7 8 10 7,1.35.61,1064,CP-/TT,,春風得意
3,4,445,03,21/02/21,"沙田草地""A+3""                                    ",1400,好,4,8,45,丁冠豪,田泰安,1,9,118,13 11 10 3,1.22.16,1062,CP/TT,,春風得意
4,5,366,05,24/01/21,"沙田草地""A+3""                                    ",1400,好,4,12,46,丁冠豪,田泰安,1-3/4,13,119,13 12 10 5,1.22.27,1058,CP/TT,,春風得意
5,6,298,09,26/12/20,"沙田草地""A+3""                                    ",1200,好,4,5,48,丁冠豪,蘇銘倫,5-3/4,6.8,122,9 10 9,1.10.16,1061,CP/TT,,春風得意
6,7,186,03,14/11/20,"沙田草地""C+3""                                    ",1200,好,4,9,48,丁冠豪,梁家俊,1-1/2,4.2,126,7 7 3,1.09.62,1060,CP/TT,,春風得意
7,8,59,03,27/09/20,"沙田草地""A""                                    ",1200,好,4,7,47,何良,梁家俊,1/2,9.8,120,12 8 3,1.09.80,1045,CP/TT,,春風得意
8,9,4,02,06/09/20,"沙田草地""A""                                    ",1200,好,4,8,46,何良,梁家俊,3/4,16,119,11 11 2,1.09.52,1054,CP2/TT1,,春風得意
9,10,773,09,27/06/20,沙田全天候                                    ,1650,好,4,13,48,何良,蘇狄雄,5-1/4,107,120,4 4 3 9,1.40.73,1042,V-,,春風得意
10,11,729,09,10/06/20,"跑馬地草地""B""                                    ",1200,好,4,10,50,何良,賀銘年,6,18,124,12 12 9,1.10.80,1044,V,,春風得意
11,12,694,09,27/05/20,沙田全天候                                    ,1200,好,4,1,52,何良,巫顯東,5-3/4,16,123,9 9 9,1.09.93,1045,V,,春風得意
12,13,641,05,09/05/20,"沙田草地""C""                                    ",1200,好/快,4,6,53,何良,蘇狄雄,5,7.5,126,1 2 5,1.09.86,1033,CP-/V1,,春風得意
13,14,602,07,26/04/20,"沙田草地""A""                                    ",1400,好,4,10,53,何良,波健士,2-1/4,35,126,8 8 7 7,1.22.19,1045,CP,,春風得意
14,15,568,06,12/04/20,"沙田草地""C""                                    ",1200,好,4,11,53,何良,薛恩,2-1/4,8.1,128,8 7 6,1.09.88,1050,CP,,春風得意
15,16,509,01,22/03/20,"沙田草地""A""                                    ",1200,好,4,7,48,何良,利敬國,短馬頭位,5.5,123,2 2 1,1.09.47,1041,CP,,春風得意
16,17,476,08,08/03/20,"沙田草地""C""                                    ",1200,好,4,9,48,何良,利敬國,2-1/2,12,124,5 6 8,1.10.22,1039,H-/CP,,春風得意
17,18,437,02,23/02/20,"沙田草地""A+3""                                    ",1200,好,4,9,48,何良,利敬國,2,12,122,7 5 2,1.10.03,1044,CP/H,,春風得意
18,19,381,03,02/02/20,"沙田草地""C""                                    ",1200,好,4,8,48,何良,利敬國,1-3/4,4.1,123,2 3 3,1.10.56,1045,CP/H,,春風得意
19,20,345,08,19/01/20,"沙田草地""A+3""                                    ",1400,好,4,13,50,何良,蘇狄雄,4-1/4,30,123,11 13 14 8,1.22.67,1041,H/CP1,,春風得意
20,21,289,04,29/12/19,"沙田草地""B+2""                                    ",1400,好,4,3,51,何良,潘頓,2,3.8,126,6 6 7 4,1.22.73,1055,H,,春風得意
21,22,213,08,01/12/19,沙田全天候                                    ,1200,好,4,4,51,何良,蘇狄雄,3-3/4,9.5,123,11 8 8,1.09.62,1044,H,,春風得意
22,23,143,02,03/11/19,"沙田草地""C+3""                                    ",1200,好/快,4,2,50,何良,蘇狄雄,1-3/4,3.7,125,9 7 2,1.09.40,1049,H,,春風得意
23,24,34,WV,15/09/19,"沙田草地""C+3""                                    ",1200,好/快,4,--,50,何良,潘頓,--,--,123,--,--,--,--,--,春風得意
24,25,809,04,14/07/19,"沙田草地""A""                                    ",1400,好/快,4,5,51,何良,潘頓,2-1/2,1.8,124,10 8 8 4,1.22.78,1029,H,,春風得意
25,26,755,04,23/06/19,"沙田草地""A""                                    ",1200,好/快,4,8,52,何良,蘇狄雄,4,8.7,124,13 11 4,1.09.62,1023,H,,春風得意
26,27,708,06,02/06/19,"沙田草地""B""                                    ",1200,好/快,4,12,52,何良,蘇狄雄,4-3/4,37,125,13 11 6,1.09.75,1034,H1,,春風得意
