,Unnamed: 0,場次,名次,日期,馬場/跑道/賽道,途程,場地狀況,賽事班次,檔位,評分,練馬師,騎師,頭馬距離,獨贏賠率,實際負磅,沿途走位,完成時間,排位體重,配備,賽事重播,馬名
0,1,717,8,30/05/21,"沙田草地""B""                                    ",1200,好/快,3,1,65,韋達,周俊樂,2-1/2,7.9,114,1 1 8,1.08.69,1162,B,,會長之星
1,2,654,1,08/05/21,"沙田草地""C""                                    ",1200,好/快,4,11,60,韋達,周俊樂,3/4,10.0,128,1 1 1,1.08.99,1157,B,,會長之星
2,3,581,10,11/04/21,"沙田草地""C""                                    ",1200,好,3,7,61,韋達,波健士,7,61.0,114,4 4 10,1.09.69,1178,B,,會長之星
3,4,534,3,24/03/21,"跑馬地草地""C+3""                                    ",1200,好/快,3,2,61,韋達,蔡明紹,3/4,7.9,115,4 4 3,1.09.48,1176,B,,會長之星
4,5,496,9,10/03/21,"跑馬地草地""B""                                    ",1200,好,3,2,63,韋達,賀銘年,4-1/4,13.0,117,7 8 9,1.10.43,1175,B,,會長之星
5,6,410,4,06/02/21,"沙田草地""C""                                    ",1200,好,3,1,65,韋達,巴度,4-1/4,9.9,118,3 3 4,1.09.05,1184,V-/B2,,會長之星
6,7,324,8,06/01/21,"跑馬地草地""A""                                    ",1200,好,3,3,65,韋達,賀銘年,3-1/2,10.0,119,1 1 8,1.10.39,1194,V,,會長之星
7,8,246,3,06/12/20,"沙田草地""C+3""                                    ",1000,好,3,4,63,韋達,賀銘年,1/2,53.0,118,5 5 3,0.56.25,1187,B-/V1,,會長之星
8,9,174,10,08/11/20,"跑馬地草地""A""                                    ",1200,好,3,11,64,韋達,賀銘年,2-1/2,29.0,117,3 3 10,1.10.40,1160,B,,會長之星
9,10,91,6,07/10/20,"跑馬地草地""A""                                    ",1200,好,3,9,64,韋達,何澤堯,1-1/4,6.5,122,3 3 6,1.10.33,1168,B,,會長之星
10,11,18,2,09/09/20,"跑馬地草地""B""                                    ",1200,好,3,9,63,韋達,何澤堯,3/4,26.0,116,7 5 2,1.09.76,1163,B,,會長之星
11,12,819,12,12/07/20,"沙田草地""A""                                    ",1200,好/快,3,10,63,韋達,梁家俊,5-3/4,56.0,117,3 3 12,1.09.86,1166,B,,會長之星
12,13,752,1,21/06/20,"沙田草地""A""                                    ",1200,好/快,4,11,56,韋達,周俊樂,1,8.1,120,1 2 1,1.09.17,1164,CP-/B1/TT-,,會長之星
13,14,615,11,29/04/20,"跑馬地草地""A""                                    ",1200,好/快,4,6,58,約翰摩亞,薛恩,11-1/2,7.3,131,3 3 11,1.11.83,1142,CP/TT,,會長之星
14,15,575,4,15/04/20,"跑馬地草地""C""                                    ",1200,好,4,4,60,約翰摩亞,薛恩,2-1/2,18.0,133,7 7 4,1.10.51,1142,CP/TT,,會長之星
15,16,553,10,05/04/20,"沙田草地""B+2""                                    ",1200,好,3,8,63,約翰摩亞,楊明綸,13-3/4,47.0,119,1 2 10,1.11.80,1148,CP2/TT,,會長之星
16,17,489,11,11/03/20,"跑馬地草地""C""                                    ",1200,好,3,10,65,約翰摩亞,梁家俊,8,43.0,121,1 1 11,1.11.14,1138,TT,,會長之星
17,18,471,8,04/03/20,"跑馬地草地""B""                                    ",1200,好,3,1,67,約翰摩亞,郭能,7-3/4,10.0,120,5 2 8,1.10.91,1147,TT,,會長之星
18,19,389,12,02/02/20,"沙田草地""C""                                    ",1200,好,3,12,69,約翰摩亞,利敬國,6-1/4,25.0,123,11 10 12,1.10.46,1153,CP-/TT,,會長之星
19,20,288,11,29/12/19,"沙田草地""B+2""                                    ",1200,好,3,12,71,約翰摩亞,薛恩,6-1/4,17.0,128,6 4 11,1.10.70,1146,CP/TT,,會長之星
20,21,245,4,11/12/19,"跑馬地草地""C""                                    ",1200,好,3,1,71,約翰摩亞,郭能,3/4,7.3,124,5 5 4,1.10.02,1147,CP/TT,,會長之星
21,22,159,8,06/11/19,"跑馬地草地""B""                                    ",1200,好,3,7,71,約翰摩亞,郭能,3-1/2,7.0,125,6 7 8,1.10.37,1130,CP/TT,,會長之星
22,23,122,2,23/10/19,"跑馬地草地""C+3""                                    ",1200,好/快,3,6,69,約翰摩亞,郭能,1,11.0,126,4 5 2,1.09.89,1127,CP1/TT,,會長之星
23,24,85,9,09/10/19,"跑馬地草地""B""                                    ",1200,好,3,7,70,約翰摩亞,郭能,4-1/4,5.3,124,2 2 9,1.10.81,1148,TT,,會長之星
24,25,702,4,29/05/19,"跑馬地草地""C""                                    ",1200,好,3,9,70,約翰摩亞,潘頓,1-3/4,3.0,120,2 2 4,1.10.50,1131,TT,,會長之星
25,26,655,5,11/05/19,"沙田草地""C""                                    ",1200,好,3,5,70,約翰摩亞,利敬國,2,3.8,122,5 5 5,1.09.58,1132,TT,,會長之星
26,27,627,2,01/05/19,"跑馬地草地""C+3""                                    ",1200,好/快,3,6,66,約翰摩亞,史卓豐,1/2,13.0,116,2 2 2,1.09.72,1146,TT1,,會長之星
27,28,529,11,24/03/19,"沙田草地""C+3""                                    ",1400,好,3,8,68,約翰摩亞,蘇兆輝,5-3/4,15.0,116,12 11 10 11,1.23.64,1149,--,,會長之星
28,29,466,6,02/03/19,"沙田草地""C""                                    ",1200,好,3,11,69,約翰摩亞,蘇兆輝,5-1/4,13.0,119,9 10 6,1.10.38,1154,--,,會長之星
29,30,427,4,17/02/19,"沙田草地""A+3""                                    ",1200,好,3,1,70,約翰摩亞,岳禮華                                    ,1-3/4,16.0,120,7 7 4,1.10.02,1148,--,,會長之星
30,31,400,8,07/02/19,"沙田草地""C+3""                                    ",1200,好,3,9,70,約翰摩亞,韋達                                    ,4-1/4,42.0,118,9 7 8,1.10.13,1140,--,,會長之星
