,Unnamed: 0,場次,名次,日期,馬場/跑道/賽道,途程,場地狀況,賽事班次,檔位,評分,練馬師,騎師,頭馬距離,獨贏賠率,實際負磅,沿途走位,完成時間,排位體重,配備,賽事重播,馬名
0,1,661,3,08/05/21,沙田全天候                                    ,1650,好,2,11,86,告東尼,潘明輝,5-1/2,21,114,13 14 14 3,1.37.04,993,H/TT,,柏林探戈
1,2,593,4,14/04/21,"跑馬地草地""B""                                    ",1800,好/快,2,8,86,告東尼,何澤堯,1-1/4,10,123,9 10 9 7 4,1.49.61,1014,H1/TT,,柏林探戈
2,3,488,13,07/03/21,"沙田草地""C""                                    ",1800,好,2,13,88,告東尼,馬雅,8-3/4,13,118,7 7 7 7 13,1.48.59,1009,TT,,柏林探戈
3,4,453,7,24/02/21,"跑馬地草地""C+3""                                    ",1650,好/快,1,5,88,告東尼,田泰安,2,20,113,9 9 9 7,1.39.27,1014,TT,,柏林探戈
4,5,303,11,26/12/20,沙田全天候                                    ,1650,好,2,2,90,告東尼,賀銘年,10-1/4,69,125,6 8 11 11,1.40.34,1012,TT,,柏林探戈
5,6,230,14,29/11/20,"沙田草地""C""                                    ",1400,好,2,14,90,告東尼,黃俊,12-1/2,106,123,8 6 11 14,1.22.71,1021,TT1,,柏林探戈
