,Unnamed: 0,場次,名次,日期,馬場/跑道/賽道,途程,場地狀況,賽事班次,檔位,評分,練馬師,騎師,頭馬距離,獨贏賠率,實際負磅,沿途走位,完成時間,排位體重,配備,賽事重播,馬名
0,1,674,9,16/05/21,"沙田草地""C+3""                                    ",1400,好/快,4,7,52,姚本輝,梁家俊,4-1/4,2.2,127,3 3 1 9,1.22.24,1137,CP/H,,極速奔馳
1,2,613,2,25/04/21,"沙田草地""A""                                    ",1400,好,4,14,49,姚本輝,梁家俊,頭位,5.3,122,5 3 2 2,1.22.49,1130,H/CP1,,極速奔馳
2,3,539,5,28/03/21,"沙田草地""A+3""                                    ",1400,好/快,4,8,51,姚本輝,梁家俊,4-1/4,16.0,125,12 11 9 5,1.21.88,1151,H1,,極速奔馳
3,4,425,5,14/02/21,"沙田草地""A""                                    ",1200,好,4,2,52,姚本輝,梁家俊,2-3/4,9.0,126,5 5 5,1.10.17,1145,--,,極速奔馳
4,5,132,3,24/10/20,"沙田草地""C""                                    ",1200,好,4,4,52,姚本輝,波健士,6-3/4,7.2,126,5 5 3,1.09.91,1166,--,,極速奔馳
5,6,790,2,05/07/20,"沙田草地""C+3""                                    ",1200,好/快,4,6,50,姚本輝,潘明輝,頸位,4.8,122,9 7 2,1.09.71,1132,--,,極速奔馳
6,7,750,7,21/06/20,"沙田草地""A""                                    ",1200,好/快,4,9,52,姚本輝,何澤堯,6-1/2,5.0,125,3 2 7,1.10.01,1137,--,,極速奔馳
7,8,641,3,09/05/20,"沙田草地""C""                                    ",1200,好/快,4,9,52,姚本輝,何澤堯,3,9.2,127,9 7 3,1.09.51,1160,--,,極速奔馳
8,9,454,9,01/03/20,"沙田草地""B+2""                                    ",1000,好,4,13,52,姚本輝,黎海榮,5-1/4,19.0,127,6 3 9,0.57.14,1179,--,,極速奔馳
