,Unnamed: 0,場次,名次,日期,馬場/跑道/賽道,途程,場地狀況,賽事班次,檔位,評分,練馬師,騎師,頭馬距離,獨贏賠率,實際負磅,沿途走位,完成時間,排位體重,配備,賽事重播,馬名
0,1,603,1,17/04/21,"沙田草地""C+3""                                    ",1400,好,3,11,65,韋達,周俊樂,3,7.7,116,1 1 1 1,1.22.29,1220,SR,,標準猴王
1,2,559,9,05/04/21,"沙田草地""B+2""                                    ",1200,好,3,7,67,韋達,何澤堯,4-1/4,20.0,122,5 5 9,1.10.05,1208,SR,,標準猴王
2,3,503,6,13/03/21,"沙田草地""C+3""                                    ",1000,好,3,5,69,韋達,何澤堯,3,12.0,122,12 10 6,0.56.47,1224,H-/SR1,,標準猴王
3,4,411,7,06/02/21,"沙田草地""C""                                    ",1400,好,3,3,71,韋達,周俊樂,5-1/4,16.0,121,4 5 6 7,1.22.50,1211,H2,,標準猴王
4,5,293,11,23/12/20,"跑馬地草地""C+3""                                    ",1200,好/快,3,8,73,韋達,周俊樂,4-1/2,19.0,119,5 6 11,1.10.00,1224,--,,標準猴王
5,6,211,11,22/11/20,"沙田草地""B+2""                                    ",1400,好/快,3,11,73,韋達,田泰安,8,12.0,126,4 3 3 11,1.22.38,1212,--,,標準猴王
6,7,120,3,18/10/20,"沙田草地""B+2""                                    ",1400,好/快,3,11,72,韋達,史卓豐,3/4,28.0,128,3 2 1 3,1.22.16,1210,--,,標準猴王
7,8,44,9,20/09/20,"沙田草地""B+2""                                    ",1400,好/快,3,4,74,韋達,巴度,3-1/2,12.0,128,5 4 5 9,1.22.02,1220,CP-,,標準猴王
8,9,758,9,21/06/20,"沙田草地""A""                                    ",1400,好/快,3,11,77,韋達,周俊樂,5-3/4,9.5,120,1 1 1 9,1.22.27,1206,CP1,,標準猴王
9,10,668,9,17/05/20,"沙田草地""C+3""                                    ",1400,好/快,3,1,79,韋達,潘頓,4-3/4,3.3,132,5 4 3 9,1.21.79,1210,--,,標準猴王
10,11,518,7,22/03/20,"沙田草地""A""                                    ",1400,好/快,2,6,81,約翰摩亞,蔡明紹,4,13.0,116,5 2 3 7,1.21.72,1232,--,,標準猴王
11,12,463,6,01/03/20,"沙田草地""B+2""                                    ",1400,好,2,10,82,約翰摩亞,希威森,2,34.0,120,3 2 2 6,1.21.45,1223,--,,標準猴王
12,13,369,6,27/01/20,"沙田草地""B+2""                                    ",1400,好,3,3,83,約翰摩亞,莫雷拉,1-3/4,5.1,131,1 1 1 6,1.22.38,1199,--,,標準猴王
13,14,313,4,05/01/20,"沙田草地""C+3""                                    ",1400,好,2,3,83,約翰摩亞,蘇兆輝,2-1/4,10.0,120,5 4 4 4,1.21.73,1213,--,,標準猴王
14,15,253,7,15/12/19,"沙田草地""C+3""                                    ",1400,好,2,8,85,約翰摩亞,希威森,4-1/2,25.0,115,4 1 1 7,1.21.52,1203,XB-,,標準猴王
15,16,198,12,23/11/19,"沙田草地""C""                                    ",1400,好/快,2,13,87,約翰摩亞,貝力斯,9-1/2,43.0,126,6 8 7 12,1.22.54,1219,XB,,標準猴王
16,17,166,7,09/11/19,"沙田草地""A""                                    ",1400,好/快,1,8,88,約翰摩亞,利敬國,4,18.0,115,8 6 6 7,1.20.57,1225,XB,,標準猴王
17,18,113,7,20/10/19,"沙田草地""A""                                    ",1400,好/快,2,10,88,約翰摩亞,田泰安,6,13.0,118,2 2 2 7,1.21.23,1225,XB2,,標準猴王
18,19,357,2,20/01/19,"沙田草地""A+3""                                    ",1400,好/快,2,3,87,約翰摩亞,潘頓,2-1/2,3.2,124,6 5 5 2,1.21.64,1216,--,,標準猴王
19,20,309,7,01/01/19,"沙田草地""C""                                    ",1400,好,G3,9,87,約翰摩亞,蔡明紹,3-3/4,17.0,113,1 1 1 7,1.21.43,1200,--,,標準猴王
20,21,264,1,16/12/18,"沙田草地""C+3""                                    ",1400,好,3,3,80,約翰摩亞,潘頓,1-1/4,3.8,133,6 4 2 1,1.22.32,1200,--,,標準猴王
21,22,226,3,02/12/18,"沙田草地""C+3""                                    ",1400,好,3,10,79,約翰摩亞,郭能,1/2,4.4,132,4 6 5 3,1.22.00,1187,--,,標準猴王
22,23,169,1,10/11/18,"沙田草地""A""                                    ",1400,好,3,12,72,約翰摩亞,郭能,1-3/4,5.7,126,2 2 2 1,1.21.65,1194,--,,標準猴王
23,24,107,9,18/10/18,"跑馬地草地""C""                                    ",1650,好,3,11,72,約翰摩亞,利敬國,5-1/4,14.0,127,1 1 1 9,1.40.50,1205,--,,標準猴王
24,25,63,8,01/10/18,"沙田草地""A+3""                                    ",1200,好,3,4,73,約翰摩亞,沈拿,3,12.0,127,6 6 8,1.09.81,1199,B-,,標準猴王
25,26,788,5,08/07/18,"沙田草地""C""                                    ",1400,好/快,3,4,74,約翰摩亞,柏寶                                    ,2,6.2,127,3 1 2 5,1.21.62,1224,B,,標準猴王
26,27,737,3,16/06/18,沙田全天候                                    ,1200,好,3,4,74,約翰摩亞,柏寶                                    ,1-1/4,5.5,129,7 8 3,1.08.87,1224,B1,,標準猴王
27,28,703,3,03/06/18,"沙田草地""B""                                    ",1400,好/快,3,8,74,約翰摩亞,柏寶                                    ,2,11.0,131,2 2 1 3,1.21.48,1225,--,,標準猴王
28,29,665,6,20/05/18,"沙田草地""C+3""                                    ",1400,好/快,3,10,76,約翰摩亞,潘頓,2-1/4,4.9,131,7 5 6 6,1.22.11,1225,--,,標準猴王
29,30,631,5,06/05/18,"沙田草地""B""                                    ",1400,好,3,8,78,約翰摩亞,郭能,3-1/4,20.0,133,8 8 7 5,1.22.84,1233,--,,標準猴王
30,31,593,6,21/04/18,沙田全天候                                    ,1200,好,3,10,80,約翰摩亞,黃俊,4-1/2,29.0,123,6 7 6,1.08.55,1232,--,,標準猴王
31,32,544,6,02/04/18,"沙田草地""B+2""                                    ",1400,好,2,6,82,約翰摩亞,梁家俊,5-3/4,31.0,115,1 3 3 6,1.22.05,1240,H-/XB-,,標準猴王
32,33,510,12,18/03/18,"沙田草地""A""                                    ",1200,好,2,11,82,約翰摩亞,田泰安,6-3/4,7.6,115,7 8 12,1.10.55,1238,H1/XB1,,標準猴王
