,Unnamed: 0,場次,名次,日期,馬場/跑道/賽道,途程,場地狀況,賽事班次,檔位,評分,練馬師,騎師,頭馬距離,獨贏賠率,實際負磅,沿途走位,完成時間,排位體重,配備,賽事重播,馬名
0,1,233,WV-A,02/12/20,"跑馬地草地""A""                                    ",1000,好,5,--,34,鄭俊偉,彭國年,--,--,127,--,--,--,--,--,歐洲新星
1,2,149,13,01/11/20,"沙田草地""A""                                    ",1200,好/快,5,13,39,鄭俊偉,田泰安,10-1/4,40,132,12 13 13,1.11.05,1110,CP/E,,歐洲新星
2,3,94,08,11/10/20,"沙田草地""A+3""                                    ",1400,好,4,6,42,鄭俊偉,巫顯東,6-3/4,195,114,3 2 3 8,1.22.94,1103,CP/E,,歐洲新星
3,4,65,09,01/10/20,"沙田草地""B""                                    ",1200,好,4,5,45,鄭俊偉,巫顯東,9-3/4,40,115,6 8 9,1.10.88,1111,H-/CP/E1,,歐洲新星
4,5,761,12,24/06/20,"跑馬地草地""C""                                    ",1200,好/快,4,3,50,鄭俊偉,梁家俊,15-1/4,34,123,9 10 12,1.12.46,1105,B-/CP1/H1,,歐洲新星
5,6,588,WV-A,19/04/20,"沙田草地""C+3""                                    ",1400,好,4,--,50,鄭俊偉,薛恩,--,--,123,--,--,--,--,--,歐洲新星
6,7,417,11,16/02/20,"沙田草地""A""                                    ",1200,好,4,2,52,鄭俊偉,薛恩,6,83,125,7 10 11,1.11.11,1096,B,,歐洲新星
7,8,353,07,22/01/20,"跑馬地草地""A""                                    ",1200,好,4,6,52,鄭俊偉,薛恩,5,45,125,9 6 7,1.10.52,1105,B1,,歐洲新星
