,Unnamed: 0,場次,名次,日期,馬場/跑道/賽道,途程,場地狀況,賽事班次,檔位,評分,練馬師,騎師,頭馬距離,獨贏賠率,實際負磅,沿途走位,完成時間,排位體重,配備,賽事重播,馬名
0,1,644,1,05/05/21,"跑馬地草地""A""                                    ",1650,好,3,2,75,呂健威,巴度,頸位,3.1,129,3 4 4 1,1.39.30,1019,--,,歡欣福星
1,2,535,4,24/03/21,"跑馬地草地""C+3""                                    ",1650,好/快,3,12,75,呂健威,巴度,1-1/2,7.1,128,12 12 12 4,1.39.83,1014,--,,歡欣福星
2,3,478,3,03/03/21,"跑馬地草地""A""                                    ",1650,好,3,4,74,呂健威,巴度,3/4,3.3,127,5 6 9 3,1.40.40,1013,--,,歡欣福星
3,4,415,1,10/02/21,"跑馬地草地""B""                                    ",1650,好,3,5,67,呂健威,巴度,1-3/4,3.5,122,6 5 6 1,1.39.90,1014,--,,歡欣福星
4,5,361,2,20/01/21,"跑馬地草地""C""                                    ",1650,好,3,4,66,呂健威,潘明輝,3/4,4.1,119,7 6 6 2,1.39.98,1012,--,,歡欣福星
5,6,315,3,01/01/21,"沙田草地""B+2""                                    ",1400,好,3,10,66,呂健威,巴度,1-1/2,10.0,119,11 12 10 3,1.22.09,1011,--,,歡欣福星
6,7,229,5,29/11/20,"沙田草地""C""                                    ",1600,好,3,6,66,呂健威,巴度,1-3/4,8.7,119,5 6 7 5,1.34.48,1006,--,,歡欣福星
7,8,135,1,24/10/20,"沙田草地""C""                                    ",1400,好,4,3,60,呂健威,周俊樂,3/4,6.4,123,10 7 8 1,1.21.67,1010,--,,歡欣福星
8,9,59,6,27/09/20,"沙田草地""A""                                    ",1200,好,4,14,60,呂健威,周俊樂,1-1/2,38.0,123,11 13 6,1.09.97,1018,--,,歡欣福星
9,10,789,3,05/07/20,"沙田草地""C+3""                                    ",1200,好/快,GRIFFIN,3,--,呂健威,田泰安,1-3/4,5.3,133,5 4 3,1.09.81,1011,TT-,,歡欣福星
10,11,679,7,24/05/20,"沙田草地""A""                                    ",1200,好,GRIFFIN,4,--,呂健威,何澤堯,4-3/4,2.5,133,6 7 7,1.11.53,1006,TT,,歡欣福星
11,12,563,1,12/04/20,"沙田草地""C""                                    ",1000,好,GRIFFIN,5,--,呂健威,何澤堯,2-1/4,6.5,129,6 5 1,0.58.64,1016,TT1,,歡欣福星
