,Unnamed: 0,場次,名次,日期,馬場/跑道/賽道,途程,場地狀況,賽事班次,檔位,評分,練馬師,騎師,頭馬距離,獨贏賠率,實際負磅,沿途走位,完成時間,排位體重,配備,賽事重播,馬名
0,1,693,14,23/05/21,"沙田草地""A""                                    ",2000,好/快,4,7,57,羅富全,潘頓,11-1/4,4.5,130,6 5 6 7 14,2.04.06,1142,CP/TT,,正本開心
1,2,597,11,17/04/21,"沙田草地""C+3""                                    ",1800,好,4,2,59,羅富全,潘頓,4-1/2,3.2,133,7 7 8 8 11,1.50.86,1158,CP/TT,,正本開心
2,3,537,4,28/03/21,"沙田草地""A+3""                                    ",2000,好,4,13,59,羅富全,田泰安,2-1/4,9.4,133,13 13 13 14 4,2.02.36,1148,CP/TT,,正本開心
3,4,444,2,21/02/21,"沙田草地""A+3""                                    ",1800,好,4,4,57,羅富全,田泰安,頸位,8.6,130,6 6 6 4 2,1.47.84,1157,CP/TT,,正本開心
4,5,329,6,10/01/21,"沙田草地""C""                                    ",1400,好,4,9,59,羅富全,蘇銘倫,2-1/4,5.2,133,12 9 7 6,1.22.91,1160,CP/TT,,正本開心
5,6,259,5,13/12/20,"沙田草地""A""                                    ",1400,好,4,4,60,羅富全,潘頓,2,4.6,133,2 3 4 5,1.22.68,1157,CP2/TT,,正本開心
6,7,193,7,14/11/20,"沙田草地""C+3""                                    ",1800,好,3,12,61,羅富全,楊明綸,3-1/4,129.0,115,3 1 2 2 7,1.47.96,1171,CP-/TT,,正本開心
7,8,136,9,24/10/20,"沙田草地""C""                                    ",1000,好,3,9,62,羅富全,陳嘉熙,2-1/4,67.0,110,14 14 9,0.56.97,1165,CP/TT,,正本開心
8,9,28,7,13/09/20,"沙田草地""A+3""                                    ",1400,好,3,10,64,羅富全,巴度,7,17.0,117,8 8 9 7,1.22.24,1135,CP/TT,,正本開心
9,10,826,11,15/07/20,"跑馬地草地""B""                                    ",1650,好/快,3,12,64,羅富全,史卓豐,5,23.0,118,11 11 10 11,1.40.93,1158,CP/TT,,正本開心
10,11,777,2,27/06/20,"沙田草地""B""                                    ",1400,好/快,3,2,63,羅富全,田泰安,1,4.9,117,7 6 3 2,1.21.13,1159,CP/TT,,正本開心
11,12,708,11,31/05/20,"沙田草地""B""                                    ",1400,好,3,13,64,羅富全,史卓豐,3-1/2,10.0,121,10 6 7 11,1.22.01,1146,CP/TT,,正本開心
12,13,605,10,26/04/20,"沙田草地""A""                                    ",1600,好,3,8,65,羅富全,潘頓,5-1/2,5.2,120,6 5 4 10,1.35.30,1152,CP/TT,,正本開心
13,14,572,3,12/04/20,"沙田草地""C""                                    ",1400,好,3,14,65,羅富全,史卓豐,1-1/2,5.3,120,11 10 8 3,1.21.50,1159,CP/TT,,正本開心
14,15,517,2,22/03/20,"沙田草地""A""                                    ",1400,好/快,3,6,63,羅富全,利敬國,短馬頭位,2.8,116,8 8 8 2,1.21.99,1148,CP/TT,,正本開心
15,16,462,5,01/03/20,"沙田草地""B+2""                                    ",1400,好,3,13,63,羅富全,田泰安,1-3/4,5.3,117,10 12 11 5,1.22.21,1160,CP/TT,,正本開心
16,17,384,1,02/02/20,"沙田草地""C""                                    ",1400,好,4,12,56,羅富全,潘頓,1-1/4,3.7,129,8 8 7 1,1.21.70,1151,CP/TT,,正本開心
17,18,298,1,01/01/20,"沙田草地""C""                                    ",1400,好,4,4,50,羅富全,潘頓,短馬頭位,2.3,123,8 8 5 1,1.22.15,1138,CP1/TT,,正本開心
18,19,250,3,15/12/19,"沙田草地""C+3""                                    ",1400,好,4,4,50,羅富全,郭能,1,6.1,123,5 7 6 3,1.21.91,1149,TT,,正本開心
19,20,194,4,23/11/19,"沙田草地""C""                                    ",1400,好/快,4,12,51,羅富全,郭能,2-1/4,28.0,124,9 8 9 4,1.21.68,1137,TT,,正本開心
20,21,145,4,03/11/19,"沙田草地""C+3""                                    ",1400,好/快,4,6,52,羅富全,郭能,2,63.0,127,4 5 6 4,1.21.41,1145,TT,,正本開心
21,22,26,11,11/09/19,"跑馬地草地""B""                                    ",1200,好,4,1,54,羅富全,杜美爾,4-1/2,16.0,127,9 9 11,1.11.01,1117,TT,,正本開心
22,23,801,10,10/07/19,"跑馬地草地""A""                                    ",1650,好,4,8,56,羅富全,莫雷拉,9-1/2,21.0,130,7 7 8 10,1.42.28,1179,TT,,正本開心
23,24,708,11,02/06/19,"沙田草地""B""                                    ",1200,好/快,4,7,58,羅富全,田泰安,6-1/4,14.0,133,8 9 11,1.09.97,1194,TT,,正本開心
24,25,668,5,18/05/19,"沙田草地""C+3""                                    ",1200,好,4,4,58,羅富全,田泰安,2-1/2,18.0,132,10 12 5,1.10.16,1176,TT,,正本開心
25,26,634,12,05/05/19,"沙田草地""B""                                    ",1400,好/黏,4,6,59,羅富全,黃俊,15-1/2,24.0,128,6 9 10 12,1.25.93,1179,TT,,正本開心
26,27,570,8,10/04/19,"跑馬地草地""A""                                    ",1200,好,4,8,59,羅富全,田泰安,6-3/4,11.0,133,9 10 8,1.10.92,1175,TT,,正本開心
27,28,521,4,24/03/19,"沙田草地""C+3""                                    ",1000,好,4,2,59,羅富全,潘頓,5,5.1,133,5 5 4,0.57.45,1166,TT,,正本開心
28,29,460,1,02/03/19,"沙田草地""C""                                    ",1000,好,4,8,52,羅富全,田泰安,1-1/4,16.0,130,8 8 1,0.56.96,1169,TT1,,正本開心
