,Unnamed: 0,場次,名次,日期,馬場/跑道/賽道,途程,場地狀況,賽事班次,檔位,評分,練馬師,騎師,頭馬距離,獨贏賠率,實際負磅,沿途走位,完成時間,排位體重,配備,賽事重播,馬名
0,1,681,5,19/05/21,"跑馬地草地""B""                                    ",1650,好/快,5,12,29,呂健威,馬雅,4-3/4,75.0,122,11 9 9 5,1.40.07,1003,B/TT,,獵狐章者
1,2,653,8,08/05/21,"沙田草地""C""                                    ",1200,好/快,5,5,31,呂健威,梁家俊,3-1/4,38.0,125,10 9 8,1.10.09,992,B/TT,,獵狐章者
2,3,585,7,14/04/21,"跑馬地草地""B""                                    ",1800,好/快,5,7,32,呂健威,賀銘年,14-1/2,15.0,125,8 7 5 2 7,1.51.64,1006,B/TT,,獵狐章者
3,4,546,7,31/03/21,沙田全天候                                    ,1200,好,5,11,34,呂健威,彭國年,7-1/4,61.0,127,9 11 7,1.10.80,983,B/TT,,獵狐章者
4,5,276,10,20/12/20,"沙田草地""C+3""                                    ",1000,好,5,9,34,呂健威,潘明輝,8-1/4,39.0,125,5 14 10,0.58.97,1002,B/TT,,獵狐章者
5,6,240,5,06/12/20,沙田全天候                                    ,1200,好,5,8,35,呂健威,何澤堯,7,26.0,128,12 11 5,1.10.44,1005,B/TT,,獵狐章者
6,7,149,7,01/11/20,"沙田草地""A""                                    ",1200,好/快,5,2,35,呂健威,彭國年,4-1/2,10.0,128,7 8 7,1.10.12,997,B/TT,,獵狐章者
7,8,103,6,14/10/20,"跑馬地草地""B""                                    ",1200,好,5,7,35,呂健威,莫雷拉,3,3.4,128,5 5 6,1.11.00,1019,B/TT,,獵狐章者
8,9,70,1,01/10/20,"沙田草地""B""                                    ",1200,好,5,3,28,呂健威,莫雷拉,1-1/4,9.0,121,6 4 1,1.09.42,1002,B/TT,,獵狐章者
9,10,2,4,06/09/20,"沙田草地""A""                                    ",1200,好,5,5,28,呂健威,莫雷拉,1-3/4,9.1,122,7 6 4,1.10.02,1005,B/TT,,獵狐章者
10,11,803,2,08/07/20,"跑馬地草地""A""                                    ",1200,好,5,3,26,呂健威,田泰安,頭位,4.6,119,3 4 2,1.10.79,1002,B/TT,,獵狐章者
11,12,719,5,07/06/20,"沙田草地""C""                                    ",1200,黏,5,5,28,呂健威,田泰安,3-1/2,9.7,121,9 8 5,1.11.10,1006,B/TT,,獵狐章者
12,13,653,7,13/05/20,"跑馬地草地""C""                                    ",1200,好,5,6,30,呂健威,蔡明紹,3-1/2,5.4,124,7 8 7,1.11.02,998,B/TT,,獵狐章者
13,14,593,5,22/04/20,"跑馬地草地""C+3""                                    ",1200,好,5,9,31,呂健威,蔡明紹,2-1/2,8.5,124,11 11 5,1.10.79,999,B/TT,,獵狐章者
14,15,537,3,01/04/20,沙田全天候                                    ,1200,濕慢,5,12,31,呂健威,蔡明紹,2,17.0,124,8 8 3,1.10.37,1007,B/TT,,獵狐章者
15,16,491,3,14/03/20,"沙田草地""C+3""                                    ",1200,好,5,1,30,呂健威,黃皓楠,3/4,25.0,121,6 6 3,1.10.28,1014,B/TT,,獵狐章者
16,17,435,9,23/02/20,"沙田草地""A+3""                                    ",1200,好,5,14,30,呂健威,蔡明紹,6-1/4,24.0,123,13 12 9,1.10.25,1013,B/TT,,獵狐章者
17,18,391,1,05/02/20,"跑馬地草地""C""                                    ",1200,好,5,8,22,呂健威,蔡明紹,1-3/4,33.0,115,7 5 1,1.10.20,1014,B/TT,,獵狐章者
18,19,275,7,26/12/19,"跑馬地草地""A""                                    ",1200,好,5,5,24,呂健威,黎海榮,2-3/4,94.0,117,9 9 7,1.10.80,1014,B/TT,,獵狐章者
19,20,218,12,04/12/19,"跑馬地草地""B""                                    ",1200,好,5,1,28,呂健威,黎海榮,6-1/2,31.0,121,3 3 12,1.11.04,1012,B/TT,,獵狐章者
20,21,190,13,23/11/19,"沙田草地""C""                                    ",1400,好/快,5,11,31,呂健威,黎海榮,17-1/4,93.0,124,4 3 3 13,1.24.71,1010,H-/B/TT,,獵狐章者
21,22,78,8,09/10/19,"跑馬地草地""B""                                    ",1200,好,5,5,33,呂健威,黎海榮,5-1/4,46.0,126,10 12 8,1.11.36,987,H1/B2/TT,,獵狐章者
22,23,789,12,07/07/19,"沙田草地""C""                                    ",1400,好,5,2,37,呂健威,黃皓楠,14-3/4,32.0,127,2 7 13 12,1.25.19,1031,TT,,獵狐章者
23,24,725,6,08/06/19,"沙田草地""C""                                    ",1400,好/快,5,7,39,呂健威,杜美爾,4,24.0,132,6 7 6 6,1.23.03,1010,TT,,獵狐章者
24,25,511,12,20/03/19,"跑馬地草地""C""                                    ",1200,好/快,4,7,41,呂健威,黃皓楠,4,29.0,112,10 10 12,1.10.92,1052,TT,,獵狐章者
25,26,388,9,02/02/19,"沙田草地""C""                                    ",1400,好,4,6,43,呂健威,韋達                                    ,4-1/2,15.0,119,10 10 10 9,1.23.60,1055,TT1,,獵狐章者
26,27,334,7,12/01/19,"沙田草地""A""                                    ",1400,好,4,9,45,呂健威,韋達                                    ,3-1/4,78.0,119,8 9 10 7,1.22.96,1057,--,,獵狐章者
27,28,267,7,19/12/18,沙田全天候                                    ,1650,好,4,1,47,呂健威,何澤堯,5-3/4,32.0,118,1 4 5 7,1.39.91,1071,B-,,獵狐章者
28,29,212,12,28/11/18,"跑馬地草地""A""                                    ",1200,好,4,5,49,呂健威,梁家俊,6-1/2,18.0,122,5 6 12,1.11.73,1067,B,,獵狐章者
29,30,68,10,03/10/18,"跑馬地草地""A""                                    ",1200,好,4,10,49,呂健威,何澤堯,4-1/2,12.0,120,10 10 10,1.11.47,1063,B1,,獵狐章者
30,31,30,3,12/09/18,"跑馬地草地""C""                                    ",1200,好,4,2,48,呂健威,何澤堯,1/2,47.0,119,8 7 3,1.11.45,1071,--,,獵狐章者
31,32,772,9,04/07/18,"跑馬地草地""C+3""                                    ",1200,好,4,7,52,呂健威,吳嘉晉                                    ,6,70.0,122,8 10 9,1.11.22,1062,--,,獵狐章者
32,33,708,8,06/06/18,"跑馬地草地""A""                                    ",1000,好,4,8,52,呂健威,韋達                                    ,6,36.0,125,11 11 8,0.58.22,1064,--,,獵狐章者
