,Unnamed: 0,場次,名次,日期,馬場/跑道/賽道,途程,場地狀況,賽事班次,檔位,評分,練馬師,騎師,頭馬距離,獨贏賠率,實際負磅,沿途走位,完成時間,排位體重,配備,賽事重播,馬名
0,1,664,01,12/05/21,"沙田草地""C+3""                                    ",1000,好/快,3,9,68,韋達,周俊樂,1,4.7,117,6 1 1,0.55.36,1054,XB,,當家精神
1,2,595,01,17/04/21,"沙田草地""C+3""                                    ",1000,好,3,9,62,韋達,何澤堯,頸位,2,116,9 5 1,0.56.59,1069,XB,,當家精神
2,3,420,WV,10/02/21,"跑馬地草地""B""                                    ",1200,好,3,--,62,韋達,巴度,--,--,115,--,--,--,--,--,當家精神
3,4,351,03,17/01/21,"沙田草地""A""                                    ",1000,好,3,4,62,韋達,田泰安,2-1/2,2.9,117,10 9 3,0.57.64,1092,XB,,當家精神
4,5,278,01,20/12/20,"沙田草地""C+3""                                    ",1000,好,4,10,52,韋達,周俊樂,1-3/4,47,118,8 8 1,0.56.56,1082,XB1,,當家精神
