,Unnamed: 0,場次,名次,日期,馬場/跑道/賽道,途程,場地狀況,賽事班次,檔位,評分,練馬師,騎師,頭馬距離,獨贏賠率,實際負磅,沿途走位,完成時間,排位體重,配備,賽事重播,馬名
0,1,671,05,16/05/21,"沙田草地""C+3""                                    ",1200,好/快,4,1,52,蔡約翰,莫雷拉,2-1/4,4,126,3 3 5,1.09.10,1123,P-/B1,,當家信心
1,2,424,WV,14/02/21,"沙田草地""A""                                    ",1200,好,4,--,52,蔡約翰,史卓豐,--,--,126,--,--,--,--,--,當家信心
2,3,349,09,17/01/21,"沙田草地""A""                                    ",1200,好,4,3,52,蔡約翰,莫雷拉,5-1/4,4.3,127,6 7 9,1.10.83,1154,P1,,當家信心
