,Unnamed: 0,場次,名次,日期,馬場/跑道/賽道,途程,場地狀況,賽事班次,檔位,評分,練馬師,騎師,頭馬距離,獨贏賠率,實際負磅,沿途走位,完成時間,排位體重,配備,賽事重播,馬名
0,1,692,2,23/05/21,"沙田草地""A""                                    ",1200,好/快,G3,8,112,韋達,何澤堯,3/4,25.0,130,6 7 2,1.08.29,1125,CP-/XB/SR1/TT-,,當家猴王
1,2,617,7,25/04/21,"沙田草地""A""                                    ",1200,好,G1,8,112,韋達,何澤堯,4,6.7,126,9 10 7,1.09.29,1117,CP/XB/TT,,當家猴王
2,3,563,2,05/04/21,"沙田草地""B+2""                                    ",1200,好,G2,8,106,韋達,何澤堯,短馬頭位,24.0,123,11 10 2,1.08.26,1116,CP/XB/TT,,當家猴王
3,4,456,2,24/02/21,"跑馬地草地""C+3""                                    ",1200,好/快,1,2,103,韋達,何澤堯,頭位,10.0,130,3 3 2,1.08.86,1133,CP/XB/TT,,當家猴王
4,5,368,9,24/01/21,"沙田草地""A+3""                                    ",1200,好,G1,10,103,韋達,彭國年,5-3/4,39.0,126,8 9 9,1.08.95,1120,CP/XB/TT,,當家猴王
5,6,308,2,01/01/21,"沙田草地""B+2""                                    ",1000,好,G3,3,101,韋達,蘇銘倫,頸位,3.3,120,5 3 2,0.56.72,1119,CP/XB/TT,,當家猴王
6,7,262,10,13/12/20,"沙田草地""A""                                    ",1200,好,G1,4,101,韋達,布達德,5-1/2,33.0,126,4 5 10,1.09.32,1111,CP/XB/TT,,當家猴王
7,8,207,7,22/11/20,"沙田草地""B+2""                                    ",1200,好/快,G2,3,101,韋達,巴度,1-1/2,12.0,123,5 5 7,1.08.26,1095,CP/XB/TT,,當家猴王
8,9,154,1,01/11/20,"沙田草地""A""                                    ",1000,好/快,2,7,94,韋達,何澤堯,1-1/4,5.4,131,8 5 1,0.55.26,1085,CP/XB1/TT,,當家猴王
9,10,737,6,10/06/20,"跑馬地草地""B""                                    ",1000,好/快,2,8,95,約翰摩亞,波健士,2-1/4,6.6,132,4 6 6,0.57.21,1084,CP/TT1,,當家猴王
10,11,709,8,31/05/20,"沙田草地""B""                                    ",1200,好,2,11,95,約翰摩亞,周俊樂,4-1/4,10.0,122,2 2 8,1.08.93,1097,CP,,當家猴王
11,12,648,2,09/05/20,"沙田草地""C""                                    ",1000,好/快,2,2,93,約翰摩亞,波健士,1/2,8.6,130,5 4 2,0.55.16,1091,CP,,當家猴王
12,13,562,7,08/04/20,"跑馬地草地""B""                                    ",1000,好,2,4,93,約翰摩亞,潘頓,2-1/4,2.3,130,5 4 7,0.57.03,1080,CP,,當家猴王
13,14,481,6,08/03/20,"沙田草地""C""                                    ",1000,好,2,1,93,約翰摩亞,潘頓,2-1/4,3.5,130,11 10 6,0.55.47,1075,CP,,當家猴王
14,15,413,1,12/02/20,"跑馬地草地""C+3""                                    ",1000,好/快,3,2,83,約翰摩亞,潘頓,1-3/4,2.9,131,4 3 1,0.56.11,1076,CP,,當家猴王
15,16,350,4,19/01/20,"沙田草地""A+3""                                    ",1200,好,2,6,81,約翰摩亞,利敬國,1-1/4,5.1,116,3 4 4,1.08.74,1063,CP,,當家猴王
16,17,264,11,18/12/19,"跑馬地草地""C+3""                                    ",1200,好/快,2,6,81,約翰摩亞,蔡明紹,6-1/2,3.8,116,2 2 11,1.09.68,1045,CP,,當家猴王
17,18,214,2,01/12/19,"沙田草地""C+3""                                    ",1000,好,3,1,80,約翰摩亞,薛恩,1-1/2,22.0,133,4 4 2,0.56.44,1041,CP1,,當家猴王
