,Unnamed: 0,場次,名次,日期,馬場/跑道/賽道,途程,場地狀況,賽事班次,檔位,評分,練馬師,騎師,頭馬距離,獨贏賠率,實際負磅,沿途走位,完成時間,排位體重,配備,賽事重播,馬名
0,1,651,10,05/05/21,"跑馬地草地""A""                                    ",1200,好/快,2,11,87,蔡約翰,田泰安,9,13.0,121,12 12 10,1.10.11,1120,TT,,疾風勁草
1,2,622,8,25/04/21,"沙田草地""A""                                    ",1200,好,2,7,87,蔡約翰,班德禮,5,25.0,116,6 5 8,1.09.05,1126,TT,,疾風勁草
2,3,567,2,08/04/21,"跑馬地草地""A""                                    ",1000,好/快,2,3,86,蔡約翰,賀銘年,1-1/2,10.0,120,7 7 2,0.56.71,1113,TT,,疾風勁草
3,4,545,5,28/03/21,"沙田草地""A+3""                                    ",1200,好/快,2,9,86,蔡約翰,潘頓,2-1/2,11.0,120,11 11 5,1.08.69,1117,TT,,疾風勁草
4,5,496,1,10/03/21,"跑馬地草地""B""                                    ",1200,好,3,9,80,蔡約翰,田泰安,1/2,8.5,133,11 9 1,1.09.77,1120,TT,,疾風勁草
5,6,477,1,03/03/21,"跑馬地草地""A""                                    ",1200,好,3,2,73,蔡約翰,潘頓,1-1/4,2.8,126,6 6 1,1.09.69,1113,TT,,疾風勁草
6,7,440,2,17/02/21,"跑馬地草地""C""                                    ",1200,好,3,3,71,蔡約翰,潘頓,3/4,3.0,124,6 4 2,1.09.37,1108,TT,,疾風勁草
7,8,420,5,10/02/21,"跑馬地草地""B""                                    ",1200,好,3,1,73,蔡約翰,史卓豐,1-3/4,6.3,126,6 6 5,1.10.26,1111,TT,,疾風勁草
8,9,363,4,20/01/21,"跑馬地草地""C""                                    ",1200,好,3,5,74,蔡約翰,史卓豐,2-1/2,9.8,127,6 5 4,1.09.39,1105,TT,,疾風勁草
9,10,342,8,13/01/21,"跑馬地草地""B""                                    ",1200,好,3,10,74,蔡約翰,巴度,3-3/4,14.0,127,9 10 8,1.10.35,1112,TT,,疾風勁草
10,11,293,3,23/12/20,"跑馬地草地""C+3""                                    ",1200,好/快,3,4,74,蔡約翰,巴度,1-1/2,6.4,127,10 8 3,1.09.52,1097,TT,,疾風勁草
11,12,256,3,09/12/20,"跑馬地草地""B""                                    ",1200,好,3,12,74,蔡約翰,馬昆,2,40.0,127,12 11 3,1.09.59,1091,TT,,疾風勁草
12,13,146,4,28/10/20,"跑馬地草地""C+3""                                    ",1200,好,3,2,74,蔡約翰,田泰安,2-1/4,6.3,127,7 8 4,1.09.64,1098,TT,,疾風勁草
13,14,128,5,21/10/20,"跑馬地草地""C""                                    ",1200,好/快,3,3,74,蔡約翰,郭能,3-1/4,7.5,127,7 8 5,1.09.29,1107,TT,,疾風勁草
14,15,806,1,08/07/20,"跑馬地草地""A""                                    ",1200,好,3,3,68,蔡約翰,黃俊,1/2,7.8,117,9 6 1,1.09.50,1086,TT,,疾風勁草
15,16,759,6,21/06/20,"沙田草地""A""                                    ",1200,好/快,3,14,70,蔡約翰,梁家俊,3,49.0,123,14 14 6,1.09.27,1088,TT,,疾風勁草
16,17,683,7,24/05/20,"沙田草地""A""                                    ",1200,好,3,2,70,蔡約翰,賀銘年,5,6.2,125,8 7 7,1.09.56,1101,TT,,疾風勁草
17,18,647,3,09/05/20,"沙田草地""C""                                    ",1200,好/快,3,9,69,蔡約翰,史卓豐,1/2,16.0,122,9 9 3,1.09.36,1096,TT,,疾風勁草
18,19,618,11,29/04/20,"跑馬地草地""A""                                    ",1200,好/快,3,8,71,蔡約翰,莫雷拉,3-3/4,9.0,124,7 7 11,1.10.01,1100,TT,,疾風勁草
19,20,579,5,15/04/20,"跑馬地草地""C""                                    ",1200,好,3,7,72,蔡約翰,史卓豐,1-3/4,23.0,125,9 10 5,1.09.44,1092,TT,,疾風勁草
20,21,542,9,01/04/20,沙田全天候                                    ,1200,濕慢,3,10,73,蔡約翰,蔡明紹,10-1/4,21.0,130,9 9 9,1.10.18,1099,TT1,,疾風勁草
21,22,524,3,25/03/20,"跑馬地草地""A""                                    ",1200,好,3,3,73,蔡約翰,利敬國,3-1/4,7.7,129,7 5 3,1.09.87,1095,--,,疾風勁草
22,23,487,3,11/03/20,"跑馬地草地""C""                                    ",1200,好,3,4,72,蔡約翰,莫雷拉,1/2,16.0,127,10 9 3,1.09.67,1095,--,,疾風勁草
23,24,425,8,16/02/20,"沙田草地""A""                                    ",1200,好,3,7,74,蔡約翰,利敬國,5,29.0,127,6 8 8,1.10.57,1099,--,,疾風勁草
24,25,389,7,02/02/20,"沙田草地""C""                                    ",1200,好,3,5,76,蔡約翰,莫雷拉,2-3/4,39.0,130,3 2 7,1.09.91,1105,--,,疾風勁草
25,26,331,14,11/01/20,"沙田草地""A""                                    ",1400,好,3,2,78,蔡約翰,巴度,5-1/2,89.0,132,3 2 2 14,1.22.76,1087,--,,疾風勁草
26,27,291,12,29/12/19,"沙田草地""B+2""                                    ",1400,好,3,2,78,蔡約翰,蘇兆輝,10-3/4,5.1,133,3 4 8 12,1.24.10,1087,--,,疾風勁草
