,Unnamed: 0,場次,名次,日期,馬場/跑道/賽道,途程,場地狀況,賽事班次,檔位,評分,練馬師,騎師,頭馬距離,獨贏賠率,實際負磅,沿途走位,完成時間,排位體重,配備,賽事重播,馬名
0,1,680,11,19/05/21,"跑馬地草地""B""                                    ",1650,好/快,5,12,19,葉楚航,黃皓楠,7,111,112,12 9 10 11,1.40.50,1101,B/TT,,神火金剛
1,2,536,08,28/03/21,"沙田草地""A+3""                                    ",1400,好,5,8,22,葉楚航,黃皓楠,7-1/2,82,112,11 13 14 8,1.22.97,1091,B/TT2,,神火金剛
2,3,317,11,06/01/21,"跑馬地草地""A""                                    ",1200,好,5,2,25,葉楚航,潘明輝,4-1/2,23,116,11 11 11,1.10.77,1075,V-/B2,,神火金剛
3,4,196,10,18/11/20,"跑馬地草地""C""                                    ",1200,好,5,7,27,葉楚航,波健士,4-3/4,32,121,11 11 10,1.10.88,1083,B-/V1,,神火金剛
4,5,70,07,01/10/20,"沙田草地""B""                                    ",1200,好,5,4,29,葉楚航,梁家俊,4,35,122,11 12 7,1.10.06,1068,B,,神火金剛
5,6,20,09,13/09/20,"沙田草地""A+3""                                    ",1400,好,5,5,31,葉楚航,賀銘年,7-1/2,22,124,11 10 9 9,1.22.94,1061,B,,神火金剛
6,7,700,05,31/05/20,"沙田草地""B""                                    ",1400,好,5,12,31,葉楚航,郭能,1/2,32,124,13 12 10 5,1.22.85,1063,B,,神火金剛
7,8,593,06,22/04/20,"跑馬地草地""C+3""                                    ",1200,好,5,4,32,葉楚航,賀銘年,2-1/2,16,125,6 6 6,1.10.81,1062,B,,神火金剛
8,9,464,10,04/03/20,"跑馬地草地""B""                                    ",1000,好,5,3,32,葉楚航,潘明輝,4,14,122,11 11 10,0.58.59,1083,B,,神火金剛
9,10,361,05,27/01/20,"沙田草地""B+2""                                    ",1200,好,5,12,32,葉楚航,莫雷拉,3-1/4,5.8,125,10 10 5,1.10.23,1054,B,,神火金剛
10,11,267,01,21/12/19,"沙田草地""A+3""                                    ",1200,好,5,8,24,葉楚航,莫雷拉,2-1/4,3.8,117,11 11 1,1.10.56,1063,B,,神火金剛
11,12,218,04,04/12/19,"跑馬地草地""B""                                    ",1200,好,5,12,25,葉楚航,李寶利,1-1/2,22,118,12 11 4,1.10.24,1060,B,,神火金剛
12,13,141,04,03/11/19,"沙田草地""C+3""                                    ",1200,好/快,5,5,26,葉楚航,李寶利,1-3/4,13,119,6 6 4,1.10.06,1045,PC-/B2,,神火金剛
13,14,124,07,27/10/19,沙田全天候                                    ,1200,好,5,11,28,葉楚航,黃皓楠,5-1/2,60,119,11 10 7,1.10.78,1048,PC1,,神火金剛
14,15,78,05,09/10/19,"跑馬地草地""B""                                    ",1200,好,5,8,30,葉楚航,薛恩,4,71,123,11 11 5,1.11.13,1044,--,,神火金剛
15,16,32,13,15/09/19,"沙田草地""C+3""                                    ",1400,好/快,5,13,32,葉楚航,陳嘉熙,5-1/2,115,115,13 14 13 13,1.23.97,1064,--,,神火金剛
16,17,11,08,08/09/19,沙田全天候                                    ,1200,好,5,8,34,葉楚航,梁家俊,11-1/4,39,127,9 8 8,1.11.33,1074,TT-,,神火金剛
17,18,434,WV,20/02/19,"跑馬地草地""C""                                    ",1200,好,5,--,36,葉楚航,黃俊,--,--,123,--,--,--,--,--,神火金剛
18,19,396,08,07/02/19,"沙田草地""C+3""                                    ",1400,好,5,1,38,葉楚航,田泰安,5-3/4,14,133,6 6 5 8,1.23.90,1065,TT,,神火金剛
19,20,323,07,09/01/19,"跑馬地草地""A""                                    ",1000,好,4,6,40,葉楚航,賴維銘                                    ,3,118,114,11 12 7,0.58.28,1074,TT,,神火金剛
20,21,283,08,26/12/18,"跑馬地草地""C+3""                                    ",1650,好,4,9,43,葉楚航,巴度,7-1/4,28,117,7 7 7 8,1.41.25,1071,TT,,神火金剛
21,22,247,08,12/12/18,"跑馬地草地""C""                                    ",1200,好,4,9,45,葉楚航,巴度,5,31,118,11 10 8,1.10.75,1071,TT,,神火金剛
22,23,164,07,10/11/18,"沙田草地""A""                                    ",1200,好,4,13,47,葉楚航,黃皓楠,6-1/4,60,117,12 12 7,1.09.84,1089,TT,,神火金剛
23,24,68,08,03/10/18,"跑馬地草地""A""                                    ",1200,好,4,8,49,葉楚航,田泰安,4-1/4,16,122,11 11 8,1.11.46,1082,TT,,神火金剛
24,25,30,05,12/09/18,"跑馬地草地""C""                                    ",1200,好,4,6,49,葉楚航,黃皓楠,2,26,119,9 9 5,1.11.69,1071,B-/TT,,神火金剛
25,26,735,13,16/06/18,"沙田草地""C+3""                                    ",1400,好/快,4,3,51,葉楚航,潘頓,13-1/2,16,124,6 5 6 13,1.23.71,1078,B1/TT,,神火金剛
26,27,626,07,06/05/18,"沙田草地""B""                                    ",1200,好,4,2,52,葉楚航,潘頓,3-3/4,4.8,128,8 7 7,1.10.67,1057,TT,,神火金剛
27,28,539,03,02/04/18,"沙田草地""B+2""                                    ",1200,好,4,5,52,葉楚航,柏寶                                    ,1-1/4,11,125,9 8 3,1.09.77,1031,TT,,神火金剛
28,29,487,13,11/03/18,"沙田草地""C+3""                                    ",1400,好,4,2,52,葉楚航,何澤堯,8-1/2,6.8,127,12 12 12 13,1.23.67,1063,TT,,神火金剛
29,30,431,05,18/02/18,"沙田草地""A""                                    ",1200,好,4,1,52,葉楚航,何澤堯,1,189,122,6 7 5,1.10.93,1049,TT1,,神火金剛
30,31,311,WV,01/01/18,"沙田草地""B+2""                                    ",1200,好,4,--,52,葉楚航,韋達                                    ,--,--,125,--,--,--,--,--,神火金剛
