,Unnamed: 0,場次,名次,日期,馬場/跑道/賽道,途程,場地狀況,賽事班次,檔位,評分,練馬師,騎師,頭馬距離,獨贏賠率,實際負磅,沿途走位,完成時間,排位體重,配備,賽事重播,馬名
0,1,654,05,08/05/21,"沙田草地""C""                                    ",1200,好/快,4,4,58,蘇偉賢,巴度,3-1/4,9.9,131,6 5 5,1.09.52,1110,TT,,神舟駿星
1,2,568,05,08/04/21,"跑馬地草地""A""                                    ",1000,好/快,3,5,60,蘇偉賢,黃俊,4-1/2,38,111,9 9 5,0.57.15,1096,TT,,神舟駿星
2,3,522,08,21/03/21,"沙田草地""A""                                    ",1400,好,3,7,62,蘇偉賢,楊明綸,3-1/2,78,115,2 4 4 8,1.22.16,1094,TT,,神舟駿星
3,4,485,07,07/03/21,"沙田草地""C""                                    ",1200,好,3,4,64,蘇偉賢,賀銘年,4-1/2,23,117,3 3 7,1.10.21,1103,TT,,神舟駿星
4,5,440,06,17/02/21,"跑馬地草地""C""                                    ",1200,好,3,5,66,蘇偉賢,彭國年,3-3/4,23,119,7 6 6,1.09.86,1104,TT,,神舟駿星
5,6,362,08,20/01/21,"跑馬地草地""C""                                    ",1200,好,3,5,68,蘇偉賢,彭國年,5-1/4,15,121,11 10 8,1.10.52,1129,TT,,神舟駿星
6,7,311,WV,01/01/21,"沙田草地""B+2""                                    ",1200,好,3,--,68,蘇偉賢,彭國年,--,--,121,--,--,--,--,--,神舟駿星
7,8,238,06,02/12/20,"跑馬地草地""A""                                    ",1200,好,3,12,70,蘇偉賢,彭國年,2-1/2,198,123,10 10 6,1.10.45,1112,TT,,神舟駿星
8,9,191,12,14/11/20,"沙田草地""C+3""                                    ",1000,好,3,11,70,蘇偉賢,田泰安,14-1/4,27,125,8 9 12,0.59.03,1119,TT1,,神舟駿星
