,Unnamed: 0,場次,名次,日期,馬場/跑道/賽道,途程,場地狀況,賽事班次,檔位,評分,練馬師,騎師,頭馬距離,獨贏賠率,實際負磅,沿途走位,完成時間,排位體重,配備,賽事重播,馬名
0,1,665,9,12/05/21,沙田全天候                                    ,1200,好,4,6,50,丁冠豪,田泰安,13,6.3,124,10 6 9,1.11.05,1156,XB-/H,,神舟時代
1,2,578,6,11/04/21,"沙田草地""C""                                    ",1200,好,4,4,52,丁冠豪,田泰安,4-1/4,4.9,129,7 5 6,1.10.14,1162,H/XB,,神舟時代
2,3,518,3,21/03/21,"沙田草地""A""                                    ",1200,好,4,9,52,丁冠豪,田泰安,4-1/4,4.4,125,10 9 3,1.10.13,1164,XB/H1,,神舟時代
3,4,425,4,14/02/21,"沙田草地""A""                                    ",1200,好,4,6,52,丁冠豪,田泰安,2-1/4,3.0,126,8 7 4,1.10.08,1173,XB1,,神舟時代
