,Unnamed: 0,場次,名次,日期,馬場/跑道/賽道,途程,場地狀況,賽事班次,檔位,評分,練馬師,騎師,頭馬距離,獨贏賠率,實際負磅,沿途走位,完成時間,排位體重,配備,賽事重播,馬名
0,1,675,1,16/05/21,"沙田草地""C+3""                                    ",1400,好/快,4,6,57,告東尼,莫雷拉,1/2,11.0,130,2 2 1 1,1.21.55,1048,H/TT,,秒秒精彩
1,2,601,11,17/04/21,"沙田草地""C+3""                                    ",1400,好,4,2,58,告東尼,田泰安,12-3/4,7.8,132,3 3 4 11,1.24.40,1068,H/TT,,秒秒精彩
2,3,551,3,31/03/21,沙田全天候                                    ,1200,好,4,2,58,告東尼,郭能,1-3/4,5.3,132,4 4 3,1.09.47,1067,H1/TT,,秒秒精彩
3,4,472,4,03/03/21,"跑馬地草地""A""                                    ",1200,好,4,7,58,告東尼,周俊樂,2-1/4,2.5,124,7 8 4,1.10.39,1081,TT,,秒秒精彩
4,5,435,1,17/02/21,"跑馬地草地""C""                                    ",1200,好,4,11,51,告東尼,周俊樂,1-1/4,4.3,119,1 1 1,1.10.15,1086,XB-/TT2,,秒秒精彩
5,6,301,10,26/12/20,"沙田草地""A+3""                                    ",1600,好,4,11,53,高伯新,史卓豐,5-3/4,50.0,127,3 1 1 10,1.35.31,1103,XB,,秒秒精彩
6,7,226,5,29/11/20,"沙田草地""C""                                    ",1400,好,4,7,53,高伯新,史卓豐,3,7.7,126,2 4 5 5,1.22.43,1107,XB,,秒秒精彩
7,8,151,2,01/11/20,"沙田草地""A""                                    ",1400,好/快,4,6,52,高伯新,周俊樂,鼻位,33.0,115,1 1 1 2,1.21.88,1110,XB1/TT-,,秒秒精彩
8,9,76,6,04/10/20,"沙田草地""C+3""                                    ",1200,好,4,9,52,高伯新,巴度,4,10.0,126,2 2 6,1.09.90,1095,TT1,,秒秒精彩
