,Unnamed: 0,場次,名次,日期,馬場/跑道/賽道,途程,場地狀況,賽事班次,檔位,評分,練馬師,騎師,頭馬距離,獨贏賠率,實際負磅,沿途走位,完成時間,排位體重,配備,賽事重播,馬名
0,1,655,14,08/05/21,"沙田草地""C""                                    ",1400,好/快,5,8,31,苗禮德,黃俊,23-3/4,150,118,1 2 11 14,1.25.83,1068,XB/TT,,紅寶金堅
1,2,576,13,11/04/21,"沙田草地""C""                                    ",1400,好,5,7,36,苗禮德,賀銘年,10-1/4,170,127,2 2 2 13,1.23.90,1074,H-/P-/XB/TT,,紅寶金堅
2,3,542,13,28/03/21,"沙田草地""A+3""                                    ",1400,好/快,4,14,41,苗禮德,黃皓楠,17-1/4,414,112,11 12 14 13,1.23.91,1074,H/P/XB/TT,,紅寶金堅
3,4,474,12,03/03/21,"跑馬地草地""A""                                    ",1200,好,4,11,46,苗禮德,波健士,11-1/4,185,120,12 12 12,1.11.83,1086,H/P/XB/TT,,紅寶金堅
4,5,425,13,14/02/21,"沙田草地""A""                                    ",1200,好,4,10,49,苗禮德,波健士,10-3/4,198,123,9 10 13,1.11.46,1084,H1/P1/XB1/TT,,紅寶金堅
5,6,288,12,23/12/20,"跑馬地草地""C+3""                                    ",1200,好,4,11,52,苗禮德,波健士,11-1/4,137,125,12 12 12,1.11.50,1093,TT1,,紅寶金堅
6,7,132,10,24/10/20,"沙田草地""C""                                    ",1200,好,4,11,52,苗禮德,巴度,14,58,126,9 8 10,1.11.09,1082,--,,紅寶金堅
