,Unnamed: 0,場次,名次,日期,馬場/跑道/賽道,途程,場地狀況,賽事班次,檔位,評分,練馬師,騎師,頭馬距離,獨贏賠率,實際負磅,沿途走位,完成時間,排位體重,配備,賽事重播,馬名
0,1,724,9,02/06/21,"跑馬地草地""A""                                    ",1800,好,4,3,44,蘇保羅,潘明輝,14-1/2,11.0,115,5 6 5 8 9,1.51.72,1035,B,,紅衣震撼
1,2,656,3,08/05/21,"沙田草地""C""                                    ",1800,好/快,4,13,43,蘇保羅,潘明輝,1-1/4,21.0,114,11 14 14 12 3,1.47.82,1034,CP-/B2,,紅衣震撼
2,3,597,7,17/04/21,"沙田草地""C+3""                                    ",1800,好,4,5,45,蘇保羅,何澤堯,2-1/2,19.0,119,4 4 4 7 7,1.50.55,1033,CP,,紅衣震撼
3,4,521,13,21/03/21,"沙田草地""A""                                    ",1600,好,4,11,45,蘇保羅,何澤堯,4-1/4,10.0,118,11 13 14 13,1.35.97,1021,CP,,紅衣震撼
4,5,463,2,28/02/21,"沙田草地""B+2""                                    ",1400,好,4,3,45,蘇保羅,何澤堯,1-1/4,5.7,120,8 8 9 2,1.22.34,1029,CP,,紅衣震撼
5,6,390,9,31/01/21,"沙田草地""B+2""                                    ",1400,好,4,7,47,蘇保羅,彭國年,3,15.0,121,10 10 11 9,1.22.70,1021,CP,,紅衣震撼
6,7,331,5,10/01/21,"沙田草地""C""                                    ",1600,好,4,11,48,蘇保羅,田泰安,2-3/4,10.0,123,13 13 13 5,1.35.28,1031,CP,,紅衣震撼
7,8,259,3,13/12/20,"沙田草地""A""                                    ",1400,好,4,3,48,蘇保羅,田泰安,1-1/4,4.8,121,6 5 5 3,1.22.56,1022,CP1,,紅衣震撼
8,9,188,3,14/11/20,"沙田草地""C+3""                                    ",1400,好,4,3,48,蘇保羅,田泰安,2-1/4,5.5,121,7 7 7 3,1.21.88,1035,B-,,紅衣震撼
9,10,94,6,11/10/20,"沙田草地""A+3""                                    ",1400,好,4,2,49,蘇保羅,巴度,2-1/4,4.9,124,4 5 6 6,1.22.25,1029,B,,紅衣震撼
10,11,755,7,21/06/20,"沙田草地""A""                                    ",1600,好/快,4,14,50,蘇保羅,田泰安,4,4.2,125,14 14 14 7,1.35.50,1016,B,,紅衣震撼
11,12,663,5,17/05/20,"沙田草地""C+3""                                    ",1400,好/快,4,12,50,蘇保羅,田泰安,1-1/4,4.5,124,9 8 7 5,1.22.05,1016,B,,紅衣震撼
12,13,567,3,12/04/20,"沙田草地""C""                                    ",1400,好,4,7,48,蘇保羅,梁家俊,頸位,12.0,122,10 11 14 3,1.22.20,1025,B1,,紅衣震撼
13,14,512,8,22/03/20,"沙田草地""A""                                    ",1400,好,4,7,50,蘇保羅,楊明綸,3-1/2,280.0,124,11 12 13 8,1.22.31,1029,--,,紅衣震撼
14,15,456,9,01/03/20,"沙田草地""B+2""                                    ",1400,好,4,12,52,蘇保羅,郭能,8,99.0,127,3 3 4 9,1.22.91,1030,--,,紅衣震撼
15,16,80,11,09/10/19,"跑馬地草地""B""                                    ",1200,好,4,9,52,蘇保羅,蘇狄雄,6-1/2,94.0,123,11 12 11,1.11.03,1027,--,,紅衣震撼
