,Unnamed: 0,場次,名次,日期,馬場/跑道/賽道,途程,場地狀況,賽事班次,檔位,評分,練馬師,騎師,頭馬距離,獨贏賠率,實際負磅,沿途走位,完成時間,排位體重,配備,賽事重播,馬名
0,1,718,9,30/05/21,"沙田草地""B""                                    ",1200,好/快,2,1,81,方嘉柏,班德禮,3-1/2,25.0,116,4 4 9,1.08.49,1094,H/TT,,綠色時代
1,2,677,5,16/05/21,"沙田草地""C+3""                                    ",1000,好/快,2,9,83,方嘉柏,巴度,3-1/2,5.5,118,10 8 5,0.55.26,1083,H1/TT,,綠色時代
2,3,353,5,17/01/21,"沙田草地""A""                                    ",1000,好,2,8,84,方嘉柏,史卓豐,2-3/4,19.0,121,9 7 5,0.57.20,1081,TT,,綠色時代
3,4,175,10,08/11/20,"跑馬地草地""A""                                    ",1200,好,2,9,84,方嘉柏,郭能,10-1/4,9.0,120,12 12 10,1.11.51,1066,TT1,,綠色時代
4,5,64,9,27/09/20,"沙田草地""A""                                    ",1200,好,2,8,84,方嘉柏,薛恩,4-1/2,19.0,121,2 2 9,1.09.45,1064,--,,綠色時代
5,6,36,1,16/09/20,"跑馬地草地""C""                                    ",1000,好/快,3,3,77,方嘉柏,莫雷拉,1/2,5.0,130,10 8 1,0.56.78,1066,--,,綠色時代
6,7,732,4,10/06/20,"跑馬地草地""B""                                    ",1000,好/快,3,8,77,方嘉柏,莫雷拉,3-1/2,4.9,133,2 2 4,0.57.34,1090,--,,綠色時代
