,Unnamed: 0,場次,名次,日期,馬場/跑道/賽道,途程,場地狀況,賽事班次,檔位,評分,練馬師,騎師,頭馬距離,獨贏賠率,實際負磅,沿途走位,完成時間,排位體重,配備,賽事重播,馬名
0,1,707,2,26/05/21,"跑馬地草地""C""                                    ",1650,好/快,2,3,93,方嘉柏,莫雷拉,3/4,3.7,131,3 4 3 2,1.38.09,1120,B2,,綠色有運
1,2,593,3,14/04/21,"跑馬地草地""B""                                    ",1800,好/快,2,5,92,方嘉柏,莫雷拉,3/4,5.3,129,5 5 8 8 3,1.49.57,1121,--,,綠色有運
2,3,459,1,24/02/21,"跑馬地草地""C+3""                                    ",1650,好/快,3,3,84,方嘉柏,莫雷拉,2-1/2,3.7,132,4 4 6 1,1.39.16,1109,--,,綠色有運
3,4,372,10,24/01/21,"沙田草地""A+3""                                    ",1800,好,2,9,86,方嘉柏,陳嘉熙,2-3/4,35.0,113,2 2 2 3 10,1.48.13,1105,PC-,,綠色有運
4,5,347,6,17/01/21,沙田全天候                                    ,1650,好,1,4,88,方嘉柏,楊明綸,12,72.0,113,4 6 7 6,1.39.79,1127,PC,,綠色有運
5,6,303,12,26/12/20,沙田全天候                                    ,1650,好,2,4,90,方嘉柏,巴度,11-3/4,29.0,125,11 13 13 12,1.40.59,1122,V-/PC1,,綠色有運
6,7,257,12,09/12/20,"跑馬地草地""B""                                    ",1800,好,2,12,90,方嘉柏,莫雷拉,5-1/2,6.9,125,9 10 10 11 12,1.49.83,1106,V,,綠色有運
7,8,201,2,18/11/20,"跑馬地草地""C""                                    ",1650,好,2,4,88,方嘉柏,莫雷拉,頭位,3.3,123,5 5 5 2,1.38.63,1109,V,,綠色有運
8,9,110,4,14/10/20,"跑馬地草地""B""                                    ",1650,好,2,5,87,方嘉柏,莫雷拉,1/2,4.3,116,7 8 9 4,1.39.13,1099,V,,綠色有運
9,10,827,3,15/07/20,"跑馬地草地""B""                                    ",1650,好/快,2,3,86,方嘉柏,史卓豐,1-1/2,9.7,121,4 3 3 3,1.38.80,1092,V1,,綠色有運
10,11,766,4,24/06/20,"跑馬地草地""C""                                    ",1650,好/快,2,3,86,方嘉柏,賀銘年,1-1/4,10.0,120,5 5 5 4,1.39.22,1098,--,,綠色有運
11,12,735,1,10/06/20,"跑馬地草地""B""                                    ",1650,好/快,3,7,80,方嘉柏,莫雷拉,3/4,6.1,133,3 4 4 1,1.40.08,1093,--,,綠色有運
12,13,689,12,24/05/20,"沙田草地""A""                                    ",1400,好,2,10,82,方嘉柏,潘明輝,4-3/4,51.0,117,13 12 12 12,1.22.01,1106,--,,綠色有運
13,14,640,8,06/05/20,"跑馬地草地""B""                                    ",1650,好/快,2,2,83,方嘉柏,波健士,6-1/4,14.0,119,8 9 11 8,1.40.15,1089,--,,綠色有運
14,15,611,9,26/04/20,"沙田草地""A""                                    ",1600,好,2,7,85,方嘉柏,潘明輝,4,43.0,114,13 14 12 9,1.34.89,1097,B-/H-,,綠色有運
15,16,573,13,12/04/20,"沙田草地""C""                                    ",1400,好,2,8,87,方嘉柏,黃俊,9-1/4,132.0,115,13 14 14 13,1.22.21,1095,B/H,,綠色有運
16,17,449,11,26/02/20,"跑馬地草地""A""                                    ",1650,好,1,8,89,方嘉柏,希威森,5-3/4,16.0,115,10 9 10 11,1.40.06,1080,B/H,,綠色有運
17,18,405,7,08/02/20,"沙田草地""C+3""                                    ",1600,好,2,10,91,方嘉柏,陳嘉熙,2-1/4,37.0,109,3 3 4 7,1.34.71,1077,B/H,,綠色有運
18,19,380,6,29/01/20,"跑馬地草地""B""                                    ",1650,好,2,12,93,方嘉柏,薛恩,4,45.0,130,5 2 2 6,1.39.91,1077,B/H,,綠色有運
19,20,292,6,29/12/19,沙田全天候                                    ,1650,濕慢,2,6,95,方嘉柏,潘明輝,6-1/2,33.0,122,12 12 12 6,1.39.48,1080,B/H,,綠色有運
20,21,225,9,04/12/19,"跑馬地草地""B""                                    ",1800,好,2,2,96,方嘉柏,川田將雅,5-1/4,11.0,133,9 10 9 9 9,1.49.84,1082,B/H,,綠色有運
21,22,195,4,23/11/19,"沙田草地""C""                                    ",1600,好/快,1,8,96,方嘉柏,潘明輝,1-3/4,34.0,118,8 8 7 4,1.33.37,1083,B/H,,綠色有運
22,23,84,5,09/10/19,"跑馬地草地""B""                                    ",1650,好,2,5,96,方嘉柏,莫雷拉,2-1/2,2.7,132,6 7 8 5,1.39.80,1073,B/H,,綠色有運
23,24,49,4,25/09/19,"跑馬地草地""A""                                    ",1800,好/快,2,7,96,方嘉柏,何澤堯,3-1/2,3.4,129,2 3 3 4 4,1.48.90,1063,B/H,,綠色有運
24,25,24,1,11/09/19,"跑馬地草地""B""                                    ",1650,好,2,7,90,方嘉柏,莫雷拉,1-1/2,3.0,119,8 8 4 1,1.38.58,1059,B/H,,綠色有運
25,26,786,3,03/07/19,"跑馬地草地""C""                                    ",1650,好,2,5,90,方嘉柏,何澤堯,3-3/4,5.3,126,10 10 12 3,1.39.27,1053,B/H,,綠色有運
26,27,721,2,05/06/19,"跑馬地草地""A""                                    ",1800,好,2,3,87,方嘉柏,潘頓,1,2.0,122,4 6 6 7 2,1.49.81,1031,B/H,,綠色有運
27,28,626,1,01/05/19,"跑馬地草地""C+3""                                    ",1650,好/快,3,2,80,方嘉柏,潘頓,3/4,2.6,133,7 7 6 1,1.39.18,1038,B/H,,綠色有運
28,29,468,9,02/03/19,"沙田草地""C""                                    ",1800,好,2,4,81,方嘉柏,梁家俊,5-3/4,23.0,116,6 6 6 5 9,1.47.65,1043,B/H,,綠色有運
29,30,432,13,17/02/19,"沙田草地""A+3""                                    ",1800,好,4YO,9,81,方嘉柏,史卓豐,8-1/2,91.0,126,10 10 9 10 13,1.48.35,1052,B/H,,綠色有運
30,31,373,6,27/01/19,"沙田草地""B+2""                                    ",1600,好,4YO,11,81,方嘉柏,蔡明紹,3-3/4,67.0,126,13 13 11 6,1.34.88,1041,B/H,,綠色有運
31,32,347,2,16/01/19,"跑馬地草地""B""                                    ",1650,好,3,7,79,方嘉柏,潘頓,1/2,2.8,132,2 4 3 2,1.40.02,1050,P-/H/B1,,綠色有運
32,33,263,2,16/12/18,"沙田草地""C+3""                                    ",1600,好,3,8,76,方嘉柏,潘頓,1-1/4,7.3,130,3 4 3 2,1.34.72,1042,H/P,,綠色有運
33,34,197,1,21/11/18,"跑馬地草地""C+3""                                    ",1650,好,3,8,68,方嘉柏,潘頓,2,29.0,121,9 9 8 1,1.39.89,1045,H/P,,綠色有運
34,35,178,9,14/11/18,"跑馬地草地""C""                                    ",1200,好,3,5,70,方嘉柏,巴度,5-3/4,34.0,128,9 10 9,1.11.06,1058,H/P,,綠色有運
35,36,132,5,28/10/18,"跑馬地草地""A""                                    ",1200,好,3,4,70,方嘉柏,楊明綸,2-1/4,67.0,121,6 8 5,1.11.10,1053,H1/P1,,綠色有運
