,Unnamed: 0,場次,名次,日期,馬場/跑道/賽道,途程,場地狀況,賽事班次,檔位,評分,練馬師,騎師,頭馬距離,獨贏賠率,實際負磅,沿途走位,完成時間,排位體重,配備,賽事重播,馬名
0,1,371,11,24/01/21,"沙田草地""A+3""                                    ",1600,好,4YO,12,82,大衛希斯,郭能,9-1/4,72,126,5 4 3 11,1.35.29,1015,XB,,美麗同享
1,2,335,6,10/01/21,"沙田草地""C""                                    ",1400,好,2,5,82,大衛希斯,巴度,3-1/2,21,116,12 10 11 6,1.21.61,1023,XB1,,美麗同享
