,Unnamed: 0,場次,名次,日期,馬場/跑道/賽道,途程,場地狀況,賽事班次,檔位,評分,練馬師,騎師,頭馬距離,獨贏賠率,實際負磅,沿途走位,完成時間,排位體重,配備,賽事重播,馬名
0,1,662,01,12/05/21,沙田全天候                                    ,1200,好,5,2,38,姚本輝,田泰安,1/2,3.7,132,5 3 1,1.09.68,1091,B,,翡翠劇院
1,2,606,02,21/04/21,"跑馬地草地""C""                                    ",1200,好/快,5,11,38,姚本輝,田泰安,1-1/2,7.7,131,2 2 2,1.10.80,1096,B,,翡翠劇院
2,3,491,10,10/03/21,"跑馬地草地""B""                                    ",1200,好,5,9,40,文家良,郭能,4-1/4,17,133,10 10 10,1.11.38,1114,B,,翡翠劇院
3,4,406,12,06/02/21,沙田全天候                                    ,1650,好,5,11,40,文家良,潘頓,11-1/4,19,133,2 3 3 12,1.40.83,1133,B,,翡翠劇院
4,5,328,02,10/01/21,沙田全天候                                    ,1200,好,5,1,40,文家良,周俊樂,1-1/2,7.5,126,6 6 2,1.09.86,1120,B2,,翡翠劇院
5,6,223,05,29/11/20,沙田全天候                                    ,1200,好,4,5,42,文家良,巴度,3-1/4,14,115,9 9 5,1.09.74,1108,--,,翡翠劇院
6,7,199,05,18/11/20,"跑馬地草地""C""                                    ",1200,好,4,1,44,文家良,梁家俊,2,5.2,117,6 7 5,1.10.46,1112,B-,,翡翠劇院
7,8,86,11,07/10/20,"跑馬地草地""A""                                    ",1650,好,4,11,45,文家良,何澤堯,15-1/2,20,122,5 2 3 11,1.42.59,1096,B,,翡翠劇院
8,9,34,03,16/09/20,"跑馬地草地""C""                                    ",1200,好/快,4,1,45,文家良,何澤堯,3-3/4,8,119,11 11 3,1.09.82,1107,B,,翡翠劇院
9,10,801,07,08/07/20,"跑馬地草地""A""                                    ",1200,好,4,11,49,文家良,郭能,4-1/4,23,125,5 5 7,1.10.73,1095,B,,翡翠劇院
10,11,752,11,21/06/20,"沙田草地""A""                                    ",1200,好/快,4,7,52,文家良,潘頓,6,7.6,126,10 11 11,1.10.14,1094,B,,翡翠劇院
11,12,692,05,27/05/20,沙田全天候                                    ,1200,好,4,7,54,文家良,潘頓,4,8.5,128,10 9 5,1.09.36,1098,B,,翡翠劇院
12,13,604,12,26/04/20,"沙田草地""A""                                    ",1200,好,4,3,57,文家良,陳嘉熙,6-1/2,140,123,11 11 12,1.10.46,1102,B,,翡翠劇院
13,14,526,09,25/03/20,"跑馬地草地""A""                                    ",1200,好,3,6,60,文家良,黎海榮,6-1/4,125,114,11 11 9,1.10.56,1114,B,,翡翠劇院
14,15,453,08,26/02/20,"跑馬地草地""A""                                    ",1200,好,3,2,62,文家良,黎海榮,6-1/2,70,113,6 7 8,1.10.23,1111,B,,翡翠劇院
15,16,416,07,12/02/20,"跑馬地草地""C+3""                                    ",1200,好/快,3,11,64,文家良,梁家俊,3-3/4,141,118,9 9 7,1.09.74,1091,B,,翡翠劇院
16,17,359,10,22/01/20,"跑馬地草地""A""                                    ",1200,好,3,8,67,文家良,黎海榮,6-3/4,51,121,12 12 10,1.10.18,1102,B,,翡翠劇院
17,18,327,12,11/01/20,"沙田草地""A""                                    ",1200,好,3,12,69,文家良,潘明輝,7,151,125,12 12 12,1.10.75,1096,B,,翡翠劇院
18,19,260,11,18/12/19,"跑馬地草地""C+3""                                    ",1200,好/快,3,6,70,文家良,潘頓,6-1/4,10,124,5 6 11,1.10.75,1108,B,,翡翠劇院
19,20,185,11,20/11/19,"跑馬地草地""C+3""                                    ",1200,好/快,3,7,72,文家良,梁家俊,7,21,125,4 6 11,1.10.72,1104,B,,翡翠劇院
20,21,122,06,23/10/19,"跑馬地草地""C+3""                                    ",1200,好/快,3,9,74,文家良,梁家俊,4,69,131,11 11 6,1.10.36,1087,B,,翡翠劇院
21,22,28,11,11/09/19,"跑馬地草地""B""                                    ",1200,好,3,11,76,文家良,梁家俊,8,70,130,9 9 11,1.11.43,1074,B,,翡翠劇院
22,23,778,12,01/07/19,"沙田草地""B""                                    ",1400,好/快,3,14,79,文家良,梁家俊,13-1/4,178,133,11 12 14 12,1.23.61,1077,B,,翡翠劇院
23,24,713,14,02/06/19,"沙田草地""B""                                    ",1200,好/快,2,3,81,文家良,潘明輝,8-3/4,128,112,11 10 14,1.10.63,1098,B,,翡翠劇院
24,25,656,13,11/05/19,"沙田草地""C""                                    ",1000,好,2,3,82,文家良,潘明輝,9-3/4,135,110,14 14 13,0.56.83,1109,B,,翡翠劇院
25,26,329,WV,09/01/19,"跑馬地草地""A""                                    ",1200,好,2,--,82,文家良,梁家俊,--,--,119,--,--,--,--,--,翡翠劇院
26,27,244,06,09/12/18,"沙田草地""A""                                    ",1200,好,2,5,82,文家良,潘明輝,1-3/4,34,114,4 5 6,1.10.01,1085,B,,翡翠劇院
27,28,162,09,07/11/18,"跑馬地草地""B""                                    ",1200,好,2,5,82,文家良,楊明綸,2-1/2,7.6,118,9 9 9,1.10.66,1091,B,,翡翠劇院
28,29,126,01,24/10/18,"跑馬地草地""C+3""                                    ",1200,好/快,3,1,72,文家良,潘頓,3-1/4,2.5,126,4 3 1,1.09.40,1073,B,,翡翠劇院
29,30,88,02,10/10/18,"跑馬地草地""B""                                    ",1200,好,3,7,71,文家良,潘頓,1-1/4,3.4,124,6 6 2,1.10.40,1076,B,,翡翠劇院
30,31,35,04,12/09/18,"跑馬地草地""C""                                    ",1200,好,3,5,71,文家良,麥偉利                                    ,1-3/4,9.5,124,6 7 4,1.10.41,1075,B,,翡翠劇院
31,32,787,04,08/07/18,沙田全天候                                    ,1200,濕慢,3,11,74,文家良,祈普敦                                    ,6-1/4,55,127,8 9 4,1.08.94,1097,B,,翡翠劇院
32,33,737,08,16/06/18,沙田全天候                                    ,1200,好,3,2,76,文家良,郭能,3,90,131,4 5 8,1.09.15,1103,B,,翡翠劇院
33,34,660,09,20/05/18,"沙田草地""C+3""                                    ",1400,好/快,3,4,78,文家良,郭能,7-1/2,45,133,3 6 6 9,1.23.53,1106,B,,翡翠劇院
34,35,583,07,18/04/18,"跑馬地草地""B""                                    ",1200,好,3,5,79,文家良,黃皓楠,3-1/4,17,128,5 5 7,1.10.47,1107,B,,翡翠劇院
35,36,519,04,21/03/18,"跑馬地草地""C""                                    ",1200,好,3,3,79,文家良,潘頓,2-1/2,6.7,133,5 4 4,1.09.95,1100,B,,翡翠劇院
36,37,445,04,21/02/18,"跑馬地草地""C""                                    ",1200,好,3,1,79,文家良,潘頓,2-1/2,6.7,127,4 3 4,1.10.48,1111,B,,翡翠劇院
37,38,352,01,17/01/18,"跑馬地草地""C""                                    ",1200,好,3,11,73,文家良,潘頓,頸位,12,127,7 6 1,1.09.79,1092,B,,翡翠劇院
38,39,280,11,17/12/17,沙田全天候                                    ,1200,好,3,2,74,文家良,潘頓,6-3/4,14,131,8 8 11,1.09.74,1102,B,,翡翠劇院
39,40,214,04,22/11/17,"跑馬地草地""C+3""                                    ",1200,好,3,5,74,文家良,史卓豐,2-3/4,7.4,130,7 6 4,1.10.46,1095,B,,翡翠劇院
40,41,98,11,08/10/17,"沙田草地""B+2""                                    ",1200,好,3,11,74,文家良,史卓豐,7-1/2,22,128,4 4 11,1.10.47,1091,B,,翡翠劇院
41,42,35,04,13/09/17,"跑馬地草地""B""                                    ",1200,好/快,3,2,73,文家良,李寶利,1/2,3.9,129,8 9 4,1.10.38,1078,B,,翡翠劇院
42,43,732,01,14/06/17,"跑馬地草地""B""                                    ",1200,好/快,3,8,67,文家良,李寶利,3/4,22,120,5 4 1,1.09.42,1076,B,,翡翠劇院
43,44,668,04,21/05/17,"沙田草地""C+3""                                    ",1200,好,3,7,69,文家良,莫雷拉,3-3/4,14,122,9 7 4,1.10.82,1074,B,,翡翠劇院
44,45,595,03,23/04/17,"沙田草地""C+3""                                    ",1000,好,3,8,70,文家良,李寶利,4,48,124,9 8 3,0.57.24,1073,B,,翡翠劇院
45,46,557,12,09/04/17,"沙田草地""C""                                    ",1000,好/快,3,6,73,文家良,蔣嘉琦                                    ,6,24,116,14 13 12,0.56.43,1082,B,,翡翠劇院
46,47,435,14,19/02/17,"沙田草地""A""                                    ",1400,好/快,3,8,75,文家良,梁家俊,15-3/4,123,128,3 2 4 14,1.23.86,1081,B,,翡翠劇院
47,48,302,08,01/01/17,"沙田草地""B+2""                                    ",1200,好/快,3,9,75,文家良,潘頓,4-3/4,6.3,128,1 2 8,1.10.45,1089,B1,,翡翠劇院
