,Unnamed: 0,場次,名次,日期,馬場/跑道/賽道,途程,場地狀況,賽事班次,檔位,評分,練馬師,騎師,頭馬距離,獨贏賠率,實際負磅,沿途走位,完成時間,排位體重,配備,賽事重播,馬名
0,1,706,11,26/05/21,"跑馬地草地""C""                                    ",1000,好/快,3,4,78,蘇偉賢,黎海榮,12,41.0,133,11 11 11,0.57.99,1110,V/TT,,聰明導彈
1,2,651,7,05/05/21,"跑馬地草地""A""                                    ",1200,好/快,2,6,80,蘇偉賢,黎海榮,5-1/4,55.0,114,10 11 7,1.09.50,1100,V/TT,,聰明導彈
2,3,584,7,11/04/21,"沙田草地""C""                                    ",1400,好,2,4,82,蘇偉賢,波健士,2-1/4,52.0,115,12 11 11 7,1.21.57,1114,V/TT,,聰明導彈
3,4,545,6,28/03/21,"沙田草地""A+3""                                    ",1200,好/快,2,6,82,蘇偉賢,何澤堯,3,20.0,116,8 9 6,1.08.75,1107,B-/V1/TT,,聰明導彈
4,5,507,3,13/03/21,"沙田草地""C+3""                                    ",1400,好,3,6,80,蘇偉賢,潘頓,頸位,6.3,133,11 8 7 3,1.21.93,1109,B/TT,,聰明導彈
5,6,427,4,14/02/21,"沙田草地""A""                                    ",1400,好,3,1,79,蘇偉賢,潘頓,3/4,3.6,129,8 7 5 4,1.21.98,1121,B/TT,,聰明導彈
6,7,381,11,27/01/21,"跑馬地草地""C+3""                                    ",1650,好,2,11,81,蘇偉賢,楊明綸,7-1/2,44.0,119,11 11 11 11,1.40.17,1127,B/TT,,聰明導彈
7,8,316,9,01/01/21,"沙田草地""B+2""                                    ",1600,好,2,12,83,蘇偉賢,彭國年,5,29.0,119,13 13 13 9,1.36.00,1119,B/TT,,聰明導彈
8,9,285,8,20/12/20,"沙田草地""C+3""                                    ",1400,好,2,14,84,蘇偉賢,彭國年,3,18.0,120,13 13 13 8,1.22.15,1123,B/TT,,聰明導彈
9,10,230,4,29/11/20,"沙田草地""C""                                    ",1400,好,2,13,84,蘇偉賢,彭國年,1-1/2,42.0,122,14 14 13 4,1.20.97,1123,B/TT,,聰明導彈
10,11,192,2,14/11/20,"沙田草地""C+3""                                    ",1400,好,3,1,83,蘇偉賢,彭國年,3/4,14.0,131,6 6 6 2,1.21.69,1120,B/TT,,聰明導彈
11,12,138,8,24/10/20,"沙田草地""C""                                    ",1400,好,2,11,85,蘇偉賢,潘明輝,4-3/4,125.0,118,14 14 14 8,1.21.56,1121,B/TT,,聰明導彈
12,13,74,5,01/10/20,"沙田草地""B""                                    ",1400,好,2,1,86,蘇偉賢,陳嘉熙,2-3/4,36.0,112,9 7 5 5,1.21.36,1106,B/TT,,聰明導彈
13,14,778,6,27/06/20,"沙田草地""B""                                    ",1400,好/快,2,13,87,蘇偉賢,陳嘉熙,2,97.0,117,14 14 13 6,1.21.00,1094,B/TT,,聰明導彈
14,15,728,9,07/06/20,"沙田草地""C""                                    ",1400,黏,2,8,89,蘇偉賢,波健士,4-3/4,65.0,126,12 12 12 9,1.23.04,1096,B/TT,,聰明導彈
15,16,678,8,20/05/20,"跑馬地草地""C+3""                                    ",1200,好/快,2,1,90,蘇偉賢,潘明輝,4-1/4,24.0,121,12 12 8,1.09.45,1093,B/TT,,聰明導彈
16,17,573,8,12/04/20,"沙田草地""C""                                    ",1400,好,2,2,90,蘇偉賢,郭能,3-1/4,34.0,123,10 9 9 8,1.21.27,1081,B/TT,,聰明導彈
17,18,508,9,18/03/20,"跑馬地草地""C+3""                                    ",1200,好,2,8,90,蘇偉賢,何澤堯,3-3/4,9.5,123,12 12 9,1.09.69,1092,B/TT,,聰明導彈
18,19,453,1,26/02/20,"跑馬地草地""A""                                    ",1200,好,3,6,82,蘇偉賢,潘頓,1-1/2,8.5,130,9 8 1,1.09.18,1089,B/TT,,聰明導彈
19,20,389,2,02/02/20,"沙田草地""C""                                    ",1200,好,3,11,79,蘇偉賢,潘頓,短馬頭位,11.0,133,8 6 2,1.09.50,1086,B/TT,,聰明導彈
20,21,296,2,01/01/20,"沙田草地""C""                                    ",1200,好,3,1,78,蘇偉賢,潘頓,1-1/4,5.1,133,6 5 2,1.09.91,1084,B/TT,,聰明導彈
21,22,217,13,01/12/19,"沙田草地""C+3""                                    ",1400,好,3,13,78,蘇偉賢,梁家俊,11,27.0,133,14 13 12 13,1.23.41,1074,B/TT,,聰明導彈
22,23,139,7,30/10/19,"跑馬地草地""A""                                    ",1650,好,3,10,78,蘇偉賢,潘頓,2,5.3,133,11 11 10 7,1.40.17,1083,B/TT,,聰明導彈
23,24,66,2,01/10/19,"沙田草地""A+3""                                    ",1400,好/快,3,8,76,蘇偉賢,潘頓,1/2,6.0,129,8 8 9 2,1.21.40,1087,B/TT,,聰明導彈
24,25,17,1,08/09/19,"沙田草地""C""                                    ",1200,好/快,3,4,70,蘇偉賢,潘頓,頸位,3.2,123,8 5 1,1.08.60,1081,B/TT,,聰明導彈
25,26,748,3,16/06/19,"沙田草地""C+3""                                    ",1200,好/快,3,6,68,蘇偉賢,潘頓,1/2,2.3,121,11 10 3,1.08.98,1070,B/TT,,聰明導彈
26,27,673,2,18/05/19,"沙田草地""C+3""                                    ",1400,好/快,3,8,67,蘇偉賢,潘頓,1-1/4,2.5,121,2 2 2 2,1.21.73,1067,B1/TT,,聰明導彈
27,28,565,5,07/04/19,"沙田草地""B+2""                                    ",1400,好/快,3,8,67,蘇偉賢,莫雷拉,1-3/4,3.2,122,4 6 5 5,1.22.47,1080,TT,,聰明導彈
28,29,505,2,17/03/19,"沙田草地""A""                                    ",1400,好,3,9,64,蘇偉賢,莫雷拉,頭位,1.8,120,6 6 8 2,1.22.04,1083,TT,,聰明導彈
29,30,414,3,10/02/19,"沙田草地""A""                                    ",1400,好,3,9,62,蘇偉賢,田泰安,1-1/4,6.8,115,8 9 11 3,1.22.27,1080,TT,,聰明導彈
30,31,339,6,12/01/19,"沙田草地""A""                                    ",1200,好,3,11,62,蘇偉賢,梁家俊,4-1/4,9.4,115,11 10 6,1.09.47,1099,TT,,聰明導彈
31,32,255,1,16/12/18,"沙田草地""C+3""                                    ",1200,好,4,1,52,蘇偉賢,韋達                                    ,3-3/4,7.8,127,4 3 1,1.10.16,1098,TT1,,聰明導彈
