,Unnamed: 0,場次,名次,日期,馬場/跑道/賽道,途程,場地狀況,賽事班次,檔位,評分,練馬師,騎師,頭馬距離,獨贏賠率,實際負磅,沿途走位,完成時間,排位體重,配備,賽事重播,馬名
0,1,651,1,05/05/21,"跑馬地草地""A""                                    ",1200,好/快,2,3,88,沈集成,巴度,1,3.5,122,2 2 1,1.08.66,1216,TT,,艮志騰雲
1,2,516,2,17/03/21,"跑馬地草地""C""                                    ",1200,好/快,2,11,86,沈集成,巴度,3/4,13.0,119,5 5 2,1.09.06,1196,TT,,艮志騰雲
2,3,458,2,24/02/21,"跑馬地草地""C+3""                                    ",1200,好/快,3,10,84,沈集成,巴度,1/2,14.0,132,1 1 2,1.09.16,1212,TT,,艮志騰雲
3,4,392,7,31/01/21,"沙田草地""B+2""                                    ",1200,好,2,1,84,沈集成,潘頓,4-1/4,5.1,121,4 5 7,1.09.07,1216,TT,,艮志騰雲
4,5,342,1,13/01/21,"跑馬地草地""B""                                    ",1200,好,3,7,78,沈集成,潘頓,1-1/2,6.4,131,4 4 1,1.09.77,1220,TT,,艮志騰雲
5,6,274,6,16/12/20,"跑馬地草地""C""                                    ",1000,好,3,9,78,沈集成,薛恩,2-3/4,5.0,132,9 10 6,0.57.24,1216,TT,,艮志騰雲
6,7,236,1,02/12/20,"跑馬地草地""A""                                    ",1000,好,3,11,72,沈集成,薛恩,1/2,31.0,125,7 5 1,0.56.88,1212,SR-/TT1,,艮志騰雲
7,8,706,4,31/05/20,"沙田草地""B""                                    ",1200,好,3,3,77,文家良,莫雷拉,2-1/2,5.0,131,3 2 4,1.09.35,1170,SR,,艮志騰雲
8,9,642,9,09/05/20,沙田全天候                                    ,1650,好,3,6,78,文家良,黃俊,13-3/4,30.0,126,5 1 2 9,1.40.91,1179,SR,,艮志騰雲
9,10,589,8,19/04/20,"沙田草地""C+3""                                    ",1200,好,3,9,78,文家良,潘頓,4-1/2,11.0,131,2 2 8,1.09.40,1180,SR,,艮志騰雲
10,11,529,2,29/03/20,"沙田草地""A+3""                                    ",1200,好,3,5,78,文家良,潘頓,2,3.3,131,3 2 2,1.10.01,1186,SR,,艮志騰雲
11,12,252,3,15/12/19,沙田全天候                                    ,1200,好,3,7,78,文家良,潘明輝,1-3/4,11.0,129,1 1 3,1.09.33,1193,SR1,,艮志騰雲
12,13,172,13,17/11/19,"沙田草地""B""                                    ",1200,好,3,9,80,文家良,巴度,11-1/2,13.0,133,2 2 13,1.10.63,1202,CP-,,艮志騰雲
13,14,77,13,06/10/19,"沙田草地""B+2""                                    ",1400,好/黏,2,10,81,文家良,潘明輝,9-1/4,25.0,115,12 11 11 13,1.22.54,1183,CP,,艮志騰雲
14,15,37,4,15/09/19,"沙田草地""C+3""                                    ",1200,好/快,2,1,81,文家良,黎海榮,2,15.0,114,1 1 4,1.08.52,1167,CP1,,艮志騰雲
15,16,806,7,10/07/19,"跑馬地草地""A""                                    ",1200,好,2,10,82,文家良,楊明綸,4,39.0,117,1 2 7,1.10.38,1168,--,,艮志騰雲
16,17,767,2,26/06/19,"跑馬地草地""B""                                    ",1000,好/快,2,3,82,文家良,巫顯東,2,9.4,112,3 3 2,0.56.75,1169,--,,艮志騰雲
17,18,683,9,22/05/19,"跑馬地草地""B""                                    ",1200,好/快,2,9,82,文家良,巫顯東,9-1/2,32.0,117,9 9 9,1.10.30,1165,--,,艮志騰雲
18,19,620,4,28/04/19,"沙田草地""A""                                    ",1200,好,2,10,81,文家良,蔡明紹,1-3/4,46.0,113,1 1 4,1.09.01,1173,--,,艮志騰雲
19,20,558,6,07/04/19,"沙田草地""B+2""                                    ",1200,好/快,G2,4,81,文家良,李寶利,8-1/2,70.0,123,4 5 6,1.09.50,1181,--,,艮志騰雲
20,21,477,7,06/03/19,"跑馬地草地""A""                                    ",1200,好,2,1,81,文家良,梁家俊,4-1/2,9.6,116,1 1 7,1.10.40,1174,--,,艮志騰雲
21,22,423,2,13/02/19,"跑馬地草地""B""                                    ",1200,好,3,12,80,文家良,巴度,1-1/2,56.0,128,1 1 2,1.09.99,1174,--,,艮志騰雲
22,23,339,8,12/01/19,"沙田草地""A""                                    ",1200,好,3,2,80,文家良,郭能,5,16.0,133,1 1 8,1.09.60,1176,--,,艮志騰雲
23,24,261,3,16/12/18,"沙田草地""C+3""                                    ",1200,好,3,11,78,文家良,黃俊,頭位,5.8,126,1 1 3,1.09.43,1167,--,,艮志騰雲
24,25,208,6,25/11/18,"沙田草地""C""                                    ",1400,黏,2,4,79,文家良,韋達                                    ,9,23.0,119,2 1 2 6,1.24.66,1170,--,,艮志騰雲
25,26,159,10,07/11/18,"跑馬地草地""B""                                    ",1200,好,3,10,80,文家良,潘頓,7-3/4,9.9,133,3 3 10,1.11.15,1164,--,,艮志騰雲
26,27,117,3,21/10/18,"沙田草地""A""                                    ",1200,好/快,3,1,80,文家良,巫顯東,1-1/4,3.9,128,3 2 3,1.09.41,1170,--,,艮志騰雲
27,28,63,2,01/10/18,"沙田草地""A+3""                                    ",1200,好,3,14,78,文家良,巫顯東,1,18.0,127,1 1 2,1.09.47,1157,--,,艮志騰雲
28,29,28,5,09/09/18,"沙田草地""C""                                    ",1200,好/快,3,5,78,文家良,潘頓,3,4.6,133,2 1 5,1.09.76,1163,--,,艮志騰雲
29,30,805,3,15/07/18,"沙田草地""A""                                    ",1400,黏,3,3,79,文家良,梁家俊,7-3/4,9.2,133,1 1 1 3,1.23.68,1167,--,,艮志騰雲
30,31,721,5,10/06/18,"沙田草地""C""                                    ",1200,好/快,3,7,79,文家良,潘頓,2-1/2,2.1,133,3 3 5,1.09.15,1177,--,,艮志騰雲
31,32,666,10,20/05/18,"沙田草地""C+3""                                    ",1200,好/快,3,6,79,文家良,潘頓,6,2.1,132,5 4 10,1.10.24,1176,--,,艮志騰雲
32,33,591,1,21/04/18,"沙田草地""C+3""                                    ",1200,好,3,8,68,文家良,潘頓,3-1/2,1.6,121,1 1 1,1.09.65,1183,--,,艮志騰雲
33,34,506,1,18/03/18,"沙田草地""A""                                    ",1200,好,4,7,59,文家良,潘頓,2-3/4,3.2,130,1 1 1,1.09.85,1182,--,,艮志騰雲
34,35,450,1,25/02/18,"沙田草地""B""                                    ",1200,好,4,12,53,文家良,潘頓,3/4,3.5,126,1 1 1,1.09.86,1182,--,,艮志騰雲
35,36,375,4,28/01/18,"沙田草地""B""                                    ",1200,好,4,14,52,文家良,潘頓,1/2,5.4,127,2 2 4,1.10.82,1166,--,,艮志騰雲
