,Unnamed: 0,場次,名次,日期,馬場/跑道/賽道,途程,場地狀況,賽事班次,檔位,評分,練馬師,騎師,頭馬距離,獨贏賠率,實際負磅,沿途走位,完成時間,排位體重,配備,賽事重播,馬名
0,1,338,12,13/01/21,"跑馬地草地""B""                                    ",1650,好,5,6,31,賀賢,薛恩,12-1/2,171,125,3 3 3 12,1.43.28,1041,--,,良朋共盛
1,2,296,10,26/12/20,"沙田草地""A+3""                                    ",1200,好,5,3,34,賀賢,巫顯東,5-1/2,173,124,11 12 10,1.10.92,1046,--,,良朋共盛
2,3,233,9,02/12/20,"跑馬地草地""A""                                    ",1000,好,5,7,37,賀賢,薛恩,4-3/4,178,130,10 10 9,0.58.85,1036,--,,良朋共盛
3,4,176,10,11/11/20,"跑馬地草地""B""                                    ",1000,好,5,7,40,賀賢,薛恩,5,81,133,9 10 10,0.58.56,1027,--,,良朋共盛
4,5,810,12,12/07/20,"沙田草地""A""                                    ",1200,好/快,4,10,45,賀賢,蘇狄雄,7,221,118,13 14 12,1.10.35,1033,--,,良朋共盛
5,6,760,9,24/06/20,"跑馬地草地""C""                                    ",1200,好/快,4,3,47,賀賢,蔡明紹,4-3/4,124,120,4 4 9,1.10.12,1026,--,,良朋共盛
6,7,701,12,31/05/20,"沙田草地""B""                                    ",1000,好,4,5,50,賀賢,潘明輝,12-1/4,357,121,11 11 12,0.57.56,1028,TT-,,良朋共盛
7,8,266,14,21/12/19,"沙田草地""A+3""                                    ",1200,好,4,13,52,沈集成,潘頓,14-1/2,13,128,1 2 14,1.12.41,1047,B-/TT,,良朋共盛
8,9,40,14,21/09/19,"沙田草地""A""                                    ",1000,好/快,4,1,52,沈集成,何澤堯,12-1/4,30,126,8 12 14,0.58.76,1052,B1/TT1,,良朋共盛
