,Unnamed: 0,場次,名次,日期,馬場/跑道/賽道,途程,場地狀況,賽事班次,檔位,評分,練馬師,騎師,頭馬距離,獨贏賠率,實際負磅,沿途走位,完成時間,排位體重,配備,賽事重播,馬名
0,1,700,11,26/05/21,"跑馬地草地""C""                                    ",1200,好/快,5,9,34,葉楚航,潘明輝,5,23,125,10 10 11,1.10.57,1182,--,,華麗傳承
1,2,575,5,11/04/21,"沙田草地""C""                                    ",1000,好,5,2,36,葉楚航,潘明輝,3-3/4,82,127,13 14 5,0.58.03,1151,TT-,,華麗傳承
2,3,422,14,14/02/21,"沙田草地""A""                                    ",1400,好,5,7,39,葉楚航,潘頓,10-1/4,29,132,9 10 12 14,1.25.46,1181,TT1,,華麗傳承
3,4,171,10,08/11/20,"跑馬地草地""A""                                    ",1200,好,4,1,41,葉楚航,黃皓楠,6-1/2,64,112,5 9 10,1.11.56,1191,B-,,華麗傳承
4,5,797,14,05/07/20,"沙田草地""C+3""                                    ",1600,好/快,4,6,45,葉楚航,蘇狄雄,81,136,116,10 12 14 14,1.47.02,1182,B,,華麗傳承
5,6,645,14,09/05/20,"沙田草地""C""                                    ",1800,好/快,4,8,47,葉楚航,潘頓,58,10,120,4 4 5 10 14,1.56.88,1171,B1,,華麗傳承
6,7,468,6,04/03/20,"跑馬地草地""B""                                    ",1200,好,4,11,49,葉楚航,潘明輝,3-3/4,198,121,12 12 6,1.11.62,1186,--,,華麗傳承
7,8,345,13,19/01/20,"沙田草地""A+3""                                    ",1400,好,4,3,52,葉楚航,潘明輝,12-1/2,286,125,4 5 6 13,1.24.02,1179,--,,華麗傳承
8,9,269,13,21/12/19,"沙田草地""A+3""                                    ",1200,好,4,11,52,葉楚航,黎海榮,13-1/2,147,127,14 13 13,1.12.24,1191,--,,華麗傳承
