,Unnamed: 0,場次,名次,日期,馬場/跑道/賽道,途程,場地狀況,賽事班次,檔位,評分,練馬師,騎師,頭馬距離,獨贏賠率,實際負磅,沿途走位,完成時間,排位體重,配備,賽事重播,馬名
0,1,664,9,12/05/21,"沙田草地""C+3""                                    ",1000,好/快,3,3,66,蘇偉賢,彭國年,9-1/4,54,120,3 6 9,0.56.82,1037,--,,萬里飛至
1,2,595,8,17/04/21,"沙田草地""C+3""                                    ",1000,好,3,3,68,蘇偉賢,彭國年,7-1/2,18,121,2 1 8,0.57.77,1045,--,,萬里飛至
2,3,538,6,28/03/21,"沙田草地""A+3""                                    ",1000,好/快,3,9,68,蘇偉賢,彭國年,4-3/4,54,125,2 2 6,0.55.99,1049,--,,萬里飛至
