,Unnamed: 0,場次,名次,日期,馬場/跑道/賽道,途程,場地狀況,賽事班次,檔位,評分,練馬師,騎師,頭馬距離,獨贏賠率,實際負磅,沿途走位,完成時間,排位體重,配備,賽事重播,馬名
0,1,637,10,02/05/21,"沙田草地""B""                                    ",1400,好,4,13,40,葉楚航,蔡明紹,6-3/4,9.7,113,2 1 1 10,1.22.64,1045,E/TT,,蒜頭本色
1,2,542,6,28/03/21,"沙田草地""A+3""                                    ",1400,好/快,4,10,42,葉楚航,蔡明紹,5-1/2,29.0,115,1 1 1 6,1.22.05,1031,E/TT,,蒜頭本色
2,3,360,11,20/01/21,"跑馬地草地""C""                                    ",1200,好,4,6,45,葉楚航,潘明輝,10-1/4,27.0,116,1 1 11,1.11.28,1057,E1/TT,,蒜頭本色
3,4,169,7,08/11/20,"跑馬地草地""A""                                    ",1000,好,4,2,47,葉楚航,陳嘉熙,3-3/4,57.0,115,5 5 7,0.58.01,1029,TT,,蒜頭本色
4,5,804,12,08/07/20,"跑馬地草地""A""                                    ",1000,好,4,1,52,葉楚航,薛恩,10-1/2,78.0,125,3 3 12,0.58.76,1070,TT,,蒜頭本色
5,6,685,13,24/05/20,"沙田草地""A""                                    ",1200,好,4,8,52,葉楚航,薛恩,10,229.0,126,6 6 13,1.11.10,1070,TT1,,蒜頭本色
