,Unnamed: 0,場次,名次,日期,馬場/跑道/賽道,途程,場地狀況,賽事班次,檔位,評分,練馬師,騎師,頭馬距離,獨贏賠率,實際負磅,沿途走位,完成時間,排位體重,配備,賽事重播,馬名
0,1,592,05,14/04/21,"跑馬地草地""B""                                    ",1650,好/快,3,9,66,高伯新,蔡明紹,4-3/4,12,123,9 11 11 5,1.40.16,1040,H/PC/TT,,贏科超影
1,2,515,01,17/03/21,"跑馬地草地""C""                                    ",1650,好/快,3,11,61,高伯新,蔡明紹,頸位,45,118,12 12 11 1,1.39.13,1030,H/PC/TT,,贏科超影
2,3,452,01,24/02/21,"跑馬地草地""C+3""                                    ",1650,好/快,4,5,56,高伯新,蔡明紹,頸位,4.4,129,11 11 10 1,1.40.53,1043,H/PC/TT,,贏科超影
3,4,417,02,10/02/21,"跑馬地草地""B""                                    ",1650,好,4,5,55,高伯新,史卓豐,1-1/4,13,128,8 8 8 2,1.41.45,1053,B-/H/PC1/TT,,贏科超影
4,5,253,09,09/12/20,"跑馬地草地""B""                                    ",1650,好,4,8,57,高伯新,田泰安,4,28,131,10 10 11 9,1.40.95,1042,P-/H/B1/TT,,贏科超影
5,6,195,06,18/11/20,"跑馬地草地""C""                                    ",1650,好,4,4,57,高伯新,潘頓,3,3.3,132,7 8 6 6,1.40.81,1044,H/P/TT,,贏科超影
6,7,125,03,21/10/20,"跑馬地草地""C""                                    ",1650,好/快,4,11,55,高伯新,潘頓,頸位,5.2,129,9 8 7 3,1.40.64,1039,H/P/TT,,贏科超影
7,8,52,04,23/09/20,"跑馬地草地""C+3""                                    ",1650,好/快,4,10,57,高伯新,史卓豐,3,21,133,11 10 9 4,1.40.36,1026,H/P/TT,,贏科超影
8,9,12,08,09/09/20,"跑馬地草地""B""                                    ",1650,好,4,11,59,高伯新,史卓豐,5-3/4,27,133,11 12 11 8,1.41.01,1020,H/P/TT,,贏科超影
9,10,714,04,03/06/20,"跑馬地草地""A""                                    ",1650,好,4,8,59,高伯新,史卓豐,1-3/4,20,133,9 8 8 4,1.40.70,1028,H/P/TT,,贏科超影
10,11,535,14,29/03/20,"沙田草地""A+3""                                    ",1600,好,3,7,61,高伯新,潘明輝,9-1/2,191,111,9 10 11 14,1.36.78,1038,H/P/TT,,贏科超影
11,12,439,06,23/02/20,"沙田草地""A+3""                                    ",1200,好,3,5,62,高伯新,巫顯東,2,92,116,7 5 6,1.10.04,1047,H/P/TT,,贏科超影
12,13,398,07,05/02/20,"跑馬地草地""C""                                    ",1200,好,3,2,63,高伯新,巫顯東,4-1/4,32,113,6 5 7,1.10.17,1047,H/P/TT,,贏科超影
13,14,259,05,18/12/19,"跑馬地草地""C+3""                                    ",1200,好/快,3,9,63,高伯新,巫顯東,1-1/4,84,113,12 12 5,1.10.15,1041,H/P/TT,,贏科超影
14,15,165,11,09/11/19,沙田全天候                                    ,1650,好,3,3,63,高伯新,潘明輝,8-3/4,34,116,9 10 12 11,1.40.83,1034,H/P/TT,,贏科超影
15,16,117,01,23/10/19,"跑馬地草地""C+3""                                    ",1650,好/快,4,9,58,高伯新,史卓豐,頸位,30,133,9 10 5 1,1.40.83,1020,H/P/TT,,贏科超影
16,17,82,10,09/10/19,"跑馬地草地""B""                                    ",1650,好,4,12,60,高伯新,郭能,15-1/4,29,133,3 2 3 10,1.43.18,1028,H/P/TT,,贏科超影
17,18,36,10,15/09/19,沙田全天候                                    ,1650,好,3,8,62,高伯新,梁家俊,9-1/2,74,116,10 11 11 10,1.40.11,1018,H/P/TT,,贏科超影
18,19,816,WX-A,14/07/19,"沙田草地""A""                                    ",1600,好/快,3,--,63,高伯新,利敬國,--,--,116,--,--,--,--,--,贏科超影
19,20,719,08,05/06/19,"跑馬地草地""A""                                    ",1650,好,3,5,65,高伯新,楊明綸,5-1/4,78,116,9 11 12 8,1.41.47,1019,H/P/TT,,贏科超影
20,21,665,12,15/05/19,"跑馬地草地""A""                                    ",1800,好,3,8,67,高伯新,貝力斯,8-1/4,76,120,10 9 9 10 12,1.51.40,1019,H/P/TT,,贏科超影
21,22,555,09,03/04/19,沙田全天候                                    ,1800,好,3,9,69,高伯新,陳嘉熙,11-1/2,19,113,10 10 10 7 9,1.49.31,1024,H/P/TT,,贏科超影
22,23,474,05,06/03/19,"跑馬地草地""A""                                    ",1650,好,3,6,70,高伯新,蔡明紹,2-1/2,25,123,6 7 6 5,1.41.37,1025,H/P/TT,,贏科超影
23,24,380,08,30/01/19,"跑馬地草地""A""                                    ",1650,好,3,3,70,高伯新,蔡明紹,9-1/2,9.8,125,6 8 8 8,1.41.03,1023,H/P/TT,,贏科超影
24,25,316,02,06/01/19,沙田全天候                                    ,1650,好,3,4,68,高伯新,巴度,短馬頭位,16,125,7 6 6 2,1.38.60,1034,H/P/TT,,贏科超影
25,26,183,05,18/11/18,沙田全天候                                    ,1650,好,3,6,68,高伯新,巴度,4,15,123,5 6 6 5,1.39.66,1034,H/P/TT,,贏科超影
26,27,90,03,10/10/18,"跑馬地草地""B""                                    ",1650,好,3,1,67,高伯新,潘頓,1,2.5,123,8 10 8 3,1.40.45,1026,H/P/TT,,贏科超影
27,28,33,01,12/09/18,"跑馬地草地""C""                                    ",1650,好,4,3,59,高伯新,潘頓,2-1/2,2.8,132,8 8 7 1,1.40.62,1009,H/P/TT,,贏科超影
28,29,712,07,06/06/18,"跑馬地草地""A""                                    ",1650,好,3,3,62,高伯新,沈拿,2-1/4,16,117,7 8 8 7,1.40.51,1001,H/P/TT,,贏科超影
29,30,638,04,09/05/18,"跑馬地草地""A""                                    ",1650,好/黏,3,1,63,高伯新,梁家俊,3-1/2,11,118,3 3 4 4,1.41.66,997,H/P/TT,,贏科超影
30,31,563,05,11/04/18,"跑馬地草地""A""                                    ",1650,好,3,6,64,高伯新,楊明綸,3-1/2,10,116,10 11 8 5,1.40.31,999,H/P/TT,,贏科超影
31,32,408,09,07/02/18,"跑馬地草地""A""                                    ",1650,好,3,4,64,高伯新,楊明綸,3-3/4,8.8,115,7 7 7 9,1.41.16,987,H/P/TT,,贏科超影
32,33,353,07,17/01/18,"跑馬地草地""C""                                    ",1650,好,3,10,64,高伯新,楊明綸,1-1/4,21,115,11 12 11 7,1.41.15,1008,H/P/TT,,贏科超影
33,34,286,01,20/12/17,"跑馬地草地""C+3""                                    ",1650,好/快,4,9,58,高伯新,梁家俊,1/2,34,129,11 12 9 1,1.39.79,999,H/P1/TT,,贏科超影
34,35,184,13,11/11/17,"沙田草地""A""                                    ",1400,好/快,4,3,60,高伯新,史卓豐,13-1/2,28,133,2 1 2 13,1.24.20,983,H/TT,,贏科超影
35,36,125,05,18/10/17,"跑馬地草地""C""                                    ",1200,好/快,3,9,61,高伯新,吳嘉晉                                    ,2,45,111,10 10 5,1.10.31,981,H/TT,,贏科超影
36,37,62,12,24/09/17,沙田全天候                                    ,1200,濕慢,3,3,63,高伯新,梁家俊,8-3/4,86,117,5 4 12,1.10.89,987,H/TT,,贏科超影
37,38,32,09,13/09/17,"跑馬地草地""B""                                    ",1000,好/快,3,2,64,高伯新,梁家俊,7-1/4,28,116,7 7 9,0.58.48,988,H/TT,,贏科超影
38,39,805,04,16/07/17,"沙田草地""C""                                    ",1400,好/黏,3,6,67,高伯新,楊明綸,4-1/4,49,114,3 3 3 4,1.23.74,1010,H1/TT,,贏科超影
39,40,712,08,07/06/17,"跑馬地草地""A""                                    ",1200,好/快,3,12,69,高伯新,黎海榮,5-1/4,71,117,10 9 8,1.09.98,996,TT,,贏科超影
40,41,660,03,17/05/17,"跑馬地草地""B""                                    ",1200,好/快,3,4,69,高伯新,黎海榮,1-1/2,158,117,8 8 3,1.10.40,1020,TT,,贏科超影
41,42,622,07,03/05/17,"跑馬地草地""C+3""                                    ",1000,好/快,3,9,71,高伯新,梁家俊,5-1/2,271,122,8 8 7,0.57.83,1005,TT,,贏科超影
42,43,577,11,17/04/17,"沙田草地""C+3""                                    ",1200,好/快,3,9,73,高伯新,梁家俊,7,233,119,12 11 11,1.10.00,1013,TT1,,贏科超影
43,44,532,12,29/03/17,"跑馬地草地""C+3""                                    ",1000,好/快,3,7,73,高伯新,蔡明紹,7-1/2,106,122,12 12 12,0.58.08,1019,--,,贏科超影
