,Unnamed: 0,場次,名次,日期,馬場/跑道/賽道,途程,場地狀況,賽事班次,檔位,評分,練馬師,騎師,頭馬距離,獨贏賠率,實際負磅,沿途走位,完成時間,排位體重,配備,賽事重播,馬名
0,1,592,12,14/04/21,"跑馬地草地""B""                                    ",1650,好/快,3,6,67,羅富全,莫雷拉,14-3/4,8.5,124,6 6 2 12,1.41.76,1113,V/TT-,,超勁勇士
1,2,431,10,14/02/21,"沙田草地""A""                                    ",1600,好,3,14,68,羅富全,何澤堯,6-1/2,18.0,122,10 11 13 10,1.35.75,1082,B-/V1/TT,,超勁勇士
2,3,334,10,10/01/21,"沙田草地""C""                                    ",1600,好,3,3,68,羅富全,莫雷拉,4-1/4,3.9,121,6 5 3 10,1.34.89,1085,CP-/B1/TT1,,超勁勇士
3,4,260,4,13/12/20,"沙田草地""A""                                    ",1800,好,3,9,68,羅富全,莫雷拉,1-1/2,4.9,122,3 5 6 5 4,1.48.61,1085,CP,,超勁勇士
4,5,229,1,29/11/20,"沙田草地""C""                                    ",1600,好,3,4,62,羅富全,莫雷拉,頸位,2.6,116,8 7 6 1,1.34.19,1090,CP1,,超勁勇士
5,6,44,4,20/09/20,"沙田草地""B+2""                                    ",1400,好/快,3,8,61,羅富全,田泰安,3/4,2.6,115,8 9 9 4,1.21.59,1089,H-,,超勁勇士
6,7,797,2,05/07/20,"沙田草地""C+3""                                    ",1600,好/快,4,5,60,羅富全,潘頓,2-1/2,2.6,133,4 5 6 2,1.34.45,1089,H,,超勁勇士
7,8,746,1,14/06/20,"沙田草地""C+3""                                    ",1400,好/快,4,9,54,羅富全,潘頓,頸位,2.4,129,6 7 7 1,1.21.60,1093,H,,超勁勇士
8,9,664,2,17/05/20,"沙田草地""C+3""                                    ",1400,好/快,4,4,53,羅富全,潘頓,1,2.6,128,11 8 8 2,1.21.70,1093,H,,超勁勇士
9,10,568,3,12/04/20,"沙田草地""C""                                    ",1200,好,4,6,52,羅富全,蔡明紹,1-1/2,46.0,127,9 12 3,1.09.75,1093,H1,,超勁勇士
