,Unnamed: 0,場次,名次,日期,馬場/跑道/賽道,途程,場地狀況,賽事班次,檔位,評分,練馬師,騎師,頭馬距離,獨贏賠率,實際負磅,沿途走位,完成時間,排位體重,配備,賽事重播,馬名
0,1,661,7,08/05/21,沙田全天候                                    ,1650,好,2,2,100,羅富全,何澤堯,7-3/4,11.0,130,6 9 10 7,1.37.40,1102,--,,逍遙自在
1,2,554,1,31/03/21,沙田全天候                                    ,1650,好,2,9,95,羅富全,潘頓,頸位,5.3,124,9 9 7 1,1.37.27,1113,--,,逍遙自在
2,3,442,8,21/02/21,"沙田草地""A+3""                                    ",2000,好,2,7,95,羅富全,何澤堯,9,35.0,131,3 4 4 7 8,2.02.99,1134,--,,逍遙自在
3,4,347,4,17/01/21,沙田全天候                                    ,1650,好,1,7,95,羅富全,梁家俊,5-1/2,5.9,119,6 5 6 4,1.38.73,1148,--,,逍遙自在
4,5,303,1,26/12/20,沙田全天候                                    ,1650,好,2,9,89,羅富全,梁家俊,1,10.0,124,7 6 5 1,1.38.70,1132,--,,逍遙自在
5,6,257,1,09/12/20,"跑馬地草地""B""                                    ",1800,好,2,8,84,羅富全,梁家俊,短馬頭位,69.0,119,4 4 4 4 1,1.48.96,1142,--,,逍遙自在
6,7,165,3,04/11/20,沙田全天候                                    ,1650,好,2,11,85,羅富全,梁家俊,4-3/4,30.0,116,5 6 4 3,1.39.98,1122,--,,逍遙自在
7,8,084,11,04/10/20,"沙田草地""C+3""                                    ",1800,好,2,12,87,羅富全,梁家俊,4,287.0,118,9 3 2 2 11,1.48.62,1124,--,,逍遙自在
8,9,786,10,01/07/20,"沙田草地""C""                                    ",1800,好/快,2,10,90,羅富全,黃俊,12-1/4,110.0,121,6 4 5 11 10,1.48.41,1100,--,,逍遙自在
9,10,693,5,27/05/20,沙田全天候                                    ,1650,好,2,7,92,羅富全,梁家俊,9-1/4,26.0,128,7 7 8 5,1.38.25,1142,--,,逍遙自在
10,11,640,5,06/05/20,"跑馬地草地""B""                                    ",1650,好/快,2,9,94,羅富全,何澤堯,4-1/4,81.0,130,12 12 12 5,1.39.83,1129,--,,逍遙自在
11,12,544,8,01/04/20,沙田全天候                                    ,1650,濕慢,2,7,96,羅富全,潘頓,10-3/4,8.3,133,9 8 8 8,1.39.62,1133,--,,逍遙自在
12,13,480,10,08/03/20,"沙田草地""C""                                    ",1800,好,2,12,97,羅富全,梁家俊,5-3/4,245.0,130,12 11 11 12 10,1.48.42,1121,--,,逍遙自在
13,14,442,9,23/02/20,"沙田草地""A+3""                                    ",2000,好,2,10,97,羅富全,梁家俊,4-1/2,241.0,133,10 10 11 11 9,2.01.58,1122,--,,逍遙自在
14,15,390,13,02/02/20,"沙田草地""C""                                    ",1800,好,2,6,97,羅富全,梁家俊,9-1/2,131.0,133,2 2 2 4 13,1.48.24,1130,--,,逍遙自在
15,16,292,1,29/12/19,沙田全天候                                    ,1650,濕慢,2,1,91,羅富全,潘頓,1/2,4.1,120,5 8 7 1,1.38.45,1124,--,,逍遙自在
16,17,225,7,04/12/19,"跑馬地草地""B""                                    ",1800,好,2,3,93,羅富全,簡國能,4-1/4,38.0,130,5 7 7 8 7,1.49.71,1132,--,,逍遙自在
17,18,127,6,27/10/19,沙田全天候                                    ,1650,好,2,8,94,羅富全,潘頓,4-1/2,5.0,129,8 8 8 6,1.39.25,1109,--,,逍遙自在
18,19,海外,4,08/09/19,首爾/沙地跑道                                    ,1800,泥濘,KOR G1,1,94,羅富全,何澤堯,6-3/4,3.3,126,--,1.54.50,--,--,--,逍遙自在
19,20,721,9,05/06/19,"跑馬地草地""A""                                    ",1800,好,2,1,94,羅富全,梁家俊,5,8.7,129,3 4 5 6 9,1.50.46,1111,--,,逍遙自在
20,21,645,1,08/05/19,沙田全天候                                    ,1650,濕慢,2,5,87,羅富全,潘頓,2-1/4,2.2,121,4 4 4 1,1.38.32,1104,--,,逍遙自在
21,22,564,4,07/04/19,"沙田草地""B+2""                                    ",2000,好/快,1,3,88,羅富全,梁家俊,2-3/4,30.0,115,8 6 5 4 4,2.00.12,1097,--,,逍遙自在
22,23,486,3,10/03/19,沙田全天候                                    ,1650,濕慢,2,11,88,羅富全,潘頓,3-1/2,3.1,126,5 5 5 3,1.39.38,1106,--,,逍遙自在
23,24,451,2,24/02/19,沙田全天候                                    ,1650,好,3,10,84,羅富全,潘頓,頸位,2.1,132,5 5 4 2,1.37.80,1101,--,,逍遙自在
24,25,381,3,30/01/19,"跑馬地草地""A""                                    ",1800,好,2,6,83,羅富全,梁家俊,3/4,8.9,118,3 3 3 3 3,1.50.83,1095,--,,逍遙自在
25,26,338,5,12/01/19,沙田全天候                                    ,1650,好,2,6,83,羅富全,利敬國,2-3/4,4.7,113,6 7 8 5,1.37.77,1095,--,,逍遙自在
26,27,279,4,23/12/18,"沙田草地""A+3""                                    ",2000,好,2,5,83,羅富全,利敬國,5-1/4,10.0,114,4 3 3 5 4,2.03.03,1100,--,,逍遙自在
27,28,235,3,05/12/18,"跑馬地草地""B""                                    ",1800,好,2,11,82,羅富全,利敬國,1-1/4,13.0,117,2 3 1 2 3,1.49.56,1100,--,,逍遙自在
28,29,139,2,31/10/18,沙田全天候                                    ,1650,好,2,2,82,羅富全,李寶利,3-1/4,4.2,119,6 7 6 2,1.38.39,1087,--,,逍遙自在
29,30,071,10,03/10/18,"跑馬地草地""A""                                    ",1800,好,2,7,82,羅富全,李寶利,5-1/4,11.0,115,4 2 2 2 10,1.51.32,1091,--,,逍遙自在
30,31,694,1,30/05/18,沙田全天候                                    ,1650,好,3,7,76,羅富全,潘頓,1/2,3.1,128,2 3 3 1,1.38.20,1068,--,,逍遙自在
31,32,589,1,21/04/18,沙田全天候                                    ,1800,好,3,5,71,羅富全,羅理雅                                    ,3/4,12.0,124,1 3 3 3 1,1.46.68,1074,--,,逍遙自在
32,33,537,11,28/03/18,"跑馬地草地""C+3""                                    ",1800,好/快,3,4,71,羅富全,祈普敦                                    ,8-1/4,12.0,124,10 9 10 9 11,1.49.96,1084,--,,逍遙自在
33,34,483,3,07/03/18,"跑馬地草地""A""                                    ",1650,好,3,12,71,羅富全,祈普敦                                    ,2-3/4,93.0,125,11 10 10 3,1.40.10,1080,--,,逍遙自在
