,Unnamed: 0,場次,名次,日期,馬場/跑道/賽道,途程,場地狀況,賽事班次,檔位,評分,練馬師,騎師,頭馬距離,獨贏賠率,實際負磅,沿途走位,完成時間,排位體重,配備,賽事重播,馬名
0,1,692,1,23/05/21,"沙田草地""A""                                    ",1200,好/快,G3,6,100,蔡約翰,莫雷拉,3/4,1.1,118,3 3 1,1.08.16,1201,--,,速遞奇兵
1,2,622,1,25/04/21,"沙田草地""A""                                    ",1200,好,2,8,88,蔡約翰,莫雷拉,2,1.7,117,3 3 1,1.08.24,1197,--,,速遞奇兵
2,3,581,1,11/04/21,"沙田草地""C""                                    ",1200,好,3,8,80,蔡約翰,莫雷拉,1/2,1.2,133,1 1 1,1.08.59,1202,--,,速遞奇兵
3,4,523,1,21/03/21,"沙田草地""A""                                    ",1200,好,3,1,66,蔡約翰,莫雷拉,3-1/2,1.1,121,1 1 1,1.08.92,1197,--,,速遞奇兵
4,5,132,1,24/10/20,"沙田草地""C""                                    ",1200,好,4,3,52,蔡約翰,莫雷拉,5-1/4,6.7,126,1 1 1,1.08.85,1189,--,,速遞奇兵
