,Unnamed: 0,場次,名次,日期,馬場/跑道/賽道,途程,場地狀況,賽事班次,檔位,評分,練馬師,騎師,頭馬距離,獨贏賠率,實際負磅,沿途走位,完成時間,排位體重,配備,賽事重播,馬名
0,1,717,3,30/05/21,"沙田草地""B""                                    ",1200,好/快,3,5,65,徐雨石,黃皓楠,1,31.0,115,5 5 3,1.08.45,1052,B,,運來福星
1,2,652,1,08/05/21,"沙田草地""C""                                    ",1200,好/快,4,6,58,徐雨石,潘頓,1-3/4,2.4,131,3 3 1,1.09.05,1042,B,,運來福星
2,3,555,4,05/04/21,"沙田草地""B+2""                                    ",1200,好,4,14,58,徐雨石,黃皓楠,1,19.0,129,2 2 4,1.09.86,1051,B,,運來福星
3,4,298,10,26/12/20,"沙田草地""A+3""                                    ",1200,好,4,7,58,徐雨石,郭能,6,31.0,132,7 8 10,1.10.20,1041,B,,運來福星
4,5,197,6,18/11/20,"跑馬地草地""C""                                    ",1650,好,4,8,58,徐雨石,周俊樂,4,9.4,126,1 1 1 6,1.40.48,1018,B,,運來福星
5,6,125,4,21/10/20,"跑馬地草地""C""                                    ",1650,好/快,4,9,57,徐雨石,莫雷拉,1/2,9.2,131,2 2 2 4,1.40.71,1019,B,,運來福星
6,7,76,4,04/10/20,"沙田草地""C+3""                                    ",1200,好,4,2,58,徐雨石,何澤堯,1-3/4,7.3,132,5 6 4,1.09.56,1015,B,,運來福星
7,8,58,9,27/09/20,"沙田草地""A""                                    ",1400,好,4,7,60,徐雨石,蔡明紹,5,14.0,133,8 9 11 9,1.23.34,1010,B,,運來福星
8,9,3,3,06/09/20,"沙田草地""A""                                    ",1200,好,4,7,60,徐雨石,史卓豐,2-1/2,17.0,133,10 10 3,1.10.01,1009,B2,,運來福星
9,10,798,5,05/07/20,"沙田草地""C+3""                                    ",1400,好/快,3,2,62,徐雨石,莫雷拉,1-3/4,4.2,116,7 7 4 5,1.21.62,1015,--,,運來福星
10,11,759,7,21/06/20,"沙田草地""A""                                    ",1200,好/快,3,6,62,徐雨石,波健士,3-1/2,12.0,115,9 11 7,1.09.36,1012,--,,運來福星
11,12,706,3,31/05/20,"沙田草地""B""                                    ",1200,好,3,2,61,徐雨石,波健士,3/4,5.8,115,6 5 3,1.09.05,1012,B-,,運來福星
12,13,669,6,17/05/20,"沙田草地""C+3""                                    ",1200,好/快,3,7,63,徐雨石,梁家俊,3,15.0,116,5 7 6,1.09.37,1014,B,,運來福星
13,14,603,5,26/04/20,"沙田草地""A""                                    ",1200,好,3,5,63,徐雨石,田泰安,2,9.7,118,9 10 5,1.09.49,1011,B,,運來福星
14,15,553,2,05/04/20,"沙田草地""B+2""                                    ",1200,好,3,4,63,徐雨石,利敬國,3-3/4,19.0,119,7 7 2,1.10.19,1016,B,,運來福星
15,16,499,8,14/03/20,"沙田草地""C+3""                                    ",1200,好,3,3,64,徐雨石,波健士,4-1/4,114.0,117,5 4 8,1.09.60,1029,B,,運來福星
16,17,424,9,16/02/20,"沙田草地""A""                                    ",1200,好,3,10,66,徐雨石,希威森,6,126.0,121,10 10 9,1.10.97,1021,CP-/B1,,運來福星
17,18,371,6,27/01/20,"沙田草地""B+2""                                    ",1200,好,3,14,68,徐雨石,蔡明紹,6,248.0,121,13 12 6,1.10.03,1008,CP1,,運來福星
18,19,288,10,29/12/19,"沙田草地""B+2""                                    ",1200,好,3,7,70,徐雨石,黎海榮,5-1/2,200.0,127,13 10 10,1.10.59,1037,--,,運來福星
19,20,229,11,08/12/19,"沙田草地""A""                                    ",1200,好,3,8,72,徐雨石,希威森,5-1/4,88.0,125,7 9 11,1.09.85,1017,--,,運來福星
20,21,164,9,09/11/19,"沙田草地""A""                                    ",1000,好/快,3,4,72,徐雨石,利敬國,3-1/2,39.0,125,11 13 9,0.57.12,1040,--,,運來福星
