,Unnamed: 0,場次,名次,日期,馬場/跑道/賽道,途程,場地狀況,賽事班次,檔位,評分,練馬師,騎師,頭馬距離,獨贏賠率,實際負磅,沿途走位,完成時間,排位體重,配備,賽事重播,馬名
0,1,594,09,17/04/21,"沙田草地""C+3""                                    ",1200,好,5,1,39,蘇偉賢,田泰安,4-3/4,7.6,133,7 6 9,1.11.32,1163,B/H/TT,,醒目再臨
1,2,546,06,31/03/21,沙田全天候                                    ,1200,好,5,3,39,蘇偉賢,潘頓,6-1/2,6.2,132,10 10 6,1.10.68,1151,B/H/TT,,醒目再臨
2,3,491,03,10/03/21,"跑馬地草地""B""                                    ",1200,好,5,6,40,蘇偉賢,田泰安,1-1/2,4.1,133,8 6 3,1.10.93,1140,B/H/TT,,醒目再臨
3,4,479,04,07/03/21,沙田全天候                                    ,1200,濕慢,5,8,40,蘇偉賢,潘明輝,4-3/4,15,131,11 12 4,1.09.53,1157,B/H/TT,,醒目再臨
4,5,445,10,21/02/21,"沙田草地""A+3""                                    ",1400,好,4,7,42,蘇偉賢,楊明綸,4-1/4,32,115,12 13 9 10,1.22.66,1151,B/H/TT,,醒目再臨
5,6,356,06,20/01/21,"跑馬地草地""C""                                    ",1200,好,4,7,43,蘇偉賢,田泰安,3-3/4,5,117,10 11 6,1.10.38,1171,B/H/TT,,醒目再臨
6,7,269,03,16/12/20,"跑馬地草地""C""                                    ",1200,好,4,9,43,蘇偉賢,巴度,3/4,6.5,118,12 12 3,1.10.17,1162,B/H/TT,,醒目再臨
7,8,199,02,18/11/20,"跑馬地草地""C""                                    ",1200,好,4,6,42,蘇偉賢,楊明綸,1/2,10,115,11 12 2,1.10.24,1167,B/H/TT,,醒目再臨
8,9,151,13,01/11/20,"沙田草地""A""                                    ",1400,好/快,4,8,44,蘇偉賢,巴度,4-1/4,10,117,10 11 12 13,1.22.57,1174,B/H/TT,,醒目再臨
9,10,95,04,11/10/20,"沙田草地""A+3""                                    ",1200,好,4,7,44,蘇偉賢,巴度,3-1/2,3.8,118,9 9 4,1.09.18,1175,B/H/TT,,醒目再臨
10,11,42,04,20/09/20,"沙田草地""B+2""                                    ",1200,好/快,4,14,43,蘇偉賢,波健士,3/4,12,117,14 13 4,1.09.52,1168,B/H/TT,,醒目再臨
11,12,811,04,12/07/20,"沙田草地""A""                                    ",1400,好/快,4,7,45,蘇偉賢,莫雷拉,2-3/4,3.1,121,9 8 7 4,1.22.19,1171,B/H/TT,,醒目再臨
12,13,774,04,27/06/20,"沙田草地""B""                                    ",1400,好/快,4,1,46,蘇偉賢,波健士,3-1/2,22,120,10 8 7 4,1.21.51,1161,B/H/TT,,醒目再臨
13,14,724,05,07/06/20,"沙田草地""C""                                    ",1400,黏,4,4,48,蘇偉賢,波健士,4-3/4,19,121,9 9 9 5,1.23.28,1150,B/H/TT,,醒目再臨
14,15,662,07,17/05/20,"沙田草地""C+3""                                    ",1200,好/快,4,7,50,蘇偉賢,田泰安,3-1/4,10,124,9 9 7,1.10.20,1154,B/H/TT,,醒目再臨
15,16,588,06,19/04/20,"沙田草地""C+3""                                    ",1400,好,4,13,52,蘇偉賢,郭能,3-1/2,79,125,13 11 9 6,1.22.66,1152,B/H/TT,,醒目再臨
16,17,530,10,29/03/20,"沙田草地""A+3""                                    ",1400,好,4,14,54,蘇偉賢,郭能,5-3/4,29,129,12 11 9 10,1.23.47,1154,B/H/TT,,醒目再臨
17,18,476,03,08/03/20,"沙田草地""C""                                    ",1200,好,4,3,54,蘇偉賢,郭能,1,17,130,6 5 3,1.10.00,1155,B/H2/TT,,醒目再臨
18,19,382,TNP,02/02/20,"沙田草地""C""                                    ",1200,好,4,11,54,蘇偉賢,彭國年,---,25,127,--,--,1170,H-/B/TT,,醒目再臨
19,20,289,07,29/12/19,"沙田草地""B+2""                                    ",1400,好,4,6,56,蘇偉賢,梁家俊,4,38,131,10 9 8 7,1.23.05,1135,B/H/TT,,醒目再臨
20,21,227,08,08/12/19,"沙田草地""A""                                    ",1400,好,4,14,58,蘇偉賢,李慕華,2,29,133,11 12 12 8,1.22.41,1157,B/H/TT,,醒目再臨
21,22,196,10,23/11/19,沙田全天候                                    ,1200,好,3,10,60,蘇偉賢,黎海榮,9-1/4,146,116,11 9 10,1.10.50,1163,B/H/TT,,醒目再臨
22,23,114,12,20/10/19,"沙田草地""A""                                    ",1400,好/快,3,6,62,蘇偉賢,蔡明紹,8-3/4,67,115,9 9 10 12,1.22.01,1163,B/H1/TT,,醒目再臨
23,24,54,10,25/09/19,"跑馬地草地""A""                                    ",1000,好/快,3,11,63,蘇偉賢,蘇狄雄,5-1/4,202,116,12 12 10,0.58.27,1161,B/TT,,醒目再臨
24,25,612,07,28/04/19,"沙田草地""A""                                    ",1200,好,3,6,64,蘇偉賢,武豊                                    ,5-1/4,17,118,12 12 7,1.09.86,1158,B/TT,,醒目再臨
25,26,559,04,07/04/19,"沙田草地""B+2""                                    ",1200,好/快,3,3,64,蘇偉賢,梁家俊,3-1/2,11,117,9 5 4,1.08.99,1163,B/TT,,醒目再臨
26,27,515,02,23/03/19,"從化草地""A""                                    ",1200,好,R,4,63,蘇偉賢,沈拿,1-1/4,--,125,6 5 2,1.09.46,1155,B/TT,,醒目再臨
27,28,431,08,17/02/19,"沙田草地""A+3""                                    ",1400,好,3,7,63,蘇偉賢,沈拿,6,21,118,12 12 8 8,1.22.86,1177,B/TT,,醒目再臨
28,29,337,09,12/01/19,"沙田草地""A""                                    ",1400,好,3,10,63,蘇偉賢,梁家俊,3-3/4,18,118,6 6 5 9,1.22.53,1164,B/TT,,醒目再臨
29,30,236,01,09/12/18,"沙田草地""A""                                    ",1400,好,4,14,55,蘇偉賢,岩田康誠                                    ,1-3/4,22,128,14 14 14 1,1.22.35,1162,B/TT,,醒目再臨
30,31,110,07,21/10/18,"沙田草地""A""                                    ",1600,好/快,4,4,56,蘇偉賢,沈拿,3,7.6,130,3 3 3 7,1.35.39,1159,B/TT,,醒目再臨
31,32,25,08,09/09/18,"沙田草地""C""                                    ",1600,好/快,4,3,56,蘇偉賢,黃皓楠,8-3/4,2.6,126,2 2 2 8,1.35.80,1145,B/TT,,醒目再臨
32,33,5,02,02/09/18,"沙田草地""B""                                    ",1200,好,4,3,54,蘇偉賢,黃皓楠,3/4,27,124,7 6 2,1.09.84,1150,B/TT,,醒目再臨
33,34,736,06,16/06/18,"沙田草地""C+3""                                    ",1600,好/快,4,4,55,蘇偉賢,莫雷拉,2-1/2,3.1,128,4 4 4 6,1.35.36,1117,B/TT,,醒目再臨
34,35,678,04,27/05/18,"沙田草地""A""                                    ",1600,好,4,11,56,蘇偉賢,沈拿,1-3/4,8.8,129,6 4 3 4,1.36.24,1115,B/TT,,醒目再臨
35,36,603,05,29/04/18,"沙田草地""A""                                    ",1800,好,4,8,56,蘇偉賢,沈拿,3-3/4,8.4,129,5 6 6 4 5,1.48.72,1118,B/TT,,醒目再臨
36,37,571,05,15/04/18,"沙田草地""C+3""                                    ",1600,好/黏,4,11,56,蘇偉賢,沈拿,1-1/2,14,129,10 9 9 5,1.36.75,1121,B/TT,,醒目再臨
37,38,502,01,18/03/18,"沙田草地""A""                                    ",1600,好,4,5,50,蘇偉賢,沈拿,1-1/4,118,123,6 6 7 1,1.36.44,1117,B/TT,,醒目再臨
38,39,414,14,10/02/18,沙田全天候                                    ,1650,好,4,12,53,蘇偉賢,布達德,21,30,126,14 14 14 14,1.42.15,1140,B/TT,,醒目再臨
39,40,359,11,21/01/18,"沙田草地""A""                                    ",1400,好,4,4,55,蘇偉賢,柏寶                                    ,3-1/4,19,128,8 10 9 11,1.23.53,1136,B/TT,,醒目再臨
40,41,292,04,23/12/17,"沙田草地""A+3""                                    ",1400,好,R,2,55,蘇偉賢,柏寶                                    ,4-3/4,85,120,7 5 6 4,1.23.32,1131,B/TT1,,醒目再臨
41,42,237,06,03/12/17,"沙田草地""C+3""                                    ",1400,好,4R,5,57,蘇偉賢,羅理雅                                    ,5-3/4,36,130,10 10 9 6,1.23.51,1124,B,,醒目再臨
42,43,184,11,11/11/17,"沙田草地""A""                                    ",1400,好/快,4,12,57,蘇偉賢,莫雷拉,11,10,130,7 4 4 11,1.23.80,1140,B1,,醒目再臨
