,Unnamed: 0,場次,名次,日期,馬場/跑道/賽道,途程,場地狀況,賽事班次,檔位,評分,練馬師,騎師,頭馬距離,獨贏賠率,實際負磅,沿途走位,完成時間,排位體重,配備,賽事重播,馬名
0,1,393,11,03/02/21,"跑馬地草地""A""                                    ",1200,好,4,10,52,蔡約翰,莫雷拉,8-1/2,3.8,125,5 5 11,1.11.55,1000,--,,銘記知心
1,2,358,7,20/01/21,"跑馬地草地""C""                                    ",1200,好,4,12,54,蔡約翰,莫雷拉,3-1/4,4.0,127,3 3 7,1.10.48,1006,--,,銘記知心
2,3,321,5,06/01/21,"跑馬地草地""A""                                    ",1200,好,4,7,54,蔡約翰,莫雷拉,1,2.8,128,2 3 5,1.10.64,1003,--,,銘記知心
3,4,271,5,16/12/20,"跑馬地草地""C""                                    ",1200,好,4,8,54,蔡約翰,莫雷拉,2-1/4,2.2,127,5 5 5,1.10.21,1006,--,,銘記知心
4,5,215,2,25/11/20,"跑馬地草地""C+3""                                    ",1200,好,4,6,52,蔡約翰,史卓豐,短馬頭位,77.0,125,7 7 2,1.09.85,999,--,,銘記知心
