,Unnamed: 0,場次,名次,日期,馬場/跑道/賽道,途程,場地狀況,賽事班次,檔位,評分,練馬師,騎師,頭馬距離,獨贏賠率,實際負磅,沿途走位,完成時間,排位體重,配備,賽事重播,馬名
0,1,667,11,12/05/21,沙田全天候                                    ,1650,好,4,10,53,方嘉柏,陳嘉熙,13,10.0,119,2 2 2 11,1.39.83,1159,B/TT,,鋒芒快露
1,2,607,2,21/04/21,"跑馬地草地""C""                                    ",1650,好/快,4,5,51,方嘉柏,陳嘉熙,頸位,6.1,117,2 3 3 2,1.39.66,1145,B/TT,,鋒芒快露
2,3,550,4,31/03/21,沙田全天候                                    ,1650,好,4,2,51,方嘉柏,陳嘉熙,1-1/4,5.5,120,1 2 1 4,1.39.47,1143,B/TT,,鋒芒快露
3,4,510,1,17/03/21,"跑馬地草地""C""                                    ",1200,好/快,4,1,46,方嘉柏,陳嘉熙,短馬頭位,2.7,113,3 3 1,1.10.16,1141,B1/TT1,,鋒芒快露
4,5,426,7,14/02/21,"沙田草地""A""                                    ",1600,好,4,12,48,苗禮德,周俊樂,4-1/4,6.9,117,3 4 5 7,1.36.02,1164,--,,鋒芒快露
5,6,386,6,31/01/21,"沙田草地""B+2""                                    ",1600,好,4,9,50,苗禮德,莫雷拉,3,8.2,123,3 3 2 6,1.34.94,1166,--,,鋒芒快露
6,7,346,7,17/01/21,"沙田草地""A""                                    ",1400,好,4,10,52,苗禮德,田泰安,3,8.9,128,9 10 10 7,1.24.39,1167,--,,鋒芒快露
7,8,310,3,01/01/21,"沙田草地""B+2""                                    ",1400,好,4,8,53,苗禮德,田泰安,2-3/4,28.0,126,10 10 10 3,1.22.44,1170,--,,鋒芒快露
8,9,254,6,09/12/20,"跑馬地草地""B""                                    ",1200,好,4,4,55,苗禮德,巴米高,2-1/2,26.0,131,6 6 6,1.10.28,1159,--,,鋒芒快露
9,10,790,5,05/07/20,"沙田草地""C+3""                                    ",1200,好/快,4,3,57,苗禮德,史卓豐,2-1/2,75.0,131,5 5 5,1.10.04,1156,--,,鋒芒快露
