,Unnamed: 0,場次,名次,日期,馬場/跑道/賽道,途程,場地狀況,賽事班次,檔位,評分,練馬師,騎師,頭馬距離,獨贏賠率,實際負磅,沿途走位,完成時間,排位體重,配備,賽事重播,馬名
0,1,653,09,08/05/21,"沙田草地""C""                                    ",1200,好/快,5,11,38,葉楚航,陳嘉熙,3-1/2,9.3,125,7 5 9,1.10.14,1059,--,,開心一號
1,2,479,10,07/03/21,沙田全天候                                    ,1200,濕慢,5,6,40,葉楚航,潘頓,7-1/2,3.4,133,2 6 10,1.10.00,1072,--,,開心一號
2,3,385,04,31/01/21,沙田全天候                                    ,1200,好,4,11,42,葉楚航,潘明輝,3-1/4,16,113,6 6 4,1.09.14,1079,--,,開心一號
3,4,290,12,23/12/20,"跑馬地草地""C+3""                                    ",1200,好,4,8,44,葉楚航,潘明輝,11,8.1,115,2 2 12,1.11.32,1085,--,,開心一號
4,5,216,04,25/11/20,"跑馬地草地""C+3""                                    ",1200,好,4,6,46,葉楚航,賀銘年,2-3/4,6.5,119,1 1 4,1.10.13,1072,--,,開心一號
5,6,150,05,01/11/20,"沙田草地""A""                                    ",1200,好/快,4,6,46,葉楚航,潘明輝,1-3/4,7.1,118,1 1 5,1.09.28,1072,--,,開心一號
6,7,115,02,18/10/20,"沙田草地""B+2""                                    ",1200,好/快,4,1,44,葉楚航,潘明輝,頸位,45,115,1 1 2,1.09.14,1068,--,,開心一號
7,8,90,11,07/10/20,"跑馬地草地""A""                                    ",1200,好,4,12,46,葉楚航,潘明輝,9-1/4,36,117,1 1 11,1.11.78,1079,--,,開心一號
8,9,382,WV,02/02/20,"沙田草地""C""                                    ",1200,好,4,--,48,葉楚航,利敬國,--,--,121,--,--,--,--,--,開心一號
9,10,343,09,19/01/20,"沙田草地""A+3""                                    ",1200,好,4,3,50,葉楚航,蘇狄雄,5-3/4,122,121,9 9 9,1.10.41,1051,--,,開心一號
10,11,88,09,12/10/19,"沙田草地""C""                                    ",1000,好/快,4,14,52,葉楚航,巫顯東,7-3/4,44,122,5 7 9,0.57.29,1117,--,,開心一號
11,12,58,10,01/10/19,"沙田草地""A+3""                                    ",1200,好/快,4,10,52,葉楚航,蘇狄雄,6-1/2,106,126,9 11 10,1.10.15,1123,--,,開心一號
