,Unnamed: 0,場次,名次,日期,馬場/跑道/賽道,途程,場地狀況,賽事班次,檔位,評分,練馬師,騎師,頭馬距離,獨贏賠率,實際負磅,沿途走位,完成時間,排位體重,配備,賽事重播,馬名
0,1,512,10,17/03/21,"跑馬地草地""C""                                    ",1650,好/快,4,9,43,姚本輝,波健士,12-1/2,132,116,6 8 11 10,1.41.54,1112,--,,雪茄之友
1,2,463,11,28/02/21,"沙田草地""B+2""                                    ",1400,好,4,6,45,姚本輝,波健士,5-3/4,25,120,3 4 5 11,1.23.05,1126,CP-/H-,,雪茄之友
2,3,377,6,27/01/21,"跑馬地草地""C+3""                                    ",1200,好,4,3,47,姚本輝,潘明輝,4,16,119,5 5 6,1.10.55,1131,CP/H,,雪茄之友
3,4,795,14,05/07/20,"沙田草地""C+3""                                    ",1400,好/快,4,9,50,姚本輝,潘明輝,27-3/4,15,123,5 4 9 14,1.25.25,1123,H/CP1,,雪茄之友
4,5,724,6,07/06/20,"沙田草地""C""                                    ",1400,黏,4,1,52,姚本輝,田泰安,5-1/4,15,125,1 3 3 6,1.23.35,1134,H1,,雪茄之友
5,6,685,8,24/05/20,"沙田草地""A""                                    ",1200,好,4,2,52,姚本輝,何澤堯,4-3/4,20,126,7 8 8,1.10.25,1153,--,,雪茄之友
