,Unnamed: 0,場次,名次,日期,馬場/跑道/賽道,途程,場地狀況,賽事班次,檔位,評分,練馬師,騎師,頭馬距離,獨贏賠率,實際負磅,沿途走位,完成時間,排位體重,配備,賽事重播,馬名
0,1,722,9,02/06/21,"跑馬地草地""A""                                    ",1650,好,4,12,43,蘇保羅,潘明輝,7-3/4,16.0,114,12 12 12 9,1.41.51,1117,B,,雷霆戰駒
1,2,667,4,12/05/21,沙田全天候                                    ,1650,好,4,6,45,蘇保羅,潘明輝,9-3/4,7.7,116,7 8 9 4,1.39.32,1115,B,,雷霆戰駒
2,3,598,6,17/04/21,沙田全天候                                    ,1650,好,4,4,45,蘇保羅,莫雷拉,3-1/4,3.1,119,6 4 6 6,1.39.51,1118,B,,雷霆戰駒
3,4,550,2,31/03/21,沙田全天候                                    ,1650,好,4,9,43,蘇保羅,莫雷拉,頭位,4.9,119,11 8 7 2,1.39.31,1106,B,,雷霆戰駒
4,5,500,3,13/03/21,沙田全天候                                    ,1800,好,4,8,43,蘇保羅,潘明輝,1-1/4,5.7,114,3 2 3 3 3,1.48.52,1118,B,,雷霆戰駒
5,6,465,12,28/02/21,"沙田草地""B+2""                                    ",1600,好,4,7,46,蘇保羅,何澤堯,8-3/4,14.0,119,8 10 11 12,1.35.99,1126,B,,雷霆戰駒
6,7,407,6,06/02/21,沙田全天候                                    ,1650,好,4,3,48,蘇保羅,楊明綸,4-1/2,16.0,122,8 10 9 6,1.39.57,1127,B,,雷霆戰駒
7,8,348,7,17/01/21,沙田全天候                                    ,1650,好,4,11,50,蘇保羅,楊明綸,7-1/2,22.0,124,11 11 10 7,1.39.75,1133,B,,雷霆戰駒
8,9,300,5,26/12/20,沙田全天候                                    ,1650,好,4,3,52,蘇保羅,楊明綸,6,17.0,125,8 9 10 5,1.40.24,1134,B,,雷霆戰駒
9,10,204,11,22/11/20,"沙田草地""B+2""                                    ",1200,好/快,4,1,52,蘇保羅,楊明綸,10-1/2,113.0,125,8 8 11,1.10.12,1131,B1,,雷霆戰駒
