,Unnamed: 0,場次,名次,日期,馬場/跑道/賽道,途程,場地狀況,賽事班次,檔位,評分,練馬師,騎師,頭馬距離,獨贏賠率,實際負磅,沿途走位,完成時間,排位體重,配備,賽事重播,馬名
0,1,727,07,02/06/21,"跑馬地草地""A""                                    ",1650,好,3,6,63,韋達,彭國年,2-1/4,12,120,3 4 3 7,1.40.47,1118,SR/XB,,電玩時代
1,2,659,04,08/05/21,沙田全天候                                    ,1650,好,3,6,63,韋達,莫雷拉,2-1/2,3.4,116,8 8 9 4,1.37.29,1124,SR/XB,,電玩時代
2,3,596,03,17/04/21,沙田全天候                                    ,1650,濕慢,3,6,64,韋達,班德禮,5-1/4,9.6,118,5 4 6 3,1.38.55,1119,SR/XB,,電玩時代
3,4,553,07,31/03/21,沙田全天候                                    ,1200,好,3,6,64,韋達,楊明綸,3/4,58,118,10 11 7,1.08.80,1126,P-/XB/SR1,,電玩時代
4,5,244,WV,06/12/20,"沙田草地""C+3""                                    ",1400,好,3,--,64,韋達,田泰安,--,--,120,--,--,--,--,--,電玩時代
5,6,776,11,27/06/20,沙田全天候                                    ,1650,好,3,7,68,韋達,黃皓楠,8-1/2,39,113,9 4 4 11,1.40.06,1139,CP-/XB/P1,,電玩時代
6,7,744,08,14/06/20,"沙田草地""C+3""                                    ",1800,好/快,3,6,70,韋達,周俊樂,4-3/4,28,113,1 1 1 1 8,1.48.00,1141,XB/CP1,,電玩時代
7,8,698,09,27/05/20,沙田全天候                                    ,1650,好,3,8,72,韋達,史卓豐,6-1/4,19,125,5 5 7 9,1.38.84,1140,XB,,電玩時代
8,9,642,05,09/05/20,沙田全天候                                    ,1650,好,3,3,74,韋達,史卓豐,3-1/2,25,127,7 7 7 5,1.39.26,1140,XB,,電玩時代
9,10,592,11,19/04/20,"沙田草地""C+3""                                    ",1400,好,3,1,76,韋達,薛恩,7,78,130,6 8 8 11,1.22.22,1142,XB,,電玩時代
10,11,525,10,25/03/20,"跑馬地草地""A""                                    ",1650,好,3,12,78,韋達,黃俊,11-3/4,63,128,6 3 7 10,1.41.86,1147,XB,,電玩時代
11,12,479,06,08/03/20,"沙田草地""C""                                    ",1600,好,3,2,80,韋達,薛恩,3,83,133,4 4 4 6,1.35.43,1148,XB,,電玩時代
12,13,443,07,23/02/20,"沙田草地""A+3""                                    ",1400,好,3,2,80,韋達,巴度,6-1/4,64,133,9 10 10 7,1.22.22,1150,XB1,,電玩時代
