,Unnamed: 0,場次,名次,日期,馬場/跑道/賽道,途程,場地狀況,賽事班次,檔位,評分,練馬師,騎師,頭馬距離,獨贏賠率,實際負磅,沿途走位,完成時間,排位體重,配備,賽事重播,馬名
0,1,719,5,02/06/21,"跑馬地草地""A""                                    ",1000,好,5,7,29,方嘉柏,莫雷拉,4-1/2,3.0,122,11 10 5,0.57.83,1280,B-/TT1,,電訊飛彈
1,2,594,10,17/04/21,"沙田草地""C+3""                                    ",1200,好,5,4,31,葉楚航,班德禮,4-3/4,9.3,125,5 5 10,1.11.35,1269,B,,電訊飛彈
2,3,357,8,20/01/21,"跑馬地草地""C""                                    ",1000,好,5,8,33,葉楚航,賀銘年,4,30.0,126,3 4 8,0.58.02,1281,B,,電訊飛彈
3,4,240,10,06/12/20,沙田全天候                                    ,1200,好,5,6,35,葉楚航,賀銘年,15-1/4,31.0,128,5 9 10,1.11.74,1260,V-/B2,,電訊飛彈
4,5,213,12,25/11/20,"跑馬地草地""C+3""                                    ",1650,好,5,4,37,葉楚航,周俊樂,9-1/2,11.0,123,3 4 5 12,1.42.00,1268,V,,電訊飛彈
5,6,149,5,01/11/20,"沙田草地""A""                                    ",1200,好/快,5,14,39,葉楚航,潘頓,3-1/2,4.6,132,2 2 5,1.09.97,1269,B-/V1,,電訊飛彈
6,7,70,4,01/10/20,"沙田草地""B""                                    ",1200,好,5,7,39,葉楚航,潘頓,3,3.2,132,5 6 4,1.09.91,1252,B,,電訊飛彈
7,8,2,2,06/09/20,"沙田草地""A""                                    ",1200,好,5,2,38,葉楚航,潘頓,1/2,13.0,132,5 5 2,1.09.83,1266,B1,,電訊飛彈
8,9,814,11,12/07/20,"沙田草地""A""                                    ",1200,好/快,4,3,44,葉楚航,黃皓楠,10-1/4,286.0,115,5 4 11,1.10.38,1244,--,,電訊飛彈
9,10,784,10,01/07/20,沙田全天候                                    ,1200,好,4,1,47,葉楚航,陳嘉熙,10-3/4,87.0,113,12 10 10,1.11.62,1228,--,,電訊飛彈
10,11,680,13,24/05/20,"沙田草地""A""                                    ",1400,好,4,12,50,葉楚航,郭能,8-1/4,174.0,123,8 10 11 13,1.23.21,1232,--,,電訊飛彈
11,12,577,11,15/04/20,"跑馬地草地""C""                                    ",1200,好,4,10,52,葉楚航,蘇狄雄,10,64.0,125,11 10 11,1.11.26,1235,--,,電訊飛彈
12,13,511,7,22/03/20,"沙田草地""A""                                    ",1200,好,4,14,52,葉楚航,蘇狄雄,5-3/4,225.0,123,14 12 7,1.09.74,1213,--,,電訊飛彈
