,Unnamed: 0,場次,名次,日期,馬場/跑道/賽道,途程,場地狀況,賽事班次,檔位,評分,練馬師,騎師,頭馬距離,獨贏賠率,實際負磅,沿途走位,完成時間,排位體重,配備,賽事重播,馬名
0,1,726,5,02/06/21,"跑馬地草地""A""                                    ",1200,好,3,3,68,告東尼,郭能,3-1/4,8.5,121,6 7 5,1.10.06,1167,CP/TT,,顏色大師
1,2,676,4,16/05/21,"沙田草地""C+3""                                    ",1200,好/快,3,7,68,告東尼,潘明輝,3/4,24.0,119,1 1 4,1.08.71,1158,CP1/TT,,顏色大師
2,3,641,8,02/05/21,"沙田草地""B""                                    ",1200,好,3,1,68,告東尼,蔡明紹,4-3/4,10.0,121,6 5 8,1.09.64,1157,TT1,,顏色大師
