,Unnamed: 0,場次,名次,日期,馬場/跑道/賽道,途程,場地狀況,賽事班次,檔位,評分,練馬師,騎師,頭馬距離,獨贏賠率,實際負磅,沿途走位,完成時間,排位體重,配備,賽事重播,馬名
0,1,724,10,02/06/21,"跑馬地草地""A""                                    ",1800,好,4,4,50,沈集成,郭能,16-1/2,11.0,123,2 3 6 6 10,1.52.02,1117,B/TT,,馬主星輝
1,2,566,5,08/04/21,"跑馬地草地""A""                                    ",1800,好/快,4,7,52,沈集成,潘頓,6-1/2,6.7,128,5 9 10 10 5,1.49.61,1109,B/TT,,馬主星輝
2,3,529,5,24/03/21,"跑馬地草地""C+3""                                    ",1650,好/快,4,5,53,沈集成,潘頓,1-3/4,5.0,127,3 4 5 5,1.39.97,1104,B/TT,,馬主星輝
3,4,471,4,03/03/21,"跑馬地草地""A""                                    ",1650,好,4,8,53,沈集成,潘頓,2,5.5,127,3 5 5 4,1.40.88,1106,B/TT,,馬主星輝
4,5,414,2,10/02/21,"跑馬地草地""B""                                    ",1800,好,4,1,52,沈集成,潘頓,3/4,3.0,125,5 4 5 3 2,1.50.45,1110,B/TT,,馬主星輝
5,6,336,9,13/01/21,"跑馬地草地""B""                                    ",2200,好,4,5,54,沈集成,賀銘年,7,8.5,127,2 3 2 2 4 9,2.17.65,1118,B/TT,,馬主星輝
6,7,268,3,16/12/20,"跑馬地草地""C""                                    ",1800,好,4,3,55,沈集成,賀銘年,1-3/4,4.8,132,3 3 3 4 3,1.49.55,1098,B/TT,,馬主星輝
7,8,197,4,18/11/20,"跑馬地草地""C""                                    ",1650,好,4,9,57,沈集成,賀銘年,3,30.0,132,4 4 4 4,1.40.33,1109,B/TT,,馬主星輝
8,9,163,10,04/11/20,沙田全天候                                    ,1650,好,4,11,60,沈集成,巴度,9-1/2,40.0,133,11 12 12 10,1.41.61,1104,B/TT,,馬主星輝
9,10,134,11,24/10/20,"沙田草地""C""                                    ",1600,好,3,6,61,沈集成,潘明輝,7-1/2,68.0,113,10 11 13 11,1.34.73,1109,B/TT,,馬主星輝
10,11,808,12,08/07/20,"跑馬地草地""A""                                    ",1800,好,3,11,63,沈集成,巫顯東,13,12.0,116,10 10 12 12 12,1.51.29,1085,B/TT,,馬主星輝
11,12,698,10,27/05/20,沙田全天候                                    ,1650,好,3,7,65,沈集成,黎海榮,6-3/4,14.0,118,6 7 8 10,1.38.92,1079,B/TT,,馬主星輝
12,13,619,8,29/04/20,"跑馬地草地""A""                                    ",1650,好/快,3,2,65,沈集成,巫顯東,3-1/2,4.4,115,4 4 5 8,1.40.19,1077,B/TT,,馬主星輝
13,14,543,2,01/04/20,沙田全天候                                    ,1800,濕慢,3,6,64,沈集成,利敬國,2-1/4,9.5,118,9 11 10 6 2,1.47.88,1072,B/TT,,馬主星輝
14,15,470,2,04/03/20,"跑馬地草地""B""                                    ",1650,好,3,3,63,沈集成,巫顯東,1-1/2,16.0,113,7 7 9 2,1.40.26,1072,B/TT,,馬主星輝
15,16,433,6,19/02/20,沙田全天候                                    ,1800,好,3,13,65,沈集成,利敬國,3-1/4,13.0,122,4 6 9 10 6,1.48.55,1079,B/TT,,馬主星輝
16,17,320,8,08/01/20,"跑馬地草地""C""                                    ",1800,好,3,8,67,沈集成,巴度,5-1/4,12.0,124,8 8 9 12 8,1.49.61,1056,B/TT,,馬主星輝
17,18,276,5,26/12/19,"跑馬地草地""A""                                    ",2200,好,3,2,69,沈集成,郭能,2-1/2,6.9,126,4 4 4 4 4 5,2.17.08,1061,B/TT,,馬主星輝
18,19,216,9,01/12/19,沙田全天候                                    ,1650,好,3,10,70,沈集成,巫顯東,3,43.0,123,14 14 14 9,1.39.22,1064,B/TT,,馬主星輝
19,20,165,7,09/11/19,沙田全天候                                    ,1650,好,3,7,70,沈集成,利敬國,3,14.0,125,13 13 14 7,1.39.88,1051,B/TT,,馬主星輝
20,21,140,5,30/10/19,"跑馬地草地""A""                                    ",1800,好,3,1,70,沈集成,郭能,3-1/2,10.0,121,4 4 5 4 5,1.49.41,1053,B/TT,,馬主星輝
21,22,101,1,16/10/19,"跑馬地草地""C""                                    ",1800,好,3,7,65,沈集成,郭能,1/2,20.0,121,2 4 5 5 1,1.49.46,1045,B/TT,,馬主星輝
22,23,36,8,15/09/19,沙田全天候                                    ,1650,好,3,7,67,沈集成,巫顯東,5-1/2,89.0,118,9 9 10 8,1.39.45,1049,B/TT,,馬主星輝
23,24,777,10,01/07/19,"沙田草地""B""                                    ",2000,好/快,3,13,71,沈集成,李寶利,3-1/2,74.0,120,14 14 11 14 10,2.02.56,1022,H-/B1/TT,,馬主星輝
24,25,714,5,05/06/19,"跑馬地草地""A""                                    ",2200,好,3,5,74,沈集成,史卓豐,7-3/4,29.0,127,5 6 6 5 6 5,2.17.51,1032,H/TT,,馬主星輝
25,26,647,8,08/05/19,沙田全天候                                    ,1650,濕慢,3,14,76,沈集成,史卓豐,7,125.0,129,13 14 12 8,1.40.40,1035,H/TT,,馬主星輝
26,27,528,7,24/03/19,沙田全天候                                    ,1650,好,3,7,78,沈集成,沈拿,6-1/4,216.0,131,9 10 10 7,1.40.36,1021,H/TT,,馬主星輝
27,28,451,12,24/02/19,沙田全天候                                    ,1650,好,3,8,78,沈集成,沈拿,14-3/4,125.0,126,11 13 13 12,1.40.11,1046,H1/TT1,,馬主星輝
