,Unnamed: 0,場次,名次,日期,馬場/跑道/賽道,途程,場地狀況,賽事班次,檔位,評分,練馬師,騎師,頭馬距離,獨贏賠率,實際負磅,沿途走位,完成時間,排位體重,配備,賽事重播,馬名
0,1,714,2,30/05/21,"沙田草地""B""                                    ",2000,好/快,3,11,66,苗禮德,賀銘年,1/2,20,117,10 11 10 6 2,2.00.76,1023,B/TT,,高瞻遠矚
1,2,604,5,21/04/21,"跑馬地草地""C""                                    ",2200,好/快,3,3,67,苗禮德,賀銘年,3-1/2,5,123,5 6 6 7 6 5,2.14.72,1037,B/TT1,,高瞻遠矚
2,3,519,8,21/03/21,"沙田草地""A""                                    ",2000,好,3,10,67,苗禮德,田泰安,5-1/2,11,122,10 10 10 10 8,2.03.28,1018,B,,高瞻遠矚
3,4,466,4,28/02/21,"沙田草地""B+2""                                    ",1800,好,3,6,67,苗禮德,莫雷拉,3-1/4,4.8,120,4 4 4 3 4,1.47.17,1021,B,,高瞻遠矚
4,5,369,2,24/01/21,"沙田草地""A+3""                                    ",2000,好,3,4,65,苗禮德,梁家俊,頸位,10,119,6 6 6 3 2,2.02.38,1038,B,,高瞻遠矚
5,6,295,1,26/12/20,"沙田草地""A+3""                                    ",2000,好,4,7,60,苗禮德,莫雷拉,1/2,2.6,133,7 7 6 6 1,2.02.69,1033,B,,高瞻遠矚
6,7,231,2,02/12/20,"跑馬地草地""A""                                    ",2200,好,4,4,58,苗禮德,史卓豐,1/2,3.7,132,6 5 5 7 6 2,2.17.35,1020,B,,高瞻遠矚
7,8,203,4,22/11/20,"沙田草地""B+2""                                    ",2000,好,4,10,60,苗禮德,史卓豐,3-1/4,17,133,10 10 10 7 4,2.01.17,1027,B,,高瞻遠矚
8,9,148,7,01/11/20,"沙田草地""A""                                    ",2000,好,3,5,62,苗禮德,潘明輝,4-1/4,24,116,6 5 5 6 7,2.01.74,1017,B,,高瞻遠矚
9,10,109,9,14/10/20,"跑馬地草地""B""                                    ",1800,好,3,12,64,苗禮德,賀銘年,4-1/2,26,120,8 8 8 6 9,1.50.46,1011,B,,高瞻遠矚
10,11,44,10,20/09/20,"沙田草地""B+2""                                    ",1400,好/快,3,9,65,苗禮德,賀銘年,4-1/2,62,119,11 10 11 10,1.22.21,1016,B,,高瞻遠矚
11,12,775,11,27/06/20,"沙田草地""B""                                    ",2000,好/快,3,8,67,約翰摩亞,陳嘉熙,6-1/4,19,111,7 8 8 5 11,2.02.87,1032,B,,高瞻遠矚
12,13,744,9,14/06/20,"沙田草地""C+3""                                    ",1800,好/快,3,10,68,約翰摩亞,陳嘉熙,4-3/4,7,114,3 2 2 2 9,1.48.02,1025,B,,高瞻遠矚
13,14,658,7,13/05/20,"跑馬地草地""C""                                    ",1800,好,3,9,68,約翰摩亞,莫雷拉,2-1/4,4,121,6 6 6 6 7,1.49.46,1018,B,,高瞻遠矚
14,15,595,4,22/04/20,"跑馬地草地""C+3""                                    ",2200,好,3,4,68,約翰摩亞,史卓豐,3-1/2,2.2,120,3 5 6 1 1 4,2.15.95,1013,B,,高瞻遠矚
15,16,528,1,29/03/20,"沙田草地""A+3""                                    ",2000,好,4,7,56,約翰摩亞,莫雷拉,6,2.2,129,7 8 6 3 1,2.02.45,1003,B,,高瞻遠矚
16,17,438,2,23/02/20,"沙田草地""A+3""                                    ",2000,好,4,6,54,約翰摩亞,布文,1,4.8,128,7 6 6 5 2,2.02.70,1012,B,,高瞻遠矚
17,18,342,4,19/01/20,"沙田草地""A+3""                                    ",2000,好,4,3,53,約翰摩亞,蘇兆輝,1,3,126,3 2 2 2 4,2.02.89,1017,B,,高瞻遠矚
18,19,270,6,21/12/19,"沙田草地""A+3""                                    ",1800,好,4,14,53,約翰摩亞,薛恩,2-3/4,11,127,2 2 2 2 6,1.48.85,1026,B,,高瞻遠矚
19,20,202,1,27/11/19,"跑馬地草地""A""                                    ",2200,好,4,10,48,約翰摩亞,蘇兆輝,頭位,4.9,121,2 3 2 2 1 1,2.17.32,999,B,,高瞻遠矚
20,21,171,1,17/11/19,"沙田草地""B""                                    ",2000,好,4,1,41,約翰摩亞,莫雷拉,1-1/4,1.9,116,5 6 5 6 1,2.03.35,1017,PC-/B2,,高瞻遠矚
21,22,125,3,27/10/19,沙田全天候                                    ,1800,好,4,2,41,約翰摩亞,莫雷拉,1,2.4,118,5 6 6 6 3,1.49.82,1008,B-/PC2,,高瞻遠矚
22,23,91,3,12/10/19,"沙田草地""C""                                    ",1400,好/快,4,8,41,約翰摩亞,田泰安,3,9.1,114,11 12 12 3,1.21.58,1013,B,,高瞻遠矚
23,24,807,1,14/07/19,"沙田草地""A""                                    ",1800,好/快,5,12,33,約翰摩亞,潘頓,2-1/2,3.3,126,9 9 10 5 1,1.47.60,997,PC-/XB-/B2,,高瞻遠矚
24,25,770,3,01/07/19,沙田全天候                                    ,1650,好,5,2,33,約翰摩亞,潘頓,3-1/4,4.8,126,7 5 4 3,1.41.12,1003,PC/XB,,高瞻遠矚
25,26,734,5,12/06/19,沙田全天候                                    ,1800,濕慢,5,2,35,約翰摩亞,莫雷拉,4-1/2,5.4,128,8 10 12 11 5,1.50.33,1002,B-/XB/PC2,,高瞻遠矚
26,27,703,7,02/06/19,"沙田草地""B""                                    ",2000,好/快,5,5,38,約翰摩亞,郭能,6-1/2,14,133,3 3 3 4 7,2.02.61,1016,B/XB1,,高瞻遠矚
27,28,648,7,11/05/19,"沙田草地""C""                                    ",1800,好,5,8,40,約翰摩亞,史卓豐,5-1/4,14,133,5 3 2 2 7,1.48.67,1002,B,,高瞻遠矚
28,29,604,8,24/04/19,"跑馬地草地""C""                                    ",1650,好,4,4,42,約翰摩亞,田泰安,2-3/4,10,116,7 9 8 8,1.41.01,1007,B,,高瞻遠矚
29,30,571,7,10/04/19,"跑馬地草地""A""                                    ",1800,好,4,4,44,約翰摩亞,史卓豐,2-1/4,79,117,2 4 4 4 7,1.49.95,1009,B,,高瞻遠矚
30,31,519,10,23/03/19,"從化草地""A""                                    ",2200,好,4,10,47,約翰摩亞,貝力斯,9,--,120,1 1 1 1 3 10,2.20.59,1009,PC-/B2,,高瞻遠矚
31,32,479,6,10/03/19,沙田全天候                                    ,1800,濕慢,4,5,49,約翰摩亞,貝力斯,6-1/4,118,124,10 10 10 8 6,1.51.58,1025,PC1,,高瞻遠矚
32,33,446,10,24/02/19,沙田全天候                                    ,1650,好,4,8,52,約翰摩亞,郭能,12-1/4,210,125,11 11 13 10,1.40.26,1032,B-,,高瞻遠矚
33,34,388,14,02/02/19,"沙田草地""C""                                    ",1400,好,4,7,52,約翰摩亞,麥偉利                                    ,8-1/4,212,128,12 12 13 14,1.24.18,1042,B1,,高瞻遠矚
