,Unnamed: 0,場次,名次,日期,馬場/跑道/賽道,途程,場地狀況,賽事班次,檔位,評分,練馬師,騎師,頭馬距離,獨贏賠率,實際負磅,沿途走位,完成時間,排位體重,配備,賽事重播,馬名
0,1,662,8,12/05/21,沙田全天候                                    ,1200,好,5,10,39,蔡約翰,波健士,5-1/2,12.0,133,4 6 8,1.10.57,1105,B/E/TT,,魅力漢子
1,2,579,5,11/04/21,"沙田草地""C""                                    ",1400,好,4,14,41,蔡約翰,波健士,3-1/4,58.0,115,2 3 5 5,1.22.38,1124,B/E/TT,,魅力漢子
2,3,539,12,28/03/21,"沙田草地""A+3""                                    ",1400,好/快,4,9,42,蔡約翰,黃皓楠,14-1/4,131.0,113,2 2 3 12,1.23.50,1129,B/E/TT,,魅力漢子
3,4,505,6,13/03/21,"沙田草地""C+3""                                    ",1400,好,4,13,42,蔡約翰,賀銘年,10,59.0,119,3 3 3 6,1.22.93,1130,B/E/TT,,魅力漢子
4,5,465,9,28/02/21,"沙田草地""B+2""                                    ",1600,好,4,4,42,蔡約翰,波健士,6,33.0,115,2 3 3 9,1.35.56,1128,B/E/TT,,魅力漢子
5,6,422,1,14/02/21,"沙田草地""A""                                    ",1400,好,5,2,37,蔡約翰,波健士,頸位,42.0,130,2 2 1 1,1.23.81,1140,B/E/TT,,魅力漢子
6,7,374,11,27/01/21,"跑馬地草地""C+3""                                    ",1200,好,5,7,39,蔡約翰,賀銘年,5-1/2,14.0,133,3 4 11,1.10.89,1134,B/E/TT,,魅力漢子
7,8,318,5,06/01/21,"跑馬地草地""A""                                    ",1200,好,4,1,41,蔡約翰,蔡明紹,2-1/4,17.0,115,2 3 5,1.10.63,1131,B/E/TT,,魅力漢子
8,9,254,12,09/12/20,"跑馬地草地""B""                                    ",1200,好,4,2,43,蔡約翰,莫雷拉,6-1/2,7.9,119,2 2 12,1.10.91,1124,B/E/TT,,魅力漢子
9,10,199,4,18/11/20,"跑馬地草地""C""                                    ",1200,好,4,11,44,蔡約翰,莫雷拉,1-1/2,19.0,117,9 6 4,1.10.40,1120,B/E/TT,,魅力漢子
10,11,171,4,08/11/20,"跑馬地草地""A""                                    ",1200,好,4,4,44,蔡約翰,波健士,1-3/4,45.0,117,2 2 4,1.10.76,1119,B/E/TT,,魅力漢子
11,12,107,12,14/10/20,"跑馬地草地""B""                                    ",1200,好,4,1,46,蔡約翰,莫雷拉,10-3/4,11.0,120,6 7 12,1.11.70,1108,B/E/TT,,魅力漢子
12,13,48,7,23/09/20,"跑馬地草地""C+3""                                    ",1200,好/快,4,2,46,蔡約翰,莫雷拉,1-1/2,15.0,121,7 8 7,1.10.09,1097,E/B1/TT,,魅力漢子
13,14,3,14,06/09/20,"沙田草地""A""                                    ",1200,好,4,10,48,蔡約翰,莫雷拉,17-1/4,30.0,121,3 4 14,1.12.35,1088,E/TT,,魅力漢子
14,15,801,9,08/07/20,"跑馬地草地""A""                                    ",1200,好,4,5,51,蔡約翰,賀銘年,6,20.0,127,8 9 9,1.10.99,1096,E/TT,,魅力漢子
15,16,750,12,21/06/20,"沙田草地""A""                                    ",1200,好/快,4,4,53,蔡約翰,莫雷拉,10-1/4,10.0,126,7 10 12,1.10.62,1087,E1/TT,,魅力漢子
16,17,721,5,07/06/20,"沙田草地""C""                                    ",1200,黏,4,3,54,蔡約翰,史卓豐,10-1/2,8.7,127,5 6 5,1.11.18,1083,TT1,,魅力漢子
17,18,317,8,08/01/20,"跑馬地草地""C""                                    ",1200,好,4,2,54,蔡約翰,莫雷拉,5-1/2,2.2,127,5 6 8,1.11.07,1108,--,,魅力漢子
18,19,279,2,26/12/19,"跑馬地草地""A""                                    ",1200,好,4,6,52,蔡約翰,莫雷拉,3/4,8.6,125,7 9 2,1.10.38,1118,--,,魅力漢子
