,Unnamed: 0,場次,名次,日期,馬場/跑道/賽道,途程,場地狀況,賽事班次,檔位,評分,練馬師,騎師,頭馬距離,獨贏賠率,實際負磅,沿途走位,完成時間,排位體重,配備,賽事重播,馬名
0,1,721,2,02/06/21,"跑馬地草地""A""                                    ",1200,好,4,3,59,姚本輝,田泰安,1-1/4,3.6,132,6 5 2,1.10.10,1153,B,,鼓浪順風
1,2,683,4,19/05/21,"跑馬地草地""B""                                    ",1200,好/快,4,9,60,姚本輝,陳嘉熙,2-3/4,14.0,126,11 11 4,1.10.33,1158,B,,鼓浪順風
2,3,649,9,05/05/21,"跑馬地草地""A""                                    ",1200,好/快,3,8,62,姚本輝,潘明輝,6,8.0,116,10 9 9,1.10.31,1156,B,,鼓浪順風
3,4,612,5,21/04/21,"跑馬地草地""C""                                    ",1200,好/快,3,4,63,姚本輝,賀銘年,3,6.8,119,7 8 5,1.09.75,1150,B/TT-,,鼓浪順風
4,5,590,4,14/04/21,"跑馬地草地""B""                                    ",1200,好/快,3,1,63,姚本輝,波健士,1,3.8,116,5 4 4,1.10.26,1166,B/TT,,鼓浪順風
5,6,533,7,24/03/21,"跑馬地草地""C+3""                                    ",1200,好/快,3,11,65,姚本輝,梁家俊,3-1/4,16.0,119,11 12 7,1.09.89,1168,B/TT,,鼓浪順風
6,7,469,9,28/02/21,"沙田草地""B+2""                                    ",1400,好,3,6,67,姚本輝,馬雅,4-3/4,127.0,121,8 8 9 9,1.21.95,1170,B/TT,,鼓浪順風
7,8,411,13,06/02/21,"沙田草地""C""                                    ",1400,好,3,8,69,姚本輝,梁家俊,12-1/4,28.0,126,10 11 13 13,1.23.60,1169,CP-/B2/TT2,,鼓浪順風
8,9,342,7,13/01/21,"跑馬地草地""B""                                    ",1200,好,3,5,71,姚本輝,梁家俊,3-1/4,30.0,124,7 7 7,1.10.29,1179,CP,,鼓浪順風
9,10,293,9,23/12/20,"跑馬地草地""C+3""                                    ",1200,好/快,3,11,73,姚本輝,郭能,3-1/2,48.0,126,8 9 9,1.09.84,1178,B-/CP1,,鼓浪順風
10,11,146,9,28/10/20,"跑馬地草地""C+3""                                    ",1200,好,3,12,74,姚本輝,彭國年,4-3/4,33.0,127,2 2 9,1.10.05,1167,B,,鼓浪順風
11,12,765,3,24/06/20,"跑馬地草地""C""                                    ",1200,好/快,3,6,74,姚本輝,賀銘年,6,12.0,127,7 6 3,1.09.68,1164,B,,鼓浪順風
12,13,718,3,03/06/20,"跑馬地草地""A""                                    ",1200,好,3,3,73,姚本輝,賀銘年,1/2,6.4,126,7 6 3,1.09.42,1151,B,,鼓浪順風
13,14,639,3,06/05/20,"跑馬地草地""B""                                    ",1200,好/快,3,1,73,姚本輝,潘頓,1-1/4,2.9,128,6 6 3,1.09.55,1151,B,,鼓浪順風
14,15,581,1,15/04/20,"跑馬地草地""C""                                    ",1200,好,3,10,67,姚本輝,潘頓,鼻位,9.0,120,7 7 1,1.09.33,1158,B,,鼓浪順風
15,16,507,2,18/03/20,"跑馬地草地""C+3""                                    ",1200,好,3,2,66,姚本輝,黎海榮,1-1/4,12.0,119,6 5 2,1.09.79,1167,B1,,鼓浪順風
16,17,425,12,16/02/20,"沙田草地""A""                                    ",1200,好,3,2,68,姚本輝,梁家俊,8-1/4,14.0,121,5 3 12,1.11.08,1166,--,,鼓浪順風
17,18,389,5,02/02/20,"沙田草地""C""                                    ",1200,好,3,3,68,姚本輝,梁家俊,1-1/2,12.0,122,6 5 5,1.09.72,1168,TT-,,鼓浪順風
18,19,271,7,21/12/19,"沙田草地""A+3""                                    ",1200,好,3,7,70,姚本輝,利敬國,4-3/4,10.0,123,10 10 7,1.10.14,1175,TT,,鼓浪順風
19,20,226,10,04/12/19,"跑馬地草地""B""                                    ",1200,好,3,8,72,姚本輝,巴度,5-1/4,13.0,125,1 1 10,1.10.47,1184,TT1,,鼓浪順風
20,21,144,4,03/11/19,"沙田草地""C+3""                                    ",1200,好/快,3,2,72,姚本輝,利敬國,1-3/4,7.0,125,2 2 4,1.08.95,1150,--,,鼓浪順風
