,Unnamed: 0,場次,名次,日期,馬場/跑道/賽道,途程,場地狀況,賽事班次,檔位,評分,練馬師,騎師,頭馬距離,獨贏賠率,實際負磅,沿途走位,完成時間,排位體重,配備,賽事重播,馬名
0,1,655,2,08/05/21,"沙田草地""C""                                    ",1400,好/快,5,1,31,文家良,黎海榮,頸位,17.0,123,5 5 2 2,1.22.07,1091,B2/TT1,,龍鳳情祥
1,2,96,8,11/10/20,"沙田草地""A+3""                                    ",1600,好,5,10,33,賀賢,蔡明紹,5,24.0,127,13 13 13 8,1.35.90,1059,--,,龍鳳情祥
2,3,70,9,01/10/20,"沙田草地""B""                                    ",1200,好,5,6,35,賀賢,薛恩,5-3/4,9.5,128,10 10 9,1.10.35,1080,B-,,龍鳳情祥
3,4,2,5,06/09/20,"沙田草地""A""                                    ",1200,好,5,13,35,賀賢,薛恩,2-1/2,15.0,129,12 13 5,1.10.14,1058,B,,龍鳳情祥
4,5,809,6,12/07/20,"沙田草地""A""                                    ",1400,好/快,5,14,39,賀賢,潘頓,3,10.0,129,12 14 11 6,1.22.47,1060,B2,,龍鳳情祥
5,6,752,8,21/06/20,"沙田草地""A""                                    ",1200,好/快,4,4,41,賀賢,蘇狄雄,4-1/4,41.0,113,7 8 8,1.09.86,1074,--,,龍鳳情祥
6,7,720,10,07/06/20,"沙田草地""C""                                    ",1200,黏,4,6,43,賀賢,蘇狄雄,6-1/2,29.0,114,8 8 10,1.11.01,1063,--,,龍鳳情祥
7,8,662,6,17/05/20,"沙田草地""C+3""                                    ",1200,好/快,4,10,45,賀賢,莫雷拉,2-3/4,17.0,119,3 3 6,1.10.10,1065,--,,龍鳳情祥
8,9,604,9,26/04/20,"沙田草地""A""                                    ",1200,好,4,14,47,賀賢,波健士,5-3/4,132.0,120,9 10 9,1.10.33,1049,--,,龍鳳情祥
9,10,568,7,12/04/20,"沙田草地""C""                                    ",1200,好,4,7,49,賀賢,波健士,3-1/4,22.0,124,12 11 7,1.10.02,1057,--,,龍鳳情祥
10,11,531,11,29/03/20,"沙田草地""A+3""                                    ",1200,好,4,9,51,賀賢,潘明輝,8,27.0,123,14 14 11,1.11.52,1079,B-,,龍鳳情祥
11,12,384,8,02/02/20,"沙田草地""C""                                    ",1400,好,4,8,53,賀賢,蘇兆輝,5-1/4,29.0,126,11 9 8 8,1.22.55,1081,B,,龍鳳情祥
12,13,328,12,11/01/20,"沙田草地""A""                                    ",1400,好,4,5,53,賀賢,潘明輝,4-1/2,15.0,124,12 11 11 12,1.23.56,1080,B,,龍鳳情祥
13,14,294,2,01/01/20,"沙田草地""C""                                    ",1200,好,4,11,51,賀賢,潘頓,頸位,17.0,126,10 9 2,1.10.19,1081,B2,,龍鳳情祥
14,15,241,8,11/12/19,"跑馬地草地""C""                                    ",1200,好,4,2,53,賀賢,蘇狄雄,2-1/4,24.0,125,5 6 8,1.10.32,1084,--,,龍鳳情祥
15,16,173,12,17/11/19,"沙田草地""B""                                    ",1400,好,4,11,55,賀賢,潘明輝,7,45.0,126,13 14 13 12,1.23.17,1086,--,,龍鳳情祥
16,17,156,11,06/11/19,"跑馬地草地""B""                                    ",1200,好,4,3,56,賀賢,何澤堯,6,12.0,129,11 11 11,1.11.11,1089,CP-,,龍鳳情祥
17,18,708,3,02/06/19,"沙田草地""B""                                    ",1200,好/快,4,2,56,賀賢,何澤堯,3-1/2,5.1,131,3 4 3,1.09.54,1070,CP1,,龍鳳情祥
18,19,653,2,11/05/19,"沙田草地""C""                                    ",1200,好,4,9,54,賀賢,何澤堯,1/2,13.0,129,4 4 2,1.09.87,1075,--,,龍鳳情祥
19,20,560,4,07/04/19,"沙田草地""B+2""                                    ",1400,好/快,4,2,54,賀賢,潘明輝,2,7.9,124,3 4 5 4,1.22.41,1068,--,,龍鳳情祥
20,21,497,5,17/03/19,"沙田草地""A""                                    ",1200,好,4,3,54,賀賢,麥道朗,2-1/2,5.8,128,4 5 5,1.10.12,1069,--,,龍鳳情祥
21,22,387,5,02/02/19,"沙田草地""C""                                    ",1200,好,4,8,54,賀賢,潘明輝,4-1/4,4.1,124,7 7 5,1.10.15,1068,--,,龍鳳情祥
22,23,333,1,12/01/19,"沙田草地""A""                                    ",1200,好,4,1,48,賀賢,潘明輝,頭位,4.6,117,6 6 1,1.09.56,1069,--,,龍鳳情祥
23,24,293,1,29/12/18,"沙田草地""B+2""                                    ",1200,好,4,2,42,賀賢,潘明輝,短馬頭位,38.0,113,4 5 1,1.09.92,1071,B-,,龍鳳情祥
24,25,236,12,09/12/18,"沙田草地""A""                                    ",1400,好,4,1,44,賀賢,梁家俊,8-1/2,112.0,117,8 5 4 12,1.23.72,1055,B,,龍鳳情祥
25,26,158,11,07/11/18,"跑馬地草地""B""                                    ",1200,好,4,5,46,賀賢,麥偉利                                    ,5-1/4,15.0,119,7 7 11,1.11.43,1071,H-/B,,龍鳳情祥
26,27,113,8,21/10/18,"沙田草地""A""                                    ",1400,好/快,4,3,46,賀賢,麥偉利                                    ,2,132.0,120,3 3 3 8,1.22.72,1071,B/H,,龍鳳情祥
27,28,782,10,08/07/18,"沙田草地""C""                                    ",1200,好/快,4,1,50,賀賢,祈普敦                                    ,7-1/4,31.0,120,6 7 10,1.10.84,1074,B/H,,龍鳳情祥
28,29,732,7,16/06/18,"沙田草地""C+3""                                    ",1000,好,4,6,52,賀賢,沈拿,3-1/4,54.0,125,8 8 7,0.57.13,1076,B/H1,,龍鳳情祥
29,30,640,11,12/05/18,"沙田草地""C""                                    ",1000,好,4,10,52,賀賢,沈拿,5-1/2,12.0,127,11 4 11,0.57.67,1090,B1,,龍鳳情祥
