,Unnamed: 0,場次,名次,日期,馬場/跑道/賽道,途程,場地狀況,賽事班次,檔位,評分,練馬師,騎師,頭馬距離,獨贏賠率,實際負磅,沿途走位,完成時間,排位體重,配備,賽事重播,馬名
0,1,563,12,05/04/21,"沙田草地""B+2""                                    ",1200,好,G2,1,110,告東尼,薛恩,7-1/2,111.0,123,10 11 12,1.09.45,1143,H/TT,,二郎
1,2,504,7,13/03/21,"沙田草地""C+3""                                    ",1200,好,1,2,112,告東尼,何澤堯,6-1/4,58.0,119,3 3 7,1.08.80,1140,H/TT,,二郎
2,3,443,8,21/02/21,"沙田草地""A+3""                                    ",1400,好,G1,7,112,告東尼,蔡明紹,4,47.0,126,1 2 2 8,1.21.41,1153,H/TT,,二郎
3,4,368,7,24/01/21,"沙田草地""A+3""                                    ",1200,好,G1,6,112,告東尼,梁家俊,4-1/4,17.0,126,5 6 7,1.08.69,1156,H/TT,,二郎
4,5,313,7,01/01/21,"沙田草地""B+2""                                    ",1400,好,G3,8,112,告東尼,蘇銘倫,10,10.0,121,2 1 1 7,1.22.60,1166,H/TT,,二郎
5,6,227,3,29/11/20,"沙田草地""C""                                    ",1600,好,1,1,110,告東尼,周俊樂,頸位,4.7,126,2 2 2 3,1.34.16,1155,H/TT,,二郎
6,7,190,1,14/11/20,"沙田草地""C+3""                                    ",1400,好,1,4,105,告東尼,蔡明紹,1,11.0,128,1 1 1 1,1.21.80,1160,H/TT,,二郎
7,8,110,1,14/10/20,"跑馬地草地""B""                                    ",1650,好,2,3,100,告東尼,周俊樂,短馬頭位,3.9,119,1 2 3 1,1.39.04,1158,H/TT,,二郎
8,9,62,5,27/09/20,"沙田草地""A""                                    ",1400,好,G3,9,96,告東尼,田泰安,3-1/2,22.0,113,2 2 2 5,1.21.10,1159,H2/TT2,,二郎
9,10,778,9,27/06/20,"沙田草地""B""                                    ",1400,好/快,2,14,96,約翰摩亞,黃俊,3,8.4,128,1 1 1 9,1.21.17,1171,--,,二郎
10,11,693,2,27/05/20,沙田全天候                                    ,1650,好,2,8,95,約翰摩亞,周俊樂,2-1/2,5.1,121,2 2 2 2,1.37.16,1168,--,,二郎
11,12,649,1,09/05/20,"沙田草地""C""                                    ",1400,好/快,1,4,89,約翰摩亞,周俊樂,1-1/4,3.9,111,2 3 3 1,1.20.88,1169,--,,二郎
12,13,544,3,01/04/20,沙田全天候                                    ,1650,濕慢,2,3,89,約翰摩亞,莫雷拉,4-1/2,2.0,126,2 3 3 3,1.38.63,1170,TT-,,二郎
13,14,518,2,22/03/20,"沙田草地""A""                                    ",1400,好/快,2,13,87,約翰摩亞,梁家俊,3/4,38.0,122,1 1 1 2,1.21.21,1180,TT,,二郎
14,15,368,6,27/01/20,"沙田草地""B+2""                                    ",1600,好,4YO,5,87,約翰摩亞,梁家俊,4-1/2,110.0,126,1 1 1 6,1.34.34,1160,TT,,二郎
15,16,292,3,29/12/19,沙田全天候                                    ,1650,濕慢,2,10,87,約翰摩亞,利敬國,3-1/2,5.8,116,1 2 1 3,1.39.02,1197,H-/TT,,二郎
16,17,127,2,27/10/19,沙田全天候                                    ,1650,好,2,4,86,約翰摩亞,利敬國,1-3/4,4.1,121,1 1 1 2,1.38.79,1183,H/TT,,二郎
17,18,36,1,15/09/19,沙田全天候                                    ,1650,好,3,2,79,約翰摩亞,潘頓,1-1/4,1.6,133,2 2 2 1,1.38.59,1177,H/TT,,二郎
18,19,816,7,14/07/19,"沙田草地""A""                                    ",1600,好/快,3,12,79,約翰摩亞,何澤堯,3,6.5,132,2 2 2 7,1.34.93,1150,H/TT,,二郎
19,20,774,1,01/07/19,沙田全天候                                    ,1650,好,3,1,69,約翰摩亞,潘頓,2-3/4,1.7,121,1 1 1 1,1.38.42,1155,H/TT,,二郎
20,21,739,2,12/06/19,沙田全天候                                    ,1650,濕慢,3,14,68,約翰摩亞,潘頓,4-3/4,3.3,121,2 2 2 2,1.38.89,1143,H/TT,,二郎
21,22,705,1,02/06/19,"沙田草地""B""                                    ",1400,好/快,4,1,60,約翰摩亞,潘頓,2-1/4,2.0,133,3 5 1 1,1.21.70,1145,H/TT,,二郎
22,23,640,1,08/05/19,沙田全天候                                    ,1650,濕慢,4,12,52,約翰摩亞,潘頓,2-1/2,4.2,125,1 1 1 1,1.39.47,1158,H/TT,,二郎
23,24,595,5,22/04/19,"沙田草地""C+3""                                    ",1400,好,4,5,52,約翰摩亞,史卓豐,1-1/2,3.3,126,3 4 3 5,1.22.15,1178,H/TT1,,二郎
24,25,543,5,31/03/19,"沙田草地""A+3""                                    ",1400,好,4,14,52,約翰摩亞,史卓豐,1-3/4,55.0,125,4 2 2 5,1.22.82,1185,H,,二郎
25,26,497,9,17/03/19,"沙田草地""A""                                    ",1200,好,4,6,52,約翰摩亞,蘇兆輝,4-1/4,31.0,126,7 8 9,1.10.44,1205,H1,,二郎
