,Unnamed: 0,場次,名次,日期,馬場/跑道/賽道,途程,場地狀況,賽事班次,檔位,評分,練馬師,騎師,頭馬距離,獨贏賠率,實際負磅,沿途走位,完成時間,排位體重,配備,賽事重播,馬名
0,1,677,01,16/05/21,"沙田草地""C+3""                                    ",1000,好/快,2,11,84,呂健威,田泰安,1/2,3.2,119,1 1 1,0.54.68,1258,--,,傳盛
1,2,567,05,08/04/21,"跑馬地草地""A""                                    ",1000,好/快,2,1,84,呂健威,巫顯東,3-1/4,4.6,115,4 5 5,0.57.00,1239,--,,傳盛
2,3,503,01,13/03/21,"沙田草地""C+3""                                    ",1000,好,3,8,79,呂健威,田泰安,頸位,3.8,132,2 2 1,0.55.97,1241,--,,傳盛
3,4,468,02,28/02/21,"沙田草地""B+2""                                    ",1000,好,3,2,78,呂健威,潘頓,1-1/4,8.3,132,7 4 2,0.56.16,1234,--,,傳盛
4,5,409,02,06/02/21,"沙田草地""C""                                    ",1000,好,3,5,78,呂健威,潘頓,1-1/2,5.2,133,3 4 2,0.55.81,1232,--,,傳盛
5,6,351,02,17/01/21,"沙田草地""A""                                    ",1000,好,3,11,77,呂健威,潘頓,1-3/4,3.5,132,1 1 2,0.57.50,1234,--,,傳盛
6,7,304,03,26/12/20,"沙田草地""A+3""                                    ",1000,好,3,2,77,呂健威,蘇銘倫,2-1/4,8.2,131,7 8 3,0.56.87,1219,--,,傳盛
7,8,246,02,06/12/20,"沙田草地""C+3""                                    ",1000,好,3,14,75,呂健威,田泰安,頸位,10,130,7 7 2,0.56.24,1231,--,,傳盛
8,9,83,10,04/10/20,"沙田草地""C+3""                                    ",1000,好,3,5,76,呂健威,薛恩,5-3/4,22,129,2 5 10,0.56.21,1208,--,,傳盛
9,10,571,03,12/04/20,"沙田草地""C""                                    ",1000,好,3,5,76,呂健威,薛恩,5,3.1,133,7 6 3,0.56.77,1200,--,,傳盛
10,11,533,02,29/03/20,"沙田草地""A+3""                                    ",1000,好,3,10,73,呂健威,薛恩,短馬頭位,7.7,126,4 7 2,0.56.41,1206,--,,傳盛
11,12,499,07,14/03/20,"沙田草地""C+3""                                    ",1200,好,3,1,73,呂健威,薛恩,2,3.4,126,2 3 7,1.09.25,1206,--,,傳盛
12,13,482,WX,08/03/20,"沙田草地""C""                                    ",1200,好,3,--,73,呂健威,薛恩,--,--,126,--,--,--,--,--,傳盛
13,14,424,02,16/02/20,"沙田草地""A""                                    ",1200,好,3,6,72,呂健威,薛恩,1-1/4,6.6,127,2 2 2,1.10.21,1207,--,,傳盛
14,15,388,02,02/02/20,"沙田草地""C""                                    ",1000,好,3,14,69,呂健威,薛恩,頸位,3.2,126,3 2 2,0.56.58,1198,--,,傳盛
15,16,347,01,19/01/20,"沙田草地""A+3""                                    ",1200,好,3,4,64,呂健威,巫顯東,鼻位,23,116,4 4 1,1.09.32,1206,--,,傳盛
16,17,306,WV,05/01/20,"沙田草地""C+3""                                    ",1000,好,3,--,64,呂健威,巴度,--,--,121,--,--,--,--,--,傳盛
17,18,246,01,15/12/19,"沙田草地""C+3""                                    ",1000,好,4,10,58,呂健威,薛恩,頸位,4.3,133,3 3 1,0.56.39,1201,TT-,,傳盛
18,19,191,11,23/11/19,"沙田草地""C""                                    ",1000,好/快,4,8,60,呂健威,薛恩,9-1/4,3.8,133,4 4 11,0.57.49,1210,TT1,,傳盛
19,20,111,13,20/10/19,"沙田草地""A""                                    ",1200,好/快,3,11,61,呂健威,黃皓楠,4-3/4,18,113,2 2 13,1.09.57,1213,--,,傳盛
20,21,44,04,21/09/19,"沙田草地""A""                                    ",1000,好/快,3,2,61,呂健威,黃皓楠,2,4,115,1 3 4,0.56.84,1205,--,,傳盛
21,22,765,08,26/06/19,"跑馬地草地""B""                                    ",1200,好/快,3,7,61,呂健威,黃皓楠,2-3/4,2.3,112,2 3 8,1.10.03,1205,--,,傳盛
22,23,667,03,18/05/19,"沙田草地""C+3""                                    ",1000,好,4,13,60,呂健威,黃皓楠,3/4,1.5,128,2 2 3,0.55.40,1221,--,,傳盛
23,24,576,01,14/04/19,"沙田草地""C""                                    ",1000,好,4,11,52,呂健威,黃皓楠,1-1/2,5.2,124,3 5 1,0.56.21,1205,--,,傳盛
24,25,499,07,17/03/19,"沙田草地""A""                                    ",1200,好,4,8,52,呂健威,黃皓楠,3,40,122,2 2 7,1.10.26,1192,--,,傳盛
