,Unnamed: 0,場次,名次,日期,馬場/跑道/賽道,途程,場地狀況,賽事班次,檔位,評分,練馬師,騎師,頭馬距離,獨贏賠率,實際負磅,沿途走位,完成時間,排位體重,配備,賽事重播,馬名
0,1,714,03,30/05/21,"沙田草地""B""                                    ",2000,好/快,3,1,79,韋達,班德禮,1-3/4,13,130,3 4 3 2 3,2.00.96,1068,CP/SR/TT,,全才
1,2,640,07,02/05/21,"沙田草地""B""                                    ",1800,好,3,11,79,韋達,周俊樂,3,10,126,11 12 11 12 7,1.47.58,1077,CP/SR/TT,,全才
2,3,604,01,21/04/21,"跑馬地草地""C""                                    ",2200,好/快,3,2,74,韋達,班德禮,短馬頭位,8.7,130,6 5 5 6 5 1,2.14.14,1080,SR/CP1/TT,,全才
3,4,582,05,11/04/21,"沙田草地""C""                                    ",1800,好,3,11,74,韋達,何澤堯,5-1/2,9.8,128,12 12 13 13 5,1.47.16,1080,SR/TT,,全才
4,5,519,04,21/03/21,"沙田草地""A""                                    ",2000,好,3,4,74,韋達,彭國年,3,8.1,129,9 9 9 9 4,2.02.90,1084,SR/TT,,全才
5,6,466,01,28/02/21,"沙田草地""B+2""                                    ",1800,好,3,9,68,韋達,彭國年,1-3/4,24,121,10 11 11 11 1,1.46.63,1079,XB-/SR1/TT,,全才
6,7,437,04,17/02/21,"跑馬地草地""C""                                    ",2200,好,3,12,70,韋達,彭國年,5-1/4,13,125,11 11 11 11 11 4,2.17.33,1084,V-/XB/TT,,全才
7,8,369,04,24/01/21,"沙田草地""A+3""                                    ",2000,好,3,6,71,韋達,周俊樂,2,17,118,8 8 9 7 4,2.02.66,1085,V/XB/TT,,全才
8,9,299,07,26/12/20,沙田全天候                                    ,1800,好,3,5,73,韋達,蘇銘倫,5-1/4,6.7,128,13 13 12 8 7,1.49.74,1079,XB/V2/TT,,全才
9,10,193,10,14/11/20,"沙田草地""C+3""                                    ",1800,好,3,10,73,韋達,周俊樂,4,9.6,120,12 13 14 14 10,1.48.10,1074,XB/TT,,全才
10,11,148,02,01/11/20,"沙田草地""A""                                    ",2000,好,3,8,71,韋達,潘頓,頸位,4.6,127,8 7 7 5 2,2.01.13,1073,XB/TT,,全才
11,12,66,02,01/10/20,"沙田草地""B""                                    ",1800,好,3,4,69,韋達,潘頓,頸位,3,123,6 6 7 4 2,1.47.70,1061,XB/TT,,全才
12,13,775,08,27/06/20,"沙田草地""B""                                    ",2000,好/快,3,12,71,韋達,賀銘年,5-3/4,22,122,10 9 10 11 8,2.02.80,1064,XB/TT,,全才
13,14,710,02,03/06/20,"跑馬地草地""A""                                    ",2200,好,3,8,71,韋達,潘頓,2-1/2,3.4,129,8 8 7 8 8 2,2.18.98,1062,XB/TT,,全才
14,15,658,09,13/05/20,"跑馬地草地""C""                                    ",1800,好,3,5,71,韋達,薛恩,3-1/2,18,124,9 9 9 9 9,1.49.65,1061,XB/TT,,全才
15,16,595,02,22/04/20,"跑馬地草地""C+3""                                    ",2200,好,3,9,70,韋達,潘頓,1,11,122,8 9 9 9 7 2,2.15.57,1054,V-/XB/TT,,全才
16,17,570,08,12/04/20,"沙田草地""C""                                    ",1800,好,3,8,72,韋達,史卓豐,4-3/4,25,127,9 10 10 10 8,1.47.61,1057,V/XB/TT2,,全才
17,18,490,10,11/03/20,"跑馬地草地""C""                                    ",1800,好,3,10,74,韋達,利敬國,3-1/4,19,127,12 11 12 12 10,1.50.28,1061,B-/V1/XB1/TT-,,全才
18,19,367,WV-A,27/01/20,"沙田草地""B+2""                                    ",2000,好,3,--,74,羅富全,巴度,--,--,128,--,--,--,--,--,全才
19,20,303,07,01/01/20,"沙田草地""C""                                    ",1600,好,3,8,76,羅富全,莫雷拉,2-1/2,6.4,129,10 10 10 7,1.35.08,1070,B/TT,,全才
20,21,228,04,08/12/19,"沙田草地""A""                                    ",1800,好,3,5,77,羅富全,莫雷拉,3-1/4,13,131,11 12 13 13 4,1.48.16,1062,B/TT,,全才
21,22,149,11,03/11/19,"沙田草地""C+3""                                    ",1600,好/快,3,13,77,羅富全,史卓豐,8-1/4,23,132,9 11 12 11,1.34.63,1058,B/TT,,全才
22,23,94,02,12/10/19,"沙田草地""C""                                    ",1600,好/快,3,1,75,羅富全,潘頓,1/2,4.4,130,6 8 7 2,1.33.97,1060,B/TT,,全才
23,24,46,04,21/09/19,"沙田草地""A""                                    ",1600,好/快,3,7,75,羅富全,潘明輝,3-1/2,6.5,128,10 10 7 4,1.33.88,1049,B/TT,,全才
24,25,816,02,14/07/19,"沙田草地""A""                                    ",1600,好/快,3,6,74,羅富全,潘明輝,短馬頭位,20,124,11 12 11 2,1.34.47,1055,B/TT,,全才
25,26,759,07,23/06/19,"沙田草地""A""                                    ",1600,好/快,3,4,75,羅富全,何澤堯,1-3/4,18,128,7 7 7 7,1.34.36,1059,B/TT,,全才
26,27,693,09,26/05/19,"沙田草地""A""                                    ",1800,好/黏,3,8,77,羅富全,麥道朗,4-1/2,9.2,131,4 5 6 7 9,1.49.15,1053,B/TT,,全才
27,28,628,09,01/05/19,"跑馬地草地""C+3""                                    ",1650,好/快,3,1,78,羅富全,潘頓,3,2.5,131,9 9 11 9,1.40.70,1045,B1/TT,,全才
28,29,555,04,03/04/19,沙田全天候                                    ,1800,好,3,7,79,羅富全,潘頓,4-3/4,3.2,133,8 9 9 6 4,1.48.24,1036,TT,,全才
29,30,502,05,17/03/19,"沙田草地""A""                                    ",2000,好,3,3,79,羅富全,布文,2-3/4,3.3,129,6 6 7 7 5,2.02.62,1047,TT,,全才
30,31,449,03,24/02/19,"沙田草地""B+2""                                    ",2000,好,3,5,78,羅富全,田泰安,3/4,6.8,131,3 4 4 3 3,2.02.53,1043,TT,,全才
31,32,404,08,07/02/19,"沙田草地""C+3""                                    ",1600,好,3,9,78,羅富全,潘頓,4,3.3,133,2 3 2 8,1.35.28,1040,TT,,全才
32,33,310,02,01/01/19,"沙田草地""C""                                    ",1600,好,3,5,75,羅富全,潘頓,3/4,3.8,128,8 7 4 2,1.34.32,1056,TT,,全才
33,34,226,04,02/12/18,"沙田草地""C+3""                                    ",1400,好,3,4,75,羅富全,利敬國,1-3/4,18,128,8 5 6 4,1.22.19,1075,TT1,,全才
