,Unnamed: 0,場次,名次,日期,馬場/跑道/賽道,途程,場地狀況,賽事班次,檔位,評分,練馬師,騎師,頭馬距離,獨贏賠率,實際負磅,沿途走位,完成時間,排位體重,配備,賽事重播,馬名
0,1,524,4,21/03/21,"沙田草地""A""                                    ",2000,好,4YO,8,101,蔡約翰,薛恩,1-3/4,5.0,126,11 11 12 11 4,2.01.62,1073,E,,勁搏
1,2,449,4,21/02/21,"沙田草地""A+3""                                    ",1800,好,4YO,5,101,蔡約翰,薛恩,3/4,4.1,126,10 11 11 11 4,1.47.33,1084,E,,勁搏
2,3,371,1,24/01/21,"沙田草地""A+3""                                    ",1600,好,4YO,10,98,蔡約翰,薛恩,3/4,23.0,126,11 10 9 1,1.33.81,1080,E,,勁搏
3,4,335,11,10/01/21,"沙田草地""C""                                    ",1400,好,2,7,98,蔡約翰,莫雷拉,6-1/4,4.4,132,10 9 8 11,1.22.08,1088,E,,勁搏
4,5,84,1,04/10/20,"沙田草地""C+3""                                    ",1800,好,2,3,92,蔡約翰,莫雷拉,1/2,1.5,123,4 6 6 6 1,1.48.00,1062,E,,勁搏
5,6,46,1,20/09/20,"沙田草地""B+2""                                    ",1600,好/快,2,14,84,蔡約翰,莫雷拉,1-1/2,3.2,119,9 9 6 1,1.33.64,1051,E,,勁搏
6,7,9,1,06/09/20,"沙田草地""A""                                    ",1400,好,3,6,78,蔡約翰,莫雷拉,短馬頭位,2.4,131,6 7 9 1,1.21.65,1050,E,,勁搏
7,8,785,2,01/07/20,"沙田草地""C""                                    ",1200,好/快,3,10,75,蔡約翰,莫雷拉,短馬頭位,4.1,132,7 6 2,1.08.41,1055,E1,,勁搏
