,Unnamed: 0,場次,名次,日期,馬場/跑道/賽道,途程,場地狀況,賽事班次,檔位,評分,練馬師,騎師,頭馬距離,獨贏賠率,實際負磅,沿途走位,完成時間,排位體重,配備,賽事重播,馬名
0,1,675,7,16/05/21,"沙田草地""C+3""                                    ",1400,好/快,4,13,40,霍利時,波健士,3-1/2,83.0,114,7 7 8 7,1.22.12,1274,B/TT,,型感
1,2,627,9,28/04/21,"跑馬地草地""C+3""                                    ",1650,好/快,4,11,42,霍利時,波健士,7-1/4,76.0,116,11 11 11 9,1.41.05,1274,B/TT,,型感
2,3,555,10,05/04/21,"沙田草地""B+2""                                    ",1200,好,4,10,44,霍利時,田泰安,4-3/4,9.2,118,13 14 10,1.10.46,1268,B1/TT,,型感
3,4,518,6,21/03/21,"沙田草地""A""                                    ",1200,好,4,2,46,霍利時,波健士,6-1/2,31.0,119,12 11 6,1.10.47,1280,TT,,型感
4,5,472,7,03/03/21,"跑馬地草地""A""                                    ",1200,好,4,1,48,霍利時,黃皓楠,4-1/4,46.0,118,10 10 7,1.10.70,1284,TT,,型感
5,6,435,11,17/02/21,"跑馬地草地""C""                                    ",1200,好,4,5,50,霍利時,薛恩,6-1/2,13.0,125,9 10 11,1.11.19,1286,TT,,型感
6,7,801,6,08/07/20,"跑馬地草地""A""                                    ",1200,好,4,12,52,霍利時,波健士,3-3/4,18.0,128,12 10 6,1.10.62,1264,TT,,型感
7,8,771,7,27/06/20,"沙田草地""B""                                    ",1200,好/快,4,1,52,霍利時,波健士,2-3/4,130.0,125,7 8 7,1.09.21,1275,TT1,,型感
