,Unnamed: 0,場次,名次,日期,馬場/跑道/賽道,途程,場地狀況,賽事班次,檔位,評分,練馬師,騎師,頭馬距離,獨贏賠率,實際負磅,沿途走位,完成時間,排位體重,配備,賽事重播,馬名
0,1,718,7,30/05/21,"沙田草地""B""                                    ",1200,好/快,2,9,81,丁冠豪,黃俊,3-1/4,46.0,111,9 10 7,1.08.43,1086,TT,,天祿
1,2,651,6,05/05/21,"跑馬地草地""A""                                    ",1200,好/快,2,8,83,丁冠豪,史卓豐,5,22.0,118,9 9 6,1.09.47,1084,TT,,天祿
2,3,622,9,25/04/21,"沙田草地""A""                                    ",1200,好,2,1,85,丁冠豪,波健士,5-3/4,41.0,115,10 10 9,1.09.14,1093,TT,,天祿
3,4,516,6,17/03/21,"跑馬地草地""C""                                    ",1200,好/快,2,9,87,丁冠豪,何澤堯,3-1/4,41.0,120,11 11 6,1.09.44,1091,TT,,天祿
4,5,448,9,21/02/21,沙田全天候                                    ,1200,好,2,12,89,丁冠豪,梁家俊,5-1/4,39.0,122,10 12 9,1.08.87,1113,TT,,天祿
5,6,398,5,03/02/21,"跑馬地草地""A""                                    ",1000,好,2,2,90,丁冠豪,郭能,2,5.6,124,6 7 5,0.56.88,1111,TT,,天祿
6,7,314,6,01/01/21,"沙田草地""B+2""                                    ",1200,好,2,10,90,丁冠豪,郭能,1-1/4,58.0,127,10 10 6,1.09.41,1129,TT,,天祿
7,8,562,3,08/04/20,"跑馬地草地""B""                                    ",1000,好,2,6,88,告東尼,田泰安,1/2,6.9,125,6 6 3,0.56.74,1099,TT,,天祿
8,9,536,4,29/03/20,"沙田草地""A+3""                                    ",1200,好,2,3,88,告東尼,郭能,3,27.0,123,5 6 4,1.09.80,1102,TT,,天祿
9,10,451,3,26/02/20,"跑馬地草地""A""                                    ",1200,好,1,5,87,告東尼,梁家俊,1/2,35.0,114,2 4 3,1.09.31,1126,TT,,天祿
10,11,407,9,08/02/20,"沙田草地""C+3""                                    ",1200,好,2,7,87,告東尼,楊明綸,5,27.0,117,7 7 9,1.09.80,1149,TT,,天祿
11,12,803,1,10/07/19,"跑馬地草地""A""                                    ",1000,好,3,1,79,告東尼,田泰安,1-1/4,3.3,133,3 3 1,0.57.29,1086,TT,,天祿
12,13,757,7,23/06/19,"沙田草地""A""                                    ",1000,好/快,3,5,79,告東尼,杜美爾,7,20.0,132,11 10 7,0.56.53,1076,TT,,天祿
13,14,700,2,29/05/19,"跑馬地草地""C""                                    ",1000,好,3,8,78,告東尼,田泰安,1-3/4,4.5,131,6 6 2,0.57.31,1075,TT,,天祿
14,15,662,1,15/05/19,"跑馬地草地""A""                                    ",1000,好,3,1,72,告東尼,田泰安,1,11.0,125,3 4 1,0.56.89,1080,TT,,天祿
15,16,610,6,24/04/19,"跑馬地草地""C""                                    ",1000,好,3,10,73,告東尼,田泰安,2-3/4,56.0,126,11 9 6,0.57.13,1069,TT,,天祿
16,17,559,7,07/04/19,"沙田草地""B+2""                                    ",1200,好/快,3,2,73,告東尼,吳嘉晉                                    ,9-1/2,25.0,123,6 6 7,1.09.93,1094,TT1,,天祿
