,Unnamed: 0,場次,名次,日期,馬場/跑道/賽道,途程,場地狀況,賽事班次,檔位,評分,練馬師,騎師,頭馬距離,獨贏賠率,實際負磅,沿途走位,完成時間,排位體重,配備,賽事重播,馬名
0,1,724,12,02/06/21,"跑馬地草地""A""                                    ",1800,好,4,12,43,丁冠豪,楊明綸,46-1/2,101,116,7 2 2 5 12,1.56.83,1120,B/TT,,奪速
1,2,685,7,19/05/21,"跑馬地草地""B""                                    ",1650,好/快,4,3,45,丁冠豪,楊明綸,5,68,120,7 6 7 7,1.40.42,1124,B/TT,,奪速
2,3,307,11,01/01/21,"沙田草地""B+2""                                    ",1400,好,4,4,48,蘇保羅,楊明綸,8,74,122,9 8 9 11,1.23.86,1130,B/TT,,奪速
3,4,795,6,05/07/20,"沙田草地""C+3""                                    ",1400,好/快,4,4,52,蘇保羅,蔡明紹,6-3/4,43,127,9 9 7 6,1.21.89,1124,B/TT,,奪速
4,5,696,11,27/05/20,沙田全天候                                    ,1650,好,4,4,55,蘇保羅,蘇狄雄,9-3/4,257,126,12 11 9 11,1.39.85,1114,B/TT1,,奪速
5,6,633,9,06/05/20,"跑馬地草地""B""                                    ",1650,好,4,9,58,蘇保羅,蔡明紹,8-3/4,167,132,12 11 11 9,1.40.86,1107,B,,奪速
6,7,588,9,19/04/20,"沙田草地""C+3""                                    ",1400,好,4,1,60,蘇保羅,蔡明紹,5,257,133,9 7 8 9,1.22.90,1108,B,,奪速
7,8,525,8,25/03/20,"跑馬地草地""A""                                    ",1650,好,3,8,63,蘇保羅,蔡明紹,7-1/2,397,118,11 12 12 8,1.41.19,1084,B,,奪速
8,9,469,12,04/03/20,"跑馬地草地""B""                                    ",1650,好,3,7,66,蘇保羅,蔡明紹,14-3/4,159,119,9 9 12 12,1.42.14,1087,B1,,奪速
9,10,403,12,08/02/20,"沙田草地""C+3""                                    ",1800,好,3,4,68,蘇保羅,梁家俊,12-3/4,369,124,12 12 12 11 12,1.48.96,1112,--,,奪速
10,11,351,9,19/01/20,"沙田草地""A+3""                                    ",1600,好,3,11,70,蘇保羅,薛恩,6,337,126,12 12 10 9,1.35.47,1101,--,,奪速
11,12,291,11,29/12/19,"沙田草地""B+2""                                    ",1400,好,3,4,70,蘇保羅,蔡明紹,10,49,125,9 10 10 11,1.23.97,1095,--,,奪速
