,Unnamed: 0,場次,名次,日期,馬場/跑道/賽道,途程,場地狀況,賽事班次,檔位,評分,練馬師,騎師,頭馬距離,獨贏賠率,實際負磅,沿途走位,完成時間,排位體重,配備,賽事重播,馬名
0,1,707,9,26/05/21,"跑馬地草地""C""                                    ",1650,好/快,2,12,90,蘇偉賢,何澤堯,6-1/4,76.0,128,11 11 11 9,1.38.97,1163,B2/TT,,安采
1,2,621,12,25/04/21,"沙田草地""A""                                    ",1600,好,2,4,92,蘇偉賢,彭國年,4-1/2,34.0,121,6 7 7 12,1.35.59,1157,B-/XB-/TT1,,安采
2,3,302,10,26/12/20,"沙田草地""A+3""                                    ",2000,好,2,7,92,韋達,蘇銘倫,7,4.1,125,5 2 2 2 10,2.03.03,1164,B/XB,,安采
3,4,208,2,22/11/20,"沙田草地""B+2""                                    ",1800,好/快,2,3,91,韋達,周俊樂,3/4,11.0,117,3 4 4 3 2,1.46.48,1169,B/XB,,安采
4,5,147,10,28/10/20,"跑馬地草地""C+3""                                    ",1800,好,2,2,93,韋達,何澤堯,6-1/4,12.0,128,7 6 6 6 10,1.50.34,1178,B/XB,,安采
5,6,110,10,14/10/20,"跑馬地草地""B""                                    ",1650,好,2,12,95,韋達,賀銘年,7-1/4,23.0,124,9 10 10 10,1.40.22,1181,B/XB,,安采
6,7,27,10,13/09/20,"沙田草地""A+3""                                    ",1000,好,2,7,95,韋達,賀銘年,4-1/4,66.0,132,13 14 10,0.56.71,1189,B/XB,,安采
7,8,441,4,23/02/20,"沙田草地""A+3""                                    ",1800,好,4YO,8,86,約翰摩亞,布文,2-1/2,16.0,126,10 10 10 10 4,1.46.28,1168,B/XB,,安采
8,9,390,9,02/02/20,"沙田草地""C""                                    ",1800,好,2,12,86,約翰摩亞,蘇兆輝,5-1/4,6.3,122,10 8 9 9 9,1.47.55,1166,B/XB,,安采
9,10,312,3,05/01/20,"沙田草地""C+3""                                    ",1800,好,2,11,85,約翰摩亞,蘇兆輝,1-3/4,20.0,120,14 12 12 12 3,1.47.04,1155,B/XB,,安采
10,11,236,11,08/12/19,"沙田草地""A""                                    ",1600,好,2,3,87,約翰摩亞,沈拿,4,141.0,124,5 5 6 11,1.34.53,1161,B/XB,,安采
11,12,150,9,03/11/19,"沙田草地""C+3""                                    ",1600,好/快,2,7,87,約翰摩亞,潘頓,6,10.0,125,5 6 8 9,1.34.25,1175,B1/XB1,,安采
