,Unnamed: 0,場次,名次,日期,馬場/跑道/賽道,途程,場地狀況,賽事班次,檔位,評分,練馬師,騎師,頭馬距離,獨贏賠率,實際負磅,沿途走位,完成時間,排位體重,配備,賽事重播,馬名
0,1,694,7,23/05/21,"沙田草地""A""                                    ",1600,好/快,4,4,56,沈集成,潘頓,1-1/4,4.3,129,1 1 2 7,1.35.63,1185,B/TT,,弗雷
1,2,636,5,02/05/21,"沙田草地""B""                                    ",1600,好,4,3,56,沈集成,潘明輝,2,8.6,131,1 2 6 5,1.34.77,1183,B/TT,,弗雷
2,3,580,5,11/04/21,"沙田草地""C""                                    ",1400,好,4,3,56,沈集成,潘頓,3,2.6,131,4 7 7 5,1.22.38,1166,B/TT,,弗雷
3,4,505,2,13/03/21,"沙田草地""C+3""                                    ",1400,好,4,1,56,沈集成,潘頓,3,2.6,133,6 5 4 2,1.21.82,1169,B/TT,,弗雷
4,5,423,1,14/02/21,"沙田草地""A""                                    ",1400,好,4,14,51,沈集成,蘇銘倫,頸位,4.2,124,4 6 5 1,1.22.50,1162,B/TT,,弗雷
5,6,349,7,17/01/21,"沙田草地""A""                                    ",1200,好,4,9,52,沈集成,田泰安,3-1/2,6.6,127,4 5 7,1.10.53,1171,B/TT,,弗雷
6,7,279,7,20/12/20,"沙田草地""C+3""                                    ",1400,好,4,10,52,沈集成,巴度,4-1/2,75.0,126,5 3 3 7,1.22.96,1189,B1/TT1,,弗雷
