,Unnamed: 0,場次,名次,日期,馬場/跑道/賽道,途程,場地狀況,賽事班次,檔位,評分,練馬師,騎師,頭馬距離,獨贏賠率,實際負磅,沿途走位,完成時間,排位體重,配備,賽事重播,馬名
0,1,625,8,28/04/21,"跑馬地草地""C+3""                                    ",2200,好/快,4,9,44,霍利時,波健士,6-1/2,35.0,117,10 11 11 11 12 8,2.16.28,1170,B/TT,,情趣
1,2,513,6,17/03/21,"跑馬地草地""C""                                    ",1800,好/快,4,3,46,霍利時,田泰安,3-1/4,13.0,120,10 9 10 10 6,1.49.26,1173,B/TT,,情趣
2,3,395,4,03/02/21,"跑馬地草地""A""                                    ",2200,好,4,5,48,霍利時,郭能,2-3/4,17.0,126,5 6 6 5 5 4,2.17.95,1172,B/TT,,情趣
3,4,336,4,13/01/21,"跑馬地草地""B""                                    ",2200,好,4,4,50,霍利時,田泰安,2-1/2,14.0,123,6 6 6 6 8 4,2.16.93,1175,B/TT,,情趣
4,5,295,4,26/12/20,"沙田草地""A+3""                                    ",2000,好,4,9,51,霍利時,賀銘年,2,59.0,124,9 9 8 9 4,2.03.02,1162,B/TT,,情趣
5,6,268,6,16/12/20,"跑馬地草地""C""                                    ",1800,好,4,4,53,霍利時,薛恩,3-1/2,22.0,130,4 4 4 3 6,1.49.81,1168,B/TT,,情趣
6,7,231,6,02/12/20,"跑馬地草地""A""                                    ",2200,好,4,7,55,霍利時,郭能,6,41.0,129,9 7 7 8 5 6,2.18.20,1164,B/TT,,情趣
7,8,203,9,22/11/20,"沙田草地""B+2""                                    ",2000,好,4,9,57,霍利時,周俊樂,10-1/2,23.0,123,7 8 7 10 9,2.02.37,1171,B/TT,,情趣
8,9,167,10,08/11/20,"跑馬地草地""A""                                    ",1800,好,4,1,59,霍利時,薛恩,3-3/4,41.0,133,6 4 5 5 10,1.50.71,1180,B/TT,,情趣
9,10,127,10,21/10/20,"跑馬地草地""C""                                    ",1650,好/快,3,12,61,霍利時,黃皓楠,5,106.0,114,12 12 12 10,1.40.12,1174,B/TT,,情趣
10,11,87,7,07/10/20,"跑馬地草地""A""                                    ",1650,好,3,3,63,霍利時,賀銘年,4,44.0,118,6 6 7 7,1.40.86,1171,B/TT,,情趣
11,12,33,5,16/09/20,"跑馬地草地""C""                                    ",1650,好/快,3,2,64,霍利時,賀銘年,3-1/4,40.0,120,5 5 5 5,1.40.38,1152,B/TT,,情趣
12,13,710,7,03/06/20,"跑馬地草地""A""                                    ",2200,好,3,2,65,霍利時,梁家俊,5-1/2,37.0,123,4 3 3 3 3 7,2.19.47,1154,B/TT,,情趣
13,14,595,7,22/04/20,"跑馬地草地""C+3""                                    ",2200,好,3,7,65,霍利時,梁家俊,13-1/2,29.0,117,5 3 2 4 8 7,2.17.55,1138,B/TT,,情趣
14,15,450,7,26/02/20,"跑馬地草地""A""                                    ",2200,好,3,2,65,霍利時,希威森,4-1/4,37.0,119,7 7 8 10 10 7,2.17.31,1133,B/TT,,情趣
15,16,342,1,19/01/20,"沙田草地""A+3""                                    ",2000,好,4,7,60,霍利時,潘頓,3/4,11.0,133,4 4 5 4 1,2.02.73,1120,B/TT,,情趣
16,17,276,4,26/12/19,"跑馬地草地""A""                                    ",2200,好,3,10,60,霍利時,田泰安,1-3/4,16.0,117,10 10 10 10 10 4,2.16.94,1123,B/TT,,情趣
17,18,240,1,11/12/19,"跑馬地草地""C""                                    ",1800,好,4,5,55,霍利時,田泰安,鼻位,21.0,130,4 4 4 4 1,1.50.57,1136,B/TT,,情趣
18,19,184,8,20/11/19,"跑馬地草地""C+3""                                    ",1650,好/快,4,9,57,霍利時,沈拿,5-1/2,21.0,131,10 10 10 8,1.41.19,1134,B/TT,,情趣
19,20,135,4,30/10/19,"跑馬地草地""A""                                    ",1650,好,4,1,57,霍利時,李寶利,1-1/4,10.0,130,6 6 4 4,1.41.68,1146,B/TT,,情趣
20,21,82,3,09/10/19,"跑馬地草地""B""                                    ",1650,好,4,7,58,霍利時,李寶利,3-1/4,15.0,131,10 11 11 3,1.41.24,1137,B/TT,,情趣
21,22,768,11,26/06/19,"跑馬地草地""B""                                    ",1650,好/快,3,8,62,霍利時,蔡明紹,9,25.0,115,12 12 12 11,1.40.26,1154,B/TT,,情趣
22,23,719,3,05/06/19,"跑馬地草地""A""                                    ",1650,好,3,6,62,霍利時,蔡明紹,2-1/4,34.0,115,12 12 11 3,1.40.98,1139,B/TT,,情趣
23,24,678,7,22/05/19,"跑馬地草地""B""                                    ",1650,好/快,3,12,64,霍利時,利敬國,3-3/4,35.0,117,12 12 11 7,1.39.93,1131,B/TT,,情趣
24,25,626,6,01/05/19,"跑馬地草地""C+3""                                    ",1650,好/快,3,4,66,霍利時,史卓豐,4-1/4,10.0,119,9 9 8 6,1.39.88,1141,B/TT,,情趣
25,26,573,6,10/04/19,"跑馬地草地""A""                                    ",1650,好,3,12,68,霍利時,貝力斯,3,65.0,121,11 11 11 6,1.40.48,1144,B/TT,,情趣
26,27,537,6,27/03/19,"跑馬地草地""C+3""                                    ",1650,好/快,3,7,68,霍利時,李寶利,2-1/4,35.0,126,10 11 11 6,1.39.46,1146,B/TT,,情趣
27,28,495,3,13/03/19,"跑馬地草地""B""                                    ",1650,好,3,11,67,霍利時,李寶利,1,35.0,120,10 10 9 3,1.40.21,1131,B/TT,,情趣
28,29,458,7,27/02/19,"跑馬地草地""C+3""                                    ",1650,好/快,3,12,69,霍利時,郭能,5-1/2,35.0,124,10 11 11 7,1.39.91,1143,B/TT,,情趣
29,30,380,5,30/01/19,"跑馬地草地""A""                                    ",1650,好,3,8,71,霍利時,郭能,6-1/2,77.0,126,9 10 12 5,1.40.56,1132,B/TT,,情趣
30,31,353,12,20/01/19,"沙田草地""A+3""                                    ",1600,好/快,3,12,73,霍利時,麥偉利                                    ,6-1/2,88.0,127,8 7 9 12,1.35.67,1130,B/TT,,情趣
31,32,310,9,01/01/19,"沙田草地""C""                                    ",1600,好,3,12,75,霍利時,利敬國,8-1/2,93.0,128,6 5 8 9,1.35.55,1142,B/TT,,情趣
32,33,253,9,12/12/18,"跑馬地草地""C""                                    ",1650,好,3,4,77,霍利時,李寶利,4-3/4,43.0,131,10 10 11 9,1.41.07,1129,B/TT,,情趣
33,34,195,11,21/11/18,"跑馬地草地""C+3""                                    ",1650,好/黏,3,7,79,霍利時,麥偉利                                    ,6-1/2,41.0,133,8 8 8 11,1.41.64,1126,B/TT,,情趣
34,35,172,12,10/11/18,"沙田草地""A""                                    ",1600,好,3,3,79,霍利時,利敬國,7-1/4,18.0,133,10 8 7 12,1.36.52,1139,B/TT,,情趣
35,36,135,10,28/10/18,"跑馬地草地""A""                                    ",1650,好,3,8,80,霍利時,田泰安,8-1/4,26.0,133,12 12 12 10,1.42.69,1140,B/TT,,情趣
36,37,51,8,26/09/18,"跑馬地草地""C+3""                                    ",1650,好,3,1,80,霍利時,黃俊,5-1/2,14.0,123,7 7 8 8,1.40.57,1122,B/TT,,情趣
37,38,777,9,04/07/18,"跑馬地草地""C+3""                                    ",1650,好,2,3,80,霍利時,史卓豐,5-1/2,14.0,118,10 9 10 9,1.39.99,1130,B/TT,,情趣
38,39,700,1,03/06/18,"沙田草地""B""                                    ",1600,好/快,3,5,72,霍利時,潘頓,3,5.5,127,7 8 8 1,1.34.12,1124,B/TT,,情趣
39,40,637,5,09/05/18,"跑馬地草地""A""                                    ",1650,好,3,1,73,霍利時,李寶利,2-1/2,5.1,127,6 6 5 5,1.41.21,1127,B/TT,,情趣
40,41,584,4,18/04/18,"跑馬地草地""B""                                    ",1650,好,3,2,74,霍利時,李寶利,2-1/2,10.0,127,8 7 7 4,1.40.07,1127,B/TT,,情趣
41,42,546,4,02/04/18,"沙田草地""B+2""                                    ",1600,好,3,12,74,霍利時,梁家俊,1-1/2,172.0,123,11 11 12 4,1.35.28,1119,B/TT,,情趣
42,43,493,13,11/03/18,"沙田草地""C+3""                                    ",1600,好,3,7,74,霍利時,梁家俊,14,47.0,130,7 6 8 13,1.36.36,1125,B/TT,,情趣
43,44,408,10,07/02/18,"跑馬地草地""A""                                    ",1650,好,3,3,74,霍利時,梁家俊,4-1/4,7.0,125,5 4 3 10,1.41.21,1130,B/TT,,情趣
44,45,216,1,22/11/17,"跑馬地草地""C+3""                                    ",1650,好,3,6,67,霍利時,梁家俊,1-3/4,12.0,120,8 8 6 1,1.40.53,1123,B/TT,,情趣
45,46,106,4,11/10/17,"跑馬地草地""B""                                    ",1650,好,3,11,67,霍利時,田泰安,1-1/2,9.6,121,9 9 8 4,1.40.45,1120,B/TT,,情趣
46,47,34,3,13/09/17,"跑馬地草地""B""                                    ",1650,好/快,3,3,67,霍利時,莫雷拉,3-1/2,4.6,121,6 9 7 3,1.40.83,1104,B/TT,,情趣
47,48,675,1,24/05/17,"跑馬地草地""C""                                    ",1650,好,3,2,61,霍利時,田泰安,1-1/4,9.3,115,3 3 3 1,1.39.66,1098,B/TT,,情趣
48,49,624,6,03/05/17,"跑馬地草地""C+3""                                    ",1650,好/快,3,3,63,霍利時,田泰安,2-1/4,13.0,118,8 8 8 6,1.40.70,1094,B/TT,,情趣
49,50,526,8,26/03/17,"沙田草地""A+3""                                    ",1600,好,3,10,64,霍利時,何澤堯,6,46.0,116,12 14 13 8,1.35.63,1104,B/TT,,情趣
50,51,489,7,12/03/17,"沙田草地""C+3""                                    ",1600,好,3,7,64,霍利時,韋達                                    ,3-1/2,46.0,118,12 11 11 7,1.35.16,1130,B/TT,,情趣
51,52,425,8,15/02/17,"跑馬地草地""C""                                    ",1800,好/快,3,11,64,霍利時,蘇兆輝,5-1/2,11.0,117,6 8 10 9 8,1.50.07,1117,B/TT,,情趣
52,53,372,1,30/01/17,"沙田草地""B""                                    ",1600,好,4,5,59,霍利時,蘇兆輝,頭位,4.0,133,6 5 3 1,1.35.94,1123,B/TT,,情趣
53,54,339,6,14/01/17,"沙田草地""C+3""                                    ",1400,好,4,7,59,霍利時,蘇兆輝,2,8.2,132,12 13 13 6,1.23.19,1123,B1/TT,,情趣
54,55,273,7,17/12/16,"沙田草地""C+3""                                    ",1400,好/快,4,10,60,霍利時,韋達                                    ,1-1/2,6.6,133,9 10 11 7,1.23.07,1129,TT,,情趣
55,56,221,5,27/11/16,"沙田草地""C""                                    ",1400,好,3,12,62,霍利時,田泰安,2-1/2,28.0,116,13 12 13 5,1.22.19,1133,TT,,情趣
56,57,167,13,06/11/16,"沙田草地""C+3""                                    ",1400,好/快,3,3,62,霍利時,黎海榮,8-3/4,9.2,117,8 9 11 13,1.23.41,1129,TT,,情趣
57,58,93,2,08/10/16,"沙田草地""B+2""                                    ",1400,好/快,3,3,61,霍利時,莫雷拉,1-1/4,3.1,117,6 6 4 2,1.21.61,1117,TT,,情趣
58,59,23,2,11/09/16,"沙田草地""C""                                    ",1400,好,4,4,59,霍利時,莫雷拉,頭位,2.3,133,4 4 4 2,1.22.10,1109,TT,,情趣
59,60,761,3,01/07/16,"沙田草地""A+3""                                    ",1400,好/快,4,6,59,霍利時,莫雷拉,1-3/4,5.2,132,9 9 10 3,1.22.12,1098,TT,,情趣
60,61,695,13,05/06/16,"沙田草地""B+2""                                    ",1400,好/快,3,1,61,霍利時,史卓豐,10-3/4,7.9,116,9 11 13 13,1.23.11,1106,TT1,,情趣
61,62,628,3,07/05/16,"沙田草地""C""                                    ",1400,好,3,13,62,霍利時,史卓豐,2-1/2,13.0,115,11 12 10 3,1.22.67,1102,--,,情趣
62,63,515,9,28/03/16,"沙田草地""A+3""                                    ",1600,好,3,8,64,霍利時,田泰安,6-1/2,10.0,117,11 11 10 9,1.35.41,1138,--,,情趣
63,64,452,4,02/03/16,"跑馬地草地""C+3""                                    ",1650,好,3,9,66,霍利時,田泰安,2-3/4,7.1,119,9 9 9 4,1.40.65,1143,--,,情趣
64,65,406,7,14/02/16,"沙田草地""C+3""                                    ",1400,好,3,8,68,霍利時,巫斯義                                    ,3,11.0,122,8 8 10 7,1.23.03,1144,--,,情趣
65,66,367,4,31/01/16,"沙田草地""A+3""                                    ",1400,好,3,4,70,霍利時,蘇兆輝,2-3/4,11.0,123,11 10 13 4,1.22.80,1145,--,,情趣
66,67,301,8,01/01/16,"沙田草地""B+2""                                    ",1400,好,3,3,72,霍利時,霍勵賢                                    ,5-1/2,46.0,126,12 11 12 8,1.22.80,1138,--,,情趣
67,68,244,5,13/12/15,"沙田草地""A""                                    ",1400,好,3,3,72,霍利時,雷景勳                                    ,4-3/4,52.0,125,7 6 6 5,1.22.81,1130,--,,情趣
