,Unnamed: 0,場次,名次,日期,馬場/跑道/賽道,途程,場地狀況,賽事班次,檔位,評分,練馬師,騎師,頭馬距離,獨贏賠率,實際負磅,沿途走位,完成時間,排位體重,配備,賽事重播,馬名
0,1,627,11,28/04/21,"跑馬地草地""C+3""                                    ",1650,好/快,4,10,41,鄭俊偉,巫顯東,11-1/4,181,112,12 12 12 11,1.41.69,1049,H,,有力
1,2,580,10,11/04/21,"沙田草地""C""                                    ",1400,好,4,4,44,鄭俊偉,巫顯東,7-1/4,257,116,11 11 8 10,1.23.06,1055,H,,有力
2,3,510,9,17/03/21,"跑馬地草地""C""                                    ",1200,好/快,4,2,47,鄭俊偉,黃皓楠,7-1/4,257,118,7 9 9,1.11.31,1053,H,,有力
3,4,463,12,28/02/21,"沙田草地""B+2""                                    ",1400,好,4,5,50,鄭俊偉,黃皓楠,7-3/4,196,122,11 11 13 12,1.23.37,1053,H,,有力
4,5,405,11,06/02/21,"沙田草地""C""                                    ",1200,好,4,3,52,鄭俊偉,巫顯東,13-1/2,201,122,9 10 11,1.11.40,1063,H1,,有力
5,6,186,9,14/11/20,"沙田草地""C+3""                                    ",1200,好,4,4,52,鄭俊偉,薛恩,5-1/2,182,130,10 9 9,1.10.27,1080,--,,有力
