,Unnamed: 0,場次,名次,日期,馬場/跑道/賽道,途程,場地狀況,賽事班次,檔位,評分,練馬師,騎師,頭馬距離,獨贏賠率,實際負磅,沿途走位,完成時間,排位體重,配備,賽事重播,馬名
0,1,709,5,30/05/21,"沙田草地""B""                                    ",1800,好/快,5,2,38,告東尼,周俊樂,1-3/4,10.0,127,9 9 8 7 5,1.48.82,1033,V/TT,,榮惑
1,2,656,10,08/05/21,"沙田草地""C""                                    ",1800,好/快,4,7,40,告東尼,楊明綸,7-1/2,58.0,113,14 10 9 11 10,1.48.83,1024,V/TT,,榮惑
2,3,597,12,17/04/21,"沙田草地""C+3""                                    ",1800,好,4,7,42,告東尼,楊明綸,4-3/4,34.0,116,9 9 7 5 12,1.50.88,1036,V/TT,,榮惑
3,4,537,8,28/03/21,"沙田草地""A+3""                                    ",2000,好,4,1,44,告東尼,何澤堯,2-3/4,5.1,118,5 5 6 6 8,2.02.48,1027,V/TT,,榮惑
4,5,500,9,13/03/21,沙田全天候                                    ,1800,好,4,11,46,告東尼,馬雅,5-1/2,13.0,119,5 3 2 2 9,1.49.23,1029,V/TT,,榮惑
5,6,444,8,21/02/21,"沙田草地""A+3""                                    ",1800,好,4,14,46,告東尼,潘頓,2-3/4,9.0,120,13 10 10 9 8,1.48.24,1044,V/TT,,榮惑
6,7,395,2,03/02/21,"跑馬地草地""A""                                    ",2200,好,4,6,45,告東尼,莫雷拉,1-1/2,2.9,123,7 7 8 7 6 2,2.17.76,1045,V/TT,,榮惑
7,8,336,2,13/01/21,"跑馬地草地""B""                                    ",2200,好,4,6,43,告東尼,莫雷拉,頸位,3.0,116,8 8 8 8 2 2,2.16.58,1048,V/TT,,榮惑
8,9,268,2,16/12/20,"跑馬地草地""C""                                    ",1800,好,4,8,41,告東尼,莫雷拉,鼻位,5.6,118,10 10 10 6 2,1.49.27,1037,V/TT,,榮惑
9,10,203,11,22/11/20,"沙田草地""B+2""                                    ",2000,好,4,13,44,告東尼,莫雷拉,13-3/4,7.6,117,6 5 3 4 11,2.02.87,1045,V/TT,,榮惑
10,11,167,9,08/11/20,"跑馬地草地""A""                                    ",1800,好,4,9,46,告東尼,田泰安,3,5.5,120,9 11 10 11 9,1.50.57,1039,V/TT,,榮惑
11,12,98,6,11/10/20,"沙田草地""A+3""                                    ",1800,好,4,1,46,告東尼,潘頓,4,4.4,122,7 7 4 4 6,1.47.95,1041,V/TT,,榮惑
12,13,29,4,16/09/20,"跑馬地草地""C""                                    ",1650,好,4,9,46,告東尼,梁家俊,2,42.0,120,9 9 10 4,1.39.35,1031,V/TT,,榮惑
13,14,754,12,21/06/20,"沙田草地""A""                                    ",2000,好/快,4,13,49,告東尼,賀銘年,7-1/4,14.0,123,9 7 10 13 12,2.03.13,1003,V/TT,,榮惑
14,15,705,4,31/05/20,"沙田草地""B""                                    ",2000,好,4,2,49,告東尼,賀銘年,1-1/2,12.0,123,4 3 4 4 4,2.02.13,1010,V/TT,,榮惑
15,16,612,5,29/04/20,"跑馬地草地""A""                                    ",2200,好,4,5,50,告東尼,莫雷拉,2,7.1,126,6 6 6 6 7 5,2.16.40,1008,B-/V1/TT,,榮惑
16,17,528,6,29/03/20,"沙田草地""A+3""                                    ",2000,好,4,9,51,告東尼,史卓豐,6-1/2,102.0,124,9 3 2 2 6,2.03.51,1005,B/TT,,榮惑
17,18,495,7,14/03/20,沙田全天候                                    ,1800,好,4,4,53,告東尼,史卓豐,6-3/4,144.0,127,11 11 11 11 7,1.48.83,1013,B/TT,,榮惑
18,19,438,9,23/02/20,"沙田草地""A+3""                                    ",2000,好,4,3,55,告東尼,蔡明紹,5-1/4,79.0,129,4 5 5 9 9,2.03.38,1026,B/TT,,榮惑
19,20,342,9,19/01/20,"沙田草地""A+3""                                    ",2000,好,4,2,57,告東尼,田泰安,3-1/2,41.0,130,7 7 6 7 9,2.03.29,1031,B/TT,,榮惑
20,21,278,7,26/12/19,"跑馬地草地""A""                                    ",1650,好,4,5,59,告東尼,史卓豐,4-3/4,76.0,133,9 10 9 7,1.41.11,1027,B/TT,,榮惑
21,22,242,12,11/12/19,"跑馬地草地""C""                                    ",1650,好,3,6,62,告東尼,巫顯東,11-3/4,162.0,112,10 11 12 12,1.41.75,1042,B/TT,,榮惑
22,23,196,11,23/11/19,沙田全天候                                    ,1200,好,3,12,64,告東尼,潘明輝,10,157.0,118,12 12 11,1.10.61,1055,B/TT,,榮惑
23,24,131,13,27/10/19,沙田全天候                                    ,1650,好,3,5,66,告東尼,楊明綸,10-1/2,129.0,122,9 9 12 13,1.40.70,1037,B1/TT,,榮惑
24,25,745,14,16/06/19,"沙田草地""C+3""                                    ",1400,好/快,3,11,71,告東尼,潘明輝,13-1/4,300.0,116,14 14 14 14,1.23.51,1018,TT,,榮惑
25,26,674,11,18/05/19,"沙田草地""C+3""                                    ",1600,好/快,3,14,73,告東尼,蔡明紹,9,170.0,121,13 13 13 11,1.35.56,1008,TT,,榮惑
26,27,633,6,05/05/19,"沙田草地""B""                                    ",1400,好/黏,3,7,73,告東尼,吳嘉晉                                    ,8-1/2,147.0,121,10 10 10 6,1.24.66,1011,TT1,,榮惑
