,Unnamed: 0,場次,名次,日期,馬場/跑道/賽道,途程,場地狀況,賽事班次,檔位,評分,練馬師,騎師,頭馬距離,獨贏賠率,實際負磅,沿途走位,完成時間,排位體重,配備,賽事重播,馬名
0,1,673,13,16/05/21,"沙田草地""C+3""                                    ",1000,好/快,4,1,46,文家良,何澤堯,16-1/4,75.0,120,14 14 13,0.57.53,1063,B,,濃有
1,2,601,8,17/04/21,"沙田草地""C+3""                                    ",1400,好,4,1,48,文家良,梁家俊,8,95.0,122,6 5 6 8,1.23.63,1105,B,,濃有
2,3,517,10,21/03/21,"沙田草地""A""                                    ",1200,好,4,7,50,文家良,周俊樂,7,48.0,118,1 1 10,1.11.06,1109,B,,濃有
3,4,412,6,10/02/21,"跑馬地草地""B""                                    ",1000,好,4,8,52,文家良,史卓豐,4-3/4,14.0,127,4 4 6,0.57.85,1116,B1,,濃有
4,5,340,8,13/01/21,"跑馬地草地""B""                                    ",1000,好,4,3,52,文家良,史卓豐,5,9.3,126,8 9 8,0.58.32,1122,--,,濃有
5,6,252,5,09/12/20,"跑馬地草地""B""                                    ",1000,好,4,6,52,文家良,巴度,1-3/4,19.0,126,8 8 5,0.57.48,1113,--,,濃有
6,7,185,14,14/11/20,"沙田草地""C+3""                                    ",1000,好,4,3,52,文家良,彭國年,7-1/2,38.0,127,7 8 14,0.58.26,1106,--,,濃有
7,8,106,8,14/10/20,"跑馬地草地""B""                                    ",1000,好,4,9,52,文家良,史卓豐,3-3/4,8.6,126,7 7 8,0.57.48,1101,--,,濃有
8,9,49,1,23/09/20,"跑馬地草地""C+3""                                    ",1000,好/快,4,6,45,文家良,史卓豐,1-1/4,11.0,119,6 6 1,0.57.17,1095,--,,濃有
9,10,770,4,27/06/20,"沙田草地""B""                                    ",1200,好/快,4,14,46,文家良,莫雷拉,4-3/4,7.6,119,5 1 4,1.09.22,1105,--,,濃有
10,11,720,4,07/06/20,"沙田草地""C""                                    ",1200,黏,4,4,46,文家良,賀銘年,3-1/2,6.2,119,7 6 4,1.10.55,1100,--,,濃有
11,12,670,4,20/05/20,"跑馬地草地""C+3""                                    ",1200,好,4,7,46,文家良,史卓豐,1-1/2,7.6,121,10 8 4,1.10.26,1104,--,,濃有
12,13,597,2,22/04/20,"跑馬地草地""C+3""                                    ",1000,好,4,2,44,文家良,史卓豐,頭位,4.0,117,7 6 2,0.57.71,1118,--,,濃有
13,14,521,2,25/03/20,"跑馬地草地""A""                                    ",1000,好,4,3,40,文家良,史卓豐,頭位,6.7,116,8 9 2,0.57.70,1114,--,,濃有
14,15,464,1,04/03/20,"跑馬地草地""B""                                    ",1000,好,5,10,34,文家良,史卓豐,1-1/4,12.0,126,5 3 1,0.57.96,1106,--,,濃有
15,16,361,11,27/01/20,"沙田草地""B+2""                                    ",1200,好,5,11,36,文家良,梁家俊,6,20.0,129,2 2 11,1.10.68,1084,TT-,,濃有
16,17,218,8,04/12/19,"跑馬地草地""B""                                    ",1200,好,5,3,38,文家良,梁家俊,5,4.2,131,4 4 8,1.10.78,1118,TT1,,濃有
17,18,141,6,03/11/19,"沙田草地""C+3""                                    ",1200,好/快,5,6,40,文家良,梁家俊,2-1/2,13.0,133,2 2 6,1.10.20,1101,--,,濃有
18,19,71,6,06/10/19,"沙田草地""B+2""                                    ",1200,好,4,9,41,文家良,梁家俊,4-1/2,29.0,118,4 3 6,1.10.80,1109,--,,濃有
19,20,14,5,08/09/19,"沙田草地""C""                                    ",1200,好/快,4,5,42,文家良,梁家俊,5-3/4,45.0,118,4 5 5,1.09.74,1101,--,,濃有
20,21,769,8,01/07/19,"沙田草地""B""                                    ",1200,好,4,11,46,文家良,梁家俊,5-1/2,24.0,119,8 8 8,1.09.92,1113,--,,濃有
21,22,726,6,08/06/19,"沙田草地""C""                                    ",1200,好/快,4,1,48,文家良,潘明輝,4-1/4,15.0,118,2 2 6,1.10.30,1124,--,,濃有
22,23,651,7,11/05/19,"沙田草地""C""                                    ",1200,好,4,5,50,文家良,陳嘉熙,3-1/2,28.0,116,10 11 7,1.10.39,1113,--,,濃有
23,24,576,8,14/04/19,"沙田草地""C""                                    ",1000,好,4,12,52,文家良,何澤堯,6-1/4,25.0,125,7 6 8,0.57.20,1124,--,,濃有
24,25,508,9,20/03/19,"跑馬地草地""C""                                    ",1200,好/快,4,8,52,文家良,貝力斯,6,16.0,125,12 10 9,1.10.60,1120,--,,濃有
