,Unnamed: 0,場次,名次,日期,馬場/跑道/賽道,途程,場地狀況,賽事班次,檔位,評分,練馬師,騎師,頭馬距離,獨贏賠率,實際負磅,沿途走位,完成時間,排位體重,配備,賽事重播,馬名
0,1,697,5,23/05/21,"沙田草地""A""                                    ",1400,好/快,3,1,79,方嘉柏,田泰安,6,10.0,133,5 6 6 5,1.21.89,1091,--,,王炸
1,2,644,8,05/05/21,"跑馬地草地""A""                                    ",1650,好,3,3,79,方嘉柏,莫雷拉,7,5.5,133,2 2 2 8,1.40.41,1107,--,,王炸
2,3,476,2,03/03/21,"跑馬地草地""A""                                    ",1650,好,3,1,77,方嘉柏,何澤堯,1/2,4.8,130,4 3 2 2,1.40.19,1103,--,,王炸
3,4,415,4,10/02/21,"跑馬地草地""B""                                    ",1650,好,3,3,77,方嘉柏,蘇銘倫,4-3/4,3.2,132,1 1 2 4,1.40.67,1113,--,,王炸
4,5,382,2,27/01/21,"跑馬地草地""C+3""                                    ",1650,好,3,2,75,方嘉柏,蘇銘倫,頭位,3.8,128,3 4 4 2,1.40.35,1109,--,,王炸
5,6,315,1,01/01/21,"沙田草地""B+2""                                    ",1400,好,3,1,69,方嘉柏,蘇銘倫,頸位,11.0,122,5 4 4 1,1.21.87,1102,--,,王炸
6,7,283,5,20/12/20,"沙田草地""C+3""                                    ",1200,好,3,2,71,方嘉柏,巴度,2-1/4,7.8,124,5 7 5,1.09.44,1109,--,,王炸
7,8,228,8,29/11/20,"沙田草地""C""                                    ",1200,好,3,9,71,方嘉柏,薛恩,5-1/2,27.0,124,10 11 8,1.10.02,1111,--,,王炸
