,Unnamed: 0,場次,名次,日期,馬場/跑道/賽道,途程,場地狀況,賽事班次,檔位,評分,練馬師,騎師,頭馬距離,獨贏賠率,實際負磅,沿途走位,完成時間,排位體重,配備,賽事重播,馬名
0,1,621,7,25/04/21,"沙田草地""A""                                    ",1600,好,2,9,104,韋達,班德禮,2,17.0,133,11 10 10 7,1.35.20,1112,SR-/XB/B1,,玖寶
1,2,556,7,05/04/21,"沙田草地""B+2""                                    ",2000,好,1,7,105,韋達,楊明綸,4,25.0,120,2 2 2 2 7,2.02.56,1106,XB/SR1,,玖寶
2,3,488,9,07/03/21,"沙田草地""C""                                    ",1800,好,2,1,105,韋達,周俊樂,5-3/4,11.0,126,8 8 9 9 9,1.48.09,1134,XB,,玖寶
3,4,389,9,31/01/21,"沙田草地""B+2""                                    ",1800,好,G3,7,105,韋達,波健士,10-3/4,18.0,113,6 5 4 4 9,1.47.72,1129,XB,,玖寶
4,5,320,1,06/01/21,"跑馬地草地""A""                                    ",1800,好,G3,2,99,韋達,蘇銘倫,3/4,3.9,120,7 7 7 7 1,1.48.68,1124,XB,,玖寶
5,6,257,3,09/12/20,"跑馬地草地""B""                                    ",1800,好,2,4,98,韋達,莫雅,1/2,4.7,133,8 7 7 7 3,1.49.03,1118,XB,,玖寶
6,7,155,6,01/11/20,"沙田草地""A""                                    ",1800,好/快,G3,5,98,韋達,田泰安,3,7.7,113,5 6 6 5 6,1.46.39,1109,XB,,玖寶
7,8,84,4,04/10/20,"沙田草地""C+3""                                    ",1800,好,2,2,98,韋達,史卓豐,1-1/4,6.5,129,7 9 9 7 4,1.48.18,1108,XB,,玖寶
8,9,46,2,20/09/20,"沙田草地""B+2""                                    ",1600,好/快,2,10,97,韋達,何澤堯,1-1/2,8.4,132,10 10 11 2,1.33.86,1114,XB1/TT-,,玖寶
9,10,812,3,12/07/20,"沙田草地""A""                                    ",1600,好/快,1,2,96,約翰摩亞,楊明綸,1,12.0,121,4 5 6 3,1.34.41,1090,TT,,玖寶
10,11,786,4,01/07/20,"沙田草地""C""                                    ",1800,好/快,2,7,97,約翰摩亞,郭能,2-1/4,23.0,133,11 10 11 9 4,1.46.79,1100,TT,,玖寶
11,12,756,8,21/06/20,"沙田草地""A""                                    ",1800,好/快,G3,1,97,約翰摩亞,莫雷拉,8-1/4,7.4,115,4 4 5 5 8,1.47.17,1091,TT,,玖寶
12,13,686,4,24/05/20,"沙田草地""A""                                    ",2400,好,G1,2,93,約翰摩亞,莫雷拉,5-1/2,5.6,126,6 6 6 6 5 4,2.26.89,1103,TT,,玖寶
13,14,623,2,03/05/20,"沙田草地""B""                                    ",2400,好,G3,1,92,約翰摩亞,莫雷拉,2-1/4,3.1,115,5 4 4 4 4 2,2.27.41,1083,TT,,玖寶
14,15,549,5,05/04/20,"沙田草地""B+2""                                    ",2000,好,1,5,92,約翰摩亞,史卓豐,2,9.5,117,5 5 5 2 5,2.01.71,1106,TT,,玖寶
15,16,516,4,22/03/20,"沙田草地""A""                                    ",2000,好/快,4YO,7,83,約翰摩亞,楊明綸,4,261.0,126,9 8 9 12 4,2.00.80,1098,TT,,玖寶
16,17,441,8,23/02/20,"沙田草地""A+3""                                    ",1800,好,4YO,9,83,約翰摩亞,巴度,4-3/4,135.0,126,6 2 2 2 8,1.46.63,1105,TT,,玖寶
17,18,390,8,02/02/20,"沙田草地""C""                                    ",1800,好,2,10,83,約翰摩亞,巴度,4-1/2,21.0,119,8 6 6 5 8,1.47.44,1101,TT,,玖寶
18,19,339,2,15/01/20,"跑馬地草地""C+3""                                    ",1650,好,3,7,80,約翰摩亞,希威森,頸位,43.0,133,7 6 7 2,1.38.67,1091,TT,,玖寶
19,20,292,8,29/12/19,沙田全天候                                    ,1650,濕慢,2,11,81,約翰摩亞,希威森,10-1/2,77.0,115,11 10 11 8,1.40.14,1105,TT,,玖寶
20,21,253,6,15/12/19,"沙田草地""C+3""                                    ",1400,好,2,3,81,約翰摩亞,黃皓楠,4,99.0,112,9 8 5 6,1.21.45,1103,TT1,,玖寶
