,Unnamed: 0,場次,名次,日期,馬場/跑道/賽道,途程,場地狀況,賽事班次,檔位,評分,練馬師,騎師,頭馬距離,獨贏賠率,實際負磅,沿途走位,完成時間,排位體重,配備,賽事重播,馬名
0,1,656,11,08/05/21,"沙田草地""C""                                    ",1800,好/快,4,5,56,高伯新,周俊樂,8-1/4,14.0,124,1 2 2 3 11,1.48.94,1090,B/XB,,福善
1,2,414,8,10/02/21,"跑馬地草地""B""                                    ",1800,好,4,2,57,高伯新,周俊樂,4-1/2,12.0,123,2 1 1 2 8,1.51.03,1096,B/XB,,福善
2,3,336,10,13/01/21,"跑馬地草地""B""                                    ",2200,好,4,8,57,高伯新,郭能,19,14.0,130,1 1 1 1 5 10,2.19.57,1092,B/XB,,福善
3,4,295,7,26/12/20,"沙田草地""A+3""                                    ",2000,好,4,5,57,高伯新,郭能,5,5.9,130,3 3 3 4 7,2.03.48,1087,B/XB,,福善
4,5,203,1,22/11/20,"沙田草地""B+2""                                    ",2000,好,4,4,52,高伯新,郭能,1-1/4,11.0,125,1 2 1 1 1,2.00.67,1072,B/XB,,福善
5,6,133,6,24/10/20,"沙田草地""C""                                    ",1800,好,4,3,54,高伯新,周俊樂,3-1/2,6.7,117,4 2 2 3 6,1.48.19,1075,B/XB,,福善
6,7,98,3,11/10/20,"沙田草地""A+3""                                    ",1800,好,4,8,54,高伯新,周俊樂,2-1/4,18.0,120,2 1 1 1 3,1.47.68,1064,B/XB,,福善
7,8,23,10,13/09/20,"沙田草地""A+3""                                    ",1600,好,4,7,55,高伯新,巴度,9,15.0,131,5 5 7 10,1.36.51,1070,B/XB,,福善
8,9,755,5,21/06/20,"沙田草地""A""                                    ",1600,好/快,4,12,55,高伯新,波健士,2-3/4,10.0,130,3 3 3 5,1.35.27,1066,B/XB,,福善
9,10,681,2,24/05/20,"沙田草地""A""                                    ",1600,好,4,8,53,高伯新,潘頓,1-1/2,4.8,126,2 2 1 2,1.34.83,1060,B/XB,,福善
10,11,584,12,19/04/20,"沙田草地""C+3""                                    ",1800,好,4,8,53,高伯新,潘頓,9-1/4,3.9,126,3 4 4 6 12,1.48.91,1068,B/XB,,福善
11,12,510,1,22/03/20,"沙田草地""A""                                    ",1600,好,4,7,48,高伯新,利敬國,短馬頭位,6.9,122,4 5 3 1,1.34.80,1066,B/XB,,福善
12,13,465,6,04/03/20,"跑馬地草地""B""                                    ",1800,好,4,11,50,高伯新,郭能,2,17.0,123,12 11 11 11 6,1.50.02,1051,B/XB,,福善
13,14,412,5,12/02/20,"跑馬地草地""C+3""                                    ",1800,好/快,4,1,51,高伯新,薛恩,4-1/2,10.0,126,6 7 7 5 5,1.48.81,1064,B/XB,,福善
14,15,357,3,22/01/20,"跑馬地草地""A""                                    ",1650,好,4,3,51,高伯新,薛恩,1-3/4,13.0,125,7 7 8 3,1.41.02,1055,XB/B1,,福善
15,16,270,8,21/12/19,"沙田草地""A+3""                                    ",1800,好,4,1,53,高伯新,希威森,4,86.0,127,5 3 3 4 8,1.49.05,1059,XB,,福善
16,17,171,11,17/11/19,"沙田草地""B""                                    ",2000,好,4,12,55,高伯新,李寶利,7,33.0,129,11 12 12 12 11,2.04.48,1063,XB,,福善
17,18,99,7,16/10/19,"跑馬地草地""C""                                    ",1650,好,4,5,57,高伯新,李寶利,4,22.0,131,10 8 10 7,1.40.90,1064,XB,,福善
18,19,61,6,01/10/19,"沙田草地""A+3""                                    ",1600,好/快,4,9,57,高伯新,李寶利,5,179.0,130,11 11 12 6,1.34.92,1066,XB1,,福善
