,Unnamed: 0,場次,名次,日期,馬場/跑道/賽道,途程,場地狀況,賽事班次,檔位,評分,練馬師,騎師,頭馬距離,獨贏賠率,實際負磅,沿途走位,完成時間,排位體重,配備,賽事重播,馬名
0,1,617,1,25/04/21,"沙田草地""A""                                    ",1200,好,G1,3,114,高伯新,巴度,1-1/2,3.9,126,6 6 1,1.08.64,1182,XB,,福逸
1,2,563,5,05/04/21,"沙田草地""B+2""                                    ",1200,好,G2,12,114,高伯新,巴度,2-1/2,2.8,123,6 7 5,1.08.66,1182,XB,,福逸
2,3,504,1,13/03/21,"沙田草地""C+3""                                    ",1200,好,1,4,96,高伯新,巴度,1-1/4,4.2,113,5 5 1,1.07.80,1177,XB,,福逸
3,4,429,1,14/02/21,"沙田草地""A""                                    ",1200,好,2,6,90,高伯新,潘頓,短馬頭位,3.0,127,3 2 1,1.08.56,1172,XB1,,福逸
4,5,353,2,17/01/21,"沙田草地""A""                                    ",1000,好,2,10,88,高伯新,潘頓,1/2,1.7,125,5 3 2,0.56.82,1188,--,,福逸
5,6,304,1,26/12/20,"沙田草地""A+3""                                    ",1000,好,3,8,79,高伯新,潘頓,2-1/4,1.9,133,4 1 1,0.56.51,1195,--,,福逸
6,7,607,6,26/04/20,"沙田草地""A""                                    ",1400,好,3,3,79,高伯新,潘頓,3-1/4,1.5,133,2 3 3 6,1.22.03,1173,--,,福逸
7,8,515,1,22/03/20,"沙田草地""A""                                    ",1200,好/快,3,12,69,高伯新,潘頓,1,1.7,123,7 7 1,1.08.55,1170,--,,福逸
8,9,425,1,16/02/20,"沙田草地""A""                                    ",1200,好,3,13,63,高伯新,巴度,頸位,1.6,116,10 10 1,1.09.77,1179,--,,福逸
9,10,365,1,27/01/20,"沙田草地""B+2""                                    ",1200,好,4,10,52,高伯新,巴度,3,5.9,124,5 4 1,1.09.37,1173,--,,福逸
