,Unnamed: 0,場次,名次,日期,馬場/跑道/賽道,途程,場地狀況,賽事班次,檔位,評分,練馬師,騎師,頭馬距離,獨贏賠率,實際負磅,沿途走位,完成時間,排位體重,配備,賽事重播,馬名
0,1,667,10,12/05/21,沙田全天候                                    ,1650,好,4,11,43,徐雨石,黃皓楠,12-3/4,16,113,4 5 7 10,1.39.79,1008,H1/P1,,謎語
1,2,608,5,21/04/21,"跑馬地草地""C""                                    ",1650,好/快,4,1,45,徐雨石,黃皓楠,2-1/2,10,117,1 2 3 5,1.40.17,1006,--,,謎語
2,3,512,5,17/03/21,"跑馬地草地""C""                                    ",1650,好/快,4,12,47,徐雨石,馬雅,2-1/4,56,120,1 1 2 5,1.39.87,996,--,,謎語
3,4,457,10,24/02/21,"跑馬地草地""C+3""                                    ",1200,好/快,4,6,49,徐雨石,薛恩,4,17,122,5 7 10,1.10.57,1020,--,,謎語
4,5,393,7,03/02/21,"跑馬地草地""A""                                    ",1200,好,4,5,50,徐雨石,田泰安,2,18,123,7 7 7,1.10.52,1024,--,,謎語
5,6,326,7,10/01/21,"沙田草地""C""                                    ",1200,好,4,9,52,徐雨石,巫顯東,6,34,126,1 1 7,1.10.94,1027,--,,謎語
6,7,221,8,29/11/20,"沙田草地""C""                                    ",1000,好,4,6,52,徐雨石,黎海榮,9,281,130,10 13 8,0.58.24,1023,--,,謎語
