,Unnamed: 0,場次,名次,日期,馬場/跑道/賽道,途程,場地狀況,賽事班次,檔位,評分,練馬師,騎師,頭馬距離,獨贏賠率,實際負磅,沿途走位,完成時間,排位體重,配備,賽事重播,馬名
0,1,228,WV,29/11/20,"沙田草地""C""                                    ",1200,好,3,--,78,苗禮德,梁家俊,--,--,131,--,--,--,--,--,道道
1,2,102,12,11/10/20,"沙田草地""A+3""                                    ",1200,好/快,2,12,80,苗禮德,巴度,6-1/2,19,113,13 13 12,1.09.67,1155,--,,道道
2,3,64,07,27/09/20,"沙田草地""A""                                    ",1200,好,2,1,82,苗禮德,賀銘年,3-3/4,11,119,3 3 7,1.09.34,1154,--,,道道
3,4,799,06,05/07/20,"沙田草地""C+3""                                    ",1200,好/快,2,10,82,苗禮德,田泰安,3,6.4,119,10 11 6,1.08.80,1169,--,,道道
4,5,709,04,31/05/20,"沙田草地""B""                                    ",1200,好,2,6,82,苗禮德,田泰安,1-1/4,18,119,10 7 4,1.08.42,1161,--,,道道
