,Unnamed: 0,場次,名次,日期,馬場/跑道/賽道,途程,場地狀況,賽事班次,檔位,評分,練馬師,騎師,頭馬距離,獨贏賠率,實際負磅,沿途走位,完成時間,排位體重,配備,賽事重播,馬名
0,1,691,12,23/05/21,"沙田草地""A""                                    ",1200,好/快,4,11,46,蘇保羅,蔡明紹,11-1/2,59.0,121,7 7 12,1.10.72,1107,B-,,隨喜
1,2,624,8,28/04/21,"跑馬地草地""C+3""                                    ",1200,好,4,1,48,蘇保羅,史卓豐,6-1/4,4.8,122,3 3 8,1.10.32,1102,B,,隨喜
2,3,571,8,08/04/21,"跑馬地草地""A""                                    ",1650,好/快,4,5,50,蘇保羅,莫雷拉,3-3/4,8.5,123,2 4 5 8,1.41.24,1106,B1,,隨喜
3,4,520,6,21/03/21,"沙田草地""A""                                    ",1400,好,4,12,52,蘇保羅,郭能,5-1/4,13.0,126,11 12 12 6,1.22.83,1084,--,,隨喜
4,5,457,6,24/02/21,"跑馬地草地""C+3""                                    ",1200,好/快,4,2,52,蘇保羅,賀銘年,2-1/4,13.0,125,7 9 6,1.10.29,1109,--,,隨喜
5,6,394,2,03/02/21,"跑馬地草地""A""                                    ",1200,好,4,10,52,蘇保羅,郭能,1,150.0,126,9 9 2,1.10.66,1101,--,,隨喜
6,7,337,8,13/01/21,"跑馬地草地""B""                                    ",1200,好,4,9,52,蘇保羅,郭能,6,107.0,126,6 6 8,1.11.63,1110,--,,隨喜
