,Unnamed: 0,場次,名次,日期,馬場/跑道/賽道,途程,場地狀況,賽事班次,檔位,評分,練馬師,騎師,頭馬距離,獨贏賠率,實際負磅,沿途走位,完成時間,排位體重,配備,賽事重播,馬名
0,1,666,11,12/05/21,沙田全天候                                    ,1200,好,4,5,53,葉楚航,潘明輝,11-1/4,67.0,125,9 9 11,1.10.54,1270,B/XB/TT,,霸勝
1,2,577,10,11/04/21,"沙田草地""C""                                    ",1000,好,4,9,53,葉楚航,賀銘年,5,11.0,126,6 5 10,0.57.76,1274,B/XB/TT,,霸勝
2,3,461,2,28/02/21,"沙田草地""B+2""                                    ",1000,好,4,14,50,葉楚航,賀銘年,短馬頭位,18.0,124,2 4 2,0.56.69,1291,B/XB/TT,,霸勝
3,4,393,9,03/02/21,"跑馬地草地""A""                                    ",1200,好,4,4,51,葉楚航,賀銘年,3-3/4,17.0,124,6 6 9,1.10.80,1305,B/XB/TT,,霸勝
4,5,330,7,10/01/21,"沙田草地""C""                                    ",1000,好,4,9,51,葉楚航,賀銘年,2-3/4,21.0,124,1 1 7,0.57.45,1288,B/XB/TT,,霸勝
5,6,221,4,29/11/20,"沙田草地""C""                                    ",1000,好,4,11,51,葉楚航,賀銘年,3-3/4,11.0,129,11 9 4,0.57.40,1298,B/XB/TT,,霸勝
6,7,130,1,24/10/20,"沙田草地""C""                                    ",1000,好,4,14,46,葉楚航,賀銘年,1/2,5.6,123,2 1 1,0.57.45,1300,B/XB/TT,,霸勝
7,8,79,7,04/10/20,"沙田草地""C+3""                                    ",1000,好,4,13,48,葉楚航,薛恩,3-1/4,5.5,123,12 10 7,0.56.42,1301,B/XB1/TT,,霸勝
8,9,39,3,20/09/20,"沙田草地""B+2""                                    ",1000,好,4,1,48,葉楚航,薛恩,2-1/4,12.0,121,6 4 3,0.55.77,1298,B/TT,,霸勝
9,10,792,7,05/07/20,"沙田草地""C+3""                                    ",1000,好/快,4,6,52,葉楚航,郭能,7,22.0,124,11 6 7,0.56.20,1318,B/TT,,霸勝
10,11,661,8,17/05/20,"沙田草地""C+3""                                    ",1000,好/快,4,14,54,葉楚航,周俊樂,4-1/2,2.9,120,4 5 8,0.56.72,1302,B/TT,,霸勝
11,12,632,10,06/05/20,"跑馬地草地""B""                                    ",1200,好,4,1,56,葉楚航,蘇狄雄,4-1/4,19.0,127,1 1 10,1.10.68,1294,B/TT,,霸勝
12,13,597,4,22/04/20,"跑馬地草地""C+3""                                    ",1000,好,4,1,57,葉楚航,賀銘年,1-3/4,9.6,130,5 3 4,0.57.96,1286,B/TT,,霸勝
13,14,531,9,29/03/20,"沙田草地""A+3""                                    ",1200,好,4,6,59,葉楚航,黃皓楠,7-1/4,106.0,130,2 1 9,1.11.41,1294,B/TT,,霸勝
14,15,499,9,14/03/20,"沙田草地""C+3""                                    ",1200,好,3,11,61,葉楚航,潘明輝,7-1/4,151.0,112,1 1 9,1.10.10,1295,B/TT,,霸勝
15,16,459,8,01/03/20,"沙田草地""B+2""                                    ",1000,好,3,13,63,葉楚航,潘明輝,6-3/4,21.0,115,6 4 8,0.57.29,1291,B/TT,,霸勝
16,17,388,12,02/02/20,"沙田草地""C""                                    ",1000,好,3,13,65,葉楚航,巫顯東,6-1/2,33.0,119,9 11 12,0.57.58,1289,B/TT,,霸勝
17,18,306,12,05/01/20,"沙田草地""C+3""                                    ",1000,好,3,12,65,葉楚航,巫顯東,6-1/4,7.6,119,9 9 12,0.57.44,1277,B/TT,,霸勝
18,19,44,2,21/09/19,"沙田草地""A""                                    ",1000,好/快,3,13,65,葉楚航,巫顯東,1-1/4,12.0,119,7 4 2,0.56.73,1304,B/TT,,霸勝
19,20,794,8,07/07/19,"沙田草地""C""                                    ",1000,好/快,3,13,66,葉楚航,黃皓楠,7-3/4,41.0,116,4 5 8,0.56.31,1272,B/TT,,霸勝
20,21,757,3,23/06/19,"沙田草地""A""                                    ",1000,好/快,3,14,67,葉楚航,黃皓楠,3-3/4,24.0,117,5 5 3,0.56.00,1279,B/TT,,霸勝
21,22,724,3,08/06/19,"沙田草地""C""                                    ",1000,好/快,3,4,68,葉楚航,莫雷拉,4-1/4,17.0,121,5 3 3,0.55.78,1276,B/TT,,霸勝
22,23,687,5,26/05/19,"沙田草地""A""                                    ",1000,好/黏,3,9,68,葉楚航,莫雷拉,7-1/4,13.0,123,7 4 5,0.57.13,1290,B/TT,,霸勝
23,24,636,5,05/05/19,"沙田草地""B""                                    ",1000,好/黏,3,13,68,葉楚航,李寶利,4-3/4,5.6,121,3 3 5,0.57.46,1306,B/TT,,霸勝
24,25,556,1,07/04/19,"沙田草地""B+2""                                    ",1000,好,3,6,63,葉楚航,莫雷拉,3/4,2.0,118,6 1 1,0.55.85,1295,B/TT,,霸勝
25,26,525,2,24/03/19,"沙田草地""C+3""                                    ",1000,好,3,6,62,葉楚航,利敬國,1/2,3.1,115,6 4 3,0.56.62,1303,B2/TT,,霸勝
26,27,482,2,10/03/19,"沙田草地""C+3""                                    ",1000,好,3,6,60,葉楚航,賴維銘                                    ,1/2,3.6,113,6 2 2,0.57.14,1296,TT,,霸勝
27,28,440,3,20/02/19,"跑馬地草地""C""                                    ",1000,好/快,3,9,60,葉楚航,賴維銘                                    ,2-3/4,54.0,115,7 9 3,0.57.15,1305,TT,,霸勝
28,29,402,8,07/02/19,"沙田草地""C+3""                                    ",1200,好,3,6,62,葉楚航,賴維銘                                    ,3-1/4,70.0,116,6 8 8,1.10.11,1291,TT,,霸勝
29,30,371,6,27/01/19,沙田全天候                                    ,1200,好,3,7,64,葉楚航,賴維銘                                    ,3,193.0,117,7 7 6,1.09.34,1292,TT,,霸勝
30,31,325,8,09/01/19,"跑馬地草地""A""                                    ",1000,好,3,8,66,葉楚航,麥偉利                                    ,3-3/4,33.0,121,5 5 8,0.57.92,1310,B-/TT,,霸勝
31,32,299,9,29/12/18,沙田全天候                                    ,1200,好,3,3,68,葉楚航,賴維銘                                    ,6-1/2,176.0,116,2 2 9,1.09.37,1315,B/TT,,霸勝
32,33,215,11,28/11/18,"跑馬地草地""A""                                    ",1000,好,3,11,69,葉楚航,李寶利,6-3/4,32.0,122,9 10 11,0.58.55,1310,B/TT,,霸勝
33,34,79,8,07/10/18,"沙田草地""B+2""                                    ",1200,好,3,1,69,葉楚航,賴維銘                                    ,5-1/2,16.0,123,4 4 8,1.10.16,1305,B/TT,,霸勝
34,35,44,9,22/09/18,"沙田草地""A""                                    ",1000,好/快,3,12,69,葉楚航,賴維銘                                    ,6-3/4,7.7,122,4 4 9,0.57.34,1333,B/TT,,霸勝
35,36,7,1,02/09/18,"沙田草地""B""                                    ",1000,好,3,4,63,葉楚航,賴維銘                                    ,1/2,6.6,116,7 7 1,0.56.55,1305,B/TT,,霸勝
36,37,761,1,01/07/18,"沙田草地""B""                                    ",1000,好/快,4,5,58,葉楚航,潘頓,頭位,2.9,131,4 1 1,0.56.13,1308,B/TT1,,霸勝
37,38,732,4,16/06/18,"沙田草地""C+3""                                    ",1000,好,4,7,58,葉楚航,潘頓,1-1/2,1.9,131,3 1 4,0.56.87,1309,B,,霸勝
38,39,677,1,27/05/18,"沙田草地""A""                                    ",1000,好,4,4,51,葉楚航,潘頓,1-1/4,2.4,124,2 1 1,0.55.88,1292,B2,,霸勝
39,40,590,7,21/04/18,"沙田草地""C+3""                                    ",1400,好,4,7,51,葉楚航,柏寶                                    ,2-1/2,8.9,124,7 8 9 7,1.22.64,1284,B-,,霸勝
40,41,513,4,21/03/18,"跑馬地草地""C""                                    ",1200,好,4,4,50,葉楚航,莫雷拉,1/2,2.4,125,4 4 4,1.10.18,1278,B,,霸勝
41,42,469,5,03/03/18,"沙田草地""C""                                    ",1200,好,4,2,50,葉楚航,梁家俊,2-1/4,4.6,121,2 2 5,1.10.49,1276,B,,霸勝
42,43,409,2,10/02/18,"沙田草地""C+3""                                    ",1000,好,4,7,50,葉楚航,梁家俊,2,7.1,121,5 4 2,0.57.36,1289,B1,,霸勝
43,44,782,11,09/07/17,沙田全天候                                    ,1200,好,4,2,52,葉楚航,韋達                                    ,10,11.0,129,9 9 11,1.11.15,1240,--,,霸勝
