,Unnamed: 0,場次,名次,日期,馬場/跑道/賽道,途程,場地狀況,賽事班次,檔位,評分,練馬師,騎師,頭馬距離,獨贏賠率,實際負磅,沿途走位,完成時間,排位體重,配備,賽事重播,馬名
0,1,554,11,31/03/21,沙田全天候                                    ,1650,好,2,8,89,姚本輝,潘明輝,10-3/4,21.0,116,8 8 8 11,1.38.97,1144,B,,鞍歌
1,2,448,6,21/02/21,沙田全天候                                    ,1200,好,2,3,89,姚本輝,潘明輝,1-3/4,16.0,120,7 7 6,1.08.32,1168,B,,鞍歌
2,3,347,2,17/01/21,沙田全天候                                    ,1650,好,1,1,89,姚本輝,潘明輝,1-3/4,22.0,112,5 7 5 2,1.38.13,1170,B,,鞍歌
3,4,248,6,06/12/20,沙田全天候                                    ,1200,好,2,9,89,姚本輝,莫雷拉,4,7.5,126,4 3 6,1.08.93,1179,B,,鞍歌
4,5,118,2,18/10/20,沙田全天候                                    ,1200,好,2,9,88,姚本輝,陳嘉熙,1,38.0,115,8 8 2,1.08.56,1174,B,,鞍歌
5,6,828,8,15/07/20,"跑馬地草地""B""                                    ",1200,好/快,2,2,89,姚本輝,蘇狄雄,3-1/2,11.0,120,5 3 8,1.09.10,1150,B,,鞍歌
6,7,768,4,24/06/20,"跑馬地草地""C""                                    ",1200,好/快,2,2,89,姚本輝,潘明輝,1,10.0,120,5 5 4,1.09.29,1138,B,,鞍歌
7,8,745,6,14/06/20,沙田全天候                                    ,1200,濕慢,2,7,90,姚本輝,賀銘年,3,14.0,127,6 8 6,1.08.36,1145,B,,鞍歌
8,9,591,6,19/04/20,沙田全天候                                    ,1200,好,2,6,90,姚本輝,賀銘年,6,9.6,127,8 7 6,1.08.23,1151,B,,鞍歌
9,10,508,3,18/03/20,"跑馬地草地""C+3""                                    ",1200,好,2,12,90,姚本輝,利敬國,1-1/4,44.0,123,11 11 3,1.09.28,1145,B,,鞍歌
10,11,434,3,19/02/20,沙田全天候                                    ,1200,好,2,12,89,姚本輝,田泰安,1-1/4,12.0,119,7 6 3,1.08.01,1133,B,,鞍歌
11,12,310,1,05/01/20,沙田全天候                                    ,1200,好,3,8,82,姚本輝,蘇兆輝,1-1/4,21.0,131,8 7 1,1.09.09,1133,B,,鞍歌
12,13,215,4,01/12/19,沙田全天候                                    ,1200,好,2,10,82,姚本輝,蘇兆輝,2-1/4,9.2,115,7 6 4,1.08.23,1126,B,,鞍歌
13,14,132,3,27/10/19,沙田全天候                                    ,1200,好,3,9,80,姚本輝,利敬國,頸位,8.3,133,9 8 3,1.09.22,1139,B,,鞍歌
14,15,89,1,12/10/19,沙田全天候                                    ,1200,好,3,10,72,姚本輝,田泰安,2-1/2,12.0,125,4 4 1,1.08.49,1158,CP-/B1,,鞍歌
15,16,796,5,07/07/19,沙田全天候                                    ,1200,好,3,8,76,姚本輝,陳嘉熙,4,32.0,122,3 4 5,1.09.54,1144,CP1,,鞍歌
16,17,737,9,12/06/19,沙田全天候                                    ,1200,濕慢,3,11,78,姚本輝,杜美爾,4,45.0,133,9 9 9,1.09.90,1147,--,,鞍歌
17,18,700,5,29/05/19,"跑馬地草地""C""                                    ",1000,好,3,10,80,姚本輝,杜美爾,4,38.0,133,10 11 5,0.57.65,1145,--,,鞍歌
18,19,646,7,08/05/19,沙田全天候                                    ,1200,濕慢,3,6,80,姚本輝,陳嘉熙,5-1/4,5.2,123,4 6 7,1.10.52,1147,--,,鞍歌
19,20,601,3,22/04/19,沙田全天候                                    ,1200,好,3,8,79,姚本輝,潘明輝,1-1/2,30.0,129,11 10 3,1.08.69,1153,--,,鞍歌
20,21,550,6,03/04/19,沙田全天候                                    ,1200,好,3,2,80,姚本輝,何澤堯,6-1/4,5.7,131,7 6 6,1.10.33,1161,--,,鞍歌
21,22,225,4,02/12/18,沙田全天候                                    ,1200,好,2,5,81,姚本輝,巫顯東,4-1/4,10.0,113,5 6 4,1.08.41,1147,--,,鞍歌
22,23,144,9,31/10/18,沙田全天候                                    ,1200,好,3,9,81,姚本輝,巫顯東,5,5.6,124,1 1 9,1.09.49,1150,--,,鞍歌
23,24,97,3,13/10/18,沙田全天候                                    ,1200,好,3,11,80,姚本輝,巫顯東,頸位,7.6,128,2 2 3,1.08.72,1148,--,,鞍歌
24,25,42,2,22/09/18,沙田全天候                                    ,1200,好,3,7,78,姚本輝,巫顯東,頸位,2.4,126,2 2 2,1.08.73,1145,--,,鞍歌
25,26,27,2,09/09/18,沙田全天候                                    ,1200,好,3,3,76,姚本輝,田泰安,3/4,8.0,133,3 3 2,1.09.45,1145,--,,鞍歌
26,27,785,1,08/07/18,沙田全天候                                    ,1200,濕慢,3,3,70,姚本輝,田泰安,3/4,2.9,128,2 2 1,1.08.38,1133,--,,鞍歌
27,28,731,4,13/06/18,"跑馬地草地""B""                                    ",1200,好,3,3,70,姚本輝,田泰安,2-1/4,5.6,126,3 2 4,1.10.24,1117,--,,鞍歌
28,29,636,3,09/05/18,"跑馬地草地""A""                                    ",1200,好,3,3,70,姚本輝,田泰安,1,4.6,127,3 2 3,1.10.55,1143,--,,鞍歌
29,30,583,1,18/04/18,"跑馬地草地""B""                                    ",1200,好,3,3,63,姚本輝,田泰安,1-1/4,4.3,117,4 3 1,1.09.97,1125,--,,鞍歌
30,31,562,2,11/04/18,"跑馬地草地""A""                                    ",1000,好,3,11,62,姚本輝,莫雷拉,1-3/4,3.7,115,2 2 2,0.57.31,1139,--,,鞍歌
31,32,500,4,14/03/18,"跑馬地草地""B""                                    ",1000,好,3,9,62,姚本輝,史卓豐,3/4,4.7,119,6 7 4,0.57.50,1144,--,,鞍歌
32,33,425,6,14/02/18,"跑馬地草地""B""                                    ",1200,好,3,10,63,姚本輝,莫雷拉,4-1/4,5.3,116,1 1 6,1.10.45,1151,--,,鞍歌
33,34,333,3,10/01/18,"跑馬地草地""B""                                    ",1000,好,3,11,63,姚本輝,莫雷拉,1-1/4,4.2,117,5 5 3,0.57.46,1153,--,,鞍歌
34,35,241,12,03/12/17,"沙田草地""C+3""                                    ",1000,好,3,10,63,姚本輝,史卓豐,9,5.8,116,1 2 12,0.57.49,1160,--,,鞍歌
35,36,783,1,09/07/17,"沙田草地""B+2""                                    ",1000,好,4,7,57,姚本輝,潘頓,1,2.6,131,5 4 1,0.56.45,1134,--,,鞍歌
36,37,715,2,11/06/17,"沙田草地""C""                                    ",1000,好/快,4,11,55,姚本輝,潘頓,短馬頭位,1.6,128,2 1 2,0.56.90,1122,--,,鞍歌
37,38,647,5,13/05/17,"沙田草地""C""                                    ",1000,好,4,4,55,姚本輝,史卓豐,4-1/2,1.9,129,9 6 5,0.57.63,1124,--,,鞍歌
38,39,553,2,09/04/17,"沙田草地""C""                                    ",1000,好/快,4,6,52,姚本輝,史卓豐,頭位,14.0,126,1 1 2,0.55.43,1132,--,,鞍歌
39,40,502,8,19/03/17,"沙田草地""A""                                    ",1000,好/黏,4,7,52,姚本輝,李寶利,7,3.6,126,13 10 8,0.59.12,1148,--,,鞍歌
