,Unnamed: 0,場次,名次,日期,馬場/跑道/賽道,途程,場地狀況,賽事班次,檔位,評分,練馬師,騎師,頭馬距離,獨贏賠率,實際負磅,沿途走位,完成時間,排位體重,配備,賽事重播,馬名
0,1,687,10,19/05/21,"跑馬地草地""B""                                    ",1200,好/快,3,4,71,蔡約翰,史卓豐,7-1/2,9.2,127,6 7 10,1.10.84,1090,B,,飛凡
1,2,650,4,05/05/21,"跑馬地草地""A""                                    ",1200,好/快,3,6,71,蔡約翰,田泰安,2-3/4,12.0,125,10 9 4,1.09.97,1111,B1,,飛凡
