,Unnamed: 0,場次,名次,日期,馬場/跑道/賽道,途程,場地狀況,賽事班次,檔位,評分,練馬師,騎師,頭馬距離,獨贏賠率,實際負磅,沿途走位,完成時間,排位體重,配備,賽事重播,馬名
0,1,681,6,19/05/21,"跑馬地草地""B""                                    ",1650,好/快,5,3,32,鄭俊偉,巴度,6-1/4,6.4,125,2 3 4 6,1.40.31,1108,B,,龍船
1,2,655,3,08/05/21,"沙田草地""C""                                    ",1400,好/快,5,2,33,鄭俊偉,彭國年,1-3/4,13.0,125,8 9 4 3,1.22.29,1108,B,,龍船
2,3,470,5,03/03/21,"跑馬地草地""A""                                    ",1650,好,5,1,34,鄭俊偉,黃皓楠,1-3/4,17.0,124,7 7 6 5,1.41.18,1097,B1,,龍船
3,4,338,7,13/01/21,"跑馬地草地""B""                                    ",1650,好,5,10,37,鄭俊偉,郭能,6-1/4,17.0,131,9 9 8 7,1.42.29,1084,TT-,,龍船
4,5,251,7,09/12/20,"跑馬地草地""B""                                    ",1650,好,4,9,40,鄭俊偉,黎海榮,4-1/2,73.0,114,12 12 12 7,1.40.82,1106,TT,,龍船
5,6,218,8,25/11/20,"跑馬地草地""C+3""                                    ",1650,好,4,1,43,鄭俊偉,彭國年,8-1/2,14.0,117,4 3 4 8,1.41.00,1105,TT,,龍船
6,7,170,8,08/11/20,"跑馬地草地""A""                                    ",1650,好,4,6,45,鄭俊偉,波健士,3,37.0,118,7 9 8 8,1.41.88,1095,TT,,龍船
7,8,123,9,21/10/20,"跑馬地草地""C""                                    ",1650,好/快,4,10,47,鄭俊偉,楊明綸,6-1/2,44.0,121,11 11 11 9,1.40.44,1094,TT,,龍船
8,9,38,8,20/09/20,沙田全天候                                    ,1650,濕慢,4,5,49,鄭俊偉,潘頓,34-1/2,21.0,122,2 2 2 8,1.43.55,1086,TT,,龍船
9,10,12,10,09/09/20,"跑馬地草地""B""                                    ",1650,好,4,8,51,鄭俊偉,田泰安,12,17.0,125,9 10 9 10,1.42.01,1093,TT,,龍船
10,11,823,6,15/07/20,"跑馬地草地""B""                                    ",1650,好/快,4,12,54,鄭俊偉,薛恩,3,36.0,127,12 11 10 6,1.39.68,1104,TT,,龍船
11,12,763,5,24/06/20,"跑馬地草地""C""                                    ",1650,好/快,4,7,54,鄭俊偉,郭能,3/4,17.0,127,6 3 3 5,1.40.24,1093,TT,,龍船
12,13,714,7,03/06/20,"跑馬地草地""A""                                    ",1650,好,4,5,56,鄭俊偉,潘頓,3,8.6,130,10 9 9 7,1.40.92,1098,TT,,龍船
13,14,664,8,17/05/20,"沙田草地""C+3""                                    ",1400,好/快,4,7,58,鄭俊偉,黃俊,4,46.0,128,4 2 2 8,1.22.20,1082,TT,,龍船
14,15,633,3,06/05/20,"跑馬地草地""B""                                    ",1650,好,4,2,59,鄭俊偉,史卓豐,3-1/4,10.0,133,3 3 3 3,1.39.97,1091,TT,,龍船
15,16,579,9,15/04/20,"跑馬地草地""C""                                    ",1200,好,3,11,61,鄭俊偉,楊明綸,4-1/4,137.0,114,11 11 9,1.09.85,1091,TT,,龍船
16,17,554,7,05/04/20,"沙田草地""B+2""                                    ",1400,好,3,12,63,鄭俊偉,梁家俊,5,128.0,117,11 14 14 7,1.23.53,1091,TT,,龍船
17,18,526,12,25/03/20,"跑馬地草地""A""                                    ",1200,好,3,10,65,鄭俊偉,黃俊,7-3/4,140.0,114,8 10 12,1.10.82,1099,TT,,龍船
18,19,470,9,04/03/20,"跑馬地草地""B""                                    ",1650,好,3,4,67,鄭俊偉,利敬國,7,11.0,120,5 5 6 9,1.41.13,1100,TT,,龍船
19,20,414,7,12/02/20,"跑馬地草地""C+3""                                    ",1650,好/快,3,12,67,鄭俊偉,利敬國,2-1/4,15.0,120,10 10 11 7,1.39.56,1085,TT,,龍船
20,21,337,2,15/01/20,"跑馬地草地""C+3""                                    ",1650,好,3,9,65,鄭俊偉,利敬國,頸位,14.0,119,10 10 10 2,1.39.35,1092,TT,,龍船
21,22,274,14,21/12/19,"沙田草地""A+3""                                    ",1400,好,3,12,66,鄭俊偉,梁家俊,10,54.0,119,4 4 5 14,1.24.04,1098,TT,,龍船
22,23,187,4,20/11/19,"跑馬地草地""C+3""                                    ",1650,好/快,3,3,66,鄭俊偉,薛恩,1-1/2,22.0,124,4 4 5 4,1.39.47,1093,TT,,龍船
23,24,121,7,23/10/19,"跑馬地草地""C+3""                                    ",1650,好/快,3,11,68,鄭俊偉,史卓豐,3-1/2,34.0,123,3 2 1 7,1.40.16,1095,TT,,龍船
24,25,75,6,06/10/19,"沙田草地""B+2""                                    ",1400,好/黏,3,8,69,鄭俊偉,沈拿,3,99.0,126,7 7 7 6,1.22.45,1094,TT,,龍船
25,26,805,9,10/07/19,"跑馬地草地""A""                                    ",1800,好,3,10,71,丁冠豪,李寶利,6-1/2,82.0,124,5 6 6 7 9,1.50.02,1087,TT,,龍船
26,27,766,12,26/06/19,"跑馬地草地""B""                                    ",1650,好/快,3,7,71,丁冠豪,李寶利,8-1/4,16.0,127,2 3 2 12,1.40.52,1083,TT,,龍船
27,28,678,4,22/05/19,"跑馬地草地""B""                                    ",1650,好/快,3,6,71,丁冠豪,李寶利,2-3/4,13.0,124,2 3 4 4,1.39.74,1075,TT,,龍船
28,29,626,3,01/05/19,"跑馬地草地""C+3""                                    ",1650,好/快,3,3,71,丁冠豪,李寶利,3,11.0,124,4 3 4 3,1.39.67,1078,TT,,龍船
29,30,573,1,10/04/19,"跑馬地草地""A""                                    ",1650,好,3,1,66,丁冠豪,李寶利,1/2,9.6,119,3 3 5 1,1.40.00,1076,TT,,龍船
30,31,514,5,20/03/19,"跑馬地草地""C""                                    ",1650,好/快,3,7,66,丁冠豪,李寶利,1,11.0,119,5 5 6 5,1.39.83,1064,TT,,龍船
31,32,458,5,27/02/19,"跑馬地草地""C+3""                                    ",1650,好/快,3,8,68,丁冠豪,梁家俊,3-1/4,10.0,123,7 7 5 5,1.39.59,1067,TT,,龍船
32,33,363,4,23/01/19,"跑馬地草地""C""                                    ",1200,好,3,9,70,丁冠豪,郭能,3-3/4,47.0,124,8 7 4,1.10.16,1070,TT,,龍船
33,34,306,9,01/01/19,"沙田草地""C""                                    ",1200,好,3,10,72,丁冠豪,黃皓楠,11,80.0,125,11 12 9,1.10.76,1081,TT,,龍船
34,35,251,7,12/12/18,"跑馬地草地""C""                                    ",1200,好,3,6,74,丁冠豪,黃皓楠,4-1/4,15.0,128,7 8 7,1.10.82,1063,TT,,龍船
35,36,216,5,28/11/18,"跑馬地草地""A""                                    ",1200,好,3,3,75,丁冠豪,巫顯東,2-3/4,55.0,126,6 7 5,1.10.51,1074,TT,,龍船
36,37,172,14,10/11/18,"沙田草地""A""                                    ",1600,好,3,14,77,丁冠豪,黃皓楠,7-3/4,18.0,128,7 6 6 14,1.36.57,1078,TT,,龍船
37,38,59,14,01/10/18,"沙田草地""A+3""                                    ",1400,好,3,12,78,丁冠豪,黃皓楠,16,35.0,128,2 2 4 14,1.23.91,1091,TT,,龍船
38,39,769,8,01/07/18,"沙田草地""B""                                    ",1400,好,3,5,79,蔡約翰,黃皓楠,1-3/4,40.0,129,4 5 5 8,1.22.60,1074,TT,,龍船
39,40,723,6,10/06/18,"沙田草地""C""                                    ",1400,好/快,3,2,80,蔡約翰,黃皓楠,1-1/4,14.0,128,3 4 4 6,1.22.02,1064,TT,,龍船
40,41,685,7,27/05/18,"沙田草地""A""                                    ",1400,好/快,3,9,80,蔡約翰,杜利萊                                    ,7,16.0,133,7 5 5 7,1.22.97,1069,TT,,龍船
41,42,649,8,12/05/18,"沙田草地""C""                                    ",1400,好,3,14,80,蔡約翰,莫雷拉,5-1/4,5.7,133,3 4 4 8,1.22.82,1068,TT,,龍船
42,43,592,1,21/04/18,"沙田草地""C+3""                                    ",1400,好,3,2,74,蔡約翰,莫雷拉,1-1/2,3.4,127,4 4 3 1,1.21.80,1071,TT,,龍船
43,44,557,3,08/04/18,"沙田草地""C""                                    ",1400,好,3,8,74,蔡約翰,莫雷拉,3/4,8.1,127,1 3 3 3,1.22.48,1064,TT,,龍船
44,45,518,7,21/03/18,"跑馬地草地""C""                                    ",1650,好,3,6,76,蔡約翰,杜利萊                                    ,3-3/4,6.3,130,3 3 6 7,1.40.50,1068,TT1,,龍船
45,46,463,7,28/02/18,沙田全天候                                    ,1650,好,3,3,78,蔡約翰,杜利萊                                    ,3-3/4,9.2,132,5 6 9 7,1.38.87,1084,--,,龍船
46,47,426,4,14/02/18,"跑馬地草地""B""                                    ",1650,好,3,1,78,蔡約翰,杜利萊                                    ,1,5.6,132,6 5 3 4,1.40.04,1093,--,,龍船
47,48,408,5,07/02/18,"跑馬地草地""A""                                    ",1650,好,3,7,80,蔡約翰,杜利萊                                    ,2-3/4,5.3,133,4 5 4 5,1.40.99,1099,--,,龍船
48,49,371,6,24/01/18,沙田全天候                                    ,1200,好,3,3,82,蔡約翰,莫雷拉,3-1/2,5.1,130,7 5 6,1.08.71,1076,--,,龍船
49,50,343,7,13/01/18,沙田全天候                                    ,1650,好,2,4,84,蔡約翰,柏寶                                    ,5-1/2,24.0,121,7 7 6 7,1.38.22,1085,--,,龍船
50,51,328,8,07/01/18,"沙田草地""C""                                    ",1600,好,2,10,86,蔡約翰,祈普敦                                    ,4-1/4,20.0,121,3 2 2 8,1.36.16,1084,--,,龍船
51,52,281,8,17/12/17,"沙田草地""C+3""                                    ",1400,好,2,8,86,蔡約翰,莫雷拉,3-3/4,10.0,122,1 1 1 8,1.22.69,1072,--,,龍船
52,53,198,2,15/11/17,"跑馬地草地""C""                                    ",1650,好,2,2,85,蔡約翰,莫雷拉,3/4,2.9,122,3 3 2 2,1.39.74,1085,--,,龍船
53,54,172,4,05/11/17,"沙田草地""C+3""                                    ",1400,好/快,2,3,84,蔡約翰,莫雷拉,3/4,18.0,124,3 4 4 4,1.21.49,1083,--,,龍船
54,55,153,4,29/10/17,"跑馬地草地""A""                                    ",1650,好/快,2,1,85,蔡約翰,杜利萊                                    ,2,4.8,124,3 3 3 4,1.40.57,1079,--,,龍船
55,56,136,10,22/10/17,"沙田草地""A""                                    ",1400,好/快,2,14,87,蔡約翰,柏寶                                    ,6-1/4,50.0,121,8 10 11 10,1.22.37,1075,--,,龍船
56,57,100,6,08/10/17,"沙田草地""B+2""                                    ",1400,好,2,12,87,蔡約翰,莫雷拉,3-1/4,20.0,120,7 4 2 6,1.22.31,1068,--,,龍船
57,58,807,8,16/07/17,"沙田草地""C""                                    ",1400,好/黏,2,3,87,蔡約翰,莫雷拉,4-1/2,4.7,121,5 3 5 8,1.23.65,1062,--,,龍船
58,59,767,2,28/06/17,"跑馬地草地""C+3""                                    ",1650,好/快,2,5,86,蔡約翰,莫雷拉,1-3/4,3.5,124,3 2 2 2,1.39.18,1051,--,,龍船
59,60,731,2,14/06/17,"跑馬地草地""B""                                    ",1800,好/快,2,4,85,蔡約翰,柏寶                                    ,2-1/2,6.7,119,5 4 3 3 2,1.48.00,1055,--,,龍船
60,61,641,2,10/05/17,"跑馬地草地""A""                                    ",1800,好/快,2,8,83,蔡約翰,杜利萊                                    ,頸位,11.0,120,2 3 3 3 2,1.49.82,1049,--,,龍船
61,62,562,2,09/04/17,"沙田草地""C""                                    ",1400,好/快,3,5,80,蔡約翰,柏寶                                    ,頸位,46.0,133,8 9 8 2,1.21.78,1050,--,,龍船
62,63,488,10,12/03/17,沙田全天候                                    ,1650,好,2,6,81,蔡約翰,田泰安,3-3/4,19.0,118,6 8 8 10,1.38.27,1067,--,,龍船
63,64,434,9,19/02/17,"沙田草地""A""                                    ",1400,好/快,2,10,81,蔡約翰,田泰安,4-1/4,16.0,119,3 2 2 9,1.22.36,1059,--,,龍船
64,65,406,2,08/02/17,"跑馬地草地""B""                                    ",1650,好,3,2,79,蔡約翰,柏寶                                    ,頸位,8.9,133,6 7 7 2,1.39.95,1068,--,,龍船
65,66,368,4,25/01/17,"跑馬地草地""C+3""                                    ",1650,好,3,3,79,蔡約翰,莫雷拉,1-3/4,6.9,133,5 5 5 4,1.39.76,1060,--,,龍船
66,67,321,1,08/01/17,"沙田草地""C""                                    ",1400,好/快,3,9,73,蔡約翰,莫雷拉,3/4,6.5,126,4 4 3 1,1.22.30,1059,--,,龍船
67,68,276,4,17/12/16,"沙田草地""C+3""                                    ",1400,好/快,3,3,73,蔡約翰,莫雷拉,2,4.6,128,3 3 3 4,1.22.20,1066,--,,龍船
68,69,248,1,07/12/16,"跑馬地草地""B""                                    ",1650,好/快,3,1,67,蔡約翰,戶崎圭太                                    ,3/4,29.0,120,3 2 2 1,1.40.87,1062,--,,龍船
69,70,210,9,23/11/16,"跑馬地草地""C+3""                                    ",1650,好,3,4,69,蔡約翰,柏寶                                    ,8-1/4,11.0,123,5 5 6 9,1.42.54,1068,--,,龍船
70,71,153,4,02/11/16,沙田全天候                                    ,1200,好,3,5,70,蔡約翰,柏寶                                    ,1-3/4,29.0,124,10 10 4,1.09.88,1069,--,,龍船
71,72,89,11,08/10/16,沙田全天候                                    ,1650,好,3,14,72,蔡約翰,何澤堯,7-1/4,26.0,124,2 2 4 11,1.40.37,1066,--,,龍船
72,73,35,14,18/09/16,"沙田草地""C+3""                                    ",1000,好/快,3,3,74,蔡約翰,祈普敦                                    ,10-3/4,95.0,127,12 14 14,0.57.64,1063,--,,龍船
73,74,723,8,15/06/16,"跑馬地草地""B""                                    ",1200,好/快,3,6,78,蔡約翰,郭能,4,23.0,127,6 6 8,1.10.59,1050,--,,龍船
74,75,682,8,01/06/16,"跑馬地草地""C+3""                                    ",1200,好,3,5,80,蔡約翰,莫雷拉,4-1/2,4.7,131,3 4 8,1.10.45,1047,--,,龍船
75,76,580,10,20/04/16,"跑馬地草地""B""                                    ",1000,好,3,2,80,蔡約翰,莫雷拉,4-1/4,2.8,130,9 8 10,0.57.92,1052,--,,龍船
