,Unnamed: 0,場次,名次,日期,馬場/跑道/賽道,途程,場地狀況,賽事班次,檔位,評分,練馬師,騎師,頭馬距離,獨贏賠率,實際負磅,沿途走位,完成時間,排位體重,配備,賽事重播,馬名
0,1,670,12,16/05/21,沙田全天候                                    ,1200,好,5,11,34,霍利時,巴度,18-1/4,6.4,128,8 12 12,1.12.76,1236,B/TT,,上捕先鋒
1,2,605,12,21/04/21,"跑馬地草地""C""                                    ",1200,好/快,5,4,34,霍利時,薛恩,12,8.4,128,6 5 12,1.11.86,1240,B/TT,,上捕先鋒
2,3,479,9,07/03/21,沙田全天候                                    ,1200,濕慢,5,12,34,霍利時,薛恩,6-3/4,6.9,127,8 8 9,1.09.85,1236,B/TT,,上捕先鋒
3,4,328,1,10/01/21,沙田全天候                                    ,1200,好,5,6,28,霍利時,薛恩,1-1/2,17.0,121,4 3 1,1.09.61,1233,B/TT,,上捕先鋒
4,5,296,6,26/12/20,"沙田草地""A+3""                                    ",1200,好,5,9,30,霍利時,薛恩,3-1/2,82.0,123,4 5 6,1.10.57,1232,B/TT1,,上捕先鋒
5,6,240,4,06/12/20,沙田全天候                                    ,1200,好,5,7,32,霍利時,莫雷拉,5-3/4,8.9,125,4 3 4,1.10.24,1215,B,,上捕先鋒
6,7,176,9,11/11/20,"跑馬地草地""B""                                    ",1000,好,5,2,35,霍利時,黎海榮,4,77.0,128,7 6 9,0.58.38,1200,B,,上捕先鋒
7,8,719,12,07/06/20,"沙田草地""C""                                    ",1200,黏,5,9,40,霍利時,梁家俊,20,32.0,133,12 11 12,1.13.77,1161,B,,上捕先鋒
8,9,626,9,03/05/20,沙田全天候                                    ,1200,好,4,2,43,霍利時,楊明綸,6,32.0,116,9 7 9,1.09.81,1165,B,,上捕先鋒
9,10,587,11,19/04/20,沙田全天候                                    ,1200,好,4,5,45,霍利時,田泰安,7-1/2,13.0,119,5 4 11,1.09.77,1178,B,,上捕先鋒
10,11,540,3,01/04/20,沙田全天候                                    ,1200,濕慢,4,7,46,霍利時,楊明綸,2-1/4,65.0,120,7 8 3,1.09.84,1177,B,,上捕先鋒
11,12,473,10,08/03/20,沙田全天候                                    ,1200,好,4,6,49,霍利時,郭能,9-3/4,15.0,124,6 6 10,1.11.02,1167,SR-/B2,,上捕先鋒
12,13,431,9,19/02/20,沙田全天候                                    ,1650,好,4,6,51,霍利時,田泰安,8,42.0,124,4 5 5 9,1.40.22,1183,SR,,上捕先鋒
13,14,395,12,05/02/20,"跑馬地草地""C""                                    ",1650,好,4,11,53,霍利時,潘頓,6-1/4,42.0,126,9 9 10 12,1.41.63,1184,B-/SR1,,上捕先鋒
14,15,308,10,05/01/20,沙田全天候                                    ,1200,好,4,2,55,霍利時,郭能,9,18.0,128,4 4 10,1.11.05,1171,B,,上捕先鋒
15,16,248,9,15/12/19,沙田全天候                                    ,1200,好,4,4,55,霍利時,郭能,5-1/4,7.0,129,4 4 9,1.10.22,1168,B,,上捕先鋒
16,17,213,3,01/12/19,沙田全天候                                    ,1200,好,4,6,53,霍利時,郭能,頸位,13.0,127,3 3 3,1.09.07,1174,B,,上捕先鋒
17,18,129,5,27/10/19,沙田全天候                                    ,1200,好,4,10,55,霍利時,郭能,2-1/2,43.0,128,7 6 5,1.10.04,1170,B,,上捕先鋒
18,19,81,7,09/10/19,"跑馬地草地""B""                                    ",1200,好,4,11,57,霍利時,李寶利,5-1/2,67.0,131,11 7 7,1.10.85,1182,B,,上捕先鋒
19,20,53,10,25/09/19,"跑馬地草地""A""                                    ",1200,好/快,4,8,60,霍利時,希威森,9-1/4,136.0,133,3 3 10,1.11.82,1165,B,,上捕先鋒
20,21,17,12,08/09/19,"沙田草地""C""                                    ",1200,好/快,3,2,62,霍利時,希威森,5-3/4,124.0,115,4 6 12,1.09.52,1163,B1,,上捕先鋒
21,22,815,13,14/07/19,"沙田草地""A""                                    ",1400,好/快,3,5,68,霍利時,李寶利,7-1/2,125.0,121,3 5 9 13,1.23.10,1176,--,,上捕先鋒
22,23,748,9,16/06/19,"沙田草地""C+3""                                    ",1200,好/快,3,1,71,霍利時,沈拿,4-3/4,242.0,124,7 6 9,1.09.67,1163,--,,上捕先鋒
23,24,720,11,05/06/19,"跑馬地草地""A""                                    ",1200,好,3,9,74,霍利時,夏禮賢                                    ,8-3/4,186.0,129,11 11 11,1.11.19,1161,--,,上捕先鋒
24,25,664,10,15/05/19,"跑馬地草地""A""                                    ",1200,好,3,9,76,霍利時,夏禮賢                                    ,5-3/4,72.0,129,10 10 10,1.11.10,1165,--,,上捕先鋒
25,26,582,9,14/04/19,"沙田草地""C""                                    ",1200,好/黏,3,12,78,霍利時,夏禮賢                                    ,4,542.0,131,12 12 9,1.10.80,1161,--,,上捕先鋒
26,27,535,11,27/03/19,"跑馬地草地""C+3""                                    ",1200,好/快,3,3,80,霍利時,黃皓楠,9-1/4,156.0,130,6 7 11,1.11.24,1174,--,,上捕先鋒
27,28,494,9,13/03/19,"跑馬地草地""B""                                    ",1200,好,3,10,80,霍利時,黃皓楠,7-3/4,128.0,130,12 11 9,1.11.38,1178,--,,上捕先鋒
