,Unnamed: 0,場次,名次,日期,馬場/跑道/賽道,途程,場地狀況,賽事班次,檔位,評分,練馬師,騎師,頭馬距離,獨贏賠率,實際負磅,沿途走位,完成時間,排位體重,配備,賽事重播,馬名
0,1,689,5,23/05/21,"沙田草地""A""                                    ",1200,好/快,GRIFFIN,9,--,苗禮德,田泰安,5-1/2,13.0,121,6 6 5,1.10.12,1080,B1,,亟多福
1,2,632,5,02/05/21,"沙田草地""B""                                    ",1000,好,GRIFFIN,5,--,苗禮德,田泰安,2-3/4,26.0,121,7 6 5,0.57.52,1066,--,,亟多福
2,3,574,8,11/04/21,"沙田草地""C""                                    ",1000,好,GRIFFIN,1,--,苗禮德,田泰安,7-1/2,9.3,121,6 4 8,0.58.16,1074,--,,亟多福
