,Unnamed: 0,場次,名次,日期,馬場/跑道/賽道,途程,場地狀況,賽事班次,檔位,評分,練馬師,騎師,頭馬距離,獨贏賠率,實際負磅,沿途走位,完成時間,排位體重,配備,賽事重播,馬名
0,1,705,11,26/05/21,"跑馬地草地""C""                                    ",1200,好/快,4,8,58,賀賢,薛恩,8,35,133,4 3 11,1.10.83,1102,V,,亮先生
1,2,570,10,08/04/21,"跑馬地草地""A""                                    ",1200,好/快,4,11,60,賀賢,薛恩,7,21,133,10 11 10,1.11.10,1104,V,,亮先生
2,3,533,04,24/03/21,"跑馬地草地""C+3""                                    ",1200,好/快,3,8,61,賀賢,楊明綸,2-1/2,50,115,12 10 4,1.09.77,1102,V,,亮先生
3,4,514,06,17/03/21,"跑馬地草地""C""                                    ",1000,好/快,3,2,64,賀賢,梁家俊,4-1/2,22,117,5 4 6,0.56.97,1113,V1,,亮先生
4,5,454,11,24/02/21,"跑馬地草地""C+3""                                    ",1000,好/快,3,3,67,賀賢,潘明輝,8-1/2,13,119,2 4 11,0.58.23,1108,--,,亮先生
5,6,409,08,06/02/21,"沙田草地""C""                                    ",1000,好,3,10,69,賀賢,周俊樂,5-1/4,17,117,4 6 8,0.56.42,1120,--,,亮先生
6,7,362,05,20/01/21,"跑馬地草地""C""                                    ",1200,好,3,3,71,賀賢,薛恩,3-1/2,99,124,10 11 5,1.10.22,1114,--,,亮先生
7,8,322,11,06/01/21,"跑馬地草地""A""                                    ",1000,好,3,11,74,賀賢,巫顯東,8,100,126,12 12 11,0.57.94,1118,--,,亮先生
8,9,236,06,02/12/20,"跑馬地草地""A""                                    ",1000,好,3,3,76,賀賢,黃俊,5-1/2,79,124,6 7 6,0.57.76,1114,CP-,,亮先生
9,10,173,08,08/11/20,"跑馬地草地""A""                                    ",1000,好,3,3,78,賀賢,何澤堯,4-3/4,24,131,9 7 8,0.57.90,1111,CP1,,亮先生
10,11,126,10,21/10/20,"跑馬地草地""C""                                    ",1000,好/快,3,4,80,賀賢,黃皓楠,5-3/4,48,130,5 7 10,0.57.55,1098,--,,亮先生
11,12,92,12,07/10/20,"跑馬地草地""A""                                    ",1000,好,2,3,82,賀賢,巫顯東,7-3/4,48,115,5 6 12,0.57.95,1115,--,,亮先生
12,13,27,14,13/09/20,"沙田草地""A+3""                                    ",1000,好,2,12,84,賀賢,潘明輝,8,23,119,3 6 14,0.57.34,1113,--,,亮先生
13,14,562,05,08/04/20,"跑馬地草地""B""                                    ",1000,好,2,11,85,賀賢,潘明輝,1-3/4,48,120,12 12 5,0.56.93,1113,--,,亮先生
14,15,508,11,18/03/20,"跑馬地草地""C+3""                                    ",1200,好,2,9,87,賀賢,蘇狄雄,5-1/4,113,118,5 5 11,1.09.92,1111,--,,亮先生
15,16,481,08,08/03/20,"沙田草地""C""                                    ",1000,好,2,9,88,賀賢,薛恩,3-1/4,40,125,1 2 8,0.55.65,1108,--,,亮先生
16,17,299,05,01/01/20,"沙田草地""C""                                    ",1000,好,2,4,88,賀賢,陳嘉熙,3-1/2,22,111,2 3 5,0.56.51,1118,--,,亮先生
17,18,235,12,08/12/19,"沙田草地""A""                                    ",1200,好,2,7,88,賀賢,潘明輝,7,59,117,3 2 12,1.10.10,1122,--,,亮先生
18,19,186,01,20/11/19,"跑馬地草地""C+3""                                    ",1000,好/快,2,6,81,賀賢,潘明輝,1,18,112,3 3 1,0.56.25,1114,--,,亮先生
19,20,146,04,03/11/19,"沙田草地""C+3""                                    ",1200,好/快,2,6,81,賀賢,潘明輝,3,35,111,1 1 4,1.08.37,1107,--,,亮先生
20,21,108,01,20/10/19,"沙田草地""A""                                    ",1000,好/快,3,6,75,賀賢,陳嘉熙,頸位,40,118,1 1 1,0.55.47,1128,--,,亮先生
21,22,44,05,21/09/19,"沙田草地""A""                                    ",1000,好/快,3,8,76,賀賢,潘頓,3,6.5,133,2 1 5,0.57.02,1123,--,,亮先生
22,23,636,03,05/05/19,"沙田草地""B""                                    ",1000,好/黏,3,10,78,賀賢,潘頓,3-1/2,7.7,131,2 2 3,0.57.25,1069,--,,亮先生
23,24,597,03,22/04/19,"沙田草地""C+3""                                    ",1000,好/快,3,11,79,賀賢,陳嘉熙,2-3/4,42,122,7 6 3,0.55.32,1083,--,,亮先生
24,25,503,12,17/03/19,"沙田草地""A""                                    ",1200,好,2,4,81,賀賢,蘇狄雄,10-1/2,178,116,8 10 12,1.10.91,1076,--,,亮先生
25,26,448,06,24/02/19,"沙田草地""B+2""                                    ",1000,好,2,1,83,賀賢,蘇狄雄,3,80,118,8 11 6,0.57.07,1091,B-,,亮先生
26,27,383,WV,30/01/19,"跑馬地草地""A""                                    ",1200,好,2,--,83,賀賢,史卓豐,--,--,121,--,--,--,--,--,亮先生
27,28,281,10,23/12/18,"沙田草地""A+3""                                    ",1000,好/黏,2,8,84,賀賢,潘明輝,9-1/2,43,116,5 3 10,0.58.83,1092,B,,亮先生
28,29,150,12,04/11/18,"沙田草地""C+3""                                    ",1000,好,3,7,84,賀賢,潘頓,11-3/4,4.8,133,4 5 12,0.58.54,1085,B1,,亮先生
29,30,89,07,10/10/18,"跑馬地草地""B""                                    ",1000,好,2,1,84,賀賢,潘明輝,1-1/2,4.1,113,6 4 7,0.57.60,1083,--,,亮先生
30,31,738,01,16/06/18,"沙田草地""C+3""                                    ",1000,好/快,3,10,77,賀賢,沈拿,1,5.2,132,2 3 1,0.56.35,1102,--,,亮先生
31,32,662,WV,20/05/18,"沙田草地""C+3""                                    ",1000,好/快,3,--,77,賀賢,沈拿,--,--,132,--,--,--,--,--,亮先生
32,33,572,10,15/04/18,"沙田草地""C+3""                                    ",1000,好/黏,3,14,77,賀賢,沈拿,4-1/4,2,132,1 1 10,0.57.72,1102,--,,亮先生
33,34,474,02,03/03/18,"沙田草地""C""                                    ",1000,好,3,11,76,賀賢,沈拿,2,2.4,125,1 1 2,0.56.56,1092,--,,亮先生
34,35,432,01,18/02/18,"沙田草地""A""                                    ",1000,好,3,5,70,賀賢,沈拿,1/2,8.9,123,2 4 1,0.56.83,1098,--,,亮先生
