,Unnamed: 0,場次,名次,日期,馬場/跑道/賽道,途程,場地狀況,賽事班次,檔位,評分,練馬師,騎師,頭馬距離,獨贏賠率,實際負磅,沿途走位,完成時間,排位體重,配備,賽事重播,馬名
0,1,686,2,19/05/21,"跑馬地草地""B""                                    ",1200,好/快,3,1,75,羅富全,潘明輝,3/4,5.6,130,4 4 2,1.09.28,1144,V,,以戰養戰
1,2,612,4,21/04/21,"跑馬地草地""C""                                    ",1200,好/快,3,6,75,羅富全,潘頓,2-3/4,5.3,131,4 4 4,1.09.71,1134,V,,以戰養戰
2,3,533,1,24/03/21,"跑馬地草地""C+3""                                    ",1200,好/快,3,9,68,羅富全,潘頓,2,10.0,122,2 2 1,1.09.39,1127,B-/V1,,以戰養戰
3,4,454,5,24/02/21,"跑馬地草地""C+3""                                    ",1000,好/快,3,10,70,羅富全,何澤堯,3,16.0,124,8 8 5,0.57.33,1138,B,,以戰養戰
4,5,807,5,08/07/20,"跑馬地草地""A""                                    ",1000,好,3,2,73,羅富全,陳嘉熙,4-3/4,6.5,123,8 9 5,0.57.61,1131,B,,以戰養戰
5,6,748,6,14/06/20,"沙田草地""C+3""                                    ",1200,好/快,3,5,73,羅富全,史卓豐,6-1/4,8.8,131,5 5 6,1.10.29,1153,B,,以戰養戰
6,7,673,2,20/05/20,"跑馬地草地""C+3""                                    ",1000,好/快,3,2,73,羅富全,潘頓,4,4.7,127,7 5 2,0.57.02,1135,B,,以戰養戰
7,8,637,3,06/05/20,"跑馬地草地""B""                                    ",1000,好/快,3,3,73,羅富全,潘頓,2-3/4,3.8,129,5 5 3,0.56.94,1141,B,,以戰養戰
8,9,560,2,08/04/20,"跑馬地草地""B""                                    ",1000,好,3,10,72,羅富全,潘頓,1,10.0,129,10 7 2,0.56.95,1151,B,,以戰養戰
9,10,489,5,11/03/20,"跑馬地草地""C""                                    ",1200,好,3,5,73,羅富全,潘頓,1-1/2,5.7,129,3 4 5,1.10.13,1138,B,,以戰養戰
10,11,425,3,16/02/20,"沙田草地""A""                                    ",1200,好,3,8,73,羅富全,潘頓,1-1/4,9.3,126,8 9 3,1.09.97,1139,CP-/B1,,以戰養戰
11,12,331,11,11/01/20,"沙田草地""A""                                    ",1400,好,3,8,74,羅富全,莫雷拉,4,3.6,128,2 3 3 11,1.22.53,1144,CP,,以戰養戰
12,13,288,3,29/12/19,"沙田草地""B+2""                                    ",1200,好,3,10,74,羅富全,史卓豐,3-1/4,9.3,131,3 3 3,1.10.22,1158,CP1,,以戰養戰
13,14,229,4,08/12/19,"沙田草地""A""                                    ",1200,好,3,1,74,羅富全,布文,1-1/4,18.0,127,8 7 4,1.09.23,1150,--,,以戰養戰
14,15,172,6,17/11/19,"沙田草地""B""                                    ",1200,好,3,10,74,羅富全,布文,6,18.0,127,14 12 6,1.09.75,1132,--,,以戰養戰
