,Unnamed: 0,場次,名次,日期,馬場/跑道/賽道,途程,場地狀況,賽事班次,檔位,評分,練馬師,騎師,頭馬距離,獨贏賠率,實際負磅,沿途走位,完成時間,排位體重,配備,賽事重播,馬名
0,1,703,4,26/05/21,"跑馬地草地""C""                                    ",1200,好/快,4,1,48,呂健威,潘頓,3/4,3.4,121,4 3 4,1.09.84,1071,CP1,,仲得威
1,2,646,5,05/05/21,"跑馬地草地""A""                                    ",1200,好/快,4,8,48,呂健威,潘頓,1,8.3,121,10 10 5,1.09.82,1062,--,,仲得威
2,3,587,3,14/04/21,"跑馬地草地""B""                                    ",1200,好/快,4,2,49,呂健威,何澤堯,2-3/4,11.0,122,6 6 3,1.10.50,1056,--,,仲得威
3,4,511,3,17/03/21,"跑馬地草地""C""                                    ",1200,好/快,4,1,50,呂健威,何澤堯,2-1/2,6.4,124,3 3 3,1.10.20,1055,--,,仲得威
4,5,435,8,17/02/21,"跑馬地草地""C""                                    ",1200,好,4,8,52,呂健威,何澤堯,4-1/4,29.0,127,5 5 8,1.10.81,1042,--,,仲得威
5,6,376,8,27/01/21,"跑馬地草地""C+3""                                    ",1200,好,4,12,52,呂健威,何澤堯,2-1/2,91.0,125,12 12 8,1.10.42,1035,--,,仲得威
