,Unnamed: 0,場次,名次,日期,馬場/跑道/賽道,途程,場地狀況,賽事班次,檔位,評分,練馬師,騎師,頭馬距離,獨贏賠率,實際負磅,沿途走位,完成時間,排位體重,配備,賽事重播,馬名
0,1,679,13,16/05/21,"沙田草地""C+3""                                    ",1400,好/快,2,12,95,蘇保羅,賀銘年,16-1/4,99.0,128,14 13 13 13,1.22.89,1146,V,,健快聯盟
1,2,502,9,13/03/21,"沙田草地""C+3""                                    ",1400,好,2,10,97,蘇保羅,田泰安,9-1/4,13.0,132,10 10 10 9,1.22.29,1166,V1,,健快聯盟
2,3,388,7,31/01/21,"沙田草地""B+2""                                    ",1400,好,2,12,99,蘇保羅,潘頓,4,11.0,133,13 13 8 7,1.21.72,1180,--,,健快聯盟
3,4,335,5,10/01/21,"沙田草地""C""                                    ",1400,好,2,9,99,蘇保羅,潘頓,3,17.0,133,3 2 2 5,1.21.54,1176,B-,,健快聯盟
4,5,285,2,20/12/20,"沙田草地""C+3""                                    ",1400,好,2,7,96,蘇保羅,潘頓,短馬頭位,4.4,132,6 6 5 2,1.21.68,1167,B,,健快聯盟
5,6,190,4,14/11/20,"沙田草地""C+3""                                    ",1400,好,1,8,96,蘇保羅,郭能,1-1/2,7.9,120,8 8 8 4,1.22.06,1174,B,,健快聯盟
6,7,102,3,11/10/20,"沙田草地""A+3""                                    ",1200,好/快,2,4,95,蘇保羅,郭能,1,8.0,128,5 5 3,1.08.79,1171,B,,健快聯盟
7,8,27,3,13/09/20,"沙田草地""A+3""                                    ",1000,好,2,3,93,蘇保羅,郭能,頸位,12.0,130,11 9 3,0.56.08,1165,B,,健快聯盟
8,9,689,1,24/05/20,"沙田草地""A""                                    ",1400,好,2,9,88,蘇保羅,郭能,鼻位,12.0,125,9 9 9 1,1.21.24,1187,B1,,健快聯盟
9,10,611,4,26/04/20,"沙田草地""A""                                    ",1600,好,2,2,88,蘇保羅,梁家俊,3,9.3,119,6 5 5 4,1.34.72,1178,--,,健快聯盟
10,11,535,1,29/03/20,"沙田草地""A+3""                                    ",1600,好,3,3,83,蘇保羅,潘頓,頸位,2.7,131,6 6 6 1,1.35.25,1161,--,,健快聯盟
11,12,463,4,01/03/20,"沙田草地""B+2""                                    ",1400,好,2,1,83,蘇保羅,蔡明紹,1-1/2,9.4,121,8 7 6 4,1.21.35,1181,--,,健快聯盟
12,13,332,9,11/01/20,"沙田草地""A""                                    ",1600,好,2,4,83,蘇保羅,田泰安,3-3/4,5.9,120,5 7 7 9,1.34.53,1168,--,,健快聯盟
13,14,282,3,26/12/19,"跑馬地草地""A""                                    ",1650,好,2,4,82,蘇保羅,田泰安,1-1/4,3.5,118,5 7 6 3,1.40.03,1169,--,,健快聯盟
14,15,197,2,23/11/19,"沙田草地""C""                                    ",1600,好/快,3,14,80,蘇保羅,巴度,3/4,10.0,133,3 4 1 2,1.34.02,1174,--,,健快聯盟
15,16,150,6,03/11/19,"沙田草地""C+3""                                    ",1600,好/快,2,10,80,蘇保羅,巴度,3,8.9,118,6 5 6 6,1.33.76,1172,--,,健快聯盟
16,17,75,1,06/10/19,"沙田草地""B+2""                                    ",1400,好/黏,3,3,74,蘇保羅,潘頓,頸位,2.5,131,4 6 4 1,1.21.98,1173,--,,健快聯盟
17,18,710,1,02/06/19,"沙田草地""B""                                    ",1600,好/快,3,12,68,蘇保羅,潘頓,頸位,1.9,123,3 3 4 1,1.34.82,1182,--,,健快聯盟
18,19,657,2,11/05/19,"沙田草地""C""                                    ",1400,好,3,9,65,蘇保羅,潘頓,頸位,2.1,121,4 6 6 2,1.21.71,1172,--,,健快聯盟
19,20,595,1,22/04/19,"沙田草地""C+3""                                    ",1400,好,4,7,59,蘇保羅,潘頓,1-1/4,2.5,133,4 6 8 1,1.21.92,1175,--,,健快聯盟
20,21,524,1,24/03/19,"沙田草地""C+3""                                    ",1400,好,4,14,52,蘇保羅,潘頓,3/4,6.3,125,12 11 13 1,1.22.85,1170,--,,健快聯盟
21,22,455,5,27/02/19,"跑馬地草地""C+3""                                    ",1200,好/快,4,9,52,蘇保羅,潘頓,4,8.7,126,7 7 5,1.10.17,1200,--,,健快聯盟
