,Unnamed: 0,場次,名次,日期,馬場/跑道/賽道,途程,場地狀況,賽事班次,檔位,評分,練馬師,騎師,頭馬距離,獨贏賠率,實際負磅,沿途走位,完成時間,排位體重,配備,賽事重播,馬名
0,1,670,7,16/05/21,沙田全天候                                    ,1200,好,5,5,35,蘇保羅,梁家俊,5-1/2,11.0,129,7 8 7,1.10.73,1086,CP/TT,,全中
1,2,605,5,21/04/21,"跑馬地草地""C""                                    ",1200,好/快,5,8,37,蘇保羅,梁家俊,2-1/4,21.0,131,8 8 5,1.10.27,1092,CP/TT,,全中
2,3,546,8,31/03/21,沙田全天候                                    ,1200,好,5,1,37,蘇保羅,梁家俊,8,5.9,130,2 4 8,1.10.91,1083,CP/TT,,全中
3,4,402,12,06/02/21,"沙田草地""C""                                    ",1200,好,5,5,39,蘇保羅,波健士,4-3/4,8.0,132,6 7 12,1.10.85,1093,B-/CP1/TT,,全中
4,5,356,4,20/01/21,"跑馬地草地""C""                                    ",1200,好,4,2,41,蘇保羅,波健士,3,9.1,115,3 3 4,1.10.22,1095,B/TT,,全中
5,6,288,8,23/12/20,"跑馬地草地""C+3""                                    ",1200,好,4,3,43,蘇保羅,巴度,3-1/4,8.3,116,7 8 8,1.10.26,1079,B/TT1,,全中
6,7,223,6,29/11/20,沙田全天候                                    ,1200,好,4,8,45,蘇保羅,楊明綸,3-1/4,26.0,118,4 2 6,1.09.75,1091,B,,全中
7,8,162,7,04/11/20,沙田全天候                                    ,1200,好,4,1,47,蘇保羅,楊明綸,3-1/4,10.0,120,2 1 7,1.10.41,1083,B1,,全中
8,9,95,6,11/10/20,"沙田草地""A+3""                                    ",1200,好,4,4,49,蘇保羅,何澤堯,5-1/4,5.7,123,5 6 6,1.09.46,1094,--,,全中
9,10,750,3,21/06/20,"沙田草地""A""                                    ",1200,好/快,4,12,50,蘇保羅,楊明綸,4-1/4,139.0,123,12 11 3,1.09.66,1092,--,,全中
10,11,409,11,12/02/20,"跑馬地草地""C+3""                                    ",1200,好,4,7,52,蘇保羅,巴度,9,107.0,125,6 7 11,1.11.15,1143,--,,全中
11,12,356,9,22/01/20,"跑馬地草地""A""                                    ",1000,好,4,12,52,蘇保羅,薛恩,6,58.0,128,10 10 9,0.58.21,1137,--,,全中
