,Unnamed: 0,場次,名次,日期,馬場/跑道/賽道,途程,場地狀況,賽事班次,檔位,評分,練馬師,騎師,頭馬距離,獨贏賠率,實際負磅,沿途走位,完成時間,排位體重,配備,賽事重播,馬名
0,1,357,12,20/01/21,"跑馬地草地""C""                                    ",1000,好,5,5,39,苗禮德,黃俊,6-3/4,41,127,11 11 12,0.58.48,1083,B/TT,,全力衝
1,2,321,10,06/01/21,"跑馬地草地""A""                                    ",1200,好,4,10,41,苗禮德,蔡明紹,12-3/4,32,115,9 9 10,1.12.50,1070,B/TT,,全力衝
2,3,221,5,29/11/20,"沙田草地""C""                                    ",1000,好,4,13,43,苗禮德,黃俊,6,33,116,9 11 5,0.57.74,1074,B/TT,,全力衝
3,4,185,9,14/11/20,"沙田草地""C+3""                                    ",1000,好,4,7,43,苗禮德,巴度,4-1/2,16,118,5 6 9,0.57.79,1066,B/TT,,全力衝
4,5,130,2,24/10/20,"沙田草地""C""                                    ",1000,好,4,5,42,苗禮德,黃俊,1/2,229,114,10 10 2,0.57.53,1055,B/TT,,全力衝
5,6,79,13,04/10/20,"沙田草地""C+3""                                    ",1000,好,4,14,45,苗禮德,黃俊,9-1/2,246,115,10 13 13,0.57.41,1050,B/TT,,全力衝
6,7,39,8,20/09/20,"沙田草地""B+2""                                    ",1000,好,4,5,47,苗禮德,黃俊,7,310,115,11 11 8,0.56.50,1053,B/TT,,全力衝
7,8,792,14,05/07/20,"沙田草地""C+3""                                    ",1000,好/快,4,14,52,苗禮德,巫顯東,17-1/2,279,121,9 13 14,0.57.89,1048,B/TT1,,全力衝
8,9,399,14,08/02/20,"沙田草地""C+3""                                    ",1000,好,4,6,52,苗禮德,希威森,13-1/2,62,128,4 9 14,0.59.35,1066,B1,,全力衝
