,Unnamed: 0,場次,名次,日期,馬場/跑道/賽道,途程,場地狀況,賽事班次,檔位,評分,練馬師,騎師,頭馬距離,獨贏賠率,實際負磅,沿途走位,完成時間,排位體重,配備,賽事重播,馬名
0,1,516,11,17/03/21,"跑馬地草地""C""                                    ",1200,好/快,2,7,85,蔡約翰,賀銘年,4-1/4,29.0,118,8 8 11,1.09.60,1113,TT,,共創繽紛
1,2,458,7,24/02/21,"跑馬地草地""C+3""                                    ",1200,好/快,3,3,85,蔡約翰,波健士,4-1/2,6.3,133,8 10 7,1.09.80,1113,TT,,共創繽紛
2,3,439,1,17/02/21,"跑馬地草地""C""                                    ",1200,好,3,7,80,蔡約翰,田泰安,鼻位,3.3,133,2 2 1,1.09.97,1118,TT,,共創繽紛
3,4,401,3,03/02/21,"跑馬地草地""A""                                    ",1200,好,3,4,80,蔡約翰,巴度,3,5.9,133,4 4 3,1.09.64,1126,TT,,共創繽紛
4,5,362,1,20/01/21,"跑馬地草地""C""                                    ",1200,好,3,4,73,蔡約翰,波健士,1-1/2,5.5,126,6 4 1,1.09.67,1116,TT,,共創繽紛
5,6,344,2,13/01/21,"跑馬地草地""B""                                    ",1200,好,3,4,73,蔡約翰,巴度,1-1/4,4.6,127,11 11 2,1.10.05,1125,TT,,共創繽紛
6,7,311,7,01/01/21,"沙田草地""B+2""                                    ",1200,好,3,11,73,蔡約翰,田泰安,4-1/2,7.0,126,3 3 7,1.09.89,1105,TT,,共創繽紛
7,8,275,2,16/12/20,"跑馬地草地""C""                                    ",1200,好,3,2,72,蔡約翰,莫雷拉,1,2.2,126,3 3 2,1.09.56,1117,TT,,共創繽紛
8,9,238,2,02/12/20,"跑馬地草地""A""                                    ",1200,好,3,7,70,蔡約翰,莫雷拉,1/2,3.1,123,1 1 2,1.10.11,1115,TT,,共創繽紛
9,10,202,2,18/11/20,"跑馬地草地""C""                                    ",1200,好,3,4,67,蔡約翰,莫雷拉,短馬頭位,3.6,120,4 3 2,1.09.36,1119,TT,,共創繽紛
10,11,156,8,01/11/20,"沙田草地""A""                                    ",1200,好/快,3,12,67,蔡約翰,莫雷拉,2-1/2,2.6,120,1 1 8,1.09.32,1120,TT,,共創繽紛
11,12,119,2,18/10/20,"沙田草地""B+2""                                    ",1200,好/快,3,12,64,蔡約翰,莫雷拉,1/2,5.6,117,3 3 2,1.09.04,1112,TT,,共創繽紛
12,13,42,1,20/09/20,"沙田草地""B+2""                                    ",1200,好/快,4,1,58,蔡約翰,莫雷拉,頸位,2.6,132,7 6 1,1.09.41,1114,TT1,,共創繽紛
13,14,684,1,24/05/20,"沙田草地""A""                                    ",1200,好,4,3,52,蔡約翰,莫雷拉,頸位,4.1,128,4 5 1,1.09.45,1126,--,,共創繽紛
