,Unnamed: 0,場次,名次,日期,馬場/跑道/賽道,途程,場地狀況,賽事班次,檔位,評分,練馬師,騎師,頭馬距離,獨贏賠率,實際負磅,沿途走位,完成時間,排位體重,配備,賽事重播,馬名
0,1,714,4,30/05/21,"沙田草地""B""                                    ",2000,好/快,3,10,62,葉楚航,黃俊,2-1/2,54.0,108,12 12 12 14 4,2.01.06,1147,V,,其利斷金
1,2,688,2,19/05/21,"跑馬地草地""B""                                    ",1800,好/快,3,9,60,葉楚航,黃俊,1/2,90.0,112,9 10 9 10 2,1.48.68,1140,V2,,其利斷金
2,3,604,8,21/04/21,"跑馬地草地""C""                                    ",2200,好/快,3,6,62,葉楚航,梁家俊,27-3/4,41.0,118,8 8 8 8 8 8,2.18.59,1153,--,,其利斷金
3,4,582,12,11/04/21,"沙田草地""C""                                    ",1800,好,3,5,64,葉楚航,黃皓楠,15-1/2,97.0,115,6 7 8 6 12,1.48.77,1152,V-,,其利斷金
4,5,495,8,10/03/21,"跑馬地草地""B""                                    ",1800,好,3,5,66,葉楚航,陳嘉熙,5-1/4,56.0,113,10 10 9 11 8,1.49.72,1130,V,,其利斷金
5,6,437,7,17/02/21,"跑馬地草地""C""                                    ",2200,好,3,5,67,葉楚航,梁家俊,6,26.0,122,8 7 7 7 7 7,2.17.44,1131,V,,其利斷金
6,7,415,5,10/02/21,"跑馬地草地""B""                                    ",1650,好,3,7,67,葉楚航,田泰安,4-3/4,12.0,122,8 8 8 5,1.40.68,1134,V,,其利斷金
7,8,325,7,06/01/21,"跑馬地草地""A""                                    ",1800,好,3,4,67,葉楚航,田泰安,4,7.9,120,6 7 7 7 7,1.50.89,1171,V,,其利斷金
8,9,237,1,02/12/20,"跑馬地草地""A""                                    ",1800,好,3,8,61,葉楚航,田泰安,頭位,6.6,115,10 10 9 6 1,1.49.50,1148,V,,其利斷金
9,10,125,1,21/10/20,"跑馬地草地""C""                                    ",1650,好/快,4,3,56,葉楚航,田泰安,頸位,2.1,130,5 6 4 1,1.40.60,1141,V,,其利斷金
10,11,52,3,23/09/20,"跑馬地草地""C+3""                                    ",1650,好/快,4,4,55,葉楚航,田泰安,1-1/4,7.1,131,9 8 7 3,1.40.08,1134,V,,其利斷金
11,12,805,1,08/07/20,"跑馬地草地""A""                                    ",1650,好,4,4,49,葉楚航,田泰安,1-1/4,5.5,121,5 5 4 1,1.40.07,1129,V,,其利斷金
12,13,712,1,03/06/20,"跑馬地草地""A""                                    ",1650,好,4,2,44,葉楚航,田泰安,頭位,13.0,118,6 6 6 1,1.39.69,1133,B-/V1,,其利斷金
13,14,520,11,25/03/20,"跑馬地草地""A""                                    ",1650,好,4,12,46,葉楚航,潘頓,20-1/4,5.7,121,2 2 4 11,1.43.61,1110,B,,其利斷金
14,15,438,7,23/02/20,"沙田草地""A+3""                                    ",2000,好,4,14,48,葉楚航,潘頓,5,7.2,122,1 2 1 2 7,2.03.34,1113,B,,其利斷金
15,16,342,5,19/01/20,"沙田草地""A+3""                                    ",2000,好,4,5,48,葉楚航,潘明輝,1-1/4,18.0,119,1 1 1 1 5,2.02.93,1088,B,,其利斷金
16,17,318,4,08/01/20,"跑馬地草地""C""                                    ",1650,好,4,3,48,葉楚航,莫雷拉,2-1/2,3.4,121,7 6 7 4,1.40.45,1091,B,,其利斷金
17,18,222,2,04/12/19,"跑馬地草地""B""                                    ",1650,好,4,11,46,葉楚航,莫雷拉,短馬頭位,12.0,122,2 2 2 2,1.40.61,1091,B1,,其利斷金
18,19,99,5,16/10/19,"跑馬地草地""C""                                    ",1650,好,4,6,47,葉楚航,潘明輝,2-3/4,18.0,119,2 4 6 5,1.40.71,1059,--,,其利斷金
19,20,35,8,15/09/19,"沙田草地""C+3""                                    ",1400,好/快,4,4,48,葉楚航,薛恩,3-1/2,31.0,123,6 4 5 8,1.21.71,1060,--,,其利斷金
20,21,705,9,02/06/19,"沙田草地""B""                                    ",1400,好/快,4,5,51,葉楚航,利敬國,9-1/2,16.0,124,6 6 9 9,1.23.22,1099,--,,其利斷金
21,22,577,6,14/04/19,"沙田草地""C""                                    ",1400,好,4,2,53,葉楚航,史卓豐,6-1/2,41.0,127,9 8 6 6,1.22.86,1059,--,,其利斷金
22,23,410,11,10/02/19,"沙田草地""A""                                    ",1400,好,4,7,53,葉楚航,韋達                                    ,7-1/4,6.9,126,3 5 6 11,1.23.53,1053,--,,其利斷金
23,24,275,3,23/12/18,"沙田草地""A+3""                                    ",1400,好,R,1,52,葉楚航,韋達                                    ,2,129.0,120,5 5 5 3,1.22.93,1046,--,,其利斷金
24,25,249,11,12/12/18,"跑馬地草地""C""                                    ",1200,好,4,12,52,葉楚航,賴維銘                                    ,6-1/2,133.0,125,12 12 11,1.11.49,1062,--,,其利斷金
