,Unnamed: 0,場次,名次,日期,馬場/跑道/賽道,途程,場地狀況,賽事班次,檔位,評分,練馬師,騎師,頭馬距離,獨贏賠率,實際負磅,沿途走位,完成時間,排位體重,配備,賽事重播,馬名
0,1,670,10,16/05/21,沙田全天候                                    ,1200,好,5,3,36,葉楚航,班德禮,12-1/2,42,130,9 9 10,1.11.84,999,TT,,冰雪聰明
1,2,546,10,31/03/21,沙田全天候                                    ,1200,好,5,12,39,葉楚航,史卓豐,9-1/2,41,132,12 12 10,1.11.16,1015,CP-/TT,,冰雪聰明
2,3,418,8,10/02/21,"跑馬地草地""B""                                    ",1200,好,4,1,41,葉楚航,黃俊,4-3/4,42,109,6 5 8,1.11.38,1030,H-/CP1/TT,,冰雪聰明
3,4,112,11,18/10/20,"沙田草地""B+2""                                    ",1400,好,4,2,43,葉楚航,田泰安,5-1/4,38,116,5 5 8 11,1.23.29,1013,H/TT,,冰雪聰明
4,5,48,12,23/09/20,"跑馬地草地""C+3""                                    ",1200,好/快,4,10,45,葉楚航,田泰安,5-1/2,25,120,4 6 12,1.10.75,1014,H1/TT,,冰雪聰明
5,6,801,8,08/07/20,"跑馬地草地""A""                                    ",1200,好,4,1,48,葉楚航,蘇狄雄,5-3/4,23,122,3 3 8,1.10.97,1030,TT,,冰雪聰明
6,7,729,7,10/06/20,"跑馬地草地""B""                                    ",1200,好,4,2,50,葉楚航,蘇狄雄,4-3/4,27,122,5 6 7,1.10.60,1031,TT,,冰雪聰明
7,8,615,4,29/04/20,"跑馬地草地""A""                                    ",1200,好/快,4,1,52,葉楚航,蘇狄雄,3,44,123,7 6 4,1.10.48,1024,XB-/TT,,冰雪聰明
8,9,454,14,01/03/20,"沙田草地""B+2""                                    ",1000,好,4,10,52,葉楚航,希威森,9-1/4,164,127,11 13 14,0.57.77,1031,XB1/TT1,,冰雪聰明
