,Unnamed: 0,場次,名次,日期,馬場/跑道/賽道,途程,場地狀況,賽事班次,檔位,評分,練馬師,騎師,頭馬距離,獨贏賠率,實際負磅,沿途走位,完成時間,排位體重,配備,賽事重播,馬名
0,1,703,7,26/05/21,"跑馬地草地""C""                                    ",1200,好/快,4,5,46,蘇保羅,梁家俊,2-1/4,37.0,119,7 8 7,1.10.07,1021,TT,,利之贏
1,2,647,8,05/05/21,"跑馬地草地""A""                                    ",1200,好/快,4,4,48,蘇保羅,梁家俊,4-3/4,14.0,123,4 3 8,1.10.39,1024,TT,,利之贏
2,3,555,12,05/04/21,"沙田草地""B+2""                                    ",1200,好,4,13,50,蘇保羅,潘頓,5-1/2,6.4,124,5 6 12,1.10.58,1020,TT,,利之贏
3,4,457,5,24/02/21,"跑馬地草地""C+3""                                    ",1200,好/快,4,11,51,賀賢,潘明輝,1-3/4,34.0,122,12 8 5,1.10.24,1001,TT,,利之贏
4,5,376,5,27/01/21,"跑馬地草地""C+3""                                    ",1200,好,4,7,52,賀賢,潘明輝,1-1/4,25.0,123,9 10 5,1.10.23,1023,TT,,利之贏
5,6,199,8,18/11/20,"跑馬地草地""C""                                    ",1200,好,4,7,54,賀賢,潘頓,2-3/4,5.0,127,8 8 8,1.10.61,1024,TT,,利之贏
6,7,142,5,28/10/20,"跑馬地草地""C+3""                                    ",1200,好,4,12,55,賀賢,黃皓楠,2,168.0,125,12 9 5,1.10.67,1026,TT,,利之贏
7,8,107,8,14/10/20,"跑馬地草地""B""                                    ",1200,好,4,8,57,賀賢,潘明輝,4-1/2,146.0,129,12 11 8,1.10.67,1026,TT1,,利之贏
8,9,806,9,08/07/20,"跑馬地草地""A""                                    ",1200,好,3,9,65,賀賢,蘇狄雄,12-1/4,126.0,117,10 10 9,1.11.46,1007,--,,利之贏
9,10,765,10,24/06/20,"跑馬地草地""C""                                    ",1200,好/快,3,10,69,賀賢,蘇狄雄,10-1/2,161.0,120,12 12 10,1.10.39,1015,--,,利之贏
10,11,695,11,27/05/20,沙田全天候                                    ,1200,好,3,11,72,賀賢,潘明輝,9-3/4,296.0,125,5 6 11,1.10.63,1007,--,,利之贏
11,12,665,13,17/05/20,"沙田草地""C+3""                                    ",1000,好/快,3,12,75,賀賢,潘明輝,11-1/2,320.0,126,10 12 13,0.57.09,1028,--,,利之贏
12,13,637,12,06/05/20,"跑馬地草地""B""                                    ",1000,好/快,3,10,77,賀賢,潘明輝,12,287.0,131,9 9 12,0.58.42,1036,--,,利之贏
13,14,601,12,22/04/20,"跑馬地草地""C+3""                                    ",1000,好/黏,3,12,77,賀賢,何澤堯,8-1/4,138.0,130,12 12 12,0.59.05,1046,--,,利之贏
