,Unnamed: 0,場次,名次,日期,馬場/跑道/賽道,途程,場地狀況,賽事班次,檔位,評分,練馬師,騎師,頭馬距離,獨贏賠率,實際負磅,沿途走位,完成時間,排位體重,配備,賽事重播,馬名
0,1,694,2,23/05/21,"沙田草地""A""                                    ",1600,好/快,4,13,57,賀賢,梁家俊,短馬頭位,6.9,130,4 4 1 2,1.35.46,1135,B,,前進
1,2,601,5,17/04/21,"沙田草地""C+3""                                    ",1400,好,4,12,59,賀賢,周俊樂,5-3/4,9.7,126,13 13 12 5,1.23.26,1121,B,,前進
2,3,543,4,28/03/21,"沙田草地""A+3""                                    ",1600,好/快,3,3,60,賀賢,蔡明紹,2-1/2,22.0,116,6 6 6 4,1.34.42,1131,B,,前進
3,4,489,5,10/03/21,"跑馬地草地""B""                                    ",1650,好,4,8,60,賀賢,潘頓,3,4.8,133,3 2 2 5,1.40.35,1139,B,,前進
4,5,445,8,21/02/21,"沙田草地""A+3""                                    ",1400,好,4,3,60,賀賢,潘明輝,2-3/4,13.0,131,9 8 12 8,1.22.44,1138,B,,前進
5,6,58,1,27/09/20,"沙田草地""A""                                    ",1400,好,4,4,55,賀賢,潘明輝,頸位,3.6,126,5 7 7 1,1.22.54,1148,B,,前進
6,7,602,6,26/04/20,"沙田草地""A""                                    ",1400,好,4,14,55,賀賢,梁家俊,1-3/4,5.2,128,14 14 11 6,1.22.13,1130,B,,前進
7,8,474,1,08/03/20,"沙田草地""C""                                    ",1400,好,4,13,49,賀賢,梁家俊,短馬頭位,15.0,124,14 14 11 1,1.22.46,1130,H-/B1,,前進
8,9,401,9,08/02/20,沙田全天候                                    ,1200,好,4,9,51,賀賢,潘明輝,7-1/4,17.0,122,12 12 9,1.10.77,1146,H,,前進
9,10,354,4,22/01/20,"跑馬地草地""A""                                    ",1200,好,4,2,52,賀賢,希威森,2-1/4,11.0,127,7 7 4,1.10.42,1132,H,,前進
10,11,323,6,11/01/20,"沙田草地""A""                                    ",1200,好,4,2,52,賀賢,希威森,2-1/2,149.0,126,9 10 6,1.10.01,1138,H1,,前進
