,Unnamed: 0,場次,名次,日期,馬場/跑道/賽道,途程,場地狀況,賽事班次,檔位,評分,練馬師,騎師,頭馬距離,獨贏賠率,實際負磅,沿途走位,完成時間,排位體重,配備,賽事重播,馬名
0,1,674,13,16/05/21,"沙田草地""C+3""                                    ",1400,好/快,4,3,42,苗禮德,潘明輝,9-1/2,9.8,115,5 5 5 13,1.23.07,1153,B,,創高峰
1,2,580,9,11/04/21,"沙田草地""C""                                    ",1400,好,4,14,44,苗禮德,賀銘年,6-3/4,17.0,119,14 14 14 9,1.22.97,1158,B,,創高峰
2,3,520,4,21/03/21,"沙田草地""A""                                    ",1400,好,4,3,45,苗禮德,蔡明紹,3-1/4,20.0,119,4 5 5 4,1.22.49,1153,B,,創高峰
3,4,418,12,10/02/21,"跑馬地草地""B""                                    ",1200,好,4,7,47,苗禮德,何澤堯,8-1/2,17.0,120,4 6 12,1.11.97,1147,B,,創高峰
4,5,366,7,24/01/21,"沙田草地""A+3""                                    ",1400,好,4,3,48,苗禮德,賀銘年,2-3/4,20.0,121,1 4 3 7,1.22.42,1150,B,,創高峰
5,6,300,8,26/12/20,沙田全天候                                    ,1650,好,4,11,48,苗禮德,巴度,9-1/4,9.8,121,13 13 13 8,1.40.74,1154,B,,創高峰
6,7,189,13,14/11/20,"沙田草地""C+3""                                    ",1600,好,4,4,48,苗禮德,賀銘年,4-3/4,38.0,121,4 4 4 13,1.35.64,1152,B,,創高峰
7,8,97,1,11/10/20,"沙田草地""A+3""                                    ",1400,好,4,1,44,苗禮德,賀銘年,短馬頭位,8.6,118,5 5 4 1,1.21.90,1159,B,,創高峰
8,9,23,9,13/09/20,"沙田草地""A+3""                                    ",1600,好,4,3,46,苗禮德,賀銘年,7-1/4,16.0,122,3 2 2 9,1.36.24,1145,B,,創高峰
9,10,797,12,05/07/20,"沙田草地""C+3""                                    ",1600,好/快,4,12,49,苗禮德,史卓豐,9-1/2,13.0,122,14 14 13 12,1.35.59,1146,B,,創高峰
10,11,774,5,27/06/20,"沙田草地""B""                                    ",1400,好/快,4,4,51,苗禮德,史卓豐,3-3/4,24.0,125,2 5 4 5,1.21.56,1144,B,,創高峰
11,12,643,5,09/05/20,"沙田草地""C""                                    ",1200,好/快,4,1,52,苗禮德,史卓豐,2-1/4,54.0,125,8 6 5,1.09.70,1148,B1,,創高峰
12,13,502,9,18/03/20,"跑馬地草地""C+3""                                    ",1200,好,4,3,52,苗禮德,史卓豐,8-1/2,149.0,126,8 9 9,1.10.77,1156,--,,創高峰
