,Unnamed: 0,場次,名次,日期,馬場/跑道/賽道,途程,場地狀況,賽事班次,檔位,評分,練馬師,騎師,頭馬距離,獨贏賠率,實際負磅,沿途走位,完成時間,排位體重,配備,賽事重播,馬名
0,1,549,4,31/03/21,沙田全天候                                    ,1800,好,5,5,39,鄭俊偉,周俊樂,3,7.9,125,3 2 4 4 4,1.49.43,1052,CP-/B2,,劍聶風
1,2,414,12,10/02/21,"跑馬地草地""B""                                    ",1800,好,4,4,41,鄭俊偉,波健士,17-1/4,11.0,114,1 3 4 7 12,1.53.06,1080,CP,,劍聶風
2,3,379,3,27/01/21,"跑馬地草地""C+3""                                    ",1650,好,4,5,42,鄭俊偉,蔡明紹,2-1/2,19.0,117,1 1 1 3,1.40.29,1072,CP,,劍聶風
3,4,813,5,12/07/20,"沙田草地""A""                                    ",1800,好/快,4,12,42,鄭俊偉,蔡明紹,3-1/4,10.0,115,3 4 2 1 5,1.47.97,1068,CP,,劍聶風
4,5,754,2,21/06/20,"沙田草地""A""                                    ",2000,好/快,4,8,41,鄭俊偉,蔡明紹,1,10.0,115,4 4 5 4 2,2.02.16,1071,CP,,劍聶風
5,6,722,2,07/06/20,"沙田草地""C""                                    ",1800,黏,5,13,39,鄭俊偉,陳嘉熙,短馬頭位,19.0,125,2 1 2 2 2,1.49.65,1061,CP,,劍聶風
6,7,612,6,29/04/20,"跑馬地草地""A""                                    ",2200,好,4,10,41,鄭俊偉,陳嘉熙,2-3/4,63.0,110,5 4 2 2 2 6,2.16.50,1061,B-/CP2,,劍聶風
7,8,584,13,19/04/20,"沙田草地""C+3""                                    ",1800,好,4,1,43,鄭俊偉,陳嘉熙,13-3/4,45.0,109,4 6 5 4 13,1.49.64,1066,B,,劍聶風
8,9,532,11,29/03/20,"沙田草地""A+3""                                    ",1400,好,4,8,45,鄭俊偉,黃俊,6-3/4,210.0,113,13 13 13 11,1.23.92,1061,B,,劍聶風
9,10,495,14,14/03/20,沙田全天候                                    ,1800,好,4,12,47,鄭俊偉,潘明輝,14-3/4,22.0,119,5 10 9 10 14,1.50.10,1069,B,,劍聶風
10,11,431,5,19/02/20,沙田全天候                                    ,1650,好,4,3,49,鄭俊偉,陳嘉熙,5-1/2,14.0,112,6 4 4 5,1.39.81,1064,B,,劍聶風
11,12,386,5,02/02/20,沙田全天候                                    ,1650,好,4,13,50,鄭俊偉,蘇兆輝,5,14.0,124,9 6 5 5,1.39.98,1055,B,,劍聶風
12,13,336,9,15/01/20,"跑馬地草地""C+3""                                    ",1650,好,4,7,50,鄭俊偉,利敬國,4-3/4,10.0,123,3 4 4 9,1.40.08,1074,B,,劍聶風
13,14,309,8,05/01/20,"沙田草地""C+3""                                    ",1800,好,4,8,50,鄭俊偉,蘇兆輝,4-3/4,13.0,124,1 1 1 1 8,1.48.87,1059,B,,劍聶風
14,15,212,1,01/12/19,沙田全天候                                    ,1800,好,4,14,44,鄭俊偉,蘇兆輝,2,7.8,117,1 2 1 1 1,1.48.17,1061,CP-/B2,,劍聶風
15,16,171,7,17/11/19,"沙田草地""B""                                    ",2000,好,4,6,44,鄭俊偉,陳嘉熙,4-3/4,12.0,108,3 4 3 4 7,2.04.12,1070,CP,,劍聶風
16,17,125,2,27/10/19,沙田全天候                                    ,1800,好,4,3,43,鄭俊偉,利敬國,3/4,15.0,120,2 4 4 4 2,1.49.79,1065,CP,,劍聶風
17,18,100,5,16/10/19,"跑馬地草地""C""                                    ",1800,好,4,1,43,鄭俊偉,陳嘉熙,3-1/4,5.7,110,1 2 2 2 5,1.49.58,1072,CP,,劍聶風
18,19,31,1,15/09/19,"沙田草地""C+3""                                    ",1600,好/快,5,3,38,鄭俊偉,陳嘉熙,短馬頭位,3.3,123,2 1 1 1,1.34.52,1059,CP,,劍聶風
19,20,807,2,14/07/19,"沙田草地""A""                                    ",1800,好/快,5,8,40,鄭俊偉,陳嘉熙,2-1/2,10.0,123,1 1 1 1 2,1.47.99,1053,CP,,劍聶風
20,21,781,5,03/07/19,"跑馬地草地""C""                                    ",1800,好,4,3,42,鄭俊偉,潘明輝,3,9.5,113,1 2 2 2 5,1.49.58,1044,CP,,劍聶風
21,22,763,12,26/06/19,"跑馬地草地""B""                                    ",1650,好/快,4,6,44,鄭俊偉,潘明輝,6-3/4,7.5,114,9 9 12 12,1.41.21,1060,CP,,劍聶風
22,23,729,5,08/06/19,"沙田草地""C""                                    ",1400,好/快,4,4,46,鄭俊偉,黃皓楠,2-1/2,28.0,117,9 12 11 5,1.22.19,1053,CP,,劍聶風
23,24,699,6,29/05/19,"跑馬地草地""C""                                    ",1650,好,4,9,48,鄭俊偉,梁家俊,3,14.0,121,1 1 2 6,1.40.85,1053,CP,,劍聶風
24,25,680,6,22/05/19,"跑馬地草地""B""                                    ",1650,好/快,4,4,50,鄭俊偉,梁家俊,2-1/2,6.3,124,2 3 3 6,1.40.55,1057,CP1,,劍聶風
25,26,624,4,01/05/19,"跑馬地草地""C+3""                                    ",1650,好,4,10,51,鄭俊偉,梁家俊,2-3/4,26.0,125,3 2 4 4,1.40.31,1050,--,,劍聶風
26,27,604,5,24/04/19,"跑馬地草地""C""                                    ",1650,好,4,11,52,鄭俊偉,何澤堯,1-1/2,36.0,126,2 2 4 5,1.40.80,1048,B-,,劍聶風
27,28,588,11,17/04/19,"跑馬地草地""B""                                    ",1650,好,4,11,54,鄭俊偉,黃皓楠,19-1/4,70.0,127,9 10 10 11,1.43.06,1059,B,,劍聶風
28,29,531,11,27/03/19,"跑馬地草地""C+3""                                    ",1650,好/快,4,2,56,鄭俊偉,潘頓,6-1/4,6.6,129,3 4 4 11,1.41.36,1057,B2,,劍聶風
29,30,473,5,06/03/19,"跑馬地草地""A""                                    ",1650,好,4,6,58,鄭俊偉,潘明輝,4,34.0,128,3 2 2 5,1.41.66,1058,--,,劍聶風
30,31,456,4,27/02/19,"跑馬地草地""C+3""                                    ",1650,好/快,4,2,60,鄭俊偉,黃皓楠,2-3/4,80.0,130,3 3 3 4,1.40.56,1063,--,,劍聶風
31,32,422,12,13/02/19,"跑馬地草地""B""                                    ",1650,好,3,2,63,鄭俊偉,黃皓楠,8-1/2,125.0,111,3 4 5 12,1.41.69,1059,B-/TT-,,劍聶風
32,33,400,12,07/02/19,"沙田草地""C+3""                                    ",1200,好,3,12,65,鄭俊偉,梁家俊,15-1/2,259.0,118,12 12 12,1.11.93,1058,B/TT,,劍聶風
33,34,90,9,10/10/18,"跑馬地草地""B""                                    ",1650,好,3,12,67,告東尼,沈拿,6,48.0,123,2 2 2 9,1.41.22,1082,B/TT,,劍聶風
34,35,788,14,08/07/18,"沙田草地""C""                                    ",1400,好/快,3,9,70,告東尼,吳嘉晉                                    ,17-1/2,99.0,120,1 2 5 14,1.24.11,1074,B/TT,,劍聶風
35,36,638,7,09/05/18,"跑馬地草地""A""                                    ",1650,好/黏,3,12,72,告東尼,貝湯美                                    ,5-1/2,18.0,127,11 8 7 7,1.41.99,1073,B/TT,,劍聶風
36,37,547,14,02/04/18,"沙田草地""B+2""                                    ",1400,好,3,8,73,告東尼,祈普敦                                    ,19-3/4,32.0,126,4 4 5 14,1.24.77,1076,B/TT,,劍聶風
37,38,463,13,28/02/18,沙田全天候                                    ,1650,好,3,6,73,告東尼,潘頓,28-1/4,12.0,127,3 4 7 13,1.42.81,1085,B/TT,,劍聶風
38,39,426,3,14/02/18,"跑馬地草地""B""                                    ",1650,好,3,6,72,告東尼,莫雷拉,3/4,4.2,126,5 6 5 3,1.40.02,1086,B/TT,,劍聶風
39,40,372,11,24/01/18,沙田全天候                                    ,1650,好,3,2,72,告東尼,柏寶                                    ,7-1/2,8.2,125,1 1 1 11,1.39.40,1079,B/TT,,劍聶風
40,41,335,3,10/01/18,"跑馬地草地""B""                                    ",1650,好,3,5,72,告東尼,莫雷拉,2-3/4,2.4,125,2 2 2 3,1.40.75,1091,B/TT,,劍聶風
41,42,270,1,13/12/17,"跑馬地草地""C""                                    ",1650,好,3,7,63,告東尼,莫雷拉,2-3/4,3.0,118,1 1 1 1,1.39.56,1084,B/TT,,劍聶風
42,43,216,2,22/11/17,"跑馬地草地""C+3""                                    ",1650,好,3,2,62,告東尼,蔡明紹,1-3/4,4.5,117,5 5 5 2,1.40.79,1086,B/TT,,劍聶風
43,44,176,2,08/11/17,"跑馬地草地""B""                                    ",1650,好,4,4,60,告東尼,蔡明紹,頸位,3.4,133,5 6 6 2,1.41.28,1088,B/TT,,劍聶風
44,45,143,5,25/10/17,"跑馬地草地""C+3""                                    ",1650,好/快,3,12,61,告東尼,蔡明紹,1-3/4,81.0,114,8 4 3 5,1.40.63,1086,B/TT,,劍聶風
45,46,99,11,08/10/17,沙田全天候                                    ,1650,好,3,1,63,告東尼,蔡明紹,13-1/2,19.0,117,1 1 1 11,1.41.41,1095,H-/B2/TT1,,劍聶風
46,47,738,7,18/06/17,"沙田草地""C+3""                                    ",1800,好/黏,3,8,68,鄭俊偉,李寶利,10-3/4,63.0,121,9 9 9 7 7,1.50.67,1050,B-/H1,,劍聶風
47,48,655,9,17/05/17,"跑馬地草地""B""                                    ",1800,好/快,3,8,70,鄭俊偉,巫顯東,13,135.0,115,3 5 7 9 9,1.50.92,1037,B,,劍聶風
48,49,611,8,30/04/17,"沙田草地""A""                                    ",1600,好/快,3,8,71,鄭俊偉,祈普敦                                    ,6-1/4,259.0,128,7 8 7 8,1.35.48,1042,B,,劍聶風
49,50,562,11,09/04/17,"沙田草地""C""                                    ",1400,好/快,3,9,71,鄭俊偉,羅理雅                                    ,5,39.0,124,11 12 12 11,1.22.56,1047,B1,,劍聶風
