,Unnamed: 0,場次,名次,日期,馬場/跑道/賽道,途程,場地狀況,賽事班次,檔位,評分,練馬師,騎師,頭馬距離,獨贏賠率,實際負磅,沿途走位,完成時間,排位體重,配備,賽事重播,馬名
0,1,655,1,08/05/21,"沙田草地""C""                                    ",1400,好/快,5,6,40,賀賢,潘頓,頸位,2.4,132,7 7 5 1,1.22.03,1115,SR-/B1,,功夫茶
1,2,576,2,11/04/21,"沙田草地""C""                                    ",1400,好,5,13,38,賀賢,梁家俊,1/2,6.4,129,6 6 5 2,1.22.37,1126,SR,,功夫茶
2,3,539,7,28/03/21,"沙田草地""A+3""                                    ",1400,好/快,4,12,40,賀賢,潘明輝,5-1/4,16.0,112,13 14 12 7,1.22.06,1123,SR,,功夫茶
3,4,483,7,07/03/21,"沙田草地""C""                                    ",1200,好,4,2,40,賀賢,潘明輝,3-1/4,60.0,112,9 11 7,1.10.41,1124,XB-/SR1,,功夫茶
4,5,675,10,20/05/20,"跑馬地草地""C+3""                                    ",1200,好/快,4,1,45,賀賢,何澤堯,6-1/2,48.0,120,7 8 10,1.10.78,1100,XB,,功夫茶
5,6,200,10,27/11/19,"跑馬地草地""A""                                    ",1200,好,4,6,47,賀賢,貝力斯,5-1/4,23.0,121,12 11 10,1.10.60,1123,XB,,功夫茶
6,7,129,7,27/10/19,沙田全天候                                    ,1200,好,4,1,49,賀賢,貝力斯,4,19.0,122,9 7 7,1.10.30,1119,XB,,功夫茶
7,8,83,8,09/10/19,"跑馬地草地""B""                                    ",1200,好,4,3,51,賀賢,何澤堯,4,8.3,125,6 7 8,1.11.44,1124,XB,,功夫茶
8,9,769,6,01/07/19,"沙田草地""B""                                    ",1200,好,4,7,52,賀賢,何澤堯,4-1/2,22.0,125,6 5 6,1.09.75,1133,XB1,,功夫茶
