,Unnamed: 0,場次,名次,日期,馬場/跑道/賽道,途程,場地狀況,賽事班次,檔位,評分,練馬師,騎師,頭馬距離,獨贏賠率,實際負磅,沿途走位,完成時間,排位體重,配備,賽事重播,馬名
0,1,725,3,02/06/21,"跑馬地草地""A""                                    ",1200,好,3,9,78,告東尼,莫雷拉,1-1/4,9.1,133,4 4 3,1.09.89,1245,B/TT,,加州凱歌
1,2,669,7,12/05/21,沙田全天候                                    ,1200,好,3,7,78,告東尼,莫雷拉,4-3/4,8.8,132,4 5 7,1.09.34,1241,B/TT,,加州凱歌
2,3,628,2,28/04/21,"跑馬地草地""C+3""                                    ",1200,好/快,3,1,76,告東尼,莫雷拉,頸位,3.4,131,4 3 2,1.10.03,1250,B/TT,,加州凱歌
3,4,572,2,08/04/21,"跑馬地草地""A""                                    ",1200,好/快,3,2,75,告東尼,賀銘年,1-1/4,7.7,131,3 3 2,1.10.19,1248,B/TT,,加州凱歌
4,5,533,5,24/03/21,"跑馬地草地""C+3""                                    ",1200,好/快,3,1,76,告東尼,周俊樂,2-1/2,3.6,123,6 6 5,1.09.79,1254,B/TT,,加州凱歌
5,6,496,10,10/03/21,"跑馬地草地""B""                                    ",1200,好,3,8,78,告東尼,郭能,4-1/2,69.0,131,2 2 10,1.10.50,1259,B/TT,,加州凱歌
6,7,446,12,21/02/21,沙田全天候                                    ,1200,好,3,8,80,告東尼,何澤堯,14-1/4,19.0,133,8 9 12,1.10.30,1269,B/TT,,加州凱歌
7,8,398,9,03/02/21,"跑馬地草地""A""                                    ",1000,好,2,6,81,告東尼,蔡明紹,4-3/4,18.0,115,4 4 9,0.57.33,1278,B/TT,,加州凱歌
8,9,219,6,25/11/20,"跑馬地草地""C+3""                                    ",1000,好,2,9,81,告東尼,彭國年,2-1/4,29.0,119,7 9 6,0.56.92,1274,B1/TT,,加州凱歌
9,10,118,10,18/10/20,沙田全天候                                    ,1200,好,2,1,81,告東尼,巴度,9-1/2,10.0,115,3 1 10,1.09.92,1279,TT,,加州凱歌
10,11,61,1,27/09/20,沙田全天候                                    ,1200,好,3,9,76,告東尼,田泰安,鼻位,12.0,131,1 2 1,1.10.13,1279,TT,,加州凱歌
11,12,25,4,13/09/20,沙田全天候                                    ,1200,好,3,9,76,告東尼,郭能,3-1/2,10.0,129,4 4 4,1.09.13,1283,TT,,加州凱歌
12,13,796,8,05/07/20,沙田全天候                                    ,1200,好,3,3,76,告東尼,田泰安,9-1/2,2.9,129,4 5 8,1.10.51,1257,TT,,加州凱歌
13,14,747,3,14/06/20,沙田全天候                                    ,1200,濕慢,3,10,76,告東尼,田泰安,2-1/2,5.7,130,5 3 3,1.08.39,1239,TT,,加州凱歌
14,15,697,1,27/05/20,沙田全天候                                    ,1200,好,3,3,71,告東尼,田泰安,3/4,5.8,126,5 3 1,1.08.61,1257,TT,,加州凱歌
15,16,657,3,13/05/20,"跑馬地草地""C""                                    ",1200,好,3,10,70,告東尼,郭能,2,8.7,124,1 2 3,1.10.23,1254,TT1,,加州凱歌
