,Unnamed: 0,場次,名次,日期,馬場/跑道/賽道,途程,場地狀況,賽事班次,檔位,評分,練馬師,騎師,頭馬距離,獨贏賠率,實際負磅,沿途走位,完成時間,排位體重,配備,賽事重播,馬名
0,1,714,6,30/05/21,"沙田草地""B""                                    ",2000,好/快,3,7,78,告東尼,莫雷拉,2-3/4,2.9,129,7 9 9 12 6,2.01.12,1068,CP/TT,,加州十大
1,2,640,2,02/05/21,"沙田草地""B""                                    ",1800,好,3,3,77,告東尼,田泰安,1-1/4,6.5,131,4 4 4 5 2,1.47.27,1066,CP/TT,,加州十大
2,3,582,2,11/04/21,"沙田草地""C""                                    ",1800,好,3,12,76,告東尼,田泰安,1-3/4,19.0,130,11 11 12 8 2,1.46.58,1068,CP/TT,,加州十大
3,4,519,11,21/03/21,"沙田草地""A""                                    ",2000,好,3,11,77,告東尼,何澤堯,8,17.0,132,11 11 11 11 11,2.03.68,1076,B-/CP2/TT,,加州十大
4,5,466,3,28/02/21,"沙田草地""B+2""                                    ",1800,好,3,4,78,告東尼,潘頓,2-3/4,21.0,131,7 7 6 5 3,1.47.08,1074,B/TT,,加州十大
5,6,391,10,31/01/21,"沙田草地""B+2""                                    ",1600,好,3,5,80,告東尼,周俊樂,4,74.0,126,5 5 4 10,1.34.57,1102,CP-/B1/TT,,加州十大
6,7,284,12,20/12/20,"沙田草地""C+3""                                    ",1600,好,3,3,80,告東尼,彭國年,7-1/2,39.0,133,10 10 11 12,1.34.90,1110,CP1/TT1,,加州十大
