,Unnamed: 0,場次,名次,日期,馬場/跑道/賽道,途程,場地狀況,賽事班次,檔位,評分,練馬師,騎師,頭馬距離,獨贏賠率,實際負磅,沿途走位,完成時間,排位體重,配備,賽事重播,馬名
0,1,665,10,12/05/21,沙田全天候                                    ,1200,好,4,8,47,文家良,陳嘉熙,19-3/4,57.0,114,3 5 10,1.12.15,1021,B,,勁得裕
1,2,614,12,25/04/21,"沙田草地""A""                                    ",1200,好,4,14,50,文家良,蔡明紹,9-1/4,247.0,122,13 12 12,1.10.66,1019,B,,勁得裕
2,3,483,11,07/03/21,"沙田草地""C""                                    ",1200,好,4,3,52,文家良,蔡明紹,6-3/4,52.0,126,3 4 11,1.11.00,1013,B,,勁得裕
3,4,433,10,17/02/21,"跑馬地草地""C""                                    ",1200,好,4,1,52,文家良,巴度,7-3/4,3.8,125,6 6 10,1.10.93,1026,B1,,勁得裕
