,Unnamed: 0,場次,名次,日期,馬場/跑道/賽道,途程,場地狀況,賽事班次,檔位,評分,練馬師,騎師,頭馬距離,獨贏賠率,實際負磅,沿途走位,完成時間,排位體重,配備,賽事重播,馬名
0,1,667,12,12/05/21,沙田全天候                                    ,1650,好,4,2,50,容天鵬,班德禮,13-1/4,24.0,123,8 9 8 12,1.39.89,1302,B/TT,,勁得手
1,2,598,5,17/04/21,沙田全天候                                    ,1650,好,4,1,51,容天鵬,潘頓,2-1/4,11.0,125,2 1 1 5,1.39.38,1287,PC-/B2/TT,,勁得手
2,3,548,7,31/03/21,沙田全天候                                    ,1200,好,4,3,52,容天鵬,潘頓,3-3/4,6.6,126,12 12 7,1.09.67,1281,PC/TT,,勁得手
3,4,433,12,17/02/21,"跑馬地草地""C""                                    ",1200,好,4,11,54,容天鵬,周俊樂,8-1/2,70.0,120,12 12 12,1.11.08,1296,PC/TT,,勁得手
4,5,356,10,20/01/21,"跑馬地草地""C""                                    ",1200,好,4,8,56,容天鵬,周俊樂,6-3/4,35.0,123,12 12 10,1.10.83,1276,PC/TT,,勁得手
5,6,310,14,01/01/21,"沙田草地""B+2""                                    ",1400,好,4,4,57,容天鵬,薛恩,11-1/2,160.0,130,5 5 6 14,1.23.84,1284,PC/TT,,勁得手
6,7,254,7,09/12/20,"跑馬地草地""B""                                    ",1200,好,4,1,57,容天鵬,郭能,2-3/4,41.0,133,4 3 7,1.10.32,1278,PC/TT,,勁得手
7,8,784,8,01/07/20,沙田全天候                                    ,1200,好,4,12,57,容天鵬,周俊樂,4-1/2,5.0,120,6 8 8,1.10.61,1293,PC/TT,,勁得手
8,9,690,1,27/05/20,沙田全天候                                    ,1200,濕慢,4,6,46,容天鵬,潘頓,3-3/4,3.9,121,1 1 1,1.08.52,1292,PC/TT,,勁得手
9,10,615,8,29/04/20,"跑馬地草地""A""                                    ",1200,好/快,4,4,48,容天鵬,梁家俊,5,11.0,121,4 5 8,1.10.77,1298,PC/TT,,勁得手
10,11,566,5,12/04/20,"沙田草地""C""                                    ",1200,好,4,6,50,容天鵬,梁家俊,3-1/2,100.0,123,2 2 5,1.10.03,1291,B-/PC1/TT,,勁得手
11,12,493,7,14/03/20,"沙田草地""C+3""                                    ",1000,好,4,4,52,容天鵬,梁家俊,3-1/4,145.0,126,5 4 7,0.57.41,1288,B/TT,,勁得手
12,13,430,5,19/02/20,沙田全天候                                    ,1200,好,4,2,54,容天鵬,楊明綸,2-1/2,26.0,128,7 8 5,1.09.61,1285,B/TT,,勁得手
13,14,363,10,27/01/20,"沙田草地""B+2""                                    ",1400,好,4,6,56,容天鵬,陳嘉熙,9-3/4,81.0,119,3 4 4 10,1.24.16,1265,B/TT,,勁得手
14,15,308,8,05/01/20,沙田全天候                                    ,1200,好,4,6,57,容天鵬,楊明綸,6-3/4,38.0,130,7 9 8,1.10.70,1262,B/TT,,勁得手
15,16,181,12,20/11/19,"跑馬地草地""C+3""                                    ",1200,好/快,4,12,57,容天鵬,巫顯東,19-1/4,55.0,129,12 12 12,1.12.86,1259,B/TT,,勁得手
16,17,128,12,27/10/19,沙田全天候                                    ,1200,好,4,12,57,容天鵬,楊明綸,18-1/4,17.0,130,5 12 12,1.12.46,1238,B/TT,,勁得手
17,18,791,1,07/07/19,沙田全天候                                    ,1200,好,4,1,52,容天鵬,潘頓,短馬頭位,3.1,128,6 4 1,1.10.08,1264,B/TT1,,勁得手
18,19,733,8,12/06/19,沙田全天候                                    ,1650,濕慢,4,2,52,容天鵬,楊明綸,7-1/2,6.3,119,5 4 5 8,1.41.47,1253,B,,勁得手
19,20,709,6,02/06/19,"沙田草地""B""                                    ",1400,好/快,4,13,52,容天鵬,楊明綸,2-1/2,21.0,124,2 2 2 6,1.22.81,1265,B,,勁得手
20,21,643,2,08/05/19,沙田全天候                                    ,1200,濕慢,4,2,51,容天鵬,楊明綸,1-1/4,2.9,123,6 3 2,1.10.11,1255,B,,勁得手
21,22,596,3,22/04/19,沙田全天候                                    ,1200,好,4,7,51,容天鵬,楊明綸,1-3/4,5.6,120,5 9 3,1.09.41,1238,B,,勁得手
22,23,551,1,03/04/19,沙田全天候                                    ,1200,好,4,10,44,容天鵬,楊明綸,1-3/4,32.0,117,4 4 1,1.09.60,1260,B,,勁得手
23,24,500,11,17/03/19,"沙田草地""A""                                    ",1600,好,4,10,46,容天鵬,貝力斯,13-3/4,74.0,119,1 1 2 11,1.37.02,1262,CP-/B1,,勁得手
24,25,445,10,24/02/19,"沙田草地""B+2""                                    ",1400,好,4,11,48,容天鵬,李寶利,6-3/4,21.0,121,4 4 5 10,1.23.18,1271,CP1,,勁得手
25,26,410,5,10/02/19,"沙田草地""A""                                    ",1400,好,4,2,50,容天鵬,李寶利,3-1/2,58.0,123,4 4 3 5,1.22.95,1282,--,,勁得手
26,27,351,11,20/01/19,"沙田草地""A+3""                                    ",1200,好/快,4,12,52,容天鵬,楊明綸,6-3/4,179.0,119,2 3 11,1.10.61,1284,--,,勁得手
27,28,304,5,01/01/19,"沙田草地""C""                                    ",1200,好,4,2,52,容天鵬,李寶利,4-1/2,46.0,125,4 4 5,1.10.58,1275,--,,勁得手
