,Unnamed: 0,場次,名次,日期,馬場/跑道/賽道,途程,場地狀況,賽事班次,檔位,評分,練馬師,騎師,頭馬距離,獨贏賠率,實際負磅,沿途走位,完成時間,排位體重,配備,賽事重播,馬名
0,1,694,5,23/05/21,"沙田草地""A""                                    ",1600,好/快,4,10,52,告東尼,彭國年,3/4,46.0,125,11 9 11 5,1.35.57,1110,TT,,勇敢皇者
1,2,608,10,21/04/21,"跑馬地草地""C""                                    ",1650,好/快,4,7,55,告東尼,田泰安,6,16.0,130,7 8 4 10,1.40.72,1112,TT,,勇敢皇者
2,3,513,12,17/03/21,"跑馬地草地""C""                                    ",1800,好/快,4,11,57,告東尼,潘頓,14-3/4,5.0,131,4 3 3 4 12,1.51.12,1113,TT,,勇敢皇者
3,4,452,5,24/02/21,"跑馬地草地""C+3""                                    ",1650,好/快,4,6,59,告東尼,梁家俊,2-1/2,6.5,132,12 12 12 5,1.40.91,1125,H-/TT,,勇敢皇者
4,5,397,5,03/02/21,"跑馬地草地""A""                                    ",1650,好,4,1,59,告東尼,陳嘉熙,1-1/2,5.2,125,6 5 4 5,1.41.54,1125,H/TT,,勇敢皇者
5,6,339,2,13/01/21,"跑馬地草地""B""                                    ",1650,好,4,7,57,告東尼,陳嘉熙,1/2,17.0,123,11 11 1 2,1.41.01,1120,H/TT,,勇敢皇者
6,7,295,9,26/12/20,"沙田草地""A+3""                                    ",2000,好,4,8,59,告東尼,彭國年,8-1/4,21.0,132,2 1 1 2 9,2.04.02,1123,XB-/H1/TT1,,勇敢皇者
7,8,160,7,04/11/20,沙田全天候                                    ,1800,好,3,8,61,韋達,巴度,8-1/2,12.0,114,10 10 10 8 7,1.50.79,1142,B-/XB,,勇敢皇者
8,9,143,6,28/10/20,"跑馬地草地""C+3""                                    ",1650,好,3,6,63,韋達,巴度,2-1/2,11.0,116,9 11 11 6,1.39.60,1141,SR-/XB/B2,,勇敢皇者
9,10,50,7,23/09/20,"跑馬地草地""C+3""                                    ",1650,好/快,3,5,65,韋達,潘明輝,3,19.0,118,10 10 10 7,1.39.92,1144,SR/XB1,,勇敢皇者
10,11,808,6,08/07/20,"跑馬地草地""A""                                    ",1800,好,3,1,66,韋達,賀銘年,5-1/4,5.7,122,4 6 5 9 6,1.50.06,1135,SR,,勇敢皇者
11,12,735,3,10/06/20,"跑馬地草地""B""                                    ",1650,好/快,3,3,66,韋達,史卓豐,1-1/2,12.0,119,6 7 6 3,1.40.29,1140,SR,,勇敢皇者
12,13,676,4,20/05/20,"跑馬地草地""C+3""                                    ",1650,好/快,3,7,68,韋達,史卓豐,3-1/4,11.0,123,10 10 10 4,1.39.52,1124,SR1,,勇敢皇者
13,14,619,4,29/04/20,"跑馬地草地""A""                                    ",1650,好/快,3,6,68,韋達,史卓豐,1-3/4,53.0,121,10 10 7 4,1.39.91,1121,--,,勇敢皇者
14,15,586,7,19/04/20,沙田全天候                                    ,1650,好,3,12,70,韋達,薛恩,6-3/4,361.0,123,12 12 9 7,1.39.06,1122,--,,勇敢皇者
15,16,529,11,29/03/20,"沙田草地""A+3""                                    ",1200,好,3,9,72,韋達,波健士,12,376.0,125,11 11 11,1.11.59,1132,B-,,勇敢皇者
16,17,439,14,23/02/20,"沙田草地""A+3""                                    ",1200,好,3,10,72,韋達,薛恩,18-1/4,228.0,129,13 14 14,1.12.61,1134,B1,,勇敢皇者
