,Unnamed: 0,場次,名次,日期,馬場/跑道/賽道,途程,場地狀況,賽事班次,檔位,評分,練馬師,騎師,頭馬距離,獨贏賠率,實際負磅,沿途走位,完成時間,排位體重,配備,賽事重播,馬名
0,1,696,4,23/05/21,"沙田草地""A""                                    ",2400,好/快,G1,2,106,沈集成,潘明輝,3-3/4,13.0,126,5 5 6 6 6 4,2.25.84,1174,TT,,勇猛神駒
1,2,638,1,02/05/21,"沙田草地""B""                                    ",2400,好,G3,5,101,沈集成,潘明輝,短馬頭位,28.0,122,2 3 3 5 5 1,2.28.14,1175,TT,,勇猛神駒
2,3,556,2,05/04/21,"沙田草地""B+2""                                    ",2000,好,1,4,101,沈集成,巴度,1,3.3,116,4 4 4 3 2,2.02.07,1169,TT,,勇猛神駒
3,4,488,1,07/03/21,"沙田草地""C""                                    ",1800,好,2,2,94,沈集成,潘頓,1-3/4,5.8,122,5 5 6 4 1,1.47.18,1149,TT,,勇猛神駒
4,5,442,7,21/02/21,"沙田草地""A+3""                                    ",2000,好,2,8,96,沈集成,周俊樂,6-1/2,10.0,125,2 2 2 2 7,2.02.61,1165,TT,,勇猛神駒
5,6,372,6,24/01/21,"沙田草地""A+3""                                    ",1800,好,2,11,96,沈集成,田泰安,1-1/4,11.0,130,6 6 5 6 6,1.47.91,1166,TT,,勇猛神駒
6,7,302,6,26/12/20,"沙田草地""A+3""                                    ",2000,好,2,6,97,沈集成,潘頓,1-3/4,3.5,130,7 6 7 4 6,2.02.17,1155,TT,,勇猛神駒
7,8,257,5,09/12/20,"跑馬地草地""B""                                    ",1800,好,2,11,98,沈集成,潘頓,1-3/4,8.3,133,2 2 2 2 5,1.49.26,1161,TT,,勇猛神駒
8,9,201,4,18/11/20,"跑馬地草地""C""                                    ",1650,好,2,11,98,沈集成,潘頓,1-1/2,13.0,133,11 10 10 4,1.38.84,1150,TT,,勇猛神駒
9,10,155,9,01/11/20,"沙田草地""A""                                    ",1800,好/快,G3,6,98,沈集成,巴度,4-1/4,15.0,113,1 3 4 3 9,1.46.60,1150,TT,,勇猛神駒
10,11,84,8,04/10/20,"沙田草地""C+3""                                    ",1800,好,2,11,98,沈集成,巴度,2-3/4,17.0,129,8 10 10 12 8,1.48.44,1146,TT,,勇猛神駒
11,12,827,8,15/07/20,"跑馬地草地""B""                                    ",1650,好/快,2,5,98,沈集成,周俊樂,3-1/2,6.1,123,6 5 5 8,1.39.15,1117,TT,,勇猛神駒
12,13,786,2,01/07/20,"沙田草地""C""                                    ",1800,好/快,2,11,96,沈集成,何澤堯,1/2,10.0,132,1 1 2 2 2,1.46.51,1122,TT,,勇猛神駒
13,14,716,2,03/06/20,"跑馬地草地""A""                                    ",1800,好,2,9,94,沈集成,何澤堯,短馬頭位,11.0,130,1 2 2 2 2,1.48.76,1123,TT,,勇猛神駒
14,15,667,4,17/05/20,"沙田草地""C+3""                                    ",1800,好/快,2,5,94,沈集成,莫雷拉,1,4.7,131,4 5 7 4 4,1.47.67,1130,XB-/TT,,勇猛神駒
15,16,611,6,26/04/20,"沙田草地""A""                                    ",1600,好,2,5,94,沈集成,莫雷拉,3-1/2,4.5,125,4 4 4 6,1.34.82,1124,XB/TT,,勇猛神駒
16,17,549,2,05/04/20,"沙田草地""B+2""                                    ",2000,好,1,1,90,沈集成,莫雷拉,頸位,1.9,115,3 4 4 4 2,2.01.44,1118,XB/TT,,勇猛神駒
17,18,516,6,22/03/20,"沙田草地""A""                                    ",2000,好/快,4YO,12,90,沈集成,利敬國,4-3/4,19.0,126,10 11 10 9 6,2.00.89,1127,XB/TT,,勇猛神駒
18,19,390,1,02/02/20,"沙田草地""C""                                    ",1800,好,2,1,84,沈集成,利敬國,1/2,12.0,120,4 3 4 2 1,1.46.71,1113,XB/TT,,勇猛神駒
19,20,332,6,11/01/20,"沙田草地""A""                                    ",1600,好,2,8,85,沈集成,巴度,2-1/2,39.0,122,12 11 9 6,1.34.33,1117,XB/TT,,勇猛神駒
20,21,282,4,26/12/19,"跑馬地草地""A""                                    ",1650,好,2,8,85,沈集成,利敬國,1-3/4,57.0,121,3 1 1 4,1.40.11,1128,XB/TT,,勇猛神駒
21,22,178,12,17/11/19,"沙田草地""B""                                    ",1200,好/快,2,7,86,沈集成,蘇兆輝,7-3/4,151.0,124,11 14 12,1.09.79,1113,XB1/TT,,勇猛神駒
22,23,8,11,01/09/19,"沙田草地""B""                                    ",1400,好,2,9,86,沈集成,薛恩,6-1/2,66.0,122,6 6 6 11,1.22.37,1127,TT1,,勇猛神駒
