,Unnamed: 0,場次,名次,日期,馬場/跑道/賽道,途程,場地狀況,賽事班次,檔位,評分,練馬師,騎師,頭馬距離,獨贏賠率,實際負磅,沿途走位,完成時間,排位體重,配備,賽事重播,馬名
0,1,700,10,26/05/21,"跑馬地草地""C""                                    ",1200,好/快,5,6,36,韋達,莫雷拉,4-3/4,7.6,129,9 9 10,1.10.55,1189,XB-/B,,勝出魅力
1,2,663,WV,12/05/21,沙田全天候                                    ,1800,好,5,--,36,韋達,周俊樂,--,--,124,--,--,--,--,--,勝出魅力
2,3,606,06,21/04/21,"跑馬地草地""C""                                    ",1200,好/快,5,1,38,韋達,班德禮,3-1/4,12,131,8 8 6,1.11.05,1185,B/XB,,勝出魅力
3,4,520,12,21/03/21,"沙田草地""A""                                    ",1400,好,4,11,40,韋達,楊明綸,9-1/2,47,114,12 11 11 12,1.23.50,1190,B/XB,,勝出魅力
4,5,471,07,03/03/21,"跑馬地草地""A""                                    ",1650,好,4,4,42,韋達,巴度,5-3/4,7.8,116,11 10 9 7,1.41.47,1176,B/XB,,勝出魅力
5,6,416,04,10/02/21,"跑馬地草地""B""                                    ",1200,好,4,3,44,韋達,巴度,2-3/4,8.2,117,9 8 4,1.10.96,1183,B/XB,,勝出魅力
6,7,358,04,20/01/21,"跑馬地草地""C""                                    ",1200,好,4,11,45,韋達,周俊樂,2-1/4,61,113,12 12 4,1.10.35,1196,B/XB,,勝出魅力
7,8,107,11,14/10/20,"跑馬地草地""B""                                    ",1200,好,4,7,48,韋達,波健士,7-1/2,102,122,11 12 11,1.11.15,1201,B/XB,,勝出魅力
8,9,49,11,23/09/20,"跑馬地草地""C+3""                                    ",1000,好/快,4,7,50,韋達,薛恩,5-1/2,79,123,11 11 11,0.58.05,1210,XB/B2,,勝出魅力
9,10,5,14,06/09/20,"沙田草地""A""                                    ",1400,好,4,3,52,韋達,賀銘年,8-3/4,62,125,7 7 7 14,1.23.67,1209,B-/XB,,勝出魅力
10,11,679,05,24/05/20,"沙田草地""A""                                    ",1200,好,GRIFFIN,7,--,韋達,莫雷拉,3,4,126,7 6 5,1.11.27,1177,B/XB,,勝出魅力
11,12,621,02,03/05/20,"沙田草地""B""                                    ",1000,好,GRIFFIN,4,--,韋達,莫雷拉,1/2,1.7,129,2 1 2,0.56.75,1182,B/XB,,勝出魅力
12,13,563,02,12/04/20,"沙田草地""C""                                    ",1000,好,GRIFFIN,2,--,韋達,莫雷拉,2-1/4,2.2,129,2 2 2,0.59.02,1180,B1/XB1,,勝出魅力
