,Unnamed: 0,場次,名次,日期,馬場/跑道/賽道,途程,場地狀況,賽事班次,檔位,評分,練馬師,騎師,頭馬距離,獨贏賠率,實際負磅,沿途走位,完成時間,排位體重,配備,賽事重播,馬名
0,1,699,13,23/05/21,"沙田草地""A""                                    ",1200,好/快,3,2,66,蘇偉賢,賀銘年,13-3/4,51.0,123,6 8 13,1.10.92,1136,H/TT,,勝意龍
1,2,658,7,08/05/21,"沙田草地""C""                                    ",1200,好/快,3,11,68,蘇偉賢,田泰安,6-3/4,47.0,123,11 9 7,1.09.78,1143,H/TT1,,勝意龍
2,3,595,5,17/04/21,"沙田草地""C+3""                                    ",1000,好,3,8,68,蘇偉賢,田泰安,5-1/4,9.4,121,6 10 5,0.57.43,1145,H1,,勝意龍
