,Unnamed: 0,場次,名次,日期,馬場/跑道/賽道,途程,場地狀況,賽事班次,檔位,評分,練馬師,騎師,頭馬距離,獨贏賠率,實際負磅,沿途走位,完成時間,排位體重,配備,賽事重播,馬名
0,1,696,7,23/05/21,"沙田草地""A""                                    ",2400,好/快,G1,8,90,告東尼,蔡明紹,7-1/4,22.0,126,8 8 8 8 8 7,2.26.39,1109,B/TT,,包裝永旺
1,2,638,4,02/05/21,"沙田草地""B""                                    ",2400,好,G3,1,85,告東尼,蔡明紹,1-1/4,8.8,113,5 5 7 8 4 4,2.28.36,1101,B/TT,,包裝永旺
2,3,524,8,21/03/21,"沙田草地""A""                                    ",2000,好,4YO,6,85,告東尼,郭能,5-1/4,32.0,126,8 7 7 7 8,2.02.18,1095,B/TT,,包裝永旺
3,4,449,6,21/02/21,"沙田草地""A+3""                                    ",1800,好,4YO,6,85,告東尼,蔡明紹,1-1/4,25.0,126,13 13 12 12 6,1.47.42,1111,CP-/B1/TT,,包裝永旺
4,5,372,5,24/01/21,"沙田草地""A+3""                                    ",1800,好,2,3,85,告東尼,蔡明紹,1-1/4,3.7,119,9 9 10 9 5,1.47.89,1120,CP/TT,,包裝永旺
5,6,316,7,01/01/21,"沙田草地""B+2""                                    ",1600,好,2,14,85,告東尼,蘇銘倫,3,9.5,121,12 12 8 7,1.35.69,1128,CP/TT,,包裝永旺
6,7,257,2,09/12/20,"跑馬地草地""B""                                    ",1800,好,2,1,83,告東尼,波健士,短馬頭位,9.5,118,6 5 5 5 2,1.48.97,1136,CP1/TT,,包裝永旺
7,8,208,6,22/11/20,"沙田草地""B+2""                                    ",1800,好/快,2,11,84,告東尼,何澤堯,2-1/4,7.5,117,12 12 12 12 6,1.46.72,1133,TT,,包裝永旺
8,9,147,5,28/10/20,"跑馬地草地""C+3""                                    ",1800,好,2,3,84,告東尼,田泰安,3-1/2,13.0,119,11 10 11 11 5,1.49.93,1131,TT1,,包裝永旺
