,Unnamed: 0,場次,名次,日期,馬場/跑道/賽道,途程,場地狀況,賽事班次,檔位,評分,練馬師,騎師,頭馬距離,獨贏賠率,實際負磅,沿途走位,完成時間,排位體重,配備,賽事重播,馬名
0,1,582,9,11/04/21,"沙田草地""C""                                    ",1800,好,3,10,74,賀賢,潘頓,9-1/2,5.4,128,4 3 2 2 9,1.47.81,1087,H,,北極光
1,2,522,1,21/03/21,"沙田草地""A""                                    ",1400,好,3,9,69,賀賢,潘頓,鼻位,3.7,122,8 9 8 1,1.21.62,1092,H,,北極光
2,3,450,3,21/02/21,"沙田草地""A+3""                                    ",1400,好,3,13,67,賀賢,潘頓,3/4,5.2,120,14 12 10 3,1.21.23,1097,H,,北極光
3,4,367,6,24/01/21,"沙田草地""A+3""                                    ",1400,好,3,14,67,賀賢,潘頓,1-3/4,3.5,121,12 12 9 6,1.22.42,1102,H,,北極光
4,5,315,2,01/01/21,"沙田草地""B+2""                                    ",1400,好,3,11,64,賀賢,莫雷拉,頸位,9.1,117,10 9 6 2,1.21.91,1098,H,,北極光
5,6,263,3,13/12/20,"沙田草地""A""                                    ",1400,好,3,13,64,賀賢,莫雷拉,3-1/4,7.6,118,1 1 1 3,1.22.12,1109,H,,北極光
6,7,228,9,29/11/20,"沙田草地""C""                                    ",1200,好,3,11,64,賀賢,波健士,5-3/4,6.7,117,12 12 9,1.10.06,1104,H,,北極光
7,8,94,1,11/10/20,"沙田草地""A+3""                                    ",1400,好,4,1,58,賀賢,潘頓,1-1/4,1.7,133,5 4 2 1,1.21.87,1091,H,,北極光
8,9,41,3,20/09/20,"沙田草地""B+2""                                    ",1200,好/快,4,13,58,賀賢,潘頓,2,2.6,131,10 8 3,1.08.96,1080,H1,,北極光
9,10,492,1,14/03/20,"沙田草地""C+3""                                    ",1200,好,4,5,52,賀賢,潘頓,1/2,1.7,125,5 3 1,1.09.50,1108,--,,北極光
10,11,457,2,01/03/20,"沙田草地""B+2""                                    ",1200,好,4,10,52,賀賢,潘頓,2,2.6,127,5 5 2,1.09.77,1111,--,,北極光
