,Unnamed: 0,場次,名次,日期,馬場/跑道/賽道,途程,場地狀況,賽事班次,檔位,評分,練馬師,騎師,頭馬距離,獨贏賠率,實際負磅,沿途走位,完成時間,排位體重,配備,賽事重播,馬名
0,1,717,4,30/05/21,"沙田草地""B""                                    ",1200,好/快,3,4,69,羅富全,潘頓,1,8.5,122,4 4 4,1.08.46,1210,B,,南區有
1,2,642,8,02/05/21,"沙田草地""B""                                    ",1400,好,3,1,71,羅富全,潘頓,6-1/2,5.3,126,1 1 1 8,1.22.87,1212,B,,南區有
2,3,564,7,05/04/21,"沙田草地""B+2""                                    ",1400,好,3,12,73,羅富全,潘頓,6,6.7,127,1 2 2 7,1.22.77,1204,B,,南區有
3,4,507,6,13/03/21,"沙田草地""C+3""                                    ",1400,好,3,12,74,羅富全,梁家俊,1-1/2,46.0,127,1 1 2 6,1.22.15,1218,B,,南區有
4,5,446,5,21/02/21,沙田全天候                                    ,1200,好,3,11,74,羅富全,莫雷拉,3-1/2,9.9,127,3 3 5,1.08.58,1214,B,,南區有
5,6,387,6,31/01/21,沙田全天候                                    ,1200,好,3,10,74,羅富全,莫雷拉,2-3/4,3.2,127,4 3 6,1.08.94,1212,B,,南區有
6,7,282,1,20/12/20,沙田全天候                                    ,1200,好,3,10,69,羅富全,莫雷拉,3/4,5.3,126,1 2 1,1.09.09,1227,B,,南區有
7,8,224,4,29/11/20,沙田全天候                                    ,1200,好,3,9,70,羅富全,郭能,5-1/2,8.8,123,6 4 4,1.09.72,1217,B,,南區有
8,9,191,4,14/11/20,"沙田草地""C+3""                                    ",1000,好,3,8,71,羅富全,郭能,1-3/4,32.0,126,5 4 4,0.57.01,1216,B,,南區有
9,10,99,6,11/10/20,"沙田草地""A+3""                                    ",1200,好,3,1,71,羅富全,蔡明紹,3,5.2,124,7 7 6,1.09.08,1203,B1,,南區有
