,Unnamed: 0,場次,名次,日期,馬場/跑道/賽道,途程,場地狀況,賽事班次,檔位,評分,練馬師,騎師,頭馬距離,獨贏賠率,實際負磅,沿途走位,完成時間,排位體重,配備,賽事重播,馬名
0,1,695,10,23/05/21,"沙田草地""A""                                    ",1400,好/快,3,2,64,大衛希斯,楊明綸,6-3/4,77,119,9 8 8 10,1.22.27,1009,XB-/CP1,,博愛之光
1,2,487,9,07/03/21,"沙田草地""C""                                    ",1600,好,3,4,66,大衛希斯,楊明綸,5,96,122,7 8 8 9,1.36.32,1015,XB,,博愛之光
2,3,391,11,31/01/21,"沙田草地""B+2""                                    ",1600,好,3,14,68,大衛希斯,史卓豐,6,175,121,14 14 14 11,1.34.90,1021,XB,,博愛之光
3,4,305,10,26/12/20,"沙田草地""A+3""                                    ",1400,好,3,9,68,大衛希斯,楊明綸,6-1/4,74,122,14 13 14 10,1.22.87,1032,XB1,,博愛之光
