,Unnamed: 0,場次,名次,日期,馬場/跑道/賽道,途程,場地狀況,賽事班次,檔位,評分,練馬師,騎師,頭馬距離,獨贏賠率,實際負磅,沿途走位,完成時間,排位體重,配備,賽事重播,馬名
0,1,727,2,02/06/21,"跑馬地草地""A""                                    ",1650,好,3,2,64,蘇偉賢,巴度,頭位,6.8,121,2 1 1 2,1.40.15,1038,--,,友港友笑
1,2,630,2,28/04/21,"跑馬地草地""C+3""                                    ",1650,好,3,6,62,蘇偉賢,巴度,1/2,6.8,117,1 1 1 2,1.40.77,1034,--,,友港友笑
2,3,573,4,08/04/21,"跑馬地草地""A""                                    ",1650,好/快,3,4,62,蘇偉賢,黃皓楠,2-1/4,19.0,112,8 8 7 4,1.39.78,1037,--,,友港友笑
3,4,535,3,24/03/21,"跑馬地草地""C+3""                                    ",1650,好/快,3,4,61,蘇偉賢,潘明輝,3/4,17.0,112,2 2 2 3,1.39.70,1040,--,,友港友笑
4,5,476,11,03/03/21,"跑馬地草地""A""                                    ",1650,好,3,11,61,蘇偉賢,巴度,19-1/4,12.0,115,3 4 5 11,1.43.18,1043,--,,友港友笑
5,6,399,2,03/02/21,"跑馬地草地""A""                                    ",1650,好,3,12,60,蘇偉賢,巴度,1/2,23.0,114,2 2 3 2,1.41.71,1033,--,,友港友笑
6,7,334,13,10/01/21,"沙田草地""C""                                    ",1600,好,3,9,62,蘇偉賢,蔡明紹,9-1/2,41.0,115,4 4 4 13,1.35.73,1031,--,,友港友笑
7,8,263,4,13/12/20,"沙田草地""A""                                    ",1400,好,3,8,63,蘇偉賢,彭國年,3-1/2,61.0,117,3 4 4 4,1.22.17,1032,--,,友港友笑
8,9,217,5,25/11/20,"跑馬地草地""C+3""                                    ",1200,好,3,1,65,蘇偉賢,彭國年,3-1/4,19.0,118,6 6 5,1.09.77,1038,--,,友港友笑
9,10,819,9,12/07/20,"沙田草地""A""                                    ",1200,好/快,3,13,68,蘇偉賢,薛恩,5,282.0,121,10 9 9,1.09.72,1028,--,,友港友笑
10,11,759,9,21/06/20,"沙田草地""A""                                    ",1200,好/快,3,7,68,蘇偉賢,薛恩,4-1/2,55.0,121,8 8 9,1.09.51,1028,--,,友港友笑
