,Unnamed: 0,場次,名次,日期,馬場/跑道/賽道,途程,場地狀況,賽事班次,檔位,評分,練馬師,騎師,頭馬距離,獨贏賠率,實際負磅,沿途走位,完成時間,排位體重,配備,賽事重播,馬名
0,1,710,12,30/05/21,"沙田草地""B""                                    ",1400,好/快,4,5,60,鄭俊偉,賀銘年,10,12.0,133,5 5 6 12,1.22.99,1074,P-/B2,,友盈友福
1,2,659,2,08/05/21,沙田全天候                                    ,1650,好,3,1,60,鄭俊偉,巴度,2-1/4,7.3,113,2 4 2 2,1.37.26,1079,B-/P2,,友盈友福
2,3,618,6,25/04/21,"沙田草地""A""                                    ",1400,好,3,11,61,鄭俊偉,巴度,1-3/4,38.0,115,1 1 1 6,1.22.27,1075,B,,友盈友福
3,4,564,6,05/04/21,"沙田草地""B+2""                                    ",1400,好,3,8,63,鄭俊偉,巴度,5-1/4,10.0,117,6 8 5 6,1.22.65,1080,B,,友盈友福
4,5,507,5,13/03/21,"沙田草地""C+3""                                    ",1400,好,3,13,63,鄭俊偉,黃皓楠,1-1/2,253.0,113,10 13 13 5,1.22.13,1071,B,,友盈友福
5,6,486,9,07/03/21,沙田全天候                                    ,1200,好,3,6,66,鄭俊偉,黃皓楠,6,148.0,117,7 9 9,1.09.31,1074,XB-/B,,友盈友福
6,7,430,12,14/02/21,"沙田草地""A""                                    ",1200,好,3,5,70,鄭俊偉,楊明綸,7-1/4,117.0,123,6 7 12,1.10.35,1077,XB/B2,,友盈友福
7,8,354,14,17/01/21,"沙田草地""A""                                    ",1400,好,3,2,74,鄭俊偉,郭能,9-1/4,180.0,127,4 6 7 14,1.23.40,1075,XB,,友盈友福
8,9,258,13,13/12/20,"沙田草地""A""                                    ",1200,好,3,3,77,鄭俊偉,彭國年,12,209.0,133,13 14 13,1.10.88,1071,XB,,友盈友福
9,10,210,13,22/11/20,"沙田草地""B+2""                                    ",1200,好/快,3,12,80,鄭俊偉,彭國年,8,244.0,133,5 8 13,1.09.87,1078,XB,,友盈友福
10,11,154,13,01/11/20,"沙田草地""A""                                    ",1000,好/快,2,9,82,鄭俊偉,波健士,9-3/4,258.0,119,7 14 13,0.56.83,1073,P-/XB1,,友盈友福
11,12,796,11,05/07/20,沙田全天候                                    ,1200,好,3,11,85,鄭俊偉,薛恩,20-3/4,198.0,133,12 12 11,1.12.31,1085,B-/P1,,友盈友福
12,13,665,14,17/05/20,"沙田草地""C+3""                                    ",1000,好/快,3,2,85,鄭俊偉,潘頓,18,43.0,133,11 14 14,0.58.12,1088,B1,,友盈友福
