,Unnamed: 0,場次,名次,日期,馬場/跑道/賽道,途程,場地狀況,賽事班次,檔位,評分,練馬師,騎師,頭馬距離,獨贏賠率,實際負磅,沿途走位,完成時間,排位體重,配備,賽事重播,馬名
0,1,673,1,16/05/21,"沙田草地""C+3""                                    ",1000,好/快,4,4,56,沈集成,陳嘉熙,1-1/4,14.0,123,2 2 1,0.54.94,1240,B/TT,,同有友
1,2,403,10,06/02/21,"沙田草地""C""                                    ",1000,好,4,14,57,沈集成,潘頓,7-1/2,3.0,130,3 1 10,0.58.11,1238,B/TT,,同有友
2,3,330,3,10/01/21,"沙田草地""C""                                    ",1000,好,4,2,57,沈集成,蘇銘倫,1-1/4,6.0,130,3 4 3,0.57.21,1227,B/TT,,同有友
3,4,289,7,23/12/20,"跑馬地草地""C+3""                                    ",1000,好,4,3,57,沈集成,潘頓,3,2.9,130,8 6 7,0.57.54,1230,B/TT,,同有友
4,5,185,2,14/11/20,"沙田草地""C+3""                                    ",1000,好,4,6,56,沈集成,周俊樂,1-1/4,3.1,124,3 1 2,0.57.26,1215,B/TT,,同有友
5,6,79,2,04/10/20,"沙田草地""C+3""                                    ",1000,好,4,10,55,沈集成,周俊樂,1-1/4,3.3,120,4 2 2,0.56.11,1200,B/TT,,同有友
6,7,39,2,20/09/20,"沙田草地""B+2""                                    ",1000,好,4,11,53,沈集成,周俊樂,1/2,2.5,116,1 2 2,0.55.51,1206,B/TT,,同有友
7,8,6,3,06/09/20,"沙田草地""A""                                    ",1000,好,4,4,53,沈集成,周俊樂,1-1/2,3.3,116,2 1 3,0.56.17,1201,B/TT,,同有友
8,9,749,1,21/06/20,"沙田草地""A""                                    ",1000,好/快,5,14,40,沈集成,周俊樂,5,4.9,123,1 1 1,0.55.64,1194,B/TT,,同有友
9,10,703,8,31/05/20,"沙田草地""B""                                    ",1200,好,4,12,42,沈集成,黎海榮,4,108.0,115,2 2 8,1.10.05,1184,B/TT,,同有友
10,11,670,11,20/05/20,"跑馬地草地""C+3""                                    ",1200,好,4,10,45,沈集成,潘明輝,5-1/4,70.0,118,4 5 11,1.10.86,1189,B/TT,,同有友
11,12,643,9,09/05/20,"沙田草地""C""                                    ",1200,好/快,4,11,48,沈集成,潘明輝,6-1/4,48.0,119,1 1 9,1.10.31,1200,B/TT,,同有友
12,13,604,11,26/04/20,"沙田草地""A""                                    ",1200,好,4,7,50,沈集成,潘明輝,6-1/2,250.0,121,13 13 11,1.10.45,1190,B/TT,,同有友
13,14,294,7,01/01/20,"沙田草地""C""                                    ",1200,好,4,1,50,沈集成,巴度,3-1/2,21.0,125,1 1 7,1.10.69,1192,B1/TT1,,同有友
14,15,208,13,01/12/19,"沙田草地""C+3""                                    ",1400,好,4R,5,52,沈集成,薛恩,9-1/4,25.0,128,1 1 1 13,1.23.82,1186,--,,同有友
15,16,160,6,09/11/19,"沙田草地""A""                                    ",1200,好,4R,2,52,沈集成,郭能,7-1/4,14.0,124,3 3 6,1.10.00,1180,--,,同有友
