,Unnamed: 0,場次,名次,日期,馬場/跑道/賽道,途程,場地狀況,賽事班次,檔位,評分,練馬師,騎師,頭馬距離,獨贏賠率,實際負磅,沿途走位,完成時間,排位體重,配備,賽事重播,馬名
0,1,718,14,30/05/21,"沙田草地""B""                                    ",1200,好/快,2,2,82,沈集成,潘明輝,11-3/4,32,115,5 6 14,1.09.80,1076,B/TT,,同樂日
1,2,602,11,17/04/21,沙田全天候                                    ,1200,好,2,2,82,沈集成,蔡明紹,6-3/4,21,115,5 11 11,1.09.61,1080,B/TT,,同樂日
2,3,545,12,28/03/21,"沙田草地""A+3""                                    ",1200,好/快,2,12,82,沈集成,巴度,6-1/4,21,116,13 13 12,1.09.26,1080,B/TT,,同樂日
3,4,314,03,01/01/21,"沙田草地""B+2""                                    ",1200,好,2,5,81,沈集成,巴度,頸位,12,118,5 3 3,1.09.26,1098,B/TT,,同樂日
4,5,228,02,29/11/20,"沙田草地""C""                                    ",1200,好,3,3,80,沈集成,潘頓,1-1/4,3,133,4 4 2,1.09.33,1089,B/TT,,同樂日
5,6,137,01,24/10/20,"沙田草地""C""                                    ",1200,好,3,7,74,沈集成,潘頓,3/4,5.4,129,6 7 1,1.08.61,1080,B/TT,,同樂日
6,7,26,02,13/09/20,"沙田草地""A+3""                                    ",1200,好,3,6,74,沈集成,潘頓,1-1/2,22,127,2 1 2,1.09.07,1088,B/TT,,同樂日
7,8,425,14,16/02/20,"沙田草地""A""                                    ",1200,好,3,9,77,沈集成,莫雷拉,18,7,130,4 6 14,1.12.64,1066,B/TT,,同樂日
8,9,347,02,19/01/20,"沙田草地""A+3""                                    ",1200,好,3,1,75,沈集成,莫雷拉,鼻位,3,130,6 6 2,1.09.33,1062,B/TT,,同樂日
9,10,296,03,01/01/20,"沙田草地""C""                                    ",1200,好,3,9,75,沈集成,莫雷拉,1-1/2,4,130,3 1 3,1.09.95,1067,B/TT,,同樂日
10,11,254,04,15/12/19,"沙田草地""C+3""                                    ",1200,好,3,11,76,沈集成,巴度,2-3/4,17,129,4 3 4,1.09.06,1062,B/TT,,同樂日
11,12,172,04,17/11/19,"沙田草地""B""                                    ",1200,好,3,13,77,沈集成,潘頓,2-3/4,4.2,130,3 3 4,1.09.22,1054,B/TT,,同樂日
12,13,111,06,20/10/19,"沙田草地""A""                                    ",1200,好/快,3,8,77,沈集成,巫顯東,2,9.5,127,6 5 6,1.09.14,1062,B/TT,,同樂日
13,14,747,11,16/06/19,"沙田草地""C+3""                                    ",1200,好/快,3,10,79,沈集成,潘頓,19-3/4,3.1,133,2 2 11,1.12.27,1050,B/TT,,同樂日
14,15,690,02,26/05/19,"沙田草地""A""                                    ",1200,好/黏,3,6,76,沈集成,麥道朗,短馬頭位,2.5,130,3 3 2,1.09.48,1055,B/TT,,同樂日
15,16,612,02,28/04/19,"沙田草地""A""                                    ",1200,好,3,8,74,沈集成,麥道朗,頸位,15,128,2 1 2,1.09.09,1070,B/TT,,同樂日
16,17,224,07,02/12/18,沙田全天候                                    ,1650,好,3,9,76,沈集成,郭能,5-3/4,6.9,132,3 3 5 7,1.38.93,1070,B/TT,,同樂日
17,18,190,10,18/11/18,"沙田草地""B""                                    ",1400,好,3,4,78,沈集成,梁家俊,4-3/4,18,133,7 7 8 10,1.22.38,1063,B/TT,,同樂日
18,19,161,08,07/11/18,"跑馬地草地""B""                                    ",1200,好,3,10,80,沈集成,蘇兆輝,5,8.7,133,5 6 8,1.11.02,1063,B/TT,,同樂日
19,20,88,WV,10/10/18,"跑馬地草地""B""                                    ",1200,好,3,--,80,沈集成,郭能,--,--,133,--,--,--,--,--,同樂日
20,21,44,03,22/09/18,"沙田草地""A""                                    ",1000,好/快,3,1,80,沈集成,梁家俊,2,10,133,11 10 3,0.56.57,1060,CP-/B1/TT,,同樂日
21,22,807,07,15/07/18,"沙田草地""A""                                    ",1400,黏,2,10,84,沈集成,梁家俊,6-1/2,50,121,1 2 2 7,1.23.39,1059,CP1/TT,,同樂日
22,23,751,06,24/06/18,"沙田草地""A""                                    ",1400,好/快,2,3,86,沈集成,梁家俊,3-3/4,39,123,7 5 4 6,1.21.31,1058,TT,,同樂日
23,24,704,06,03/06/18,"沙田草地""B""                                    ",1200,好/快,2,2,87,沈集成,梁家俊,4,17,124,7 7 6,1.08.87,1051,TT,,同樂日
24,25,509,10,18/03/18,"沙田草地""A""                                    ",2000,好,4YO,10,87,沈集成,羅理雅                                    ,8,269,126,5 5 6 6 10,2.02.46,1077,TT,,同樂日
25,26,448,06,25/02/18,"沙田草地""B""                                    ",1600,好,2,3,88,沈集成,柏寶                                    ,1-3/4,12,124,2 2 2 6,1.35.25,1082,TT,,同樂日
26,27,415,03,10/02/18,"沙田草地""C+3""                                    ",1600,好,2,6,88,沈集成,巴度,2-3/4,12,125,1 2 2 3,1.35.30,1073,TT1,,同樂日
27,28,363,09,21/01/18,"沙田草地""A""                                    ",1600,好,4YO,7,88,沈集成,韋紀力                                    ,11-3/4,19,126,7 5 8 9,1.36.14,1075,--,,同樂日
28,29,318,04,01/01/18,"沙田草地""B+2""                                    ",1400,好,2,5,88,沈集成,莫雷拉,2-1/4,3.1,121,5 5 4 4,1.22.57,1075,--,,同樂日
29,30,259,05,10/12/17,"沙田草地""A""                                    ",1200,好,2,7,88,沈集成,莫雷拉,2-1/2,2.7,123,12 13 5,1.09.66,1072,--,,同樂日
