,Unnamed: 0,場次,名次,日期,馬場/跑道/賽道,途程,場地狀況,賽事班次,檔位,評分,練馬師,騎師,頭馬距離,獨贏賠率,實際負磅,沿途走位,完成時間,排位體重,配備,賽事重播,馬名
0,1,631,1,28/04/21,"跑馬地草地""C+3""                                    ",1000,好,3,7,77,徐雨石,蔡明紹,1-3/4,10.0,133,2 2 1,0.57.35,1115,--,,和氣生財
1,2,568,9,08/04/21,"跑馬地草地""A""                                    ",1000,好/快,3,9,77,徐雨石,黃皓楠,5-3/4,11.0,130,1 1 9,0.57.34,1104,--,,和氣生財
2,3,514,1,17/03/21,"跑馬地草地""C""                                    ",1000,好/快,3,11,70,徐雨石,蔡明紹,1,11.0,123,1 1 1,0.56.24,1096,--,,和氣生財
3,4,446,10,21/02/21,沙田全天候                                    ,1200,好,3,12,72,徐雨石,巴度,9-3/4,53.0,125,2 2 10,1.09.58,1101,--,,和氣生財
4,5,380,6,27/01/21,"跑馬地草地""C+3""                                    ",1000,好,3,5,74,徐雨石,黃俊,3-1/4,11.0,125,1 1 6,0.57.26,1113,--,,和氣生財
5,6,333,9,10/01/21,沙田全天候                                    ,1200,好,3,10,75,徐雨石,潘頓,4-3/4,9.9,128,7 6 9,1.09.69,1115,--,,和氣生財
6,7,236,4,02/12/20,"跑馬地草地""A""                                    ",1000,好,3,8,75,蘇偉賢,巴度,3-3/4,5.5,128,3 2 4,0.57.49,1094,--,,和氣生財
7,8,173,2,08/11/20,"跑馬地草地""A""                                    ",1000,好,3,11,74,蘇偉賢,潘頓,1,2.7,127,2 2 2,0.57.30,1091,--,,和氣生財
8,9,126,4,21/10/20,"跑馬地草地""C""                                    ",1000,好/快,3,9,74,蘇偉賢,潘頓,1-1/4,2.9,127,1 1 4,0.56.81,1094,--,,和氣生財
9,10,459,5,01/03/20,"沙田草地""B+2""                                    ",1000,好,3,4,74,蘇偉賢,田泰安,4-1/4,6.6,128,12 5 5,0.56.86,1076,--,,和氣生財
10,11,388,3,02/02/20,"沙田草地""C""                                    ",1000,好,3,10,72,蘇偉賢,潘頓,1/2,4.1,129,4 6 3,0.56.64,1084,H-,,和氣生財
11,12,340,3,15/01/20,"跑馬地草地""C+3""                                    ",1000,好,3,8,72,蘇偉賢,彭國年,3,11.0,125,5 5 3,0.56.80,1078,H,,和氣生財
12,13,244,3,11/12/19,"跑馬地草地""C""                                    ",1000,好,3,9,72,蘇偉賢,潘頓,2,11.0,125,9 9 3,0.57.14,1049,H1,,和氣生財
