,Unnamed: 0,場次,名次,日期,馬場/跑道/賽道,途程,場地狀況,賽事班次,檔位,評分,練馬師,騎師,頭馬距離,獨贏賠率,實際負磅,沿途走位,完成時間,排位體重,配備,賽事重播,馬名
0,1,786,5,01/07/20,"沙田草地""C""                                    ",1800,好/快,2,8,81,丁冠豪,潘明輝,2-3/4,11,115,2 2 1 1 5,1.46.86,1123,B,,哈囉嗲哋
1,2,727,1,07/06/20,"沙田草地""C""                                    ",1600,黏,3,14,75,丁冠豪,潘明輝,1-1/4,12,126,1 1 1 1,1.35.63,1124,B,,哈囉嗲哋
2,3,668,4,17/05/20,"沙田草地""C+3""                                    ",1400,好/快,3,11,76,丁冠豪,潘明輝,3,29,127,4 6 6 4,1.21.50,1126,B,,哈囉嗲哋
3,4,607,3,26/04/20,"沙田草地""A""                                    ",1400,好,3,5,76,丁冠豪,潘明輝,1-1/4,109,128,1 1 1 3,1.21.71,1118,B,,哈囉嗲哋
4,5,514,14,22/03/20,"沙田草地""A""                                    ",2000,好/快,3,11,79,丁冠豪,薛恩,23-1/4,147,127,2 2 2 2 14,2.04.17,1123,B,,哈囉嗲哋
5,6,452,11,26/02/20,"跑馬地草地""A""                                    ",1650,好,3,5,81,丁冠豪,潘明輝,8-1/4,36,127,4 5 8 11,1.40.32,1129,B1,,哈囉嗲哋
6,7,426,9,16/02/20,"沙田草地""A""                                    ",1400,好,2,12,83,丁冠豪,黃皓楠,4-3/4,243,116,1 3 3 9,1.22.56,1124,--,,哈囉嗲哋
7,8,380,9,29/01/20,"跑馬地草地""B""                                    ",1650,好,2,3,83,丁冠豪,巴度,6-1/4,97,120,7 7 7 9,1.40.26,1119,--,,哈囉嗲哋
