,Unnamed: 0,場次,名次,日期,馬場/跑道/賽道,途程,場地狀況,賽事班次,檔位,評分,練馬師,騎師,頭馬距離,獨贏賠率,實際負磅,沿途走位,完成時間,排位體重,配備,賽事重播,馬名
0,1,610,7,21/04/21,"跑馬地草地""C""                                    ",1000,好/快,4,4,52,方嘉柏,薛恩,3-1/2,45,124,6 5 7,0.57.91,1019,B1,,唯快不破
1,2,474,8,03/03/21,"跑馬地草地""A""                                    ",1200,好,4,2,52,方嘉柏,薛恩,5-3/4,27,126,6 6 8,1.10.95,1039,--,,唯快不破
