,Unnamed: 0,場次,名次,日期,馬場/跑道/賽道,途程,場地狀況,賽事班次,檔位,評分,練馬師,騎師,頭馬距離,獨贏賠率,實際負磅,沿途走位,完成時間,排位體重,配備,賽事重播,馬名
0,1,655,10,08/05/21,"沙田草地""C""                                    ",1400,好/快,5,14,33,何良,波健士,8-1/4,82,125,9 11 14 10,1.23.34,1003,TT1,,喜又盈
1,2,413,9,10/02/21,"跑馬地草地""B""                                    ",1650,好,5,4,36,文家良,郭能,4,42,129,6 7 8 9,1.42.16,1022,--,,喜又盈
2,3,338,6,13/01/21,"跑馬地草地""B""                                    ",1650,好,5,1,39,文家良,波健士,5-1/2,55,133,4 5 6 6,1.42.18,1027,--,,喜又盈
3,4,271,9,16/12/20,"跑馬地草地""C""                                    ",1200,好,4,1,42,文家良,波健士,6-3/4,110,115,7 7 9,1.10.96,1022,V-,,喜又盈
4,5,121,8,21/10/20,"跑馬地草地""C""                                    ",1200,好/快,4,2,44,文家良,波健士,6,80,120,8 9 8,1.10.11,1021,V,,喜又盈
5,6,761,10,24/06/20,"跑馬地草地""C""                                    ",1200,好/快,4,4,48,文家良,蔡明紹,4-1/4,54,121,7 7 10,1.10.71,1013,V,,喜又盈
6,7,734,8,10/06/20,"跑馬地草地""B""                                    ",1200,好/快,4,1,50,文家良,薛恩,10-1/4,87,123,8 9 8,1.11.19,1015,V,,喜又盈
7,8,674,9,20/05/20,"跑馬地草地""C+3""                                    ",1200,好/快,4,9,52,文家良,薛恩,4,310,126,11 11 9,1.10.58,1019,V,,喜又盈
8,9,557,11,08/04/20,"跑馬地草地""B""                                    ",1200,好,4,2,52,文家良,黃俊,5,217,120,7 9 11,1.11.24,1021,V1,,喜又盈
