,Unnamed: 0,場次,名次,日期,馬場/跑道/賽道,途程,場地狀況,賽事班次,檔位,評分,練馬師,騎師,頭馬距離,獨贏賠率,實際負磅,沿途走位,完成時間,排位體重,配備,賽事重播,馬名
0,1,638,10,02/05/21,"沙田草地""B""                                    ",2400,好,G3,6,100,告東尼,班德禮,3-3/4,23.0,121,7 7 10 10 7 10,2.28.74,1049,XB/TT,,喜蓮騏星
1,2,556,3,05/04/21,"沙田草地""B+2""                                    ",2000,好,1,1,97,告東尼,莫雷拉,1-1/4,5.0,116,5 5 5 5 3,2.02.11,1050,XB/TT,,喜蓮騏星
2,3,372,11,24/01/21,"沙田草地""A+3""                                    ",1800,好,2,12,99,告東尼,何澤堯,5,16.0,133,14 13 11 13 11,1.48.49,1052,XB/TT,,喜蓮騏星
3,4,302,4,26/12/20,"沙田草地""A+3""                                    ",2000,好,2,2,100,告東尼,何澤堯,1-1/2,10.0,133,10 10 10 10 4,2.02.14,1056,XB/TT,,喜蓮騏星
4,5,227,10,29/11/20,"沙田草地""C""                                    ",1600,好,1,5,102,告東尼,彭國年,4-1/2,40.0,125,13 13 13 10,1.34.83,1056,XB/TT,,喜蓮騏星
5,6,165,11,04/11/20,沙田全天候                                    ,1650,好,2,3,102,告東尼,田泰安,13-1/2,13.0,133,10 11 11 11,1.41.38,1054,XB/TT,,喜蓮騏星
6,7,84,6,04/10/20,"沙田草地""C+3""                                    ",1800,好,2,13,102,告東尼,田泰安,2-1/4,25.0,133,14 11 11 10 6,1.48.36,1058,XB/TT,,喜蓮騏星
7,8,812,5,12/07/20,"沙田草地""A""                                    ",1600,好/快,1,8,102,告東尼,莫雷拉,4,6.2,127,7 7 8 5,1.34.89,1058,XB/TT,,喜蓮騏星
8,9,756,2,21/06/20,"沙田草地""A""                                    ",1800,好/快,G3,5,97,告東尼,蔡明紹,4-3/4,7.7,113,8 6 7 7 2,1.46.60,1050,XB/TT,,喜蓮騏星
9,10,623,4,03/05/20,"沙田草地""B""                                    ",2400,好,G3,2,97,告東尼,田泰安,5-1/2,2.2,119,3 3 3 2 2 4,2.27.93,1045,XB/TT,,喜蓮騏星
10,11,549,1,05/04/20,"沙田草地""B+2""                                    ",2000,好,1,7,92,告東尼,田泰安,頸位,10.0,115,9 9 8 3 1,2.01.37,1044,XB/TT,,喜蓮騏星
11,12,480,1,08/03/20,"沙田草地""C""                                    ",1800,好,2,3,87,告東尼,何澤堯,頸位,6.5,120,9 8 9 10 1,1.47.52,1046,XB/TT,,喜蓮騏星
12,13,442,8,23/02/20,"沙田草地""A+3""                                    ",2000,好,2,9,89,告東尼,史卓豐,4-1/4,15.0,125,3 2 2 1 8,2.01.54,1047,XB/TT,,喜蓮騏星
13,14,390,5,02/02/20,"沙田草地""C""                                    ",1800,好,2,3,91,告東尼,彭國年,3-1/4,11.0,127,13 12 13 13 5,1.47.22,1052,XB/TT,,喜蓮騏星
14,15,273,3,21/12/19,"沙田草地""A+3""                                    ",2000,好,2,3,91,告東尼,田泰安,2-1/2,5.8,120,6 6 6 4 3,2.01.53,1044,XB/TT,,喜蓮騏星
15,16,179,3,17/11/19,"沙田草地""B""                                    ",1800,好/快,2,7,90,告東尼,利敬國,3/4,9.9,127,9 8 8 7 3,1.47.35,1039,XB/TT,,喜蓮騏星
16,17,150,4,03/11/19,"沙田草地""C+3""                                    ",1600,好/快,2,1,90,告東尼,何澤堯,1-1/2,20.0,128,7 7 5 4,1.33.53,1028,XB/TT,,喜蓮騏星
17,18,93,10,12/10/19,"沙田草地""C""                                    ",1800,好/快,2,11,92,告東尼,巫顯東,7-1/4,23.0,118,4 1 1 1 10,1.47.13,1039,XB/TT,,喜蓮騏星
18,19,758,7,23/06/19,"沙田草地""A""                                    ",1800,好/快,G3,1,94,告東尼,梁家俊,4,3.9,114,1 3 3 3 7,1.47.49,1052,XB/TT,,喜蓮騏星
19,20,635,3,05/05/19,"沙田草地""B""                                    ",2400,好/黏,G3,8,95,告東尼,梁家俊,3-1/4,7.4,121,1 1 1 1 1 3,2.28.57,1064,XB1/TT,,喜蓮騏星
20,21,564,6,07/04/19,"沙田草地""B+2""                                    ",2000,好/快,1,4,96,告東尼,田泰安,4,13.0,121,6 7 9 6 6,2.00.29,1065,TT,,喜蓮騏星
21,22,504,9,17/03/19,"沙田草地""A""                                    ",2000,好,4YO,13,96,告東尼,田泰安,5,64.0,126,14 14 14 14 9,2.02.10,1059,TT,,喜蓮騏星
22,23,432,5,17/02/19,"沙田草地""A+3""                                    ",1800,好,4YO,4,87,告東尼,田泰安,3-1/4,19.0,126,5 6 5 4 5,1.47.50,1065,TT,,喜蓮騏星
23,24,350,2,20/01/19,"沙田草地""A+3""                                    ",1800,好,2,8,85,告東尼,田泰安,3/4,15.0,123,5 2 2 2 2,1.46.73,1065,TT,,喜蓮騏星
24,25,321,7,06/01/19,"沙田草地""C+3""                                    ",1600,好,2,6,86,告東尼,田泰安,4-3/4,45.0,123,9 9 11 7,1.36.06,1068,TT,,喜蓮騏星
25,26,241,12,09/12/18,"沙田草地""A""                                    ",1600,好,2,2,86,告東尼,田泰安,2-1/2,13.0,122,2 1 2 12,1.36.49,1080,TT1,,喜蓮騏星
