,Unnamed: 0,場次,名次,日期,馬場/跑道/賽道,途程,場地狀況,賽事班次,檔位,評分,練馬師,騎師,頭馬距離,獨贏賠率,實際負磅,沿途走位,完成時間,排位體重,配備,賽事重播,馬名
0,1,727,4,02/06/21,"跑馬地草地""A""                                    ",1650,好,3,10,76,告東尼,莫雷拉,頸位,13.0,133,12 11 9 4,1.40.19,1167,H/TT,,喜蓮慧星
1,2,678,6,16/05/21,"沙田草地""C+3""                                    ",1600,好/快,3,6,76,告東尼,莫雷拉,3-1/4,6.5,133,9 9 8 6,1.34.51,1168,H/TT,,喜蓮慧星
2,3,630,1,28/04/21,"跑馬地草地""C+3""                                    ",1650,好,3,2,71,告東尼,莫雷拉,1/2,3.2,126,5 6 7 1,1.40.68,1155,H/TT,,喜蓮慧星
3,4,573,2,08/04/21,"跑馬地草地""A""                                    ",1650,好/快,3,7,70,告東尼,潘頓,1-1/4,4.6,123,11 11 11 2,1.39.64,1152,H/TT,,喜蓮慧星
4,5,495,4,10/03/21,"跑馬地草地""B""                                    ",1800,好,3,11,71,告東尼,潘頓,3,5.0,125,9 9 10 6 4,1.49.38,1157,H/TT,,喜蓮慧星
5,6,431,4,14/02/21,"沙田草地""A""                                    ",1600,好,3,11,71,告東尼,蘇銘倫,1-3/4,4.8,125,8 7 6 4,1.35.01,1149,H/TT,,喜蓮慧星
6,7,382,3,27/01/21,"跑馬地草地""C+3""                                    ",1650,好,3,10,70,告東尼,潘頓,1,6.3,123,11 10 10 3,1.40.51,1155,H/TT,,喜蓮慧星
7,8,292,10,23/12/20,"跑馬地草地""C+3""                                    ",1650,好/快,3,10,71,告東尼,何澤堯,3,5.4,124,10 9 10 10,1.40.37,1156,H/TT,,喜蓮慧星
8,9,255,3,09/12/20,"跑馬地草地""B""                                    ",1650,好,3,6,71,告東尼,田泰安,1-1/2,9.2,124,8 7 6 3,1.39.43,1163,H/TT,,喜蓮慧星
9,10,172,9,08/11/20,"跑馬地草地""A""                                    ",1650,好,3,12,73,告東尼,郭能,6-1/4,8.7,127,3 3 3 9,1.41.16,1149,H/TT,,喜蓮慧星
10,11,134,6,24/10/20,"沙田草地""C""                                    ",1600,好,3,9,73,告東尼,薛恩,4-1/4,24.0,127,2 2 2 6,1.34.22,1159,H1/TT1,,喜蓮慧星
