,Unnamed: 0,場次,名次,日期,馬場/跑道/賽道,途程,場地狀況,賽事班次,檔位,評分,練馬師,騎師,頭馬距離,獨贏賠率,實際負磅,沿途走位,完成時間,排位體重,配備,賽事重播,馬名
0,1,721,3,02/06/21,"跑馬地草地""A""                                    ",1200,好,4,8,54,文家良,潘頓,1-3/4,3.5,127,2 2 3,1.10.18,1126,TT,,喜駿之星
1,2,705,3,26/05/21,"跑馬地草地""C""                                    ",1200,好/快,4,12,53,文家良,梁家俊,1/2,13.0,128,2 2 3,1.09.67,1134,TT,,喜駿之星
2,3,629,1,28/04/21,"跑馬地草地""C+3""                                    ",1200,好,4,6,48,文家良,梁家俊,1/2,10.0,121,2 2 1,1.10.15,1127,TT,,喜駿之星
3,4,569,6,08/04/21,"跑馬地草地""A""                                    ",1200,好/快,4,8,48,文家良,梁家俊,2-3/4,8.3,122,4 5 6,1.09.95,1128,TT,,喜駿之星
4,5,492,1,10/03/21,"跑馬地草地""B""                                    ",1200,好,4,1,43,文家良,梁家俊,短馬頭位,4.7,116,2 2 1,1.10.06,1124,TT,,喜駿之星
5,6,457,2,24/02/21,"跑馬地草地""C+3""                                    ",1200,好/快,4,9,42,文家良,蔡明紹,1/2,17.0,115,1 1 2,1.10.06,1115,TT,,喜駿之星
6,7,385,5,31/01/21,沙田全天候                                    ,1200,好,4,1,44,文家良,賀銘年,4-1/4,14.0,117,4 4 5,1.09.32,1107,TT,,喜駿之星
7,8,306,14,01/01/21,"沙田草地""B+2""                                    ",1200,好,4,14,46,文家良,郭能,11,12.0,120,3 3 14,1.11.42,1114,TT,,喜駿之星
8,9,116,4,18/10/20,沙田全天候                                    ,1200,好,4,7,48,文家良,郭能,5-1/4,6.7,121,5 4 4,1.10.16,1115,TT,,喜駿之星
9,10,68,4,01/10/20,"沙田草地""B""                                    ",1200,好,4,8,50,文家良,郭能,2-1/2,3.2,127,2 2 4,1.09.82,1116,TT1,,喜駿之星
10,11,3,6,06/09/20,"沙田草地""A""                                    ",1200,好,4,6,50,文家良,郭能,3-1/2,4.7,123,5 5 6,1.10.15,1130,--,,喜駿之星
11,12,814,5,12/07/20,"沙田草地""A""                                    ",1200,好/快,4,8,50,文家良,郭能,5,12.0,124,4 5 5,1.09.57,1120,--,,喜駿之星
12,13,771,2,27/06/20,"沙田草地""B""                                    ",1200,好/快,4,9,49,文家良,郭能,1/2,7.5,122,4 4 2,1.08.86,1120,--,,喜駿之星
13,14,685,2,24/05/20,"沙田草地""A""                                    ",1200,好,4,13,48,文家良,郭能,3/4,53.0,122,5 5 2,1.09.64,1121,--,,喜駿之星
14,15,616,9,29/04/20,"跑馬地草地""A""                                    ",1200,好/快,4,7,50,文家良,史卓豐,5,10.0,125,3 2 9,1.10.34,1125,--,,喜駿之星
15,16,531,6,29/03/20,"沙田草地""A+3""                                    ",1200,好,4,8,52,文家良,何澤堯,3-1/2,18.0,126,3 3 6,1.10.80,1134,CP-,,喜駿之星
16,17,437,11,23/02/20,"沙田草地""A+3""                                    ",1200,好,4,5,54,文家良,蔡明紹,6-1/4,17.0,128,1 1 11,1.10.68,1132,CP1,,喜駿之星
17,18,365,5,27/01/20,"沙田草地""B+2""                                    ",1200,好,4,3,54,文家良,何澤堯,6,7.1,126,4 3 5,1.10.32,1119,--,,喜駿之星
18,19,286,2,29/12/19,"沙田草地""B+2""                                    ",1200,好,4,3,52,文家良,何澤堯,1/2,3.3,128,4 4 2,1.10.68,1118,--,,喜駿之星
19,20,210,6,01/12/19,"沙田草地""C+3""                                    ",1200,好,4,10,52,文家良,何澤堯,4-1/4,9.6,125,5 6 6,1.10.40,1124,--,,喜駿之星
