,Unnamed: 0,場次,名次,日期,馬場/跑道/賽道,途程,場地狀況,賽事班次,檔位,評分,練馬師,騎師,頭馬距離,獨贏賠率,實際負磅,沿途走位,完成時間,排位體重,配備,賽事重播,馬名
0,1,711,06,30/05/21,"沙田草地""B""                                    ",1600,好/快,G3,2,125,告東尼,潘頓,4-3/4,7.6,133,1 1 1 6,1.34.20,1122,V/TT,,嘉應之星
1,2,619,05,25/04/21,"沙田草地""A""                                    ",1600,好,G1,6,125,告東尼,潘頓,4,15,126,2 2 3 5,1.34.08,1124,V/TT,,嘉應之星
2,3,557,WV,05/04/21,"沙田草地""B+2""                                    ",1600,好,G2,--,125,告東尼,潘頓,--,--,123,--,--,--,--,--,嘉應之星
3,4,499,01,13/03/21,"沙田草地""C+3""                                    ",1600,好,1,4,123,告東尼,潘頓,頸位,4.6,133,2 2 3 1,1.33.63,1122,V/TT,,嘉應之星
4,5,443,05,21/02/21,"沙田草地""A+3""                                    ",1400,好,G1,8,123,告東尼,潘頓,2,5.8,126,2 1 1 5,1.21.09,1119,V/TT,,嘉應之星
5,6,370,03,24/01/21,"沙田草地""A+3""                                    ",1600,好,G1,1,123,告東尼,潘頓,3/4,15,126,1 1 1 3,1.33.49,1130,V/TT,,嘉應之星
6,7,313,05,01/01/21,"沙田草地""B+2""                                    ",1400,好,G3,7,124,告東尼,史卓豐,4-3/4,29,133,4 3 2 5,1.21.77,1138,V/TT,,嘉應之星
7,8,264,08,13/12/20,"沙田草地""A""                                    ",1600,好,G1,9,125,告東尼,史卓豐,11,28,126,1 1 2 8,1.35.22,1135,V/TT,,嘉應之星
8,9,205,02,22/11/20,"沙田草地""B+2""                                    ",1600,好/快,G2,2,125,告東尼,史卓豐,1-1/2,9.9,123,1 1 1 2,1.33.15,1143,V/TT,,嘉應之星
9,10,117,02,18/10/20,"沙田草地""B+2""                                    ",1600,好/快,G2,1,123,告東尼,史卓豐,1/2,46,126,1 1 1 2,1.33.46,1146,V/TT,,嘉應之星
10,11,62,10,27/09/20,"沙田草地""A""                                    ",1400,好,G3,3,123,告東尼,史卓豐,8-1/4,10,126,1 1 3 10,1.21.85,1144,V/TT,,嘉應之星
11,12,707,01,31/05/20,"沙田草地""B""                                    ",1600,好,G3,5,121,告東尼,史卓豐,頸位,6.5,129,1 1 1 1,1.32.95,1127,V/TT,,嘉應之星
12,13,608,06,26/04/20,"沙田草地""A""                                    ",1600,好,G1,1,121,告東尼,賀銘年,6,9.6,126,1 1 1 6,1.34.08,1118,V/TT,,嘉應之星
13,14,547,02,05/04/20,"沙田草地""B+2""                                    ",1600,好,G2,3,121,告東尼,史卓豐,1/2,10,123,1 1 1 2,1.33.57,1122,V/TT,,嘉應之星
14,15,498,08,14/03/20,"沙田草地""C+3""                                    ",1600,好,1,10,121,告東尼,潘頓,1-1/2,2.8,133,2 2 2 8,1.33.91,1126,B-/V1/TT,,嘉應之星
15,16,423,02,16/02/20,"沙田草地""A""                                    ",1400,好,G1,7,116,告東尼,史賓沙,1/2,18,126,2 2 3 2,1.21.73,1117,B/TT,,嘉應之星
16,17,346,03,19/01/20,"沙田草地""A+3""                                    ",1600,好,G1,3,116,告東尼,田泰安,4-1/2,15,126,2 2 2 3,1.33.75,1115,B/TT,,嘉應之星
17,18,300,05,01/01/20,"沙田草地""C""                                    ",1400,好,G3,2,117,告東尼,田泰安,4-1/4,7.5,129,1 1 1 5,1.21.40,1131,CP-/B1/TT,,嘉應之星
18,19,233,09,08/12/19,"沙田草地""A""                                    ",1600,好,G1,1,117,告東尼,田泰安,4-1/4,7.9,126,1 1 2 9,1.33.92,1129,CP/TT,,嘉應之星
19,20,175,02,17/11/19,"沙田草地""B""                                    ",1600,好/快,G2,4,114,告東尼,田泰安,3/4,8.4,123,2 2 2 2,1.33.04,1116,CP/TT,,嘉應之星
20,21,112,04,20/10/19,"沙田草地""A""                                    ",1600,好/快,G2,8,112,告東尼,田泰安,2-1/2,10,113,1 1 2 4,1.33.22,1116,CP/TT,,嘉應之星
21,22,64,02,01/10/19,"沙田草地""A+3""                                    ",1400,好/快,G3,9,108,告東尼,田泰安,1-1/4,13,113,1 1 2 2,1.20.21,1115,CP/TT,,嘉應之星
22,23,814,03,14/07/19,"沙田草地""A""                                    ",1600,好/快,1,6,108,告東尼,何澤堯,3-3/4,4.2,127,3 3 3 3,1.33.42,1098,CP/TT,,嘉應之星
23,24,711,02,02/06/19,"沙田草地""B""                                    ",1600,好/快,G3,5,106,告東尼,何澤堯,1/2,4.6,122,1 1 1 2,1.35.09,1102,CP/TT,,嘉應之星
24,25,614,01,28/04/19,"沙田草地""A""                                    ",1600,好,2,11,98,告東尼,何澤堯,2,4.7,129,1 1 1 1,1.33.93,1099,CP/TT,,嘉應之星
25,26,591,05,17/04/19,"跑馬地草地""B""                                    ",1650,好,2,3,98,告東尼,何澤堯,1-1/2,3.3,133,3 5 6 5,1.39.56,1100,CP/TT,,嘉應之星
26,27,504,10,17/03/19,"沙田草地""A""                                    ",2000,好,4YO,2,98,告東尼,何澤堯,5,14,126,1 1 1 2 10,2.02.11,1088,CP1/TT,,嘉應之星
27,28,432,03,17/02/19,"沙田草地""A+3""                                    ",1800,好,4YO,8,94,告東尼,何澤堯,2,13,126,2 2 4 3 3,1.47.31,1079,TT,,嘉應之星
28,29,373,03,27/01/19,"沙田草地""B+2""                                    ",1600,好,4YO,14,90,告東尼,何澤堯,2-1/2,7.3,126,1 1 1 3,1.34.68,1080,TT,,嘉應之星
29,30,321,01,06/01/19,"沙田草地""C+3""                                    ",1600,好,2,5,83,告東尼,何澤堯,1-3/4,29,118,1 1 1 1,1.35.31,1071,TT1,,嘉應之星
