,Unnamed: 0,場次,名次,日期,馬場/跑道/賽道,途程,場地狀況,賽事班次,檔位,評分,練馬師,騎師,頭馬距離,獨贏賠率,實際負磅,沿途走位,完成時間,排位體重,配備,賽事重播,馬名
0,1,694,9,23/05/21,"沙田草地""A""                                    ",1600,好/快,4,2,49,呂健威,賀銘年,1-3/4,24.0,122,5 6 5 9,1.35.72,1160,XB,,嘉才
1,2,656,13,08/05/21,"沙田草地""C""                                    ",1800,好/快,4,6,51,呂健威,彭國年,11-1/2,7.1,124,4 3 3 2 13,1.49.46,1150,XB,,嘉才
2,3,598,4,17/04/21,沙田全天候                                    ,1650,好,4,2,51,呂健威,彭國年,1-3/4,11.0,125,7 8 9 4,1.39.28,1155,XB,,嘉才
3,4,560,5,05/04/21,"沙田草地""B+2""                                    ",1400,好,4,2,53,呂健威,彭國年,3-1/2,42.0,126,5 5 4 5,1.22.10,1139,XB,,嘉才
4,5,98,7,11/10/20,"沙田草地""A+3""                                    ",1800,好,4,3,55,呂健威,郭能,4,12.0,131,6 6 8 7 7,1.47.98,1175,XB,,嘉才
5,6,43,6,20/09/20,"沙田草地""B+2""                                    ",1400,好/快,4,9,56,呂健威,何澤堯,4-1/2,55.0,128,10 9 9 6,1.22.61,1173,XB,,嘉才
6,7,730,10,10/06/20,"跑馬地草地""B""                                    ",1800,好/快,4,12,60,文家良,潘頓,5,24.0,133,12 11 11 10 10,1.50.25,1166,XB,,嘉才
7,8,659,11,13/05/20,"跑馬地草地""C""                                    ",1650,好,3,9,63,文家良,史卓豐,8-1/2,35.0,118,5 5 5 11,1.41.36,1147,XB,,嘉才
8,9,580,10,15/04/20,"跑馬地草地""C""                                    ",1650,好,3,11,65,文家良,田泰安,5-3/4,73.0,118,10 11 11 10,1.40.95,1157,CP-/XB1,,嘉才
9,10,514,13,22/03/20,"沙田草地""A""                                    ",2000,好/快,3,5,67,文家良,何澤堯,15-1/4,18.0,117,4 4 5 6 13,2.02.88,1169,CP,,嘉才
10,11,444,8,23/02/20,"沙田草地""A+3""                                    ",1600,好,3,4,68,文家良,潘頓,3,10.0,122,9 10 9 8,1.34.70,1165,CP1,,嘉才
11,12,408,10,08/02/20,"沙田草地""C+3""                                    ",1400,好,3,8,70,文家良,史卓豐,3-1/4,83.0,123,10 10 10 10,1.22.52,1162,--,,嘉才
12,13,347,9,19/01/20,"沙田草地""A+3""                                    ",1200,好,3,13,70,文家良,潘頓,2-1/2,32.0,125,10 10 9,1.09.70,1158,--,,嘉才
