,Unnamed: 0,場次,名次,日期,馬場/跑道/賽道,途程,場地狀況,賽事班次,檔位,評分,練馬師,騎師,頭馬距離,獨贏賠率,實際負磅,沿途走位,完成時間,排位體重,配備,賽事重播,馬名
0,1,702,2,26/05/21,"跑馬地草地""C""                                    ",1650,好/快,3,4,67,告東尼,潘頓,頭位,10.0,121,3 4 4 2,1.38.58,1054,CP/TT,,嘉應精彩
1,2,564,11,05/04/21,"沙田草地""B+2""                                    ",1400,好,3,9,69,告東尼,郭能,10-3/4,10.0,123,4 4 4 11,1.23.53,1057,CP/TT,,嘉應精彩
2,3,507,7,13/03/21,"沙田草地""C+3""                                    ",1400,好,3,7,70,告東尼,郭能,1-3/4,12.0,123,3 3 3 7,1.22.16,1072,CP/TT,,嘉應精彩
3,4,450,13,21/02/21,"沙田草地""A+3""                                    ",1400,好,3,14,70,告東尼,蔡明紹,7-1/2,23.0,123,5 3 3 13,1.22.29,1059,CP/TT,,嘉應精彩
4,5,354,5,17/01/21,"沙田草地""A""                                    ",1400,好,3,8,70,告東尼,莫雷拉,2-3/4,5.4,123,2 4 3 5,1.22.37,1056,CP/TT,,嘉應精彩
5,6,305,3,26/12/20,"沙田草地""A+3""                                    ",1400,好,3,2,69,告東尼,莫雷拉,3/4,2.1,123,2 3 2 3,1.21.97,1061,CP/TT,,嘉應精彩
6,7,244,1,06/12/20,"沙田草地""C+3""                                    ",1400,好,3,10,63,告東尼,莫雷拉,1,3.4,119,3 2 2 1,1.21.54,1052,CP/TT,,嘉應精彩
7,8,157,3,01/11/20,"沙田草地""A""                                    ",1400,好/快,3,11,63,告東尼,莫雷拉,2-1/4,7.0,116,1 1 1 3,1.21.44,1049,CP/TT,,嘉應精彩
8,9,101,5,11/10/20,"沙田草地""A+3""                                    ",1400,好/快,3,3,63,告東尼,梁家俊,2-3/4,6.4,116,2 3 3 5,1.21.42,1046,CP/TT,,嘉應精彩
9,10,758,2,21/06/20,"沙田草地""A""                                    ",1400,好/快,3,7,61,告東尼,莫雷拉,1-1/2,3.9,115,4 4 3 2,1.21.56,1049,CP/TT,,嘉應精彩
10,11,668,5,17/05/20,"沙田草地""C+3""                                    ",1400,好/快,3,7,61,告東尼,何澤堯,3,4.2,115,3 2 2 5,1.21.51,1052,CP/TT,,嘉應精彩
11,12,588,3,19/04/20,"沙田草地""C+3""                                    ",1400,好,4,4,60,告東尼,何澤堯,1-1/4,5.7,133,10 9 7 3,1.22.29,1053,CP/TT,,嘉應精彩
12,13,548,1,05/04/20,"沙田草地""B+2""                                    ",1400,好,4,1,54,告東尼,潘頓,1-1/4,1.9,127,2 5 2 1,1.22.77,1054,CP/TT,,嘉應精彩
13,14,494,2,14/03/20,"沙田草地""C+3""                                    ",1400,好,4,12,52,告東尼,薛恩,鼻位,15.0,127,3 3 3 2,1.21.79,1061,CP/TT,,嘉應精彩
14,15,418,7,16/02/20,"沙田草地""A""                                    ",1200,好,4,9,54,告東尼,田泰安,6-1/4,11.0,127,4 2 7,1.10.99,1067,CP/TT,,嘉應精彩
15,16,365,3,27/01/20,"沙田草地""B+2""                                    ",1200,好,4,1,54,告東尼,彭國年,4,6.4,126,3 5 3,1.10.01,1044,CP/TT,,嘉應精彩
16,17,323,3,11/01/20,"沙田草地""A""                                    ",1200,好,4,4,54,告東尼,彭國年,1-3/4,8.7,128,7 8 3,1.09.89,1067,CP1/TT,,嘉應精彩
17,18,266,5,21/12/19,"沙田草地""A+3""                                    ",1200,好,4,12,56,告東尼,田泰安,3-3/4,6.2,132,13 12 5,1.10.68,1073,TT,,嘉應精彩
18,19,208,7,01/12/19,"沙田草地""C+3""                                    ",1400,好,4R,11,57,告東尼,田泰安,2-1/4,3.7,133,10 10 9 7,1.22.71,1068,TT,,嘉應精彩
19,20,170,7,17/11/19,"沙田草地""B""                                    ",1200,好,4,10,57,告東尼,田泰安,3,28.0,133,14 14 7,1.10.12,1077,TT1,,嘉應精彩
