,Unnamed: 0,場次,名次,日期,馬場/跑道/賽道,途程,場地狀況,賽事班次,檔位,評分,練馬師,騎師,頭馬距離,獨贏賠率,實際負磅,沿途走位,完成時間,排位體重,配備,賽事重播,馬名
0,1,706,07,26/05/21,"跑馬地草地""C""                                    ",1000,好/快,3,3,68,沈集成,馬雅,5-1/4,60,123,9 8 7,0.56.92,1109,TT1,,大地歡笑
1,2,568,WX,08/04/21,"跑馬地草地""A""                                    ",1000,好/快,3,--,68,沈集成,何澤堯,--,--,124,--,--,--,--,--,大地歡笑
