,Unnamed: 0,場次,名次,日期,馬場/跑道/賽道,途程,場地狀況,賽事班次,檔位,評分,練馬師,騎師,頭馬距離,獨贏賠率,實際負磅,沿途走位,完成時間,排位體重,配備,賽事重播,馬名
0,1,723,3,02/06/21,"跑馬地草地""A""                                    ",1200,好,4,12,46,文家良,巴度,2-1/4,16.0,119,12 11 3,1.10.44,1067,B,,大家開心
1,2,645,3,05/05/21,"跑馬地草地""A""                                    ",1000,好/快,4,6,47,文家良,蔡明紹,3-1/4,11.0,120,10 7 3,0.57.24,1071,B1,,大家開心
2,3,555,6,05/04/21,"沙田草地""B+2""                                    ",1200,好,4,1,48,文家良,郭能,2,6.5,122,3 3 6,1.10.04,1075,--,,大家開心
3,4,511,5,17/03/21,"跑馬地草地""C""                                    ",1200,好/快,4,6,50,文家良,蔡明紹,3,34.0,124,4 4 5,1.10.28,1074,--,,大家開心
4,5,394,10,03/02/21,"跑馬地草地""A""                                    ",1200,好,4,12,52,文家良,賀銘年,5-1/2,58.0,126,1 1 10,1.11.39,1077,--,,大家開心
5,6,278,11,20/12/20,"沙田草地""C+3""                                    ",1000,好,4,1,52,文家良,巴度,9-3/4,19.0,125,9 13 11,0.58.12,1076,--,,大家開心
