,Unnamed: 0,場次,名次,日期,馬場/跑道/賽道,途程,場地狀況,賽事班次,檔位,評分,練馬師,騎師,頭馬距離,獨贏賠率,實際負磅,沿途走位,完成時間,排位體重,配備,賽事重播,馬名
0,1,692,7,23/05/21,"沙田草地""A""                                    ",1200,好/快,G3,2,112,高伯新,史卓豐,4-1/2,30.0,130,4 4 7,1.08.86,1154,B,,大籐王
1,2,617,8,25/04/21,"沙田草地""A""                                    ",1200,好,G1,12,114,高伯新,史卓豐,5,51.0,126,12 9 8,1.09.43,1151,B,,大籐王
2,3,262,3,13/12/20,"沙田草地""A""                                    ",1200,好,G1,6,114,高伯新,史卓豐,3/4,23.0,126,11 11 3,1.08.58,1171,B,,大籐王
3,4,207,3,22/11/20,"沙田草地""B+2""                                    ",1200,好/快,G2,7,111,高伯新,賀銘年,1,50.0,123,10 10 3,1.08.17,1180,B,,大籐王
4,5,113,3,18/10/20,"沙田草地""B+2""                                    ",1200,好/快,G2,3,112,高伯新,賀銘年,2-1/4,31.0,119,7 7 3,1.08.26,1169,B,,大籐王
5,6,62,9,27/09/20,"沙田草地""A""                                    ",1400,好,G3,11,114,高伯新,賀銘年,8,22.0,117,6 6 8 9,1.21.84,1157,B,,大籐王
6,7,8,5,06/09/20,"沙田草地""A""                                    ",1200,好,1,10,114,高伯新,史卓豐,2-3/4,16.0,132,11 10 5,1.08.86,1165,CP-/B2,,大籐王
7,8,707,9,31/05/20,"沙田草地""B""                                    ",1600,好,G3,10,117,高伯新,郭能,6-1/2,18.0,125,9 10 10 9,1.34.00,1149,CP,,大籐王
8,9,608,4,26/04/20,"沙田草地""A""                                    ",1600,好,G1,6,119,高伯新,郭能,3,74.0,126,6 7 7 4,1.33.61,1144,CP,,大籐王
9,10,423,6,16/02/20,"沙田草地""A""                                    ",1400,好,G1,1,121,高伯新,史卓豐,5-1/4,25.0,126,4 3 4 6,1.22.49,1150,CP,,大籐王
10,11,346,4,19/01/20,"沙田草地""A+3""                                    ",1600,好,G1,2,122,高伯新,何澤堯,5-1/4,33.0,126,4 3 3 4,1.33.89,1155,B-/CP2,,大籐王
11,12,231,10,08/12/19,"沙田草地""A""                                    ",1200,好,G1,5,123,高伯新,史卓豐,3-3/4,48.0,126,5 4 10,1.08.71,1152,B,,大籐王
12,13,107,4,20/10/19,"沙田草地""A""                                    ",1200,好/快,G2,8,123,高伯新,史卓豐,3/4,9.6,132,1 1 4,1.08.95,1145,B,,大籐王
13,14,60,6,01/10/19,"沙田草地""A+3""                                    ",1000,好/快,G3,3,123,高伯新,史卓豐,2-1/4,4.8,132,1 1 6,0.55.51,1141,B,,大籐王
14,15,616,2,28/04/19,"沙田草地""A""                                    ",1200,好,G1,8,123,高伯新,史卓豐,1/2,8.9,126,1 1 2,1.08.33,1155,B,,大籐王
15,16,558,1,07/04/19,"沙田草地""B+2""                                    ",1200,好/快,G2,1,118,高伯新,史卓豐,頸位,17.0,123,2 3 1,1.08.14,1140,CP-/B1,,大籐王
16,17,429,4,17/02/19,"沙田草地""A+3""                                    ",1400,好,G1,5,108,高伯新,史卓豐,3,30.0,126,3 3 3 4,1.21.50,1136,CP,,大籐王
17,18,309,3,01/01/19,"沙田草地""C""                                    ",1400,好,G3,6,108,高伯新,史卓豐,1-1/4,8.2,119,6 6 7 3,1.21.05,1152,CP,,大籐王
18,19,205,4,25/11/18,"沙田草地""C""                                    ",1600,好/黏,1,10,108,高伯新,史卓豐,3,11.0,132,11 11 10 4,1.36.12,1146,CP,,大籐王
19,20,170,1,10/11/18,"沙田草地""A""                                    ",1400,好,1,8,102,高伯新,史卓豐,頸位,5.7,126,7 7 7 1,1.21.11,1154,CP,,大籐王
20,21,20,2,09/09/18,"沙田草地""C""                                    ",1400,好,1,2,101,高伯新,韋達                                    ,3/4,1.4,118,5 5 5 2,1.21.85,1146,CP,,大籐王
21,22,10,2,02/09/18,"沙田草地""B""                                    ",1400,好,2,13,99,高伯新,郭能,鼻位,2.9,133,12 11 10 2,1.21.44,1150,CP,,大籐王
22,23,686,1,27/05/18,"沙田草地""A""                                    ",1400,好/快,2,5,88,高伯新,郭能,4,10.0,125,11 10 7 1,1.21.10,1141,CP,,大籐王
23,24,509,8,18/03/18,"沙田草地""A""                                    ",2000,好,4YO,4,88,高伯新,郭能,6-1/4,69.0,126,9 10 10 9 8,2.02.19,1145,H-/CP,,大籐王
24,25,435,9,18/02/18,"沙田草地""A""                                    ",1800,好,4YO,3,88,高伯新,巴度,5-1/2,15.0,126,6 8 9 8 9,1.47.87,1148,CP/H,,大籐王
25,26,381,2,28/01/18,"沙田草地""B""                                    ",1800,好,2,12,85,高伯新,史卓豐,1-1/4,2.3,120,9 10 10 10 2,1.48.12,1132,CP/H,,大籐王
26,27,263,2,10/12/17,"沙田草地""A""                                    ",1600,好,2,5,83,高伯新,史卓豐,1/2,4.0,120,6 8 7 2,1.35.46,1134,CP/H,,大籐王
27,28,189,1,11/11/17,"沙田草地""A""                                    ",1600,好/快,3,14,77,高伯新,史卓豐,1/2,4.0,132,13 14 11 1,1.35.76,1136,CP/H,,大籐王
28,29,96,1,08/10/17,"沙田草地""B+2""                                    ",1600,好,3,8,71,高伯新,史卓豐,3/4,3.2,122,5 5 5 1,1.34.92,1135,CP/H,,大籐王
29,30,10,1,03/09/17,"沙田草地""B""                                    ",1400,好,3,12,64,高伯新,史卓豐,1-1/4,4.9,117,10 10 10 1,1.22.07,1133,CP/H,,大籐王
30,31,669,4,21/05/17,"沙田草地""C+3""                                    ",1600,好,3,10,62,高伯新,莫雷拉,3/4,1.8,116,6 5 5 4,1.35.33,1117,CP/H1,,大籐王
31,32,579,4,17/04/17,"沙田草地""C+3""                                    ",1600,好/快,3,6,60,高伯新,史卓豐,3/4,4.3,116,4 3 2 4,1.34.45,1107,CP,,大籐王
32,33,503,1,19/03/17,"沙田草地""A""                                    ",1600,好/黏,4,2,53,高伯新,郭能,1-3/4,5.9,126,8 9 5 1,1.36.65,1099,CP,,大籐王
33,34,393,2,05/02/17,"沙田草地""C""                                    ",1400,好,4,4,52,高伯新,史卓豐,3/4,5.4,125,12 8 7 2,1.22.41,1105,CP1,,大籐王
34,35,353,2,22/01/17,"沙田草地""A""                                    ",1400,好,4,3,52,高伯新,史卓豐,2-1/2,8.2,126,4 5 3 2,1.22.87,1106,--,,大籐王
35,36,301,7,01/01/17,"沙田草地""B+2""                                    ",1200,好/快,4,11,52,高伯新,莫艾誠,4-3/4,12.0,126,12 13 7,1.10.53,1118,--,,大籐王
