,Unnamed: 0,場次,名次,日期,馬場/跑道/賽道,途程,場地狀況,賽事班次,檔位,評分,練馬師,騎師,頭馬距離,獨贏賠率,實際負磅,沿途走位,完成時間,排位體重,配備,賽事重播,馬名
0,1,780,13,01/07/20,"沙田草地""C""                                    ",1400,好,5,8,39,葉楚航,潘明輝,13-1/2,28.0,130,11 11 11 13,1.24.25,1064,--,,天地僑福
1,2,704,8,31/05/20,"沙田草地""B""                                    ",1400,好,4,5,41,葉楚航,蘇狄雄,5-1/4,35.0,114,10 10 11 8,1.22.92,1058,B-,,天地僑福
2,3,557,12,08/04/20,"跑馬地草地""B""                                    ",1200,好,4,6,43,葉楚航,蘇狄雄,5,32.0,114,10 12 12,1.11.25,1068,B,,天地僑福
3,4,486,10,11/03/20,"跑馬地草地""C""                                    ",1200,好,4,12,45,葉楚航,史卓豐,3-3/4,14.0,120,9 5 10,1.11.06,1061,B1,,天地僑福
4,5,418,5,16/02/20,"沙田草地""A""                                    ",1200,好,4,2,47,葉楚航,潘頓,5-1/4,8.5,120,9 10 5,1.10.85,1074,--,,天地僑福
5,6,353,5,22/01/20,"跑馬地草地""A""                                    ",1200,好,4,11,49,葉楚航,潘頓,3-3/4,3.3,122,3 3 5,1.10.31,1051,--,,天地僑福
6,7,239,3,11/12/19,"跑馬地草地""C""                                    ",1200,好,4,6,50,葉楚航,蘇狄雄,2-1/2,41.0,123,5 5 3,1.10.00,1050,--,,天地僑福
7,8,129,11,27/10/19,沙田全天候                                    ,1200,好,4,5,52,葉楚航,潘明輝,13-1/4,26.0,123,6 8 11,1.11.76,1098,--,,天地僑福
8,9,6,6,01/09/19,"沙田草地""B""                                    ",1000,好,4,6,52,葉楚航,蘇狄雄,2-3/4,184.0,122,8 11 6,0.58.19,1077,--,,天地僑福
