,Unnamed: 0,場次,名次,日期,馬場/跑道/賽道,途程,場地狀況,賽事班次,檔位,評分,練馬師,騎師,頭馬距離,獨贏賠率,實際負磅,沿途走位,完成時間,排位體重,配備,賽事重播,馬名
0,1,479,8,07/03/21,沙田全天候                                    ,1200,濕慢,5,7,38,徐雨石,馬雅,5-1/2,26.0,131,6 7 8,1.09.65,1102,P-/H,,天賜寶
1,2,240,11,06/12/20,沙田全天候                                    ,1200,好,5,12,40,徐雨石,黃皓楠,16-1/2,25.0,130,10 10 11,1.11.97,1106,H/P2,,天賜寶
2,3,162,8,04/11/20,沙田全天候                                    ,1200,好,4,10,42,徐雨石,黃皓楠,3-3/4,25.0,112,3 3 8,1.10.50,1112,H,,天賜寶
3,4,132,9,24/10/20,"沙田草地""C""                                    ",1200,好,4,5,44,徐雨石,黃俊,13-1/2,77.0,113,2 2 9,1.11.00,1120,H,,天賜寶
4,5,802,12,08/07/20,"跑馬地草地""A""                                    ",1200,好,4,10,46,徐雨石,巫顯東,5-1/2,15.0,117,8 11 12,1.11.00,1096,H,,天賜寶
5,6,760,11,24/06/20,"跑馬地草地""C""                                    ",1200,好/快,4,12,47,徐雨石,黃皓楠,6-1/4,22.0,117,5 6 11,1.10.35,1104,H,,天賜寶
6,7,713,9,03/06/20,"跑馬地草地""A""                                    ",1200,好,4,3,47,徐雨石,巫顯東,4,9.2,117,2 3 9,1.10.62,1102,H,,天賜寶
7,8,670,6,20/05/20,"跑馬地草地""C+3""                                    ",1200,好,4,12,47,徐雨石,巫顯東,2-1/4,13.0,119,6 3 6,1.10.38,1098,H,,天賜寶
8,9,577,1,15/04/20,"跑馬地草地""C""                                    ",1200,好,4,8,42,徐雨石,巫顯東,3/4,39.0,114,3 2 1,1.09.68,1096,H,,天賜寶
9,10,540,8,01/04/20,沙田全天候                                    ,1200,濕慢,4,6,44,徐雨石,梁家俊,13-1/2,6.8,118,4 7 8,1.11.64,1094,H,,天賜寶
10,11,473,6,08/03/20,沙田全天候                                    ,1200,好,4,12,46,徐雨石,黃俊,3,12.0,116,5 8 6,1.09.96,1091,H,,天賜寶
11,12,430,9,19/02/20,沙田全天候                                    ,1200,好,4,6,48,徐雨石,蔡明紹,5-1/2,7.8,122,4 4 9,1.10.06,1091,H,,天賜寶
12,13,363,7,27/01/20,"沙田草地""B+2""                                    ",1400,好,4,7,50,徐雨石,巫顯東,4-1/4,91.0,120,2 1 1 7,1.23.25,1086,H,,天賜寶
13,14,323,11,11/01/20,"沙田草地""A""                                    ",1200,好,4,9,52,徐雨石,巫顯東,6-1/2,68.0,123,3 2 11,1.10.63,1095,H,,天賜寶
14,15,294,10,01/01/20,"沙田草地""C""                                    ",1200,好,4,12,54,徐雨石,梁家俊,5-3/4,39.0,129,6 6 10,1.11.05,1090,H,,天賜寶
15,16,248,4,15/12/19,沙田全天候                                    ,1200,好,4,8,56,徐雨石,梁家俊,3,34.0,130,3 5 4,1.09.88,1101,H,,天賜寶
16,17,15,8,08/09/19,沙田全天候                                    ,1200,好,4,12,56,徐雨石,薛恩,6-3/4,13.0,131,4 3 8,1.10.54,1092,H,,天賜寶
17,18,795,8,07/07/19,"沙田草地""C""                                    ",1200,好/快,4,2,56,徐雨石,梁家俊,3,28.0,129,3 4 8,1.10.26,1100,H,,天賜寶
18,19,736,3,12/06/19,沙田全天候                                    ,1200,濕慢,4,4,56,徐雨石,梁家俊,2-1/2,8.6,129,1 1 3,1.09.79,1094,H,,天賜寶
19,20,641,1,08/05/19,沙田全天候                                    ,1200,濕慢,4,4,49,徐雨石,梁家俊,1-1/2,5.2,123,3 1 1,1.10.33,1095,H,,天賜寶
20,21,553,4,03/04/19,沙田全天候                                    ,1200,好,4,9,49,徐雨石,梁家俊,2-3/4,8.2,122,3 3 4,1.09.84,1095,H,,天賜寶
21,22,480,1,10/03/19,"沙田草地""C+3""                                    ",1400,好,4,11,44,徐雨石,梁家俊,短馬頭位,9.0,118,1 1 1 1,1.23.03,1111,H,,天賜寶
22,23,463,8,02/03/19,"沙田草地""C""                                    ",1400,好,4,12,45,徐雨石,吳嘉晉                                    ,3-1/4,89.0,115,2 2 2 8,1.23.13,1105,H,,天賜寶
23,24,437,10,20/02/19,"跑馬地草地""C""                                    ",1200,好/快,4,4,45,徐雨石,楊明綸,7-1/2,28.0,116,2 3 10,1.10.47,1108,H,,天賜寶
24,25,377,4,30/01/19,"跑馬地草地""A""                                    ",1200,好,4,12,45,徐雨石,李寶利,1-1/2,61.0,118,3 2 4,1.10.81,1089,H,,天賜寶
25,26,733,1,16/06/18,沙田全天候                                    ,1200,好,5,1,40,徐雨石,潘頓,鼻位,3.4,133,1 1 1,1.08.97,1097,H,,天賜寶
26,27,687,2,30/05/18,沙田全天候                                    ,1200,好,5,1,38,徐雨石,梁家俊,頸位,8.5,132,2 2 2,1.09.64,1103,H,,天賜寶
27,28,567,8,15/04/18,沙田全天候                                    ,1200,濕慢,5,1,40,徐雨石,貝湯美                                    ,10-1/2,4.3,133,10 7 8,1.11.39,1081,H,,天賜寶
28,29,462,12,28/02/18,沙田全天候                                    ,1650,好,4,7,41,徐雨石,吳嘉晉                                    ,22-1/2,45.0,111,10 11 14 12,1.42.01,1085,H,,天賜寶
29,30,421,6,14/02/18,"跑馬地草地""B""                                    ",1650,好,4,7,41,徐雨石,黃皓楠,4-3/4,19.0,109,3 5 5 6,1.41.46,1091,H,,天賜寶
30,31,365,3,24/01/18,沙田全天候                                    ,1200,好,5,10,40,徐雨石,梁家俊,1/2,6.4,131,3 3 3,1.09.73,1092,H,,天賜寶
31,32,274,3,17/12/17,沙田全天候                                    ,1200,好,5,2,40,徐雨石,梁家俊,2-1/4,5.0,131,1 2 3,1.09.99,1094,H,,天賜寶
32,33,235,1,03/12/17,沙田全天候                                    ,1200,好,5,5,35,徐雨石,梁家俊,1/2,18.0,128,3 3 1,1.09.20,1088,H,,天賜寶
33,34,164,9,05/11/17,"沙田草地""C+3""                                    ",1200,好/快,5,1,38,徐雨石,何澤堯,6-3/4,18.0,129,7 8 9,1.10.61,1083,H,,天賜寶
34,35,86,8,05/10/17,"跑馬地草地""A""                                    ",1200,好,4,12,40,徐雨石,巫顯東,5-1/2,42.0,107,9 8 8,1.11.10,1081,P-/H,,天賜寶
35,36,11,10,06/09/17,"跑馬地草地""A""                                    ",1200,好,5,8,40,徐雨石,莫雷拉,11,4.0,133,10 10 10,1.12.33,1067,H/P,,天賜寶
36,37,764,9,28/06/17,"跑馬地草地""C+3""                                    ",1200,好/快,4,12,41,徐雨石,莫雷拉,4-3/4,5.9,116,10 10 9,1.11.09,1072,H/P,,天賜寶
37,38,709,3,07/06/17,"跑馬地草地""A""                                    ",1200,好/快,4,11,41,徐雨石,莫雷拉,2-1/4,5.4,119,3 4 3,1.10.37,1067,H/P,,天賜寶
38,39,672,2,24/05/17,"跑馬地草地""C""                                    ",1200,好/黏,4,8,41,徐雨石,莫雷拉,3-3/4,3.4,115,10 10 2,1.10.93,1066,H/P1,,天賜寶
39,40,584,3,20/04/17,"跑馬地草地""B""                                    ",1000,好/快,4,6,41,徐雨石,黎海榮,1-1/2,231.0,114,6 6 3,0.57.64,1059,H,,天賜寶
40,41,553,14,09/04/17,"沙田草地""C""                                    ",1000,好/快,4,11,44,徐雨石,吳嘉晉                                    ,17-3/4,264.0,113,13 14 14,0.58.24,1058,H,,天賜寶
41,42,522,13,26/03/17,"沙田草地""A+3""                                    ",1200,好,4,7,47,徐雨石,黃皓楠,12,252.0,114,8 14 13,1.12.11,1068,H,,天賜寶
42,43,477,7,08/03/17,"跑馬地草地""A""                                    ",1200,好,4,1,49,徐雨石,何澤堯,3-1/2,179.0,120,6 3 7,1.10.70,1065,H,,天賜寶
43,44,339,13,14/01/17,"沙田草地""C+3""                                    ",1400,好,4,3,52,徐雨石,黎海榮,20,290.0,125,6 5 10 13,1.26.05,1060,B-/H1,,天賜寶
44,45,206,12,23/11/16,"跑馬地草地""C+3""                                    ",1200,好/黏,4,12,52,徐雨石,何澤堯,10-3/4,67.0,123,10 10 12,1.12.49,1056,B1,,天賜寶
