,Unnamed: 0,場次,名次,日期,馬場/跑道/賽道,途程,場地狀況,賽事班次,檔位,評分,練馬師,騎師,頭馬距離,獨贏賠率,實際負磅,沿途走位,完成時間,排位體重,配備,賽事重播,馬名
0,1,719,9,02/06/21,"跑馬地草地""A""                                    ",1000,好,5,8,37,葉楚航,梁家俊,5-3/4,41,130,8 9 9,0.58.02,1140,TT,,奔達之星
1,2,645,8,05/05/21,"跑馬地草地""A""                                    ",1000,好/快,4,7,40,葉楚航,黃皓楠,6-3/4,126,113,11 11 8,0.57.82,1148,TT,,奔達之星
2,3,580,13,11/04/21,"沙田草地""C""                                    ",1400,好,4,11,43,葉楚航,梁家俊,9-1/4,81,118,2 4 5 13,1.23.37,1144,TT,,奔達之星
3,4,474,9,03/03/21,"跑馬地草地""A""                                    ",1200,好,4,3,45,葉楚航,黃皓楠,7-1/4,46,116,7 7 9,1.11.19,1166,TT,,奔達之星
4,5,289,9,23/12/20,"跑馬地草地""C+3""                                    ",1000,好,4,2,47,葉楚航,黃俊,3-3/4,114,115,9 7 9,0.57.67,1164,TT1,,奔達之星
5,6,694,12,27/05/20,沙田全天候                                    ,1200,好,4,3,52,葉楚航,蘇狄雄,12-3/4,207,124,11 11 12,1.11.07,1121,--,,奔達之星
6,7,604,13,26/04/20,"沙田草地""A""                                    ",1200,好,4,8,52,葉楚航,蘇狄雄,7-3/4,196,123,14 14 13,1.10.65,1135,--,,奔達之星
