,Unnamed: 0,場次,名次,日期,馬場/跑道/賽道,途程,場地狀況,賽事班次,檔位,評分,練馬師,騎師,頭馬距離,獨贏賠率,實際負磅,沿途走位,完成時間,排位體重,配備,賽事重播,馬名
0,1,635,12,02/05/21,"沙田草地""B""                                    ",1200,好,4,7,45,徐雨石,黎海榮,11-1/4,211,120,13 12 12,1.10.85,1143,B,,好友順
1,2,542,10,28/03/21,"沙田草地""A+3""                                    ",1400,好/快,4,6,48,徐雨石,黃俊,9,269,116,9 11 13 10,1.22.59,1114,B1,,好友順
2,3,461,10,28/02/21,"沙田草地""B+2""                                    ",1000,好,4,12,50,徐雨石,巫顯東,4-3/4,256,121,9 9 10,0.57.46,1138,--,,好友順
3,4,424,12,14/02/21,"沙田草地""A""                                    ",1200,好,4,12,52,徐雨石,巫顯東,6-1/4,280,123,14 14 12,1.11.21,1136,--,,好友順
4,5,306,11,01/01/21,"沙田草地""B+2""                                    ",1200,好,4,6,52,徐雨石,巫顯東,7-1/4,202,123,4 7 11,1.10.84,1157,--,,好友順
