,Unnamed: 0,場次,名次,日期,馬場/跑道/賽道,途程,場地狀況,賽事班次,檔位,評分,練馬師,騎師,頭馬距離,獨贏賠率,實際負磅,沿途走位,完成時間,排位體重,配備,賽事重播,馬名
0,1,714,13,30/05/21,"沙田草地""B""                                    ",2000,好/快,3,2,61,賀賢,蔡明紹,15,12.0,113,5 7 8 9 13,2.03.05,1180,TT1,,威力飛馳
1,2,640,9,02/05/21,"沙田草地""B""                                    ",1800,好,3,2,63,賀賢,潘明輝,4-1/4,20.0,115,9 8 9 9 9,1.47.75,1171,CP-,,威力飛馳
2,3,466,10,28/02/21,"沙田草地""B+2""                                    ",1800,好,3,1,65,賀賢,巴度,7,9.1,118,8 8 8 6 10,1.47.74,1174,CP,,威力飛馳
3,4,437,9,17/02/21,"跑馬地草地""C""                                    ",2200,好,3,6,67,賀賢,史卓豐,6-3/4,6.7,122,7 8 9 9 10 9,2.17.54,1169,CP1,,威力飛馳
4,5,369,5,24/01/21,"沙田草地""A+3""                                    ",2000,好,3,9,67,賀賢,史卓豐,2-1/4,9.7,121,9 9 10 11 5,2.02.70,1176,--,,威力飛馳
5,6,260,3,13/12/20,"沙田草地""A""                                    ",1800,好,3,5,65,賀賢,史卓豐,頸位,19.0,119,13 13 14 14 3,1.48.44,1185,--,,威力飛馳
6,7,193,5,14/11/20,"沙田草地""C+3""                                    ",1800,好,3,3,66,賀賢,梁家俊,2-1/4,42.0,120,10 7 7 6 5,1.47.82,1180,--,,威力飛馳
7,8,134,14,24/10/20,"沙田草地""C""                                    ",1600,好,3,14,68,賀賢,潘頓,10,5.6,122,6 3 6 14,1.35.14,1190,--,,威力飛馳
8,9,73,5,01/10/20,"沙田草地""B""                                    ",1400,好,3,11,70,賀賢,薛恩,4-3/4,18.0,124,12 12 12 5,1.21.70,1180,--,,威力飛馳
9,10,28,5,13/09/20,"沙田草地""A+3""                                    ",1400,好,3,2,70,賀賢,薛恩,5-1/2,68.0,123,10 9 8 5,1.22.00,1188,--,,威力飛馳
