,Unnamed: 0,場次,名次,日期,馬場/跑道/賽道,途程,場地狀況,賽事班次,檔位,評分,練馬師,騎師,頭馬距離,獨贏賠率,實際負磅,沿途走位,完成時間,排位體重,配備,賽事重播,馬名
0,1,722,11,02/06/21,"跑馬地草地""A""                                    ",1650,好,4,10,49,蘇偉賢,何澤堯,10-3/4,35,122,10 9 9 11,1.42.01,1020,CP,,安逸寧靜
1,2,648,09,05/05/21,"跑馬地草地""A""                                    ",1650,好/快,4,11,49,蘇偉賢,何澤堯,3,53,122,2 2 3 9,1.40.96,1022,CP,,安逸寧靜
2,3,571,10,08/04/21,"跑馬地草地""A""                                    ",1650,好/快,4,9,49,蘇偉賢,何澤堯,7-1/2,10,122,4 2 4 10,1.41.86,1019,CP,,安逸寧靜
3,4,489,01,10/03/21,"跑馬地草地""B""                                    ",1650,好,4,1,43,蘇偉賢,何澤堯,短馬頭位,3.9,117,2 3 3 1,1.39.88,1024,CP,,安逸寧靜
4,5,438,11,17/02/21,"跑馬地草地""C""                                    ",1650,好,4,3,45,蘇偉賢,彭國年,6-3/4,9.2,118,3 5 12 11,1.41.15,1023,CP,,安逸寧靜
5,6,359,05,20/01/21,"跑馬地草地""C""                                    ",1650,好,4,9,47,蘇偉賢,彭國年,3-3/4,14,122,10 9 10 5,1.40.75,1024,CP1,,安逸寧靜
6,7,301,09,26/12/20,"沙田草地""A+3""                                    ",1600,好,4,13,49,蘇偉賢,彭國年,5,57,123,14 14 14 9,1.35.19,1033,--,,安逸寧靜
7,8,259,07,13/12/20,"沙田草地""A""                                    ",1400,好,4,13,51,蘇偉賢,彭國年,3-1/4,57,124,10 10 11 7,1.22.88,1015,--,,安逸寧靜
8,9,204,06,22/11/20,"沙田草地""B+2""                                    ",1200,好/快,4,8,53,蘇偉賢,彭國年,6,58,126,10 10 6,1.09.43,1020,--,,安逸寧靜
9,10,150,WV-A,01/11/20,"沙田草地""A""                                    ",1200,好/快,4,--,53,蘇偉賢,彭國年,--,--,127,--,--,--,--,--,安逸寧靜
10,11,824,09,15/07/20,"跑馬地草地""B""                                    ",1200,好/快,4,6,58,蘇偉賢,楊明綸,7,165,132,8 7 9,1.11.11,1003,--,,安逸寧靜
11,12,772,09,27/06/20,"沙田草地""B""                                    ",1200,好/快,3,9,61,蘇偉賢,楊明綸,7-1/2,272,114,12 12 9,1.09.51,1000,--,,安逸寧靜
12,13,736,10,10/06/20,"跑馬地草地""B""                                    ",1200,好/快,3,6,64,蘇偉賢,楊明綸,13-3/4,190,121,11 12 10,1.11.60,1012,--,,安逸寧靜
13,14,656,11,13/05/20,"跑馬地草地""C""                                    ",1200,好,3,8,67,蘇偉賢,黎海榮,6-1/2,199,121,8 9 11,1.10.64,1006,--,,安逸寧靜
14,15,600,07,22/04/20,"跑馬地草地""C+3""                                    ",1200,好/黏,3,11,69,蘇偉賢,蘇狄雄,5,338,123,10 10 7,1.12.04,999,--,,安逸寧靜
15,16,553,11,05/04/20,"沙田草地""B+2""                                    ",1200,好,3,5,71,蘇偉賢,黎海榮,15-1/4,392,127,10 11 11,1.12.00,1005,--,,安逸寧靜
16,17,515,10,22/03/20,"沙田草地""A""                                    ",1200,好/快,3,1,73,蘇偉賢,楊明綸,9-3/4,524,127,9 8 10,1.10.12,1013,--,,安逸寧靜
17,18,439,12,23/02/20,"沙田草地""A+3""                                    ",1200,好,3,7,73,蘇偉賢,黎海榮,10-1/4,255,130,11 13 12,1.11.34,1004,--,,安逸寧靜
