,Unnamed: 0,場次,名次,日期,馬場/跑道/賽道,途程,場地狀況,賽事班次,檔位,評分,練馬師,騎師,頭馬距離,獨贏賠率,實際負磅,沿途走位,完成時間,排位體重,配備,賽事重播,馬名
0,1,613,9,25/04/21,"沙田草地""A""                                    ",1400,好,4,4,53,呂健威,田泰安,6-3/4,9.1,126,12 12 11 9,1.23.52,1030,B1,,富存大師
1,2,542,7,28/03/21,"沙田草地""A+3""                                    ",1400,好/快,4,8,54,呂健威,田泰安,6-1/2,5.8,127,8 9 11 7,1.22.21,1059,--,,富存大師
2,3,463,5,28/02/21,"沙田草地""B+2""                                    ",1400,好,4,14,54,呂健威,莫雷拉,1-1/2,4.7,129,5 2 3 5,1.22.36,1055,--,,富存大師
3,4,366,4,24/01/21,"沙田草地""A+3""                                    ",1400,好,4,5,54,呂健威,何澤堯,1-1/2,3.7,127,3 3 4 4,1.22.22,1076,--,,富存大師
4,5,281,1,20/12/20,"沙田草地""C+3""                                    ",1400,好,4,1,46,呂健威,莫雷拉,2-1/4,2.7,119,5 3 3 1,1.21.51,1070,--,,富存大師
5,6,206,5,22/11/20,"沙田草地""B+2""                                    ",1400,好/快,4,4,46,呂健威,何澤堯,1-3/4,36.0,119,10 10 11 5,1.21.80,1048,--,,富存大師
6,7,152,12,01/11/20,"沙田草地""A""                                    ",1200,好/快,4,8,48,呂健威,彭國年,8-3/4,20.0,121,7 9 12,1.10.39,1076,--,,富存大師
7,8,95,5,11/10/20,"沙田草地""A+3""                                    ",1200,好,4,2,50,呂健威,梁家俊,5,7.5,124,3 3 5,1.09.40,1077,--,,富存大師
8,9,41,5,20/09/20,"沙田草地""B+2""                                    ",1200,好/快,4,1,51,呂健威,何澤堯,4-1/4,4.9,124,4 5 5,1.09.35,1085,--,,富存大師
9,10,4,4,06/09/20,"沙田草地""A""                                    ",1200,好,4,12,51,呂健威,何澤堯,1-1/4,82.0,124,7 6 4,1.09.61,1087,--,,富存大師
10,11,790,9,05/07/20,"沙田草地""C+3""                                    ",1200,好/快,4,11,52,呂健威,何澤堯,5-1/4,16.0,126,3 3 9,1.10.48,1094,--,,富存大師
