,Unnamed: 0,場次,名次,日期,馬場/跑道/賽道,途程,場地狀況,賽事班次,檔位,評分,練馬師,騎師,頭馬距離,獨贏賠率,實際負磅,沿途走位,完成時間,排位體重,配備,賽事重播,馬名
0,1,721,7,02/06/21,"跑馬地草地""A""                                    ",1200,好,4,12,47,葉楚航,彭國年,4,61.0,120,12 10 7,1.10.55,1036,B1/TT,,寶得住
1,2,636,11,02/05/21,"沙田草地""B""                                    ",1600,好,4,2,49,葉楚航,陳嘉熙,7,35.0,119,9 9 10 11,1.35.58,1025,TT,,寶得住
2,3,566,10,08/04/21,"跑馬地草地""A""                                    ",1800,好/快,4,6,51,葉楚航,賀銘年,15-1/2,38.0,127,7 7 8 9 10,1.51.05,1032,TT,,寶得住
3,4,529,9,24/03/21,"跑馬地草地""C+3""                                    ",1650,好/快,4,2,52,葉楚航,賀銘年,3-3/4,20.0,126,7 6 8 9,1.40.28,1042,TT,,寶得住
4,5,490,5,10/03/21,"跑馬地草地""B""                                    ",1650,好,4,5,52,葉楚航,賀銘年,5,12.0,125,7 8 8 5,1.40.85,1034,TT,,寶得住
5,6,465,11,28/02/21,"沙田草地""B+2""                                    ",1600,好,4,13,52,葉楚航,賀銘年,7,22.0,125,13 12 12 11,1.35.69,1027,TT,,寶得住
6,7,386,1,31/01/21,"沙田草地""B+2""                                    ",1600,好,4,1,47,葉楚航,賀銘年,頸位,12.0,120,8 7 6 1,1.34.45,1039,TT,,寶得住
7,8,339,7,13/01/21,"跑馬地草地""B""                                    ",1650,好,4,4,47,葉楚航,潘頓,2-3/4,3.9,120,10 10 7 7,1.41.36,1037,TT,,寶得住
8,9,272,2,16/12/20,"跑馬地草地""C""                                    ",1650,好,4,1,45,葉楚航,賀銘年,1/2,7.9,119,6 8 7 2,1.40.07,1018,TT,,寶得住
9,10,225,11,29/11/20,"沙田草地""C""                                    ",1600,好,4,8,45,葉楚航,賀銘年,10,12.0,118,11 12 12 11,1.35.49,1024,TT,,寶得住
10,11,184,1,14/11/20,"沙田草地""C+3""                                    ",1600,好,5,6,40,葉楚航,賀銘年,3/4,9.6,133,8 7 4 1,1.35.13,1033,TT,,寶得住
11,12,114,9,18/10/20,"沙田草地""B+2""                                    ",1600,好/快,4,14,42,葉楚航,巴度,5,9.7,115,11 10 12 9,1.34.99,1041,TT,,寶得住
12,13,23,4,13/09/20,"沙田草地""A+3""                                    ",1600,好,4,2,42,葉楚航,田泰安,3-1/4,10.0,118,4 4 3 4,1.35.59,1027,TT2,,寶得住
13,14,797,8,05/07/20,"沙田草地""C+3""                                    ",1600,好/快,4,13,43,葉楚航,田泰安,7-1/2,16.0,116,13 10 9 8,1.35.28,1038,--,,寶得住
14,15,723,3,07/06/20,"沙田草地""C""                                    ",1600,黏,4,13,42,葉楚航,田泰安,1/2,9.8,115,13 13 8 3,1.35.80,1018,--,,寶得住
15,16,672,8,20/05/20,"跑馬地草地""C+3""                                    ",1650,好/快,4,7,45,葉楚航,蘇狄雄,6,37.0,117,8 8 8 8,1.40.20,1027,--,,寶得住
16,17,598,8,22/04/20,"跑馬地草地""C+3""                                    ",1650,好/黏,4,12,47,葉楚航,波健士,6-1/2,29.0,120,10 10 10 8,1.41.24,1019,--,,寶得住
17,18,528,12,29/03/20,"沙田草地""A+3""                                    ",2000,好,4,4,49,葉楚航,蔡明紹,14,11.0,122,2 5 5 8 12,2.04.70,1033,XB-/TT-,,寶得住
18,19,458,7,01/03/20,"沙田草地""B+2""                                    ",1600,好,4,11,51,葉楚航,田泰安,2-1/4,10.0,124,12 11 11 7,1.35.87,1020,XB/TT,,寶得住
19,20,376,8,29/01/20,"跑馬地草地""B""                                    ",1800,好,4,11,53,葉楚航,巴度,4-1/4,17.0,127,5 6 7 7 8,1.49.90,1015,XB/TT,,寶得住
20,21,309,3,05/01/20,"沙田草地""C+3""                                    ",1800,好,4,6,53,葉楚航,巴度,3,8.9,127,8 8 8 5 3,1.48.61,1016,XB/TT,,寶得住
21,22,251,4,15/12/19,"沙田草地""C+3""                                    ",1600,好,4,5,53,葉楚航,李寶利,3/4,8.7,126,11 10 8 4,1.34.66,1020,XB/TT,,寶得住
22,23,192,4,23/11/19,"沙田草地""C""                                    ",1600,好/快,4,13,54,葉楚航,李寶利,2-3/4,30.0,129,14 13 12 4,1.34.95,1025,XB1/TT,,寶得住
23,24,137,5,30/10/19,"跑馬地草地""A""                                    ",1200,好,4,3,55,葉楚航,蘇狄雄,2-1/4,64.0,126,8 9 5,1.10.68,1015,TT,,寶得住
24,25,80,8,09/10/19,"跑馬地草地""B""                                    ",1200,好,4,12,57,葉楚航,貝力斯,5,171.0,130,12 11 8,1.10.76,1035,TT,,寶得住
25,26,26,10,11/09/19,"跑馬地草地""B""                                    ",1200,好,4,11,58,葉楚航,蘇狄雄,4-1/4,64.0,129,12 12 10,1.10.98,1015,TT,,寶得住
26,27,776,11,01/07/19,"沙田草地""B""                                    ",1200,好/快,3,3,62,葉楚航,巫顯東,8-1/2,201.0,112,9 9 11,1.09.67,1007,H-/TT1,,寶得住
27,28,719,12,05/06/19,"跑馬地草地""A""                                    ",1650,好,3,10,64,葉楚航,蘇狄雄,10-3/4,134.0,115,8 4 2 12,1.42.36,1009,H,,寶得住
28,29,672,11,18/05/19,"沙田草地""C+3""                                    ",1400,好/快,3,6,66,葉楚航,潘明輝,9,114.0,118,7 8 9 11,1.22.81,1019,H,,寶得住
29,30,608,6,24/04/19,"跑馬地草地""C""                                    ",1200,好,3,9,68,葉楚航,李寶利,6-1/4,39.0,121,12 11 6,1.10.12,1005,H,,寶得住
30,31,535,4,27/03/19,"跑馬地草地""C+3""                                    ",1200,好/快,3,1,69,葉楚航,李寶利,2-1/4,59.0,122,9 9 4,1.10.11,996,H,,寶得住
31,32,494,8,13/03/19,"跑馬地草地""B""                                    ",1200,好,3,7,71,葉楚航,賴維銘                                    ,6,78.0,124,9 7 8,1.11.11,1000,H,,寶得住
32,33,431,11,17/02/19,"沙田草地""A+3""                                    ",1400,好,3,5,73,葉楚航,李寶利,7-3/4,57.0,126,10 11 11 11,1.23.13,997,H,,寶得住
33,34,345,6,16/01/19,"跑馬地草地""B""                                    ",1200,好,3,2,73,葉楚航,李寶利,4-1/4,158.0,126,12 12 6,1.10.53,1009,H1,,寶得住
