,Unnamed: 0,場次,名次,日期,馬場/跑道/賽道,途程,場地狀況,賽事班次,檔位,評分,練馬師,騎師,頭馬距離,獨贏賠率,實際負磅,沿途走位,完成時間,排位體重,配備,賽事重播,馬名
0,1,698,2,23/05/21,"沙田草地""A""                                    ",1400,好/快,4,4,57,告東尼,田泰安,頭位,13.0,130,4 5 5 2,1.21.34,1086,XB/TT,,將俠
1,2,637,8,02/05/21,"沙田草地""B""                                    ",1400,好,4,10,58,告東尼,周俊樂,4-3/4,11.0,124,3 2 2 8,1.22.33,1083,XB/TT,,將俠
2,3,580,3,11/04/21,"沙田草地""C""                                    ",1400,好,4,1,58,告東尼,田泰安,1-1/4,6.7,133,5 5 3 3,1.22.12,1087,XB/TT,,將俠
3,4,520,2,21/03/21,"沙田草地""A""                                    ",1400,好,4,8,58,告東尼,田泰安,2-3/4,13.0,132,9 8 8 2,1.22.44,1091,XB/TT,,將俠
4,5,445,6,21/02/21,"沙田草地""A+3""                                    ",1400,好,4,5,58,告東尼,莫雷拉,2-1/4,4.7,131,6 6 4 6,1.22.33,1095,XB/TT,,將俠
5,6,366,1,24/01/21,"沙田草地""A+3""                                    ",1400,好,4,1,53,告東尼,莫雷拉,頸位,4.2,126,4 5 5 1,1.21.98,1100,XB/TT,,將俠
6,7,307,3,01/01/21,"沙田草地""B+2""                                    ",1400,好,4,14,53,告東尼,莫雷拉,1-3/4,11.0,127,12 11 8 3,1.22.90,1108,XB/TT,,將俠
7,8,225,10,29/11/20,"沙田草地""C""                                    ",1600,好,4,5,53,告東尼,莫雷拉,9,2.8,126,3 4 4 10,1.35.33,1101,XB/TT,,將俠
8,9,187,2,14/11/20,"沙田草地""C+3""                                    ",1400,好,4,1,52,告東尼,何澤堯,1-3/4,13.0,125,9 9 8 2,1.22.12,1105,XB1/TT1,,將俠
