,Unnamed: 0,場次,名次,日期,馬場/跑道/賽道,途程,場地狀況,賽事班次,檔位,評分,練馬師,騎師,頭馬距離,獨贏賠率,實際負磅,沿途走位,完成時間,排位體重,配備,賽事重播,馬名
0,1,558,04,05/04/21,"沙田草地""B+2""                                    ",1200,好,4,2,52,蘇保羅,史卓豐,2-3/4,12,125,9 7 4,1.10.06,1180,--,,對衡之星
1,2,498,07,13/03/21,"沙田草地""C+3""                                    ",1000,好,4,2,52,蘇保羅,蔡明紹,4-1/4,12,126,12 12 7,0.57.39,1171,--,,對衡之星
2,3,306,WV,01/01/21,"沙田草地""B+2""                                    ",1200,好,4,--,52,蘇保羅,蔡明紹,--,--,126,--,--,--,--,--,對衡之星
