,Unnamed: 0,場次,名次,日期,馬場/跑道/賽道,途程,場地狀況,賽事班次,檔位,評分,練馬師,騎師,頭馬距離,獨贏賠率,實際負磅,沿途走位,完成時間,排位體重,配備,賽事重播,馬名
0,1,705,12,26/05/21,"跑馬地草地""C""                                    ",1200,好/快,4,6,42,沈集成,蔡明紹,8-1/2,15.0,117,12 12 12,1.10.94,1199,B/TT,,尖辣椒
1,2,558,14,05/04/21,"沙田草地""B+2""                                    ",1200,好,4,14,44,沈集成,巴度,18-3/4,15.0,117,2 2 14,1.12.61,1198,B/TT,,尖辣椒
2,3,492,8,10/03/21,"跑馬地草地""B""                                    ",1200,好,4,9,46,沈集成,蔡明紹,5,15.0,119,10 12 8,1.10.87,1190,B/TT,,尖辣椒
3,4,433,4,17/02/21,"跑馬地草地""C""                                    ",1200,好,4,12,48,沈集成,蔡明紹,4-1/4,16.0,121,10 11 4,1.10.38,1201,CP-/B2/TT,,尖辣椒
4,5,424,7,14/02/21,"沙田草地""A""                                    ",1200,好,4,6,48,沈集成,潘頓,2-1/2,5.9,122,6 6 7,1.10.59,1209,CP/TT,,尖辣椒
5,6,350,2,17/01/21,"沙田草地""A""                                    ",1200,好,4,3,46,沈集成,莫雷拉,短馬頭位,23.0,119,5 3 2,1.10.49,1216,CP/TT,,尖辣椒
6,7,226,11,29/11/20,"沙田草地""C""                                    ",1400,好,4,3,48,沈集成,波健士,6-3/4,141.0,121,1 1 1 11,1.23.03,1219,B-/CP1/TT,,尖辣椒
7,8,141,11,28/10/20,"跑馬地草地""C+3""                                    ",1200,好,4,6,50,沈集成,梁家俊,9-1/2,63.0,123,5 5 11,1.11.45,1223,B/TT,,尖辣椒
8,9,90,9,07/10/20,"跑馬地草地""A""                                    ",1200,好,4,9,52,沈集成,巴度,6,60.0,125,8 8 9,1.11.27,1204,B/TT,,尖辣椒
9,10,59,13,27/09/20,"沙田草地""A""                                    ",1200,好,4,2,52,沈集成,潘頓,8-3/4,6.2,125,3 5 13,1.11.10,1199,B1/TT1,,尖辣椒
