,Unnamed: 0,場次,名次,日期,馬場/跑道/賽道,途程,場地狀況,賽事班次,檔位,評分,練馬師,騎師,頭馬距離,獨贏賠率,實際負磅,沿途走位,完成時間,排位體重,配備,賽事重播,馬名
0,1,619,03,25/04/21,"沙田草地""A""                                    ",1600,好,G1,4,125,方嘉柏,田泰安,3-1/2,8.6,126,4 4 4 3,1.34.03,1147,TT,,川河尊駒
1,2,557,02,05/04/21,"沙田草地""B+2""                                    ",1600,好,G2,4,125,方嘉柏,田泰安,1/2,3.6,128,2 2 2 2,1.35.16,1174,TT,,川河尊駒
2,3,443,02,21/02/21,"沙田草地""A+3""                                    ",1400,好,G1,2,125,方嘉柏,田泰安,1-1/4,3.9,126,3 3 3 2,1.20.98,1184,TT,,川河尊駒
3,4,370,02,24/01/21,"沙田草地""A+3""                                    ",1600,好,G1,2,125,方嘉柏,田泰安,頭位,11,126,3 3 3 2,1.33.38,1163,TT,,川河尊駒
4,5,264,02,13/12/20,"沙田草地""A""                                    ",1600,好,G1,6,125,方嘉柏,田泰安,2,31,126,7 7 8 2,1.33.79,1162,TT,,川河尊駒
5,6,205,03,22/11/20,"沙田草地""B+2""                                    ",1600,好/快,G2,5,124,方嘉柏,田泰安,1-3/4,18,128,2 2 2 3,1.33.20,1154,TT,,川河尊駒
6,7,155,04,01/11/20,"沙田草地""A""                                    ",1800,好/快,G3,10,125,方嘉柏,郭能,2-1/2,6.7,129,2 2 1 1 4,1.46.31,1165,TT,,川河尊駒
7,8,117,03,18/10/20,"沙田草地""B+2""                                    ",1600,好/快,G2,9,125,方嘉柏,田泰安,2-1/4,18,128,4 4 3 3,1.33.74,1165,TT,,川河尊駒
8,9,062,04,27/09/20,"沙田草地""A""                                    ",1400,好,G3,5,125,方嘉柏,薛恩,2-1/2,38,128,3 3 5 4,1.20.93,1162,TT,,川河尊駒
9,10,756,05,21/06/20,"沙田草地""A""                                    ",1800,好/快,G3,2,125,方嘉柏,何澤堯,6,4.2,133,1 2 2 4 5,1.46.80,1158,TT,,川河尊駒
10,11,707,02,31/05/20,"沙田草地""B""                                    ",1600,好,G3,9,125,方嘉柏,何澤堯,頸位,6.3,133,3 3 4 2,1.32.98,1152,TT,,川河尊駒
11,12,608,01,26/04/20,"沙田草地""A""                                    ",1600,好,G1,5,121,方嘉柏,何澤堯,短馬頭位,10,126,5 5 3 1,1.33.13,1158,TT,,川河尊駒
12,13,547,03,05/04/20,"沙田草地""B+2""                                    ",1600,好,G2,5,121,方嘉柏,利敬國,1/2,22,123,3 4 3 3,1.33.59,1156,TT1,,川河尊駒
13,14,421,09,16/02/20,"沙田草地""A""                                    ",2000,好,G1,4,123,方嘉柏,史卓豐,6,19,126,3 3 2 2 9,2.02.95,1160,V-,,川河尊駒
14,15,346,06,19/01/20,"沙田草地""A+3""                                    ",1600,好,G1,5,125,方嘉柏,薛恩,7-1/4,36,126,5 6 5 6,1.34.21,1163,V,,川河尊駒
15,16,319,08,08/01/20,"跑馬地草地""C""                                    ",1800,好,G3,1,126,方嘉柏,潘頓,3-1/2,4.8,133,2 3 4 4 8,1.48.66,1166,V,,川河尊駒
16,17,230,08,08/12/19,"沙田草地""A""                                    ",2400,好,G1,9,126,方嘉柏,沈拿,10-1/2,28,126,4 3 3 3 2 8,2.26.45,1174,V,,川河尊駒
17,18,176,03,17/11/19,"沙田草地""B""                                    ",2000,好/快,G2,5,126,方嘉柏,沈拿,2-1/2,12,123,3 3 4 5 3,2.00.14,1162,V,,川河尊駒
18,19,147,01,03/11/19,"沙田草地""C+3""                                    ",1800,好/快,G3,9,123,方嘉柏,沈拿,頸位,28,127,2 3 4 2 1,1.45.25,1171,V,,川河尊駒
19,20,112,05,20/10/19,"沙田草地""A""                                    ",1600,好/快,G2,5,123,方嘉柏,沈拿,3,28,118,4 4 5 5,1.33.29,1169,V,,川河尊駒
20,21,064,04,01/10/19,"沙田草地""A+3""                                    ",1400,好/快,G3,6,123,方嘉柏,沈拿,2,48,119,5 4 4 4,1.20.36,1159,V,,川河尊駒
21,22,海外,01,25/05/19,克蘭芝/草地                                    ,1600,好,SIN G1,2,123,方嘉柏,潘頓,2-1/2,1.6,126,--,1.33.61,--,XB-/V2,--,川河尊駒
22,23,海外,06,30/03/19,美丹/草地                                    ,1800,好,G1,1,123,方嘉柏,潘頓,10,15,126,--,--,--,XB,--,川河尊駒
23,24,430,02,17/02/19,"沙田草地""A+3""                                    ",2000,好,G1,4,122,方嘉柏,史卓豐,1-1/2,57,126,5 5 8 8 2,2.01.10,1173,B-/XB,,川河尊駒
24,25,354,03,20/01/19,"沙田草地""A+3""                                    ",1600,好/快,G1,4,123,方嘉柏,韋達                                    ,3,32,126,2 2 3 3,1.33.99,1167,V-/XB/B1,,川河尊駒
25,26,327,06,09/01/19,"跑馬地草地""A""                                    ",1800,好,G3,5,123,方嘉柏,韋達                                    ,2,8,129,7 8 7 7 6,1.49.15,1165,V/XB,,川河尊駒
26,27,242,03,09/12/18,"沙田草地""A""                                    ",1600,好,G1,10,123,方嘉柏,韋達                                    ,3-1/4,40,126,4 4 4 3,1.34.04,1149,V/XB,,川河尊駒
27,28,186,02,18/11/18,"沙田草地""B""                                    ",1600,好,G2,4,123,方嘉柏,韋達                                    ,3,14,123,5 5 5 2,1.33.13,1146,V/XB1,,川河尊駒
28,29,062,08,01/10/18,"沙田草地""A+3""                                    ",1400,好,G3,5,123,方嘉柏,韋達                                    ,5,22,130,5 6 6 8,1.21.42,1149,V,,川河尊駒
29,30,003,05,02/09/18,"沙田草地""B""                                    ",1200,好,1,1,123,方嘉柏,史卓豐,5-3/4,9.9,133,4 4 5,1.09.19,1149,V,,川河尊駒
30,31,海外,01,26/05/18,克蘭芝/草地                                    ,1600,黏,SIN G1,1,123,方嘉柏,潘頓,3,1.8,126,--,1.33.79,--,V,--,川河尊駒
31,32,608,03,29/04/18,"沙田草地""A""                                    ",1600,好,G1,4,123,方嘉柏,柏寶                                    ,1-3/4,16,126,4 4 5 3,1.34.59,1159,V,,川河尊駒
32,33,504,01,18/03/18,"沙田草地""A""                                    ",1600,好,1,3,118,方嘉柏,史卓豐,短馬頭位,17,128,1 1 1 1,1.35.44,1164,V,,川河尊駒
33,34,455,09,25/02/18,"沙田草地""B""                                    ",1400,好,G1,8,118,方嘉柏,李寶利,4-1/2,16,126,8 8 9 9,1.21.57,1169,V,,川河尊駒
34,35,380,04,28/01/18,"沙田草地""B""                                    ",1600,好,G1,7,108,方嘉柏,李寶利,1,76,126,13 13 13 4,1.34.89,1169,V,,川河尊駒
35,36,317,06,01/01/18,"沙田草地""B+2""                                    ",1400,好,G3,4,108,方嘉柏,李寶利,3-1/2,9.7,115,8 10 10 6,1.21.68,1164,V,,川河尊駒
36,37,256,01,10/12/17,"沙田草地""A""                                    ",1400,好,1,1,102,方嘉柏,李寶利,短馬頭位,24,118,6 7 4 1,1.21.25,1163,V,,川河尊駒
37,38,205,WV,19/11/17,"沙田草地""B""                                    ",1200,好,G2,--,102,方嘉柏,祈普敦                                    ,--,--,123,--,--,--,--,--,川河尊駒
38,39,154,01,29/10/17,"跑馬地草地""A""                                    ",1200,好/快,2,8,96,方嘉柏,羅理雅                                    ,頸位,2.8,129,12 10 1,1.09.28,1154,V,,川河尊駒
39,40,082,02,01/10/17,"沙田草地""A+3""                                    ",1200,好/黏,2,13,93,方嘉柏,羅理雅                                    ,頭位,11,126,9 9 2,1.09.18,1140,V1,,川河尊駒
40,41,003,05,03/09/17,"沙田草地""B""                                    ",1200,好,1,6,93,方嘉柏,田泰安,4-3/4,12,113,7 5 5,1.09.08,1131,--,,川河尊駒
41,42,796,01,12/07/17,"跑馬地草地""A""                                    ",1200,好/快,2,12,87,方嘉柏,田泰安,1/2,18,118,8 8 1,1.09.55,1122,--,,川河尊駒
42,43,688,13,28/05/17,"沙田草地""A""                                    ",1200,好/快,2,1,87,方嘉柏,莫雷拉,7-1/2,2.7,122,6 5 13,1.10.68,1121,--,,川河尊駒
