,Unnamed: 0,場次,名次,日期,馬場/跑道/賽道,途程,場地狀況,賽事班次,檔位,評分,練馬師,騎師,頭馬距離,獨贏賠率,實際負磅,沿途走位,完成時間,排位體重,配備,賽事重播,馬名
0,1,633,WV-A,02/05/21,"沙田草地""B""                                    ",1000,好,4,--,57,方嘉柏,莫雷拉,--,--,131,--,--,--,--,--,帆哥兒
1,2,600,08,17/04/21,沙田全天候                                    ,1200,好,4,11,57,方嘉柏,薛恩,3-1/2,6.9,132,10 8 8,1.09.61,1087,B/TT,,帆哥兒
2,3,551,02,31/03/21,沙田全天候                                    ,1200,好,4,8,56,方嘉柏,薛恩,1,4.9,130,8 7 2,1.09.36,1096,B/TT,,帆哥兒
3,4,492,03,10/03/21,"跑馬地草地""B""                                    ",1200,好,4,5,57,方嘉柏,薛恩,1-3/4,4.5,130,6 5 3,1.10.32,1091,V-/B2/TT,,帆哥兒
4,5,461,05,28/02/21,"沙田草地""B+2""                                    ",1000,好,4,6,59,方嘉柏,陳嘉熙,2-1/2,5.7,126,6 6 5,0.57.06,1094,V/TT,,帆哥兒
5,6,450,10,21/02/21,"沙田草地""A+3""                                    ",1400,好,3,5,61,方嘉柏,楊明綸,5-1/2,64,114,1 1 1 10,1.21.97,1104,V/TT,,帆哥兒
6,7,409,06,06/02/21,"沙田草地""C""                                    ",1000,好,3,4,63,方嘉柏,何澤堯,4-1/2,13,118,8 7 6,0.56.28,1104,V/TT2,,帆哥兒
7,8,362,07,20/01/21,"跑馬地草地""C""                                    ",1200,好,3,8,65,方嘉柏,陳嘉熙,5-1/4,11,112,3 2 7,1.10.51,1101,V,,帆哥兒
8,9,324,04,06/01/21,"跑馬地草地""A""                                    ",1200,好,3,2,65,方嘉柏,郭能,1,5.2,120,4 4 4,1.09.99,1106,V,,帆哥兒
9,10,275,07,16/12/20,"跑馬地草地""C""                                    ",1200,好,3,11,67,方嘉柏,彭國年,3,14,121,10 10 7,1.09.90,1095,V/TT-,,帆哥兒
10,11,217,04,25/11/20,"跑馬地草地""C+3""                                    ",1200,好,3,9,69,方嘉柏,郭能,2-3/4,13,122,9 9 4,1.09.68,1086,V/TT,,帆哥兒
11,12,136,07,24/10/20,"沙田草地""C""                                    ",1000,好,3,10,71,方嘉柏,莫雷拉,2,6.8,125,5 3 7,0.56.91,1105,V1/TT,,帆哥兒
12,13,83,06,04/10/20,"沙田草地""C+3""                                    ",1000,好,3,10,73,方嘉柏,田泰安,3-3/4,6.1,126,11 8 6,0.55.88,1081,TT,,帆哥兒
13,14,53,08,23/09/20,"跑馬地草地""C+3""                                    ",1200,好/快,3,11,75,方嘉柏,薛恩,5,11,128,12 11 8,1.09.88,1073,TT,,帆哥兒
14,15,806,05,08/07/20,"跑馬地草地""A""                                    ",1200,好,3,10,78,方嘉柏,田泰安,3-3/4,6.3,132,12 12 5,1.10.09,1067,TT,,帆哥兒
15,16,788,07,01/07/20,"沙田草地""C""                                    ",1000,好/快,3,2,80,方嘉柏,薛恩,5-3/4,17,133,12 11 7,0.56.55,1080,TT,,帆哥兒
16,17,709,05,31/05/20,"沙田草地""B""                                    ",1200,好,2,7,82,方嘉柏,楊明綸,2-1/2,58,119,9 9 5,1.08.65,1066,TT,,帆哥兒
17,18,678,04,20/05/20,"跑馬地草地""C+3""                                    ",1200,好/快,2,2,84,方嘉柏,楊明綸,2-3/4,25,117,6 6 4,1.09.23,1075,TT,,帆哥兒
18,19,648,04,09/05/20,"沙田草地""C""                                    ",1000,好/快,2,5,84,方嘉柏,郭能,1-3/4,33,121,12 11 4,0.55.36,1090,TT,,帆哥兒
19,20,591,08,19/04/20,沙田全天候                                    ,1200,好,2,11,85,方嘉柏,潘頓,8-3/4,22,122,11 11 8,1.08.66,1084,TT,,帆哥兒
20,21,562,04,08/04/20,"跑馬地草地""B""                                    ",1000,好,2,9,85,方嘉柏,莫雷拉,1-3/4,32,122,10 9 4,0.56.93,1079,TT,,帆哥兒
21,22,264,08,18/12/19,"跑馬地草地""C+3""                                    ",1200,好/快,2,10,85,方嘉柏,史卓豐,5-1/2,58,120,10 8 8,1.09.51,1067,B-/H-/TT,,帆哥兒
22,23,215,07,01/12/19,沙田全天候                                    ,1200,好,2,4,85,方嘉柏,莫雷拉,5-1/2,5.5,118,8 8 7,1.08.79,1073,B/H/TT,,帆哥兒
23,24,132,01,27/10/19,沙田全天候                                    ,1200,好,3,3,80,方嘉柏,薛恩,頭位,7.1,133,3 3 1,1.09.17,1081,B/H/TT,,帆哥兒
24,25,95,11,12/10/19,"沙田草地""C""                                    ",1000,好/快,2,10,81,方嘉柏,楊明綸,7,18,114,12 9 11,0.55.81,1085,B/H/TT,,帆哥兒
25,26,18,04,08/09/19,沙田全天候                                    ,1200,好,2,2,81,方嘉柏,田泰安,1-1/4,28,117,4 4 4,1.08.34,1089,B/H/TT,,帆哥兒
26,27,794,02,07/07/19,"沙田草地""C""                                    ",1000,好/快,3,10,80,方嘉柏,潘頓,1-1/4,5.1,133,5 4 2,0.55.29,1072,H/B1/TT,,帆哥兒
27,28,713,11,02/06/19,"沙田草地""B""                                    ",1200,好/快,2,9,82,方嘉柏,黃皓楠,5,34,113,4 8 11,1.10.04,1064,H/TT,,帆哥兒
28,29,572,05,10/04/19,"跑馬地草地""A""                                    ",1200,好,3,9,82,方嘉柏,潘頓,2-3/4,5.2,130,8 8 5,1.10.26,1073,H/TT,,帆哥兒
29,30,525,03,24/03/19,"沙田草地""C+3""                                    ",1000,好,3,10,80,方嘉柏,夏禮賢                                    ,3/4,9.2,133,9 8 4,0.56.68,1062,H/TT,,帆哥兒
30,31,482,WV,10/03/19,"沙田草地""C+3""                                    ",1000,好,3,--,80,方嘉柏,黃俊,--,--,126,--,--,--,--,--,帆哥兒
31,32,412,02,10/02/19,"沙田草地""A""                                    ",1000,好,3,10,79,方嘉柏,韋達                                    ,1/2,10,132,9 6 2,0.57.47,1058,H/TT,,帆哥兒
32,33,383,09,30/01/19,"跑馬地草地""A""                                    ",1200,好,2,11,80,方嘉柏,巴度,6-1/4,29,118,11 11 9,1.10.95,1055,H/TT,,帆哥兒
33,34,345,04,16/01/19,"跑馬地草地""B""                                    ",1200,好,3,4,80,方嘉柏,潘頓,1-1/4,4.2,133,4 4 4,1.10.08,1061,H/TT,,帆哥兒
34,35,198,02,21/11/18,"跑馬地草地""C+3""                                    ",1200,好,3,11,79,方嘉柏,潘頓,頸位,8.1,133,6 6 2,1.10.46,1060,H/TT,,帆哥兒
35,36,133,10,28/10/18,"跑馬地草地""A""                                    ",1650,好,2,10,81,方嘉柏,史卓豐,18-1/4,22,117,2 3 5 10,1.43.50,1068,H/TT,,帆哥兒
36,37,82,11,07/10/18,"沙田草地""B+2""                                    ",1400,好,2,7,83,方嘉柏,李寶利,5-3/4,42,118,10 9 10 11,1.22.94,1077,H/TT,,帆哥兒
37,38,795,10,11/07/18,"跑馬地草地""A""                                    ",1200,好/快,2,6,86,方嘉柏,賴維銘                                    ,5-1/2,13,115,9 9 10,1.09.90,1040,H/TT,,帆哥兒
38,39,766,10,01/07/18,"沙田草地""B""                                    ",1200,好,2,3,86,方嘉柏,沈拿,8,25,123,8 9 10,1.10.34,1059,H/TT,,帆哥兒
39,40,730,02,13/06/18,"跑馬地草地""B""                                    ",1200,好,2,3,82,方嘉柏,沈拿,2-1/4,44,115,7 5 2,1.09.47,1044,H/TT,,帆哥兒
40,41,648,07,12/05/18,"沙田草地""C""                                    ",1000,好,2,1,82,方嘉柏,吳嘉晉                                    ,3-1/4,311,110,6 6 7,0.55.97,1058,H/TT,,帆哥兒
41,42,486,07,11/03/18,沙田全天候                                    ,1650,好,2,4,84,方嘉柏,楊明綸,9-1/4,63,117,6 6 5 7,1.39.57,1043,H/TT,,帆哥兒
42,43,443,10,21/02/18,"跑馬地草地""C""                                    ",1200,好,1,6,86,方嘉柏,蔡明紹,6-3/4,91,113,7 7 10,1.10.18,1036,H/TT,,帆哥兒
43,44,418,11,10/02/18,"沙田草地""C+3""                                    ",1200,好,2,11,86,方嘉柏,巴度,8-3/4,25,116,7 6 11,1.10.12,1050,H1/TT1,,帆哥兒
