,Unnamed: 0,場次,名次,日期,馬場/跑道/賽道,途程,場地狀況,賽事班次,檔位,評分,練馬師,騎師,頭馬距離,獨贏賠率,實際負磅,沿途走位,完成時間,排位體重,配備,賽事重播,馬名
0,1,719,8,02/06/21,"跑馬地草地""A""                                    ",1000,好,5,2,38,羅富全,潘頓,5-1/2,6.5,131,2 2 8,0.57.97,1186,--,,常勝心
1,2,606,11,21/04/21,"跑馬地草地""C""                                    ",1200,好/快,5,4,40,羅富全,何澤堯,5,7.8,133,7 7 11,1.11.35,1209,--,,常勝心
2,3,576,6,11/04/21,"沙田草地""C""                                    ",1400,好,5,4,40,羅富全,潘明輝,3,25.0,129,1 1 1 6,1.22.77,1202,--,,常勝心
3,4,527,2,24/03/21,"跑馬地草地""C+3""                                    ",1000,好/快,5,1,40,羅富全,潘頓,1/2,4.2,133,4 4 2,0.56.98,1204,--,,常勝心
4,5,492,10,10/03/21,"跑馬地草地""B""                                    ",1200,好,4,6,42,羅富全,潘明輝,10-1/2,66.0,113,7 6 10,1.11.75,1200,--,,常勝心
5,6,405,10,06/02/21,"沙田草地""C""                                    ",1200,好,4,8,44,羅富全,蔡明紹,12-1/2,74.0,117,5 8 10,1.11.26,1200,--,,常勝心
6,7,356,11,20/01/21,"跑馬地草地""C""                                    ",1200,好,4,11,46,羅富全,潘明輝,9-3/4,20.0,118,5 7 11,1.11.32,1192,--,,常勝心
7,8,289,11,23/12/20,"跑馬地草地""C+3""                                    ",1000,好,4,5,48,羅富全,梁家俊,4-1/4,10.0,121,10 10 11,0.57.73,1193,--,,常勝心
8,9,252,8,09/12/20,"跑馬地草地""B""                                    ",1000,好,4,7,48,羅富全,郭能,3,3.9,122,3 2 8,0.57.69,1194,--,,常勝心
9,10,169,2,08/11/20,"跑馬地草地""A""                                    ",1000,好,4,7,47,羅富全,郭能,3/4,5.2,122,3 4 2,0.57.52,1200,--,,常勝心
10,11,106,6,14/10/20,"跑馬地草地""B""                                    ",1000,好,4,7,49,羅富全,郭能,2-3/4,15.0,123,2 3 6,0.57.33,1189,--,,常勝心
11,12,39,9,20/09/20,"沙田草地""B+2""                                    ",1000,好,4,4,51,羅富全,郭能,8-1/4,22.0,124,4 5 9,0.56.71,1175,--,,常勝心
12,13,804,4,08/07/20,"跑馬地草地""A""                                    ",1000,好,4,11,53,羅富全,郭能,3,17.0,126,2 4 4,0.57.58,1205,--,,常勝心
13,14,715,11,03/06/20,"跑馬地草地""A""                                    ",1000,好,4,7,53,羅富全,郭能,7-1/4,9.9,130,5 9 11,0.58.14,1206,--,,常勝心
14,15,655,2,13/05/20,"跑馬地草地""C""                                    ",1000,好,4,2,51,羅富全,郭能,短馬頭位,5.6,126,5 4 2,0.57.53,1207,--,,常勝心
15,16,616,10,29/04/20,"跑馬地草地""A""                                    ",1200,好/快,4,5,53,羅富全,黃俊,5-3/4,10.0,123,2 4 10,1.10.44,1211,V-,,常勝心
16,17,557,10,08/04/20,"跑馬地草地""B""                                    ",1200,好,4,8,54,羅富全,郭能,3,7.6,127,1 2 10,1.10.94,1223,B-/V1,,常勝心
17,18,521,3,25/03/20,"跑馬地草地""A""                                    ",1000,好,4,6,54,羅富全,郭能,1-1/4,6.8,128,2 3 3,0.57.86,1224,B1,,常勝心
18,19,486,4,11/03/20,"跑馬地草地""C""                                    ",1200,好,4,5,53,羅富全,郭能,1/2,5.5,128,3 4 4,1.10.56,1221,CP-,,常勝心
19,20,448,10,26/02/20,"跑馬地草地""A""                                    ",1000,好,4,2,54,羅富全,史卓豐,4-3/4,8.0,127,5 6 10,0.57.60,1231,CP1,,常勝心
20,21,394,4,05/02/20,"跑馬地草地""C""                                    ",1200,好,4,6,54,羅富全,潘頓,2,3.3,128,3 4 4,1.10.14,1220,--,,常勝心
21,22,356,3,22/01/20,"跑馬地草地""A""                                    ",1000,好,4,6,52,羅富全,潘頓,短馬頭位,5.1,128,2 2 3,0.57.27,1224,--,,常勝心
22,23,304,8,05/01/20,"沙田草地""C+3""                                    ",1000,好,4,8,52,羅富全,潘頓,3-1/4,4.8,127,3 3 8,0.57.52,1230,--,,常勝心
