,Unnamed: 0,場次,名次,日期,馬場/跑道/賽道,途程,場地狀況,賽事班次,檔位,評分,練馬師,騎師,頭馬距離,獨贏賠率,實際負磅,沿途走位,完成時間,排位體重,配備,賽事重播,馬名
0,1,725,08,02/06/21,"跑馬地草地""A""                                    ",1200,好,3,11,71,蔡約翰,賀銘年,2-3/4,16,126,1 1 8,1.10.11,1111,--,,平海歡星
1,2,686,01,19/05/21,"跑馬地草地""B""                                    ",1200,好/快,3,9,65,蔡約翰,賀銘年,3/4,42,122,1 1 1,1.09.15,1112,--,,平海歡星
2,3,649,10,05/05/21,"跑馬地草地""A""                                    ",1200,好/快,3,9,67,蔡約翰,賀銘年,6,24,123,4 4 10,1.10.31,1101,--,,平海歡星
3,4,611,04,21/04/21,"跑馬地草地""C""                                    ",1200,好/快,3,1,67,蔡約翰,賀銘年,1-1/2,17,123,4 3 4,1.09.71,1099,--,,平海歡星
4,5,126,05,21/10/20,"跑馬地草地""C""                                    ",1000,好/快,3,3,69,蔡約翰,賀銘年,2,17,122,9 8 5,0.56.94,1102,--,,平海歡星
5,6,91,09,07/10/20,"跑馬地草地""A""                                    ",1200,好,3,6,71,蔡約翰,史卓豐,3,16,129,7 7 9,1.10.63,1085,--,,平海歡星
6,7,765,09,24/06/20,"跑馬地草地""C""                                    ",1200,好/快,3,8,73,蔡約翰,梁家俊,8-3/4,33,126,10 10 9,1.10.10,1083,--,,平海歡星
7,8,736,11,10/06/20,"跑馬地草地""B""                                    ",1200,好/快,3,9,73,蔡約翰,郭能,15-1/4,15,130,9 9 11,1.11.84,1078,--,,平海歡星
8,9,677,WV-A,20/05/20,"跑馬地草地""C+3""                                    ",1200,好/快,3,--,73,蔡約翰,郭能,--,--,126,--,--,--,--,--,平海歡星
9,10,639,02,06/05/20,"跑馬地草地""B""                                    ",1200,好/快,3,9,71,蔡約翰,郭能,1/2,19,126,9 7 2,1.09.45,1086,--,,平海歡星
10,11,600,06,22/04/20,"跑馬地草地""C+3""                                    ",1200,好/黏,3,9,71,蔡約翰,史卓豐,4,6.1,127,9 9 6,1.11.91,1090,--,,平海歡星
11,12,559,02,08/04/20,"跑馬地草地""B""                                    ",1200,好,3,3,69,蔡約翰,史卓豐,1,9.8,123,4 4 2,1.09.57,1090,--,,平海歡星
12,13,471,09,04/03/20,"跑馬地草地""B""                                    ",1200,好,3,9,69,蔡約翰,潘明輝,8,15,120,9 9 9,1.10.95,1086,--,,平海歡星
13,14,416,01,12/02/20,"跑馬地草地""C+3""                                    ",1200,好/快,3,2,63,蔡約翰,潘明輝,1/2,160,115,6 5 1,1.09.14,1098,--,,平海歡星
14,15,347,14,19/01/20,"沙田草地""A+3""                                    ",1200,好,3,10,65,蔡約翰,郭能,4-1/4,144,120,7 7 14,1.10.00,1100,--,,平海歡星
15,16,306,08,05/01/20,"沙田草地""C+3""                                    ",1000,好,3,4,67,蔡約翰,莫雷拉,4-1/4,22,124,3 3 8,0.57.11,1093,P-,,平海歡星
16,17,790,09,07/07/19,沙田全天候                                    ,1200,好,3,7,71,蔡約翰,莫雷拉,11-1/2,5.1,126,1 1 9,1.11.14,1066,P1,,平海歡星
17,18,757,09,23/06/19,"沙田草地""A""                                    ",1000,好/快,3,13,73,蔡約翰,莫雷拉,8-3/4,17,126,7 7 9,0.56.79,1077,--,,平海歡星
18,19,731,10,08/06/19,"沙田草地""C""                                    ",1200,好/快,3,8,73,蔡約翰,莫雷拉,10-1/2,5,126,4 3 10,1.10.79,1073,--,,平海歡星
