,Unnamed: 0,場次,名次,日期,馬場/跑道/賽道,途程,場地狀況,賽事班次,檔位,評分,練馬師,騎師,頭馬距離,獨贏賠率,實際負磅,沿途走位,完成時間,排位體重,配備,賽事重播,馬名
0,1,472,11,03/03/21,"跑馬地草地""A""                                    ",1200,好,4,9,41,徐雨石,蔡明紹,6-1/4,71,115,9 9 11,1.11.04,984,SR,,幸運拼圖
1,2,425,11,14/02/21,"沙田草地""A""                                    ",1200,好,4,7,44,徐雨石,巫顯東,7-3/4,51,115,11 13 11,1.10.97,979,SR2,,幸運拼圖
2,3,319,8,06/01/21,"跑馬地草地""A""                                    ",1650,好,4,1,46,徐雨石,潘明輝,4-1/2,38,118,7 9 11 8,1.41.52,995,B-,,幸運拼圖
3,4,68,8,01/10/20,"沙田草地""B""                                    ",1200,好,4,5,48,徐雨石,田泰安,6-1/4,13,125,8 7 8,1.10.42,969,B,,幸運拼圖
4,5,21,6,13/09/20,沙田全天候                                    ,1200,好,4,10,50,徐雨石,梁家俊,7-1/4,18,124,10 9 6,1.10.13,976,B,,幸運拼圖
5,6,810,7,12/07/20,"沙田草地""A""                                    ",1200,好/快,4,2,53,徐雨石,田泰安,2-3/4,17,128,6 8 7,1.09.70,968,B,,幸運拼圖
6,7,752,6,21/06/20,"沙田草地""A""                                    ",1200,好/快,4,12,55,徐雨石,黃皓楠,3-1/2,124,126,13 13 6,1.09.74,969,B1,,幸運拼圖
7,8,680,11,24/05/20,"沙田草地""A""                                    ",1400,好,4,10,58,徐雨石,薛恩,7-3/4,138,131,2 5 5 11,1.23.11,987,--,,幸運拼圖
8,9,589,7,19/04/20,"沙田草地""C+3""                                    ",1200,好,3,7,60,徐雨石,巫顯東,4,413,110,6 6 7,1.09.30,976,--,,幸運拼圖
9,10,571,13,12/04/20,"沙田草地""C""                                    ",1000,好,3,13,63,徐雨石,黃皓楠,12,127,117,10 13 13,0.57.89,988,SR-,,幸運拼圖
10,11,533,14,29/03/20,"沙田草地""A+3""                                    ",1000,好,3,5,66,徐雨石,波健士,14-1/4,180,119,14 13 14,0.58.69,995,SR,,幸運拼圖
11,12,439,10,23/02/20,"沙田草地""A+3""                                    ",1200,好,3,8,68,徐雨石,蔡明紹,7,102,125,6 8 10,1.10.81,1009,H-/SR1,,幸運拼圖
12,13,388,7,02/02/20,"沙田草地""C""                                    ",1000,好,3,8,70,徐雨石,黃皓楠,4,452,124,13 13 7,0.57.16,1020,H1,,幸運拼圖
13,14,301,12,01/01/20,"沙田草地""C""                                    ",1200,好,3,9,70,徐雨石,利敬國,12-3/4,54,127,11 11 12,1.11.22,1014,--,,幸運拼圖
