,Unnamed: 0,場次,名次,日期,馬場/跑道/賽道,途程,場地狀況,賽事班次,檔位,評分,練馬師,騎師,頭馬距離,獨贏賠率,實際負磅,沿途走位,完成時間,排位體重,配備,賽事重播,馬名
0,1,667,2,12/05/21,沙田全天候                                    ,1650,好,4,12,42,蘇偉賢,巴度,9,66,115,13 13 14 2,1.39.22,1160,TT,,彪形遨漢
1,2,598,11,17/04/21,沙田全天候                                    ,1650,好,4,12,44,蘇偉賢,蔡明紹,8-1/2,39,118,12 12 10 11,1.40.37,1175,TT,,彪形遨漢
2,3,500,6,13/03/21,沙田全天候                                    ,1800,好,4,7,46,蘇偉賢,蔡明紹,2-1/2,47,119,10 10 10 6 6,1.48.75,1162,TT,,彪形遨漢
3,4,452,7,24/02/21,"跑馬地草地""C+3""                                    ",1650,好/快,4,8,48,蘇偉賢,賀銘年,3,40,121,9 9 7 7,1.40.99,1165,TT,,彪形遨漢
4,5,407,8,06/02/21,沙田全天候                                    ,1650,好,4,4,50,蘇偉賢,彭國年,5-1/2,113,124,6 8 8 8,1.39.75,1164,TT,,彪形遨漢
5,6,366,12,24/01/21,"沙田草地""A+3""                                    ",1400,好,4,7,52,蘇偉賢,彭國年,5-3/4,119,125,6 7 8 12,1.22.91,1175,TT,,彪形遨漢
6,7,306,12,01/01/21,"沙田草地""B+2""                                    ",1200,好,4,4,52,蘇偉賢,賀銘年,7-1/4,25,126,9 12 12,1.10.85,1173,TT1,,彪形遨漢
