,Unnamed: 0,場次,名次,日期,馬場/跑道/賽道,途程,場地狀況,賽事班次,檔位,評分,練馬師,騎師,頭馬距離,獨贏賠率,實際負磅,沿途走位,完成時間,排位體重,配備,賽事重播,馬名
0,1,694,3,23/05/21,"沙田草地""A""                                    ",1600,好/快,4,5,55,葉楚航,潘明輝,3/4,13.0,126,9 10 12 3,1.35.56,1140,XB/TT,,影疾
1,2,656,5,08/05/21,"沙田草地""C""                                    ",1800,好/快,4,10,55,葉楚航,莫雷拉,4-1/2,3.8,128,8 9 10 10 5,1.48.35,1124,XB/TT,,影疾
2,3,561,2,05/04/21,"沙田草地""B+2""                                    ",1600,好,4,6,53,葉楚航,莫雷拉,1/2,4.9,126,9 8 6 2,1.34.70,1126,XB/TT,,影疾
3,4,521,6,21/03/21,"沙田草地""A""                                    ",1600,好,4,7,54,葉楚航,梁家俊,2,13.0,127,14 14 13 6,1.35.61,1119,XB/TT,,影疾
4,5,463,3,28/02/21,"沙田草地""B+2""                                    ",1400,好,4,8,54,葉楚航,梁家俊,1-1/4,7.7,129,12 12 11 3,1.22.34,1114,XB/TT,,影疾
5,6,438,9,17/02/21,"跑馬地草地""C""                                    ",1650,好,4,8,54,葉楚航,蔡明紹,3-1/2,14.0,127,10 11 10 9,1.40.66,1124,XB/TT,,影疾
6,7,390,4,31/01/21,"沙田草地""B+2""                                    ",1400,好,4,14,53,葉楚航,梁家俊,1/2,38.0,127,13 14 12 4,1.22.30,1131,XB/TT,,影疾
7,8,307,6,01/01/21,"沙田草地""B+2""                                    ",1400,好,4,11,54,葉楚航,梁家俊,3-1/2,12.0,128,14 14 11 6,1.23.17,1116,XB/TT,,影疾
8,9,223,3,29/11/20,沙田全天候                                    ,1200,好,4,6,54,葉楚航,梁家俊,1,18.0,127,8 8 3,1.09.39,1106,XB/TT,,影疾
9,10,701,5,31/05/20,"沙田草地""B""                                    ",1000,好,4,8,54,葉楚航,賀銘年,6-3/4,22.0,127,12 12 5,0.56.66,1112,XB/TT,,影疾
10,11,552,14,05/04/20,"沙田草地""B+2""                                    ",1200,好,4,4,54,葉楚航,潘頓,14-1/2,5.7,127,11 10 14,1.12.40,1094,XB/TT,,影疾
11,12,399,1,08/02/20,"沙田草地""C+3""                                    ",1000,好,4,13,48,葉楚航,潘頓,3/4,8.8,124,11 14 1,0.57.18,1087,B-/XB1/TT,,影疾
12,13,294,9,01/01/20,"沙田草地""C""                                    ",1200,好,4,6,50,葉楚航,郭能,3-3/4,15.0,125,5 7 9,1.10.73,1083,B/TT,,影疾
13,14,220,10,04/12/19,"跑馬地草地""B""                                    ",1200,好,4,3,52,葉楚航,利敬國,4,5.1,127,4 4 10,1.10.79,1106,B1/TT,,影疾
14,15,88,5,12/10/19,"沙田草地""C""                                    ",1000,好/快,4,11,52,葉楚航,利敬國,5-1/4,47.0,125,8 8 5,0.56.89,1072,TT1,,影疾
