,Unnamed: 0,場次,名次,日期,馬場/跑道/賽道,途程,場地狀況,賽事班次,檔位,評分,練馬師,騎師,頭馬距離,獨贏賠率,實際負磅,沿途走位,完成時間,排位體重,配備,賽事重播,馬名
0,1,683,9,19/05/21,"跑馬地草地""B""                                    ",1200,好/快,4,2,52,蘇保羅,蔡明紹,4,42,125,5 6 9,1.10.50,1077,XB,,得福
1,2,629,10,28/04/21,"跑馬地草地""C+3""                                    ",1200,好,4,7,52,蘇保羅,潘頓,4-3/4,14,125,7 7 10,1.10.91,1073,XB1,,得福
