,Unnamed: 0,場次,名次,日期,馬場/跑道/賽道,途程,場地狀況,賽事班次,檔位,評分,練馬師,騎師,頭馬距離,獨贏賠率,實際負磅,沿途走位,完成時間,排位體重,配備,賽事重播,馬名
0,1,690,13,23/05/21,"沙田草地""A""                                    ",1400,好/快,5,5,31,葉楚航,莫雷拉,13,7.1,124,5 7 7 13,1.23.99,1055,--,,得賞
1,2,606,09,21/04/21,"跑馬地草地""C""                                    ",1200,好/快,5,9,33,葉楚航,梁家俊,5,21,126,12 12 9,1.11.33,1046,--,,得賞
2,3,576,03,11/04/21,"沙田草地""C""                                    ",1400,好,5,3,34,葉楚航,潘頓,1-3/4,4.9,125,7 9 6 3,1.22.57,1045,--,,得賞
3,4,482,10,07/03/21,"沙田草地""C""                                    ",1400,好,5,13,36,葉楚航,潘頓,5,4.7,129,14 12 7 10,1.23.96,1042,--,,得賞
4,5,384,04,31/01/21,"沙田草地""B+2""                                    ",1400,好,5,14,36,葉楚航,蘇銘倫,1-1/4,12,129,14 14 13 4,1.22.72,1062,--,,得賞
5,6,327,08,10/01/21,"沙田草地""C""                                    ",1400,好,5,13,36,葉楚航,潘頓,6-1/4,8.7,129,13 13 11 8,1.24.07,1043,--,,得賞
6,7,222,09,29/11/20,"沙田草地""C""                                    ",1400,好,5,7,38,葉楚航,梁家俊,4,16,131,7 6 8 9,1.22.79,1041,--,,得賞
7,8,186,06,14/11/20,"沙田草地""C+3""                                    ",1200,好,4,1,40,葉楚航,黃俊,3-3/4,22,113,8 6 6,1.10.00,1044,V-,,得賞
8,9,152,07,01/11/20,"沙田草地""A""                                    ",1200,好/快,4,12,42,葉楚航,潘明輝,5-1/4,32,113,11 11 7,1.09.81,1047,V1,,得賞
9,10,104,09,14/10/20,"跑馬地草地""B""                                    ",1650,好,4,10,43,葉楚航,潘明輝,4-1/4,35,115,12 12 12 9,1.40.07,1044,--,,得賞
10,11,57,04,27/09/20,"沙田草地""A""                                    ",1400,好,4,3,43,葉楚航,梁家俊,1-1/4,14,116,5 4 4 4,1.22.84,1044,--,,得賞
11,12,15,10,09/09/20,"跑馬地草地""B""                                    ",1200,好,4,7,44,葉楚航,莫雷拉,3,23,117,12 9 10,1.10.17,1040,--,,得賞
12,13,795,03,05/07/20,"沙田草地""C+3""                                    ",1400,好/快,4,12,44,葉楚航,蘇狄雄,4-1/4,86,117,14 14 14 3,1.21.49,1021,--,,得賞
13,14,734,12,10/06/20,"跑馬地草地""B""                                    ",1200,好/快,4,3,44,葉楚航,賀銘年,69-3/4,11,117,10 12 12,1.20.71,1021,--,,得賞
14,15,653,01,13/05/20,"跑馬地草地""C""                                    ",1200,好,5,12,39,葉楚航,賀銘年,短馬頭位,16,133,11 11 1,1.10.48,1034,--,,得賞
15,16,532,06,29/03/20,"沙田草地""A+3""                                    ",1400,好,4,7,40,葉楚航,蔡明紹,3-1/4,15,113,11 12 12 6,1.23.38,1044,--,,得賞
16,17,484,04,11/03/20,"跑馬地草地""C""                                    ",1200,好,4,3,40,葉楚航,潘明輝,2,4.8,112,8 9 4,1.10.89,1042,--,,得賞
17,18,383,06,02/02/20,"沙田草地""C""                                    ",1400,好,5,6,40,葉楚航,潘頓,2-1/2,3.1,133,9 10 9 6,1.22.65,1033,--,,得賞
18,19,247,01,15/12/19,"沙田草地""C+3""                                    ",1400,好,5,8,33,葉楚航,潘頓,2-1/4,3.6,127,6 6 6 1,1.22.16,1032,CP-,,得賞
19,20,190,07,23/11/19,"沙田草地""C""                                    ",1400,好/快,5,8,33,葉楚航,潘頓,4-3/4,4.7,126,3 4 2 7,1.22.67,1021,CP1,,得賞
20,21,105,02,20/10/19,"沙田草地""A""                                    ",1400,好,5,1,29,葉楚航,潘頓,頸位,3.4,120,8 6 5 2,1.21.94,1018,--,,得賞
21,22,789,05,07/07/19,"沙田草地""C""                                    ",1400,好,5,14,33,葉楚航,潘明輝,4,20,123,13 13 12 5,1.23.44,1008,--,,得賞
22,23,741,07,16/06/19,"沙田草地""C+3""                                    ",1600,好/快,5,13,35,葉楚航,利敬國,2-1/2,38,128,10 10 9 7,1.35.00,1006,B-/H-,,得賞
23,24,648,11,11/05/19,"沙田草地""C""                                    ",1800,好,5,2,38,葉楚航,黃俊,8-1/4,37,126,9 10 10 12 11,1.49.13,991,B/H,,得賞
24,25,630,08,05/05/19,"沙田草地""B""                                    ",1600,好,5,10,40,葉楚航,潘頓,6,7.2,133,12 11 9 8,1.36.72,1001,B/H,,得賞
25,26,604,11,24/04/19,"跑馬地草地""C""                                    ",1650,好,4,8,42,葉楚航,潘明輝,4,15,113,11 10 9 11,1.41.21,998,B/H,,得賞
26,27,447,07,24/02/19,"沙田草地""B+2""                                    ",1600,好,4,14,43,葉楚航,潘明輝,2,38,114,13 13 11 7,1.36.31,993,B/H,,得賞
27,28,349,10,20/01/19,"沙田草地""A+3""                                    ",1600,好,4,12,45,葉楚航,李寶利,8-3/4,13,122,2 3 5 10,1.36.37,999,B/H,,得賞
28,29,276,06,23/12/18,"沙田草地""A+3""                                    ",1400,好,4,11,47,葉楚航,李寶利,4,35,119,12 13 14 6,1.23.60,998,B/H,,得賞
29,30,204,08,25/11/18,"沙田草地""C""                                    ",1400,好,4,6,49,葉楚航,李寶利,5,81,123,8 10 14 8,1.23.86,1014,H/B2,,得賞
30,31,129,08,28/10/18,"跑馬地草地""A""                                    ",1200,好,4,5,51,葉楚航,李寶利,5,12,125,3 3 8,1.11.97,1037,B-/H1,,得賞
31,32,734,WV,16/06/18,"沙田草地""C+3""                                    ",1200,好/快,4,--,52,葉楚航,潘頓,--,--,126,--,--,--,--,--,得賞
32,33,640,06,12/05/18,"沙田草地""C""                                    ",1000,好,4,14,52,葉楚航,潘頓,3-3/4,4,127,8 5 6,0.57.36,1021,B1,,得賞
