,Unnamed: 0,場次,名次,日期,馬場/跑道/賽道,途程,場地狀況,賽事班次,檔位,評分,練馬師,騎師,頭馬距離,獨贏賠率,實際負磅,沿途走位,完成時間,排位體重,配備,賽事重播,馬名
0,1,616,1,25/04/21,"沙田草地""A""                                    ",1600,好,3,2,70,方嘉柏,何澤堯,頸位,9.1,128,9 8 9 1,1.34.84,1005,TT,,心中有馬
1,2,543,8,28/03/21,"沙田草地""A+3""                                    ",1600,好/快,3,8,70,方嘉柏,何澤堯,4,8.0,126,13 13 13 8,1.34.68,1001,TT,,心中有馬
2,3,507,1,13/03/21,"沙田草地""C+3""                                    ",1400,好,3,9,65,方嘉柏,何澤堯,鼻位,15.0,118,12 10 10 1,1.21.89,1003,TT,,心中有馬
3,4,373,9,24/01/21,"沙田草地""A+3""                                    ",1200,好,3,6,67,賀賢,黃皓楠,5-1/4,220.0,117,14 14 9,1.09.69,1008,TT,,心中有馬
4,5,342,11,13/01/21,"跑馬地草地""B""                                    ",1200,好,3,3,69,賀賢,黃皓楠,5,172.0,119,11 12 11,1.10.55,1004,TT,,心中有馬
5,6,312,8,01/01/21,"沙田草地""B+2""                                    ",1200,好,3,12,71,賀賢,巴度,4-1/4,186.0,125,13 14 8,1.09.93,1009,TT,,心中有馬
6,7,275,11,16/12/20,"跑馬地草地""C""                                    ",1200,好,3,7,73,賀賢,潘明輝,5,195.0,125,11 11 11,1.10.18,1010,TT,,心中有馬
7,8,200,11,18/11/20,"跑馬地草地""C""                                    ",1200,好,3,2,75,賀賢,楊明綸,9,107.0,128,10 9 11,1.10.78,1025,XB-/TT1,,心中有馬
8,9,145,9,28/10/20,"跑馬地草地""C+3""                                    ",1200,好,3,5,75,賀賢,潘明輝,5-1/2,126.0,128,8 9 9,1.10.59,1013,XB1,,心中有馬
