,Unnamed: 0,場次,名次,日期,馬場/跑道/賽道,途程,場地狀況,賽事班次,檔位,評分,練馬師,騎師,頭馬距離,獨贏賠率,實際負磅,沿途走位,完成時間,排位體重,配備,賽事重播,馬名
0,1,718,3,30/05/21,"沙田草地""B""                                    ",1200,好/快,2,8,82,文家良,巴度,1-1/4,6.4,117,3 3 3,1.08.09,1243,CP1,,必長勝
1,2,641,2,02/05/21,"沙田草地""B""                                    ",1200,好,3,7,80,文家良,潘頓,短馬頭位,2.6,133,3 4 2,1.08.91,1249,--,,必長勝
2,3,581,2,11/04/21,"沙田草地""C""                                    ",1200,好,3,4,78,文家良,周俊樂,1/2,9.1,124,2 3 2,1.08.67,1246,--,,必長勝
3,4,525,5,21/03/21,"沙田草地""A""                                    ",1200,好,3,11,78,文家良,蔡明紹,3-1/2,12.0,133,2 2 5,1.09.53,1246,--,,必長勝
4,5,468,7,28/02/21,"沙田草地""B+2""                                    ",1000,好,3,8,78,文家良,黃俊,5,4.9,127,1 2 7,0.56.78,1241,--,,必長勝
5,6,409,1,06/02/21,"沙田草地""C""                                    ",1000,好,3,11,69,文家良,蔡明紹,1-1/2,25.0,124,1 1 1,0.55.57,1227,--,,必長勝
