,Unnamed: 0,場次,名次,日期,馬場/跑道/賽道,途程,場地狀況,賽事班次,檔位,評分,練馬師,騎師,頭馬距離,獨贏賠率,實際負磅,沿途走位,完成時間,排位體重,配備,賽事重播,馬名
0,1,695,11,23/05/21,"沙田草地""A""                                    ",1400,好/快,3,6,78,韋達,潘頓,8-1/2,3.5,133,3 1 1 11,1.22.52,1121,CP/SR/XB,,志在四方
1,2,642,3,02/05/21,"沙田草地""B""                                    ",1400,好,3,11,78,韋達,周俊樂,2-1/4,12.0,126,4 2 2 3,1.22.18,1130,SR/XB/CP2,,志在四方
2,3,540,2,28/03/21,"沙田草地""A+3""                                    ",1400,好/快,3,2,77,韋達,田泰安,3/4,4.5,132,4 3 4 2,1.21.42,1140,SR/XB,,志在四方
3,4,469,2,28/02/21,"沙田草地""B+2""                                    ",1400,好,3,4,77,韋達,田泰安,2-1/4,5.9,131,3 5 5 2,1.21.55,1127,SR/XB,,志在四方
4,5,284,5,20/12/20,"沙田草地""C+3""                                    ",1600,好,3,7,77,韋達,周俊樂,3-1/2,8.3,123,11 11 9 5,1.34.27,1133,SR/XB,,志在四方
5,6,229,2,29/11/20,"沙田草地""C""                                    ",1600,好,3,1,75,韋達,周俊樂,頸位,6.7,121,6 5 2 2,1.34.24,1122,SR/XB,,志在四方
6,7,172,3,08/11/20,"跑馬地草地""A""                                    ",1650,好,3,10,76,韋達,田泰安,2-1/4,7.0,130,9 9 8 3,1.40.51,1116,SR/XB,,志在四方
7,8,73,7,01/10/20,"沙田草地""B""                                    ",1400,好,3,12,78,韋達,田泰安,6,5.6,132,10 10 9 7,1.21.90,1115,SR/XB,,志在四方
8,9,9,4,06/09/20,"沙田草地""A""                                    ",1400,好,3,10,78,韋達,史卓豐,1-1/4,7.8,131,10 10 7 4,1.21.85,1119,SR/XB,,志在四方
9,10,827,9,15/07/20,"跑馬地草地""B""                                    ",1650,好/快,2,8,81,韋達,蘇狄雄,4-1/4,30.0,114,9 8 8 9,1.39.28,1109,SR/XB,,志在四方
10,11,766,9,24/06/20,"跑馬地草地""C""                                    ",1650,好/快,2,12,83,韋達,蘇狄雄,3-3/4,20.0,115,10 10 10 9,1.39.64,1102,SR/XB,,志在四方
11,12,728,8,07/06/20,"沙田草地""C""                                    ",1400,黏,2,12,85,韋達,周俊樂,4,13.0,112,9 9 7 8,1.22.95,1106,SR/XB,,志在四方
12,13,667,6,17/05/20,"沙田草地""C+3""                                    ",1800,好/快,2,4,86,韋達,史卓豐,3-1/4,9.0,123,7 8 9 8 6,1.48.02,1104,SR/XB,,志在四方
13,14,611,3,26/04/20,"沙田草地""A""                                    ",1600,好,2,11,86,韋達,蘇狄雄,1-1/2,121.0,115,10 11 11 3,1.34.49,1104,P-/XB/SR1,,志在四方
14,15,544,11,01/04/20,沙田全天候                                    ,1650,濕慢,2,6,87,韋達,蔡明紹,17,73.0,124,10 12 12 11,1.40.63,1103,CP-/XB/P1,,志在四方
15,16,518,11,22/03/20,"沙田草地""A""                                    ",1400,好/快,2,7,87,韋達,薛恩,7-3/4,67.0,122,9 5 5 11,1.22.34,1099,CP/XB,,志在四方
16,17,426,13,16/02/20,"沙田草地""A""                                    ",1400,好,2,9,87,韋達,田泰安,12,4.6,123,7 7 8 13,1.23.73,1106,CP/XB1,,志在四方
17,18,77,1,06/10/19,"沙田草地""B+2""                                    ",1400,好/黏,2,7,80,韋達,沈拿,3/4,7.6,117,4 4 4 1,1.21.06,1104,H-/CP1,,志在四方
18,19,759,4,23/06/19,"沙田草地""A""                                    ",1600,好/快,3,8,79,約翰摩亞,潘頓,1/2,2.0,132,8 8 8 4,1.34.17,1124,H,,志在四方
19,20,674,1,18/05/19,"沙田草地""C+3""                                    ",1600,好/快,3,6,72,約翰摩亞,潘頓,1-1/4,2.3,125,7 8 6 1,1.34.14,1112,H,,志在四方
20,21,619,6,28/04/19,"沙田草地""A""                                    ",1400,好,3,3,72,約翰摩亞,潘頓,1-1/2,3.2,125,4 5 6 6,1.22.10,1120,H,,志在四方
21,22,565,3,07/04/19,"沙田草地""B+2""                                    ",1400,好/快,3,6,71,約翰摩亞,梁家俊,3/4,12.0,126,9 12 13 3,1.22.32,1132,H,,志在四方
22,23,505,4,17/03/19,"沙田草地""A""                                    ",1400,好,3,4,71,約翰摩亞,布文,1-1/4,11.0,127,7 8 7 4,1.22.23,1132,H1,,志在四方
23,24,469,10,02/03/19,"沙田草地""C""                                    ",1400,好,3,1,71,約翰摩亞,李寶利,6,6.5,128,4 3 3 10,1.23.09,1133,--,,志在四方
24,25,414,4,10/02/19,"沙田草地""A""                                    ",1400,好,3,14,70,約翰摩亞,韋達                                    ,1-1/4,7.1,123,10 10 8 4,1.22.28,1133,--,,志在四方
