,Unnamed: 0,場次,名次,日期,馬場/跑道/賽道,途程,場地狀況,賽事班次,檔位,評分,練馬師,騎師,頭馬距離,獨贏賠率,實際負磅,沿途走位,完成時間,排位體重,配備,賽事重播,馬名
0,1,653,12,08/05/21,"沙田草地""C""                                    ",1200,好/快,5,7,38,霍利時,波健士,7-1/4,46.0,132,6 8 12,1.10.76,1054,--,,怡威
1,2,460,13,28/02/21,"沙田草地""B+2""                                    ",1200,好,5,13,39,霍利時,莫雷拉,9-1/4,12.0,133,14 14 13,1.11.30,1060,--,,怡威
2,3,402,6,06/02/21,"沙田草地""C""                                    ",1200,好,5,11,40,霍利時,郭能,1-3/4,45.0,133,9 8 6,1.10.37,1061,--,,怡威
3,4,319,10,06/01/21,"跑馬地草地""A""                                    ",1650,好,4,11,42,霍利時,黎海榮,6-1/4,48.0,116,1 3 4 10,1.41.80,1075,--,,怡威
4,5,253,10,09/12/20,"跑馬地草地""B""                                    ",1650,好,4,11,44,霍利時,何澤堯,4-1/2,42.0,118,3 3 4 10,1.41.03,1059,--,,怡威
5,6,195,5,18/11/20,"跑馬地草地""C""                                    ",1650,好,4,3,44,霍利時,田泰安,2-1/2,4.7,119,4 4 3 5,1.40.70,1060,--,,怡威
6,7,125,2,21/10/20,"跑馬地草地""C""                                    ",1650,好/快,4,7,42,霍利時,黎海榮,頸位,29.0,116,1 1 1 2,1.40.64,1052,--,,怡威
7,8,86,7,07/10/20,"跑馬地草地""A""                                    ",1650,好,4,1,44,霍利時,黎海榮,4,17.0,121,2 3 2 7,1.40.74,1044,--,,怡威
8,9,805,3,08/07/20,"跑馬地草地""A""                                    ",1650,好,4,6,46,霍利時,黎海榮,3-1/4,123.0,118,3 2 2 3,1.40.57,1038,--,,怡威
9,10,742,8,14/06/20,"沙田草地""C+3""                                    ",1400,好/快,4,1,50,霍利時,薛恩,8-1/4,110.0,123,9 9 9 8,1.22.74,1033,--,,怡威
10,11,692,11,27/05/20,沙田全天候                                    ,1200,好,4,9,55,霍利時,薛恩,18-1/4,226.0,129,7 10 11,1.11.63,1034,--,,怡威
11,12,634,11,06/05/20,"跑馬地草地""B""                                    ",1200,好/快,4,6,59,霍利時,薛恩,7-1/2,131.0,133,6 8 11,1.10.94,1024,TT-,,怡威
12,13,572,14,12/04/20,"沙田草地""C""                                    ",1400,好,3,5,63,霍利時,楊明綸,13-1/2,473.0,118,6 6 9 14,1.23.44,1023,TT,,怡威
13,14,534,14,29/03/20,"沙田草地""A+3""                                    ",1400,好,3,1,67,霍利時,黃俊,18,483.0,115,1 1 2 14,1.25.28,1024,TT,,怡威
14,15,416,11,12/02/20,"跑馬地草地""C+3""                                    ",1200,好/快,3,7,70,霍利時,希威森,9-1/2,440.0,124,5 7 11,1.10.64,1026,TT,,怡威
15,16,339,11,15/01/20,"跑馬地草地""C+3""                                    ",1650,好,3,4,73,霍利時,郭能,7,156.0,126,6 7 8 11,1.39.74,1025,TT,,怡威
16,17,283,11,26/12/19,"跑馬地草地""A""                                    ",1200,好,3,10,76,霍利時,希威森,7-1/2,310.0,130,11 11 11,1.10.71,1033,TT,,怡威
17,18,229,13,08/12/19,"沙田草地""A""                                    ",1200,好,3,4,78,霍利時,李寶利,7-1/4,311.0,131,11 10 13,1.10.17,1029,TT,,怡威
18,19,169,13,09/11/19,"沙田草地""A""                                    ",1400,好/快,3,7,80,霍利時,巴度,12-1/4,175.0,133,11 12 13 13,1.23.34,1021,TT1,,怡威
19,20,65,11,01/10/19,"沙田草地""A+3""                                    ",1200,好/快,3,8,80,霍利時,李寶利,7-1/4,113.0,133,10 9 11,1.09.48,1015,--,,怡威
