,Unnamed: 0,場次,名次,日期,馬場/跑道/賽道,途程,場地狀況,賽事班次,檔位,評分,練馬師,騎師,頭馬距離,獨贏賠率,實際負磅,沿途走位,完成時間,排位體重,配備,賽事重播,馬名
0,1,690,12,23/05/21,"沙田草地""A""                                    ",1400,好/快,5,6,35,徐雨石,潘明輝,9-1/2,12.0,126,3 4 6 12,1.23.44,1036,B1/H2,,愛逍遙
1,2,623,8,28/04/21,"跑馬地草地""C+3""                                    ",1650,好,5,10,37,徐雨石,潘明輝,7-3/4,8.0,128,2 1 1 8,1.41.06,1044,--,,愛逍遙
2,3,571,7,08/04/21,"跑馬地草地""A""                                    ",1650,好/快,4,11,40,徐雨石,楊明綸,3-1/2,10.0,113,1 1 1 7,1.41.22,1028,--,,愛逍遙
3,4,560,12,05/04/21,"沙田草地""B+2""                                    ",1400,好,4,14,40,徐雨石,楊明綸,13,46.0,113,6 6 7 12,1.23.59,1037,--,,愛逍遙
4,5,490,4,10/03/21,"跑馬地草地""B""                                    ",1650,好,4,6,42,徐雨石,莫雷拉,4,2.8,116,4 3 2 4,1.40.71,1044,--,,愛逍遙
5,6,438,6,17/02/21,"跑馬地草地""C""                                    ",1650,好,4,12,44,徐雨石,何澤堯,2-1/4,29.0,117,7 3 2 6,1.40.43,1054,--,,愛逍遙
6,7,379,4,27/01/21,"跑馬地草地""C+3""                                    ",1650,好,4,11,46,徐雨石,潘頓,3-1/2,9.1,121,2 2 2 4,1.40.46,1054,--,,愛逍遙
7,8,300,6,26/12/20,沙田全天候                                    ,1650,好,4,9,48,徐雨石,潘頓,7-1/2,10.0,121,2 3 2 6,1.40.48,1070,--,,愛逍遙
8,9,251,6,09/12/20,"跑馬地草地""B""                                    ",1650,好,4,8,48,徐雨石,史卓豐,3-1/4,21.0,122,5 2 2 6,1.40.60,1070,--,,愛逍遙
9,10,195,2,18/11/20,"跑馬地草地""C""                                    ",1650,好,4,5,46,徐雨石,莫雷拉,3/4,7.7,121,2 2 1 2,1.40.43,1073,--,,愛逍遙
10,11,144,5,28/10/20,"跑馬地草地""C+3""                                    ",1650,好,4,1,48,徐雨石,史卓豐,2,15.0,122,5 8 8 5,1.40.72,1068,--,,愛逍遙
11,12,94,5,11/10/20,"沙田草地""A+3""                                    ",1400,好,4,7,48,徐雨石,史卓豐,2,43.0,123,7 6 7 5,1.22.19,1060,--,,愛逍遙
12,13,41,6,20/09/20,"沙田草地""B+2""                                    ",1200,好/快,4,6,50,徐雨石,黃皓楠,4-1/2,330.0,120,11 11 6,1.09.38,1062,--,,愛逍遙
13,14,781,13,01/07/20,"沙田草地""C""                                    ",1400,好/快,4,8,57,徐雨石,巫顯東,10,171.0,127,10 11 11 13,1.23.05,1042,--,,愛逍遙
14,15,732,7,10/06/20,"跑馬地草地""B""                                    ",1000,好/快,3,3,60,徐雨石,蘇狄雄,7,108.0,114,10 10 7,0.57.91,1046,--,,愛逍遙
15,16,683,11,24/05/20,"沙田草地""A""                                    ",1200,好,3,3,63,徐雨石,黃皓楠,10-3/4,518.0,115,7 8 11,1.10.46,1055,--,,愛逍遙
16,17,586,14,19/04/20,沙田全天候                                    ,1650,好,3,8,66,徐雨石,蘇狄雄,28,290.0,117,6 5 10 14,1.42.46,1055,--,,愛逍遙
17,18,534,10,29/03/20,"沙田草地""A+3""                                    ",1400,好,3,13,68,徐雨石,黃皓楠,10-1/2,585.0,118,14 14 13 10,1.24.11,1043,H-,,愛逍遙
18,19,461,11,01/03/20,"沙田草地""B+2""                                    ",1200,好,3,3,68,徐雨石,黃皓楠,6-1/2,469.0,120,6 5 11,1.10.08,1045,H1,,愛逍遙
