,Unnamed: 0,場次,名次,日期,馬場/跑道/賽道,途程,場地狀況,賽事班次,檔位,評分,練馬師,騎師,頭馬距離,獨贏賠率,實際負磅,沿途走位,完成時間,排位體重,配備,賽事重播,馬名
0,1,684,10,19/05/21,"跑馬地草地""B""                                    ",1200,好/快,4,6,40,韋達,蔡明紹,6-1/4,24,113,6 5 10,1.10.63,1117,B/XB,,手牽手
1,2,587,4,14/04/21,"跑馬地草地""B""                                    ",1200,好/快,4,3,42,韋達,蔡明紹,2-3/4,34,115,8 10 4,1.10.52,1108,B/XB,,手牽手
2,3,510,6,17/03/21,"跑馬地草地""C""                                    ",1200,好/快,4,8,44,韋達,巴度,4-1/2,55,118,6 6 6,1.10.87,1127,B/XB,,手牽手
3,4,432,6,17/02/21,"跑馬地草地""C""                                    ",1200,好,4,8,46,韋達,巴度,3-3/4,103,120,9 8 6,1.10.38,1146,B/XB,,手牽手
4,5,360,12,20/01/21,"跑馬地草地""C""                                    ",1200,好,4,8,49,韋達,周俊樂,10-3/4,121,115,6 9 12,1.11.34,1164,XB/B1,,手牽手
5,6,307,13,01/01/21,"沙田草地""B+2""                                    ",1400,好,4,8,52,韋達,波健士,9-3/4,180,126,10 10 10 13,1.24.18,1170,XB,,手牽手
6,7,243,10,06/12/20,"沙田草地""C+3""                                    ",1200,好,4,7,52,韋達,波健士,4-1/4,290,125,11 11 10,1.10.45,1154,XB1,,手牽手
