,Unnamed: 0,場次,名次,日期,馬場/跑道/賽道,途程,場地狀況,賽事班次,檔位,評分,練馬師,騎師,頭馬距離,獨贏賠率,實際負磅,沿途走位,完成時間,排位體重,配備,賽事重播,馬名
0,1,702,6,26/05/21,"跑馬地草地""C""                                    ",1650,好/快,3,6,65,方嘉柏,何澤堯,4,8.3,119,8 8 7 6,1.39.18,1071,TT,,捷報
1,2,686,5,19/05/21,"跑馬地草地""B""                                    ",1200,好/快,3,11,67,方嘉柏,何澤堯,2-3/4,20.0,124,11 11 5,1.09.58,1074,TT,,捷報
2,3,642,11,02/05/21,"沙田草地""B""                                    ",1400,好,3,12,68,方嘉柏,何澤堯,11,12.0,123,10 10 10 11,1.23.58,1074,TT,,捷報
3,4,572,3,08/04/21,"跑馬地草地""A""                                    ",1200,好/快,3,8,68,方嘉柏,何澤堯,1-1/2,14.0,124,8 8 3,1.10.25,1074,TT,,捷報
4,5,352,12,17/01/21,沙田全天候                                    ,1650,好,3,14,70,方嘉柏,史卓豐,13,34.0,120,14 14 13 12,1.39.98,1089,B-/TT,,捷報
5,6,305,7,26/12/20,"沙田草地""A+3""                                    ",1400,好,3,3,72,方嘉柏,蘇銘倫,4-1/4,7.4,126,6 5 4 7,1.22.53,1094,B1/TT,,捷報
6,7,244,5,06/12/20,"沙田草地""C+3""                                    ",1400,好,3,6,72,方嘉柏,史卓豐,3-1/4,46.0,128,12 11 10 5,1.22.07,1084,TT1,,捷報
