,Unnamed: 0,場次,名次,日期,馬場/跑道/賽道,途程,場地狀況,賽事班次,檔位,評分,練馬師,騎師,頭馬距離,獨贏賠率,實際負磅,沿途走位,完成時間,排位體重,配備,賽事重播,馬名
0,1,399,9,03/02/21,"跑馬地草地""A""                                    ",1650,好,3,2,73,蘇保羅,黎海榮,3-1/4,206,127,3 3 5 9,1.42.15,952,--,,摯勝寶寶
1,2,312,14,01/01/21,"沙田草地""B+2""                                    ",1200,好,3,3,73,蘇保羅,波健士,7,191,127,10 8 14,1.10.37,989,--,,摯勝寶寶
