,Unnamed: 0,場次,名次,日期,馬場/跑道/賽道,途程,場地狀況,賽事班次,檔位,評分,練馬師,騎師,頭馬距離,獨贏賠率,實際負磅,沿途走位,完成時間,排位體重,配備,賽事重播,馬名
0,1,691,7,23/05/21,"沙田草地""A""                                    ",1200,好/快,4,5,44,方嘉柏,何澤堯,6-1/2,18,119,9 10 7,1.09.92,1149,TT,,日日有餘
1,2,652,3,08/05/21,"沙田草地""C""                                    ",1200,好/快,4,4,45,方嘉柏,莫雷拉,2-1/2,21,118,8 8 3,1.09.43,1146,TT,,日日有餘
2,3,405,12,06/02/21,"沙田草地""C""                                    ",1200,好,4,10,45,方嘉柏,楊明綸,29-1/2,55,118,12 12 12,1.13.96,1150,V-/TT,,日日有餘
3,4,349,8,17/01/21,"沙田草地""A""                                    ",1200,好,4,7,47,方嘉柏,陳嘉熙,4-1/2,53,115,13 13 8,1.10.67,1150,V/TT,,日日有餘
4,5,326,6,10/01/21,"沙田草地""C""                                    ",1200,好,4,10,49,方嘉柏,薛恩,5-1/4,54,126,11 11 6,1.10.79,1160,B-/V1/TT1,,日日有餘
5,6,281,14,20/12/20,"沙田草地""C+3""                                    ",1400,好,4,6,52,方嘉柏,波健士,24-1/4,67,125,4 5 10 14,1.25.38,1158,B,,日日有餘
6,7,215,12,25/11/20,"跑馬地草地""C+3""                                    ",1200,好,4,5,52,方嘉柏,蔡明紹,4-1/2,25,125,10 10 12,1.10.55,1155,B1,,日日有餘
