,Unnamed: 0,場次,名次,日期,馬場/跑道/賽道,途程,場地狀況,賽事班次,檔位,評分,練馬師,騎師,頭馬距離,獨贏賠率,實際負磅,沿途走位,完成時間,排位體重,配備,賽事重播,馬名
0,1,504,5,13/03/21,"沙田草地""C+3""                                    ",1200,好,1,5,126,蔡約翰,莫雷拉,4,3.7,133,4 4 5,1.08.43,1240,--,,旺蝦王
1,2,368,1,24/01/21,"沙田草地""A+3""                                    ",1200,好,G1,2,126,蔡約翰,莫雷拉,1-3/4,2.1,126,3 3 1,1.08.01,1241,--,,旺蝦王
2,3,262,7,13/12/20,"沙田草地""A""                                    ",1200,好,G1,5,126,蔡約翰,莫雷拉,1-1/2,2.1,126,5 4 7,1.08.70,1229,--,,旺蝦王
3,4,207,1,22/11/20,"沙田草地""B+2""                                    ",1200,好/快,G2,5,126,蔡約翰,莫雷拉,3/4,3.9,123,4 4 1,1.08.00,1217,--,,旺蝦王
4,5,113,4,18/10/20,"沙田草地""B+2""                                    ",1200,好/快,G2,6,126,蔡約翰,莫雷拉,2-1/2,5.3,133,5 5 4,1.08.28,1205,--,,旺蝦王
5,6,682,2,24/05/20,"沙田草地""A""                                    ",1200,好,G3,4,126,蔡約翰,莫雷拉,頸位,4.0,133,1 1 2,1.09.01,1209,--,,旺蝦王
6,7,606,4,26/04/20,"沙田草地""A""                                    ",1200,好,G1,1,127,蔡約翰,莫雷拉,1-1/2,3.0,126,4 4 4,1.08.63,1211,--,,旺蝦王
7,8,551,2,05/04/20,"沙田草地""B+2""                                    ",1200,好,G2,1,127,蔡約翰,莫雷拉,3/4,2.6,123,3 3 2,1.09.62,1197,--,,旺蝦王
8,9,475,1,08/03/20,"沙田草地""C""                                    ",1200,好,1,2,125,蔡約翰,莫雷拉,1/2,3.5,133,3 3 1,1.08.72,1206,--,,旺蝦王
9,10,423,3,16/02/20,"沙田草地""A""                                    ",1400,好,G1,6,126,蔡約翰,田泰安,1-1/2,8.7,126,1 1 1 3,1.21.87,1211,--,,旺蝦王
10,11,348,3,19/01/20,"沙田草地""A+3""                                    ",1200,好,G1,2,126,蔡約翰,田泰安,1-1/4,2.6,126,3 4 3,1.08.79,1231,--,,旺蝦王
11,12,231,2,08/12/19,"沙田草地""A""                                    ",1200,好,G1,1,126,蔡約翰,田泰安,頸位,5.2,126,3 3 2,1.08.17,1231,--,,旺蝦王
12,13,177,2,17/11/19,"沙田草地""B""                                    ",1200,好/快,G2,6,126,蔡約翰,利敬國,2,11.0,123,4 4 2,1.07.88,1236,--,,旺蝦王
13,14,240,9,09/12/18,"沙田草地""A""                                    ",1200,好,G1,11,126,蔡約翰,莫雷拉,4-1/2,2.1,126,1 1 9,1.09.57,1177,--,,旺蝦王
14,15,188,1,18/11/18,"沙田草地""B""                                    ",1200,好,G2,8,123,蔡約翰,莫雷拉,1/2,2.4,123,1 1 1,1.08.59,1186,--,,旺蝦王
15,16,115,1,21/10/18,"沙田草地""A""                                    ",1200,好/快,G2,7,117,蔡約翰,祈普敦                                    ,1-1/4,4.3,122,1 1 1,1.08.23,1175,--,,旺蝦王
16,17,61,1,01/10/18,"沙田草地""A+3""                                    ",1000,好,G3,3,112,蔡約翰,田泰安,3/4,1.9,117,2 2 1,0.56.00,1186,--,,旺蝦王
17,18,730,1,13/06/18,"跑馬地草地""B""                                    ",1200,好,2,1,101,蔡約翰,潘頓,2-1/4,1.3,130,1 1 1,1.09.13,1152,--,,旺蝦王
18,19,611,2,29/04/18,"沙田草地""A""                                    ",1200,好,2,8,98,蔡約翰,潘頓,1-1/4,2.3,133,2 3 2,1.09.38,1151,--,,旺蝦王
19,20,295,1,23/12/17,"沙田草地""A+3""                                    ",1000,好,2,2,89,蔡約翰,潘頓,1-1/4,1.2,124,2 2 1,0.56.63,1177,--,,旺蝦王
20,21,241,1,03/12/17,"沙田草地""C+3""                                    ",1000,好,3,14,77,蔡約翰,潘頓,2-1/4,1.4,130,2 1 1,0.56.03,1183,--,,旺蝦王
21,22,165,1,05/11/17,"沙田草地""C+3""                                    ",1000,好/快,3,5,68,蔡約翰,潘頓,2-1/4,1.7,121,2 1 1,0.56.67,1168,--,,旺蝦王
22,23,733,1,18/06/17,"沙田草地""C+3""                                    ",1000,好/黏,GRIFFIN,4,--,蔡約翰,潘頓,5-3/4,1.0,127,1 1 1,0.57.19,1151,--,,旺蝦王
23,24,643,1,13/05/17,"沙田草地""C""                                    ",1000,好,GRIFFIN,8,--,蔡約翰,潘頓,2-1/4,1.4,120,1 1 1,0.57.12,1169,--,,旺蝦王
