,Unnamed: 0,場次,名次,日期,馬場/跑道/賽道,途程,場地狀況,賽事班次,檔位,評分,練馬師,騎師,頭馬距離,獨贏賠率,實際負磅,沿途走位,完成時間,排位體重,配備,賽事重播,馬名
0,1,441,04,21/02/21,沙田全天候                                    ,1200,好,4,6,54,韋達,周俊樂,5-1/4,120,121,10 8 4,1.09.52,1012,XB/H1/P1,,星光爸爸
1,2,348,12,17/01/21,沙田全天候                                    ,1650,好,4,4,58,韋達,潘明輝,13-1/2,45,130,8 8 9 12,1.40.68,1021,XB2,,星光爸爸
2,3,282,09,20/12/20,沙田全天候                                    ,1200,好,3,2,61,韋達,潘明輝,8-1/4,86,116,9 9 9,1.10.40,1028,CP-/SR-/XB-,,星光爸爸
3,4,217,12,25/11/20,"跑馬地草地""C+3""                                    ",1200,好,3,12,64,韋達,楊明綸,6-1/2,152,117,12 12 12,1.10.25,1023,SR/XB/CP1,,星光爸爸
4,5,183,11,11/11/20,"跑馬地草地""B""                                    ",1200,好,3,2,66,韋達,何澤堯,8-1/2,43,119,11 12 11,1.11.03,1027,SR/XB,,星光爸爸
5,6,794,08,05/07/20,沙田全天候                                    ,1200,好,3,10,70,韋達,蘇狄雄,8-3/4,225,116,8 8 8,1.10.77,1014,SR/XB,,星光爸爸
6,7,748,WV,14/06/20,"沙田草地""C+3""                                    ",1200,好/快,3,--,70,韋達,周俊樂,--,--,113,--,--,--,--,--,星光爸爸
7,8,688,12,24/05/20,"沙田草地""A""                                    ",1400,好,3,10,72,韋達,黃皓楠,17-1/2,411,118,5 2 6 12,1.23.97,1010,SR/XB,,星光爸爸
8,9,625,10,03/05/20,"沙田草地""B""                                    ",1200,好/快,3,1,72,韋達,史卓豐,6-3/4,38,120,7 9 10,1.09.79,1005,SR1/XB1,,星光爸爸
