,Unnamed: 0,場次,名次,日期,馬場/跑道/賽道,途程,場地狀況,賽事班次,檔位,評分,練馬師,騎師,頭馬距離,獨贏賠率,實際負磅,沿途走位,完成時間,排位體重,配備,賽事重播,馬名
0,1,304,9,26/12/20,"沙田草地""A+3""                                    ",1000,好,3,6,77,方嘉柏,周俊樂,6,16.0,124,10 9 9,0.57.45,1092,--,,時時好綵
1,2,236,7,02/12/20,"跑馬地草地""A""                                    ",1000,好,3,4,77,方嘉柏,田泰安,5-3/4,5.5,130,9 8 7,0.57.80,1108,--,,時時好綵
