,Unnamed: 0,場次,名次,日期,馬場/跑道/賽道,途程,場地狀況,賽事班次,檔位,評分,練馬師,騎師,頭馬距離,獨贏賠率,實際負磅,沿途走位,完成時間,排位體重,配備,賽事重播,馬名
0,1,699,12,23/05/21,"沙田草地""A""                                    ",1200,好/快,3,1,61,葉楚航,蔡明紹,7-3/4,95.0,118,7 7 12,1.09.95,1071,B/XB/TT,,晉神
1,2,639,10,02/05/21,"沙田草地""B""                                    ",1200,好,3,4,62,葉楚航,黃俊,14-3/4,88.0,111,10 11 10,1.11.20,1061,B/XB/TT,,晉神
2,3,611,11,21/04/21,"跑馬地草地""C""                                    ",1200,好/快,3,6,62,葉楚航,蔡明紹,6-1/2,24.0,118,10 10 11,1.10.48,1062,B/XB/TT,,晉神
3,4,533,2,24/03/21,"跑馬地草地""C+3""                                    ",1200,好/快,3,3,62,葉楚航,蔡明紹,2,13.0,116,9 9 2,1.09.69,1052,B/XB/TT,,晉神
4,5,497,9,10/03/21,"跑馬地草地""B""                                    ",1200,好,3,12,62,葉楚航,蔡明紹,2-1/2,37.0,115,12 12 9,1.10.22,1051,B/XB/TT,,晉神
5,6,439,3,17/02/21,"跑馬地草地""C""                                    ",1200,好,3,8,62,葉楚航,巴度,1-1/2,23.0,115,12 12 3,1.10.21,1033,B/XB/TT,,晉神
6,7,396,1,03/02/21,"跑馬地草地""A""                                    ",1200,好,4,4,57,葉楚航,莫雷拉,短馬頭位,5.8,131,7 6 1,1.10.33,1041,B/XB/TT,,晉神
7,8,318,7,06/01/21,"跑馬地草地""A""                                    ",1200,好,4,10,59,葉楚航,周俊樂,2-1/2,13.0,126,10 8 7,1.10.65,1040,B/XB/TT,,晉神
8,9,288,6,23/12/20,"跑馬地草地""C+3""                                    ",1200,好,4,1,60,葉楚航,周俊樂,2,4.1,126,5 5 6,1.10.06,1040,B/XB/TT,,晉神
9,10,215,11,25/11/20,"跑馬地草地""C+3""                                    ",1200,好,4,4,60,葉楚航,賀銘年,4-1/4,6.7,133,8 8 11,1.10.52,1037,B/XB/TT,,晉神
10,11,162,3,04/11/20,沙田全天候                                    ,1200,好,4,9,59,葉楚航,周俊樂,1-1/2,9.4,122,10 10 3,1.10.14,1047,B/XB2/TT1,,晉神
11,12,107,5,14/10/20,"跑馬地草地""B""                                    ",1200,好,4,3,59,葉楚航,潘頓,2-1/4,1.8,133,5 5 5,1.10.30,1042,B,,晉神
12,13,34,1,16/09/20,"跑馬地草地""C""                                    ",1200,好/快,4,10,50,葉楚航,潘頓,2-3/4,4.0,124,5 4 1,1.09.23,1040,CP-/B1,,晉神
13,14,824,3,15/07/20,"跑馬地草地""B""                                    ",1200,好/快,4,8,52,葉楚航,蘇狄雄,2-3/4,41.0,124,12 11 3,1.10.40,1043,XB-/CP1,,晉神
14,15,760,7,24/06/20,"跑馬地草地""C""                                    ",1200,好/快,4,1,54,葉楚航,蘇狄雄,3-1/4,24.0,125,7 7 7,1.09.88,1042,XB,,晉神
15,16,701,7,31/05/20,"沙田草地""B""                                    ",1000,好,4,9,56,葉楚航,周俊樂,7-1/2,145.0,119,13 13 7,0.56.78,1048,XB,,晉神
16,17,646,11,09/05/20,沙田全天候                                    ,1650,好,4,11,59,葉楚航,蘇狄雄,10-1/4,120.0,131,13 14 12 11,1.40.73,1031,XB,,晉神
17,18,617,11,29/04/20,"跑馬地草地""A""                                    ",1650,好/快,3,11,61,葉楚航,蘇狄雄,5-1/2,78.0,112,12 12 11 11,1.40.98,1036,XB,,晉神
18,19,546,9,05/04/20,"沙田草地""B+2""                                    ",1200,好,3,9,63,葉楚航,蘇狄雄,5-1/2,84.0,114,11 11 9,1.10.50,1022,XB,,晉神
19,20,506,10,18/03/20,"跑馬地草地""C+3""                                    ",1650,好,3,4,65,葉楚航,潘明輝,5,17.0,119,6 8 9 10,1.40.77,1025,XB1,,晉神
20,21,439,9,23/02/20,"沙田草地""A+3""                                    ",1200,好,3,9,67,葉楚航,希威森,3-1/4,99.0,124,14 11 9,1.10.23,1016,--,,晉神
21,22,406,7,08/02/20,"沙田草地""C+3""                                    ",1400,好,3,8,69,葉楚航,潘明輝,5-3/4,75.0,120,10 10 10 7,1.22.21,1029,--,,晉神
22,23,360,7,22/01/20,"跑馬地草地""A""                                    ",1200,好,3,7,71,葉楚航,蘇狄雄,3,292.0,123,11 11 7,1.09.94,1022,--,,晉神
23,24,301,11,01/01/20,"沙田草地""C""                                    ",1200,好,3,2,73,葉楚航,蘇狄雄,8,105.0,128,8 8 11,1.10.45,1033,--,,晉神
24,25,232,10,08/12/19,"沙田草地""A""                                    ",1400,好,3,14,75,葉楚航,艾道拿,6-3/4,208.0,130,14 14 14 10,1.22.40,1033,--,,晉神
25,26,172,12,17/11/19,"沙田草地""B""                                    ",1200,好,3,1,77,葉楚航,潘明輝,11,109.0,128,9 8 12,1.10.54,1031,--,,晉神
26,27,111,11,20/10/19,"沙田草地""A""                                    ",1200,好/快,3,4,78,葉楚航,蘇狄雄,3-1/4,319.0,129,8 9 11,1.09.32,1027,--,,晉神
27,28,76,14,06/10/19,"沙田草地""B+2""                                    ",1200,好/黏,3,11,78,葉楚航,希威森,7-3/4,207.0,131,11 9 14,1.10.62,1045,--,,晉神
