,Unnamed: 0,場次,名次,日期,馬場/跑道/賽道,途程,場地狀況,賽事班次,檔位,評分,練馬師,騎師,頭馬距離,獨贏賠率,實際負磅,沿途走位,完成時間,排位體重,配備,賽事重播,馬名
0,1,724,7,02/06/21,"跑馬地草地""A""                                    ",1800,好,4,5,52,姚本輝,巴度,10-3/4,3.0,125,3 1 1 1 7,1.51.10,1116,--,,有視力
1,2,625,2,28/04/21,"跑馬地草地""C+3""                                    ",2200,好/快,4,6,49,姚本輝,巴度,短馬頭位,4.2,122,1 1 1 1 1 2,2.15.26,1106,--,,有視力
2,3,566,3,08/04/21,"跑馬地草地""A""                                    ",1800,好/快,4,4,50,姚本輝,巴度,5,3.4,126,1 2 2 2 3,1.49.36,1112,--,,有視力
3,4,513,3,17/03/21,"跑馬地草地""C""                                    ",1800,好/快,4,7,51,姚本輝,馬雅,1-3/4,9.4,125,1 2 2 2 3,1.49.04,1121,--,,有視力
4,5,473,4,03/03/21,"跑馬地草地""A""                                    ",1800,好,4,6,53,姚本輝,馬雅,2-3/4,35.0,126,1 1 1 1 4,1.49.98,1110,--,,有視力
5,6,426,9,14/02/21,"沙田草地""A""                                    ",1600,好,4,1,55,姚本輝,梁家俊,4-1/4,47.0,131,9 8 8 9,1.36.04,1122,B-,,有視力
6,7,366,13,24/01/21,"沙田草地""A+3""                                    ",1400,好,4,8,57,姚本輝,梁家俊,6-1/2,60.0,130,11 11 12 13,1.23.02,1132,B,,有視力
7,8,188,12,14/11/20,"沙田草地""C+3""                                    ",1400,好,4,14,59,姚本輝,彭國年,9-1/2,38.0,132,6 6 6 12,1.23.02,1143,B,,有視力
8,9,119,8,18/10/20,"沙田草地""B+2""                                    ",1200,好/快,3,13,61,姚本輝,潘明輝,2-1/2,105.0,112,10 11 8,1.09.37,1138,B,,有視力
9,10,772,8,27/06/20,"沙田草地""B""                                    ",1200,好/快,3,2,64,姚本輝,潘明輝,5-3/4,11.0,115,7 8 8,1.09.22,1105,B1,,有視力
10,11,706,12,31/05/20,"沙田草地""B""                                    ",1200,好,3,9,66,姚本輝,賀銘年,7-1/2,18.0,120,8 10 12,1.10.15,1112,--,,有視力
11,12,603,13,26/04/20,"沙田草地""A""                                    ",1200,好,3,4,68,姚本輝,梁家俊,7,16.0,123,5 6 13,1.10.30,1133,--,,有視力
12,13,529,3,29/03/20,"沙田草地""A+3""                                    ",1200,好,3,11,68,姚本輝,梁家俊,2-3/4,145.0,121,6 7 3,1.10.11,1132,--,,有視力
13,14,478,11,08/03/20,沙田全天候                                    ,1200,好,3,4,68,姚本輝,黃俊,11,35.0,117,3 7 11,1.10.80,1123,--,,有視力
