,Unnamed: 0,場次,名次,日期,馬場/跑道/賽道,途程,場地狀況,賽事班次,檔位,評分,練馬師,騎師,頭馬距離,獨贏賠率,實際負磅,沿途走位,完成時間,排位體重,配備,賽事重播,馬名
0,1,726,2,02/06/21,"跑馬地草地""A""                                    ",1200,好,3,6,61,沈集成,田泰安,3/4,4.1,114,3 4 2,1.09.68,1019,TT,,杭州飛輪
1,2,611,3,21/04/21,"跑馬地草地""C""                                    ",1200,好/快,3,9,61,沈集成,田泰安,1-1/2,5.7,117,5 5 3,1.09.69,1003,TT,,杭州飛輪
2,3,509,1,17/03/21,"跑馬地草地""C""                                    ",1200,好/快,4,1,52,沈集成,田泰安,2-1/2,14.0,125,8 5 1,1.09.24,1025,TT,,杭州飛輪
3,4,441,9,21/02/21,沙田全天候                                    ,1200,好,4,11,52,沈集成,史卓豐,10-3/4,54.0,126,2 6 9,1.10.43,1047,TT1,,杭州飛輪
