,Unnamed: 0,場次,名次,日期,馬場/跑道/賽道,途程,場地狀況,賽事班次,檔位,評分,練馬師,騎師,頭馬距離,獨贏賠率,實際負磅,沿途走位,完成時間,排位體重,配備,賽事重播,馬名
0,1,672,12,16/05/21,"沙田草地""C+3""                                    ",1200,好/快,4,3,47,容天鵬,馬雅,10-3/4,49.0,120,6 8 12,1.10.13,1105,TT,,東龍陣
1,2,703,7,31/05/20,"沙田草地""B""                                    ",1200,好,4,3,47,容天鵬,賀銘年,4,6.7,120,10 9 7,1.10.04,1120,TT,,東龍陣
2,3,643,2,09/05/20,"沙田草地""C""                                    ",1200,好/快,4,6,46,容天鵬,賀銘年,1-3/4,13.0,119,10 8 2,1.09.61,1110,TT,,東龍陣
3,4,587,8,19/04/20,沙田全天候                                    ,1200,好,4,9,46,容天鵬,梁家俊,4-1/2,24.0,120,9 10 8,1.09.29,1106,TT,,東龍陣
4,5,537,1,01/04/20,沙田全天候                                    ,1200,濕慢,5,11,40,容天鵬,田泰安,1/2,8.7,133,9 5 1,1.10.05,1110,TT,,東龍陣
5,6,484,3,11/03/20,"跑馬地草地""C""                                    ",1200,好,4,6,40,容天鵬,莫雷拉,2,3.7,115,2 3 3,1.10.88,1100,TT,,東龍陣
6,7,435,2,23/02/20,"沙田草地""A+3""                                    ",1200,好,5,10,40,容天鵬,巴度,4,5.7,133,8 8 2,1.09.88,1097,TT,,東龍陣
7,8,361,1,27/01/20,"沙田草地""B+2""                                    ",1200,好,5,8,35,容天鵬,潘頓,鼻位,5.4,128,9 8 1,1.09.73,1091,TT,,東龍陣
8,9,307,6,05/01/20,"沙田草地""C+3""                                    ",1400,好,5,4,37,容天鵬,蘇兆輝,2,6.3,130,7 8 9 6,1.23.38,1087,TT,,東龍陣
9,10,247,4,15/12/19,"沙田草地""C+3""                                    ",1400,好,5,6,38,容天鵬,梁家俊,2-1/2,12.0,132,9 8 8 4,1.22.54,1094,TT,,東龍陣
10,11,190,6,23/11/19,"沙田草地""C""                                    ",1400,好/快,5,2,40,容天鵬,薛恩,4-1/2,7.8,133,5 6 6 6,1.22.64,1084,TT,,東龍陣
11,12,120,7,23/10/19,"跑馬地草地""C+3""                                    ",1200,好/快,4,11,42,容天鵬,楊明綸,5,49.0,115,12 12 7,1.10.46,1080,V-/TT,,東龍陣
12,13,772,6,01/07/19,"沙田草地""B""                                    ",1400,好/快,4,6,45,容天鵬,楊明綸,7-1/4,28.0,117,6 6 5 6,1.22.34,1105,V/TT,,東龍陣
13,14,707,13,02/06/19,"沙田草地""B""                                    ",1400,好/快,4,13,47,容天鵬,李寶利,6-1/2,14.0,120,14 14 14 13,1.23.05,1090,V1/TT,,東龍陣
14,15,652,4,11/05/19,"沙田草地""C""                                    ",1400,好,4,2,49,容天鵬,李寶利,3-3/4,6.2,122,6 9 6 4,1.22.53,1087,TT,,東龍陣
15,16,595,9,22/04/19,"沙田草地""C+3""                                    ",1400,好,4,13,50,容天鵬,李寶利,8,19.0,124,5 9 10 9,1.23.21,1091,TT,,東龍陣
16,17,497,3,17/03/19,"沙田草地""A""                                    ",1200,好,4,7,50,容天鵬,李寶利,2,96.0,124,11 9 3,1.10.04,1089,TT1,,東龍陣
17,18,436,9,20/02/19,"跑馬地草地""C""                                    ",1200,好,4,10,52,容天鵬,李寶利,7-3/4,33.0,125,12 10 9,1.11.12,1099,--,,東龍陣
18,19,286,6,26/12/18,"跑馬地草地""C+3""                                    ",1000,好,4,1,52,容天鵬,李寶利,2-1/4,45.0,125,6 5 6,0.57.94,1119,--,,東龍陣
