,Unnamed: 0,場次,名次,日期,馬場/跑道/賽道,途程,場地狀況,賽事班次,檔位,評分,練馬師,騎師,頭馬距離,獨贏賠率,實際負磅,沿途走位,完成時間,排位體重,配備,賽事重播,馬名
0,1,683,7,19/05/21,"跑馬地草地""B""                                    ",1200,好/快,4,12,56,賀賢,巫顯東,3-1/2,25.0,126,10 7 7,1.10.43,1018,XB,,桃花旺
1,2,587,6,14/04/21,"跑馬地草地""B""                                    ",1200,好/快,4,7,56,賀賢,史卓豐,3-1/4,7.6,129,7 8 6,1.10.61,1005,XB,,桃花旺
2,3,511,2,17/03/21,"跑馬地草地""C""                                    ",1200,好/快,4,7,55,賀賢,史卓豐,1-1/4,11.0,129,6 6 2,1.10.00,997,XB,,桃花旺
3,4,310,12,01/01/21,"沙田草地""B+2""                                    ",1400,好,4,1,55,賀賢,史卓豐,9,8.8,128,6 6 7 12,1.23.43,1014,XB,,桃花旺
4,5,235,2,02/12/20,"跑馬地草地""A""                                    ",1200,好,4,6,54,賀賢,史卓豐,1,14.0,127,9 6 2,1.10.22,1004,XB,,桃花旺
5,6,168,4,08/11/20,"跑馬地草地""A""                                    ",1200,好,4,1,54,賀賢,史卓豐,3/4,15.0,127,6 6 4,1.10.73,1009,XB,,桃花旺
6,7,90,5,07/10/20,"跑馬地草地""A""                                    ",1200,好,4,5,56,賀賢,蔡明紹,4,32.0,129,7 6 5,1.10.95,1024,XB,,桃花旺
7,8,811,9,12/07/20,"沙田草地""A""                                    ",1400,好/快,4,8,57,賀賢,潘頓,5,27.0,133,2 2 2 9,1.22.54,1012,XB,,桃花旺
8,9,743,12,14/06/20,沙田全天候                                    ,1200,濕慢,4,1,57,賀賢,薛恩,24-1/4,15.0,130,6 9 12,1.12.91,1022,XB,,桃花旺
9,10,634,7,06/05/20,"跑馬地草地""B""                                    ",1200,好/快,4,2,57,賀賢,蔡明紹,4-1/2,8.9,131,7 6 7,1.10.44,1019,XB,,桃花旺
10,11,557,1,08/04/20,"跑馬地草地""B""                                    ",1200,好,4,3,52,賀賢,蔡明紹,短馬頭位,46.0,125,5 5 1,1.10.45,1021,XB1,,桃花旺
11,12,189,12,23/11/19,"沙田草地""C""                                    ",1200,好,4,12,52,賀賢,潘頓,9-1/4,4.5,125,8 8 12,1.10.56,1027,--,,桃花旺
