,Unnamed: 0,場次,名次,日期,馬場/跑道/賽道,途程,場地狀況,賽事班次,檔位,評分,練馬師,騎師,頭馬距離,獨贏賠率,實際負磅,沿途走位,完成時間,排位體重,配備,賽事重播,馬名
0,1,709,12,30/05/21,"沙田草地""B""                                    ",1800,好/快,5,1,29,丁冠豪,彭國年,5-3/4,36,123,5 5 6 9 12,1.49.45,1076,B,,榮華煌昌
1,2,634,12,02/05/21,"沙田草地""B""                                    ",2000,好,5,12,33,丁冠豪,彭國年,10-1/4,39,126,14 14 14 14 12,2.03.24,1077,B,,榮華煌昌
2,3,586,6,14/04/21,"跑馬地草地""B""                                    ",1800,好/快,5,8,35,丁冠豪,何澤堯,3-3/4,32,129,8 8 7 6 6,1.50.97,1073,B,,榮華煌昌
3,4,549,12,31/03/21,沙田全天候                                    ,1800,好,5,9,40,丁冠豪,馬雅,14,45,133,5 4 5 7 12,1.51.22,1069,B,,榮華煌昌
4,5,500,10,13/03/21,沙田全天候                                    ,1800,好,4,5,45,丁冠豪,何澤堯,6,45,118,7 7 8 9 10,1.49.28,1080,H-/B,,榮華煌昌
5,6,407,10,06/02/21,沙田全天候                                    ,1650,好,4,6,49,丁冠豪,波健士,7-1/4,59,123,13 12 12 10,1.40.03,1073,H/B1,,榮華煌昌
6,7,348,10,17/01/21,沙田全天候                                    ,1650,好,4,13,53,丁冠豪,波健士,11-3/4,49,127,13 12 12 10,1.40.43,1080,H,,榮華煌昌
7,8,203,13,22/11/20,"沙田草地""B+2""                                    ",2000,好,4,5,56,丁冠豪,楊明綸,25,62,129,2 3 5 11 13,2.04.66,1083,H,,榮華煌昌
8,9,163,9,04/11/20,沙田全天候                                    ,1650,好,4,5,59,丁冠豪,楊明綸,9,30,132,8 8 8 9,1.41.52,1087,H,,榮華煌昌
9,10,80,6,04/10/20,沙田全天候                                    ,1650,好,3,9,61,丁冠豪,潘明輝,4-1/4,78,112,11 11 11 6,1.40.59,1066,H,,榮華煌昌
10,11,808,7,08/07/20,"跑馬地草地""A""                                    ",1800,好,3,8,64,丁冠豪,黃皓楠,6-3/4,149,117,9 9 9 11 7,1.50.27,1060,H,,榮華煌昌
11,12,776,7,27/06/20,沙田全天候                                    ,1650,好,3,11,66,丁冠豪,蘇狄雄,7-1/2,180,112,11 11 11 7,1.39.90,1064,P-/H,,榮華煌昌
12,13,727,11,07/06/20,"沙田草地""C""                                    ",1600,黏,3,1,68,丁冠豪,黃皓楠,18-1/2,125,118,7 8 12 11,1.38.58,1075,H/P,,榮華煌昌
13,14,666,9,17/05/20,"沙田草地""C+3""                                    ",1600,好/快,3,2,68,丁冠豪,潘明輝,6-3/4,154,124,9 8 10 9,1.35.35,1066,H1/P1,,榮華煌昌
