,Unnamed: 0,場次,名次,日期,馬場/跑道/賽道,途程,場地狀況,賽事班次,檔位,評分,練馬師,騎師,頭馬距離,獨贏賠率,實際負磅,沿途走位,完成時間,排位體重,配備,賽事重播,馬名
0,1,694,4,23/05/21,"沙田草地""A""                                    ",1600,好/快,4,11,52,姚本輝,莫雷拉,3/4,5.7,125,8 8 7 4,1.35.56,1123,V,,機械戰士
1,2,636,2,02/05/21,"沙田草地""B""                                    ",1600,好,4,10,51,姚本輝,潘頓,1-1/4,7.0,128,8 10 7 2,1.34.63,1097,V,,機械戰士
2,3,301,6,26/12/20,"沙田草地""A+3""                                    ",1600,好,4,3,52,容天鵬,潘頓,3-3/4,4.4,126,8 8 11 6,1.34.99,1113,V,,機械戰士
3,4,226,3,29/11/20,"沙田草地""C""                                    ",1400,好,4,10,52,容天鵬,潘頓,1-1/2,5.1,125,10 12 14 3,1.22.20,1100,V,,機械戰士
4,5,135,5,24/10/20,"沙田草地""C""                                    ",1400,好,4,8,52,容天鵬,彭國年,2,96.0,125,11 13 14 5,1.22.00,1090,V,,機械戰士
5,6,42,9,20/09/20,"沙田草地""B+2""                                    ",1200,好/快,4,8,52,容天鵬,梁家俊,2-1/2,65.0,126,11 11 9,1.09.83,1087,V1,,機械戰士
