,Unnamed: 0,場次,名次,日期,馬場/跑道/賽道,途程,場地狀況,賽事班次,檔位,評分,練馬師,騎師,頭馬距離,獨贏賠率,實際負磅,沿途走位,完成時間,排位體重,配備,賽事重播,馬名
0,1,379,11,27/01/21,"跑馬地草地""C+3""                                    ",1650,好,4,7,40,容天鵬,楊明綸,8-1/2,70.0,115,9 9 8 11,1.41.25,1226,B1,,歡喜心
1,2,319,9,06/01/21,"跑馬地草地""A""                                    ",1650,好,4,10,43,容天鵬,蔡明紹,6,80.0,117,12 12 12 9,1.41.74,1228,--,,歡喜心
2,3,51,11,23/09/20,"跑馬地草地""C+3""                                    ",1800,好/快,4,3,46,容天鵬,蔡明紹,9-3/4,66.0,119,11 9 8 9 11,1.50.35,1211,--,,歡喜心
3,4,12,11,09/09/20,"跑馬地草地""B""                                    ",1650,好,4,12,48,容天鵬,蔡明紹,13,74.0,122,12 9 10 11,1.42.17,1195,--,,歡喜心
4,5,805,9,08/07/20,"跑馬地草地""A""                                    ",1650,好,4,12,52,容天鵬,蔡明紹,5-1/4,43.0,124,10 10 9 9,1.40.90,1174,--,,歡喜心
5,6,712,7,03/06/20,"跑馬地草地""A""                                    ",1650,好,4,11,54,容天鵬,蔡明紹,4-1/2,39.0,128,11 11 10 7,1.40.42,1175,--,,歡喜心
6,7,614,12,29/04/20,"跑馬地草地""A""                                    ",1650,好/快,4,9,56,容天鵬,波健士,6-3/4,35.0,130,11 11 12 12,1.41.24,1160,--,,歡喜心
7,8,504,4,18/03/20,"跑馬地草地""C+3""                                    ",1650,好,4,6,58,蔡約翰,利敬國,2-3/4,16.0,131,7 7 7 4,1.39.65,1122,--,,歡喜心
8,9,488,7,11/03/20,"跑馬地草地""C""                                    ",1650,好,4,4,60,蔡約翰,陳嘉熙,6,17.0,126,5 5 5 7,1.40.74,1123,--,,歡喜心
9,10,414,8,12/02/20,"跑馬地草地""C+3""                                    ",1650,好/快,3,3,61,蔡約翰,希威森,2-1/2,27.0,115,5 5 6 8,1.39.60,1141,--,,歡喜心
10,11,397,7,05/02/20,"跑馬地草地""C""                                    ",1650,好,3,12,63,蔡約翰,希威森,5-3/4,82.0,117,12 12 12 7,1.39.89,1148,--,,歡喜心
11,12,358,9,22/01/20,"跑馬地草地""A""                                    ",1650,好,3,8,65,蔡約翰,蘇兆輝,6-1/2,15.0,118,7 5 6 9,1.41.48,1144,--,,歡喜心
12,13,320,7,08/01/20,"跑馬地草地""C""                                    ",1800,好,3,1,67,蔡約翰,薛恩,4-1/4,18.0,124,5 5 5 6 7,1.49.42,1136,--,,歡喜心
13,14,262,4,18/12/19,"跑馬地草地""C+3""                                    ",1650,好/快,3,5,68,蔡約翰,田泰安,4-3/4,13.0,125,9 10 9 4,1.39.59,1136,--,,歡喜心
14,15,157,8,06/11/19,"跑馬地草地""B""                                    ",1650,好,3,1,70,蔡約翰,莫雷拉,5-1/2,10.0,125,5 6 9 8,1.40.75,1116,--,,歡喜心
15,16,104,3,16/10/19,"跑馬地草地""C""                                    ",1650,好,3,3,71,蔡約翰,貝力斯,4,35.0,126,5 6 3 3,1.40.50,1122,--,,歡喜心
16,17,27,8,11/09/19,"跑馬地草地""B""                                    ",1650,好,3,9,72,蔡約翰,貝力斯,4-1/4,80.0,126,9 9 11 8,1.41.13,1106,--,,歡喜心
17,18,784,10,03/07/19,"跑馬地草地""C""                                    ",1650,好,3,10,75,蔡約翰,莫雷拉,5,16.0,130,11 11 11 10,1.40.94,1101,--,,歡喜心
18,19,626,7,01/05/19,"跑馬地草地""C+3""                                    ",1650,好/快,3,1,76,蔡約翰,莫雷拉,4-1/2,5.9,129,6 6 7 7,1.39.90,1105,--,,歡喜心
19,20,573,4,10/04/19,"跑馬地草地""A""                                    ",1650,好,3,3,76,蔡約翰,莫雷拉,1-1/4,4.9,129,6 6 4 4,1.40.21,1119,--,,歡喜心
20,21,514,9,20/03/19,"跑馬地草地""C""                                    ",1650,好/快,3,11,76,蔡約翰,潘頓,2,6.1,129,12 12 12 9,1.39.99,1114,--,,歡喜心
21,22,474,2,06/03/19,"跑馬地草地""A""                                    ",1650,好,3,5,75,蔡約翰,潘頓,1-1/4,2.3,128,5 4 4 2,1.41.20,1118,--,,歡喜心
22,23,441,2,20/02/19,"跑馬地草地""C""                                    ",1650,好/快,3,10,73,蔡約翰,潘頓,1/2,6.4,130,12 12 11 2,1.39.15,1125,--,,歡喜心
23,24,380,2,30/01/19,"跑馬地草地""A""                                    ",1650,好,3,9,71,蔡約翰,莫雷拉,1-1/4,5.6,126,10 9 6 2,1.39.70,1126,--,,歡喜心
24,25,328,2,09/01/19,"跑馬地草地""A""                                    ",1650,好,3,7,69,蔡約翰,莫雷拉,1/2,7.5,122,11 9 7 2,1.40.97,1121,--,,歡喜心
25,26,253,5,12/12/18,"跑馬地草地""C""                                    ",1650,好,3,10,69,蔡約翰,莫雷拉,2-1/4,4.7,123,9 9 7 5,1.40.68,1110,--,,歡喜心
26,27,195,1,21/11/18,"跑馬地草地""C+3""                                    ",1650,好/黏,3,2,63,蔡約翰,蘇兆輝,3/4,6.1,117,5 5 5 1,1.40.60,1106,--,,歡喜心
27,28,160,4,07/11/18,"跑馬地草地""B""                                    ",1650,好,3,12,63,蔡約翰,蘇兆輝,1,12.0,116,11 11 11 4,1.40.52,1108,--,,歡喜心
28,29,793,6,11/07/18,"跑馬地草地""A""                                    ",1800,好/快,3,11,64,蔡約翰,莫雷拉,2-1/4,11.0,121,6 6 3 1 6,1.49.72,1090,--,,歡喜心
29,30,759,4,27/06/18,"跑馬地草地""C""                                    ",1650,好/快,3,2,65,蔡約翰,田泰安,2-3/4,7.0,121,6 7 5 4,1.40.43,1080,--,,歡喜心
30,31,729,7,13/06/18,"跑馬地草地""B""                                    ",1650,好,3,2,66,蔡約翰,黃皓楠,5,11.0,116,3 4 3 7,1.40.67,1084,--,,歡喜心
31,32,673,3,23/05/18,"跑馬地草地""C""                                    ",1650,好/快,3,1,66,蔡約翰,莫雷拉,2-1/4,6.4,121,3 3 2 3,1.39.92,1093,--,,歡喜心
32,33,638,3,09/05/18,"跑馬地草地""A""                                    ",1650,好/黏,3,7,66,蔡約翰,莫雷拉,3-1/2,6.4,121,9 11 6 3,1.41.66,1091,--,,歡喜心
33,34,597,5,25/04/18,"跑馬地草地""C""                                    ",2200,好,3,5,66,蔡約翰,莫雷拉,3-1/2,4.2,121,3 4 4 4 4 5,2.17.58,1089,--,,歡喜心
34,35,584,2,18/04/18,"跑馬地草地""B""                                    ",1650,好,3,1,65,蔡約翰,莫雷拉,1-3/4,3.1,118,6 6 6 2,1.39.95,1078,--,,歡喜心
35,36,537,3,28/03/18,"跑馬地草地""C+3""                                    ",1800,好/快,3,10,65,蔡約翰,莫雷拉,3-1/4,5.1,118,11 11 11 7 3,1.49.14,1086,--,,歡喜心
36,37,480,1,07/03/18,"跑馬地草地""A""                                    ",1650,好,4,1,59,蔡約翰,莫雷拉,3/4,1.9,132,4 3 4 1,1.40.79,1089,--,,歡喜心
37,38,423,1,14/02/18,"跑馬地草地""B""                                    ",1650,好,4,5,50,蔡約翰,莫雷拉,3-1/4,5.4,123,6 5 3 1,1.40.66,1096,--,,歡喜心
38,39,385,6,31/01/18,"跑馬地草地""C+3""                                    ",1650,好,4,10,50,蔡約翰,蔡明紹,1-1/4,8.5,123,7 6 6 6,1.41.26,1079,--,,歡喜心
39,40,324,9,07/01/18,"沙田草地""C""                                    ",1800,好,4,9,50,蔡約翰,蔡明紹,8,12.0,123,2 2 4 3 9,1.49.94,1089,--,,歡喜心
40,41,284,1,20/12/17,"跑馬地草地""C+3""                                    ",1650,好/快,4,9,44,蔡約翰,蔡明紹,1/2,17.0,117,11 10 9 1,1.39.55,1096,--,,歡喜心
41,42,228,4,29/11/17,"跑馬地草地""A""                                    ",1200,好,4,5,46,蔡約翰,莫雷拉,3-1/4,16.0,120,7 6 4,1.10.49,1094,--,,歡喜心
42,43,184,8,11/11/17,"沙田草地""A""                                    ",1400,好/快,4,11,48,蔡約翰,梁家俊,7-3/4,78.0,119,11 8 10 8,1.23.31,1091,--,,歡喜心
43,44,735,13,18/06/17,"沙田草地""C+3""                                    ",1400,好/黏,4,10,52,蔡約翰,柏寶                                    ,10-1/4,56.0,127,9 4 7 13,1.24.22,1069,--,,歡喜心
44,45,648,10,13/05/17,"沙田草地""C""                                    ",1400,好,4,4,52,蔡約翰,杜利萊                                    ,7,16.0,126,8 5 6 10,1.23.96,1072,--,,歡喜心
