,Unnamed: 0,場次,名次,日期,馬場/跑道/賽道,途程,場地狀況,賽事班次,檔位,評分,練馬師,騎師,頭馬距離,獨贏賠率,實際負磅,沿途走位,完成時間,排位體重,配備,賽事重播,馬名
0,1,234,6,08/12/19,"沙田草地""A""                                    ",2000,好,G1,5,121,羅富全,潘頓,2-3/4,9.8,126,2 2 2 2 6,2.00.96,1181,B/XB1/TT,,歡樂之光
1,2,176,9,17/11/19,"沙田草地""B""                                    ",2000,好/快,G2,1,122,羅富全,蘇兆輝,22-1/4,7.2,128,2 2 2 3 9,2.03.32,1175,B/TT,,歡樂之光
2,3,112,9,20/10/19,"沙田草地""A""                                    ",1600,好/快,G2,9,122,羅富全,梁家俊,7-1/4,35.0,117,2 2 3 9,1.33.99,1167,B/TT,,歡樂之光
3,4,691,5,26/05/19,"沙田草地""A""                                    ",2400,好/黏,G1,7,124,羅富全,麥道朗,4,11.0,126,2 2 2 2 2 5,2.26.63,1156,B/TT,,歡樂之光
4,5,618,4,28/04/19,"沙田草地""A""                                    ",2000,好,G1,7,125,羅富全,梁家俊,1-3/4,18.0,126,1 2 2 2 4,1.59.11,1156,B/TT,,歡樂之光
5,6,430,5,17/02/19,"沙田草地""A+3""                                    ",2000,好,G1,5,125,羅富全,蘇兆輝,5,4.2,126,2 2 3 2 5,2.01.68,1159,B/TT,,歡樂之光
6,7,372,8,27/01/19,"沙田草地""B+2""                                    ",1800,好,G3,5,125,羅富全,蘇兆輝,8-1/4,3.2,131,3 3 3 3 8,1.47.01,1163,B/TT,,歡樂之光
7,8,243,1,09/12/18,"沙田草地""A""                                    ",2000,好,G1,1,110,羅富全,蘇兆輝,1,7.8,126,1 1 1 1 1,2.01.71,1168,B/TT1,,歡樂之光
8,9,187,6,18/11/18,"沙田草地""B""                                    ",2000,好,G2,7,110,羅富全,莫雷拉,8-3/4,3.3,123,1 2 2 2 6,2.00.70,1167,B,,歡樂之光
9,10,151,2,04/11/18,"沙田草地""C+3""                                    ",1800,好,G3,7,106,羅富全,史卓豐,頸位,1.6,114,2 2 2 2 2,1.47.27,1164,B,,歡樂之光
10,11,112,1,21/10/18,"沙田草地""A""                                    ",1800,好/快,2,1,96,羅富全,潘頓,2-1/2,1.3,124,1 1 1 1 1,1.46.59,1174,B,,歡樂之光
11,12,781,1,08/07/18,"沙田草地""C""                                    ",2000,好/快,2,3,88,羅富全,潘頓,2-1/4,1.6,126,2 3 3 2 1,1.59.53,1157,B,,歡樂之光
12,13,740,1,16/06/18,"沙田草地""C+3""                                    ",1800,好/快,3,5,75,羅富全,潘頓,4,1.9,128,1 1 1 1 1,1.46.18,1151,B,,歡樂之光
13,14,682,2,27/05/18,"沙田草地""A""                                    ",1800,好/快,3,14,72,羅富全,貝湯美                                    ,鼻位,75.0,125,1 1 1 1 2,1.47.51,1152,B1,,歡樂之光
14,15,563,12,11/04/18,"跑馬地草地""A""                                    ",1650,好,3,4,72,羅富全,李寶利,15,39.0,126,3 3 5 12,1.42.15,1166,--,,歡樂之光
