,Unnamed: 0,場次,名次,日期,馬場/跑道/賽道,途程,場地狀況,賽事班次,檔位,評分,練馬師,騎師,頭馬距離,獨贏賠率,實際負磅,沿途走位,完成時間,排位體重,配備,賽事重播,馬名
0,1,665,2,12/05/21,沙田全天候                                    ,1200,好,4,1,40,葉楚航,潘明輝,1-1/2,59,113,5 3 2,1.09.21,1044,P2,,活力爵士
1,2,601,9,17/04/21,"沙田草地""C+3""                                    ",1400,好,4,4,43,葉楚航,波健士,8-1/2,114,117,9 8 9 9,1.23.71,1045,--,,活力爵士
2,3,510,11,17/03/21,"跑馬地草地""C""                                    ",1200,好/快,4,10,47,葉楚航,潘明輝,8-3/4,104,119,9 7 11,1.11.56,1062,P-,,活力爵士
3,4,441,6,21/02/21,沙田全天候                                    ,1200,好,4,10,51,葉楚航,梁家俊,9,115,125,11 9 6,1.10.14,1074,B-/P1,,活力爵士
4,5,234,12,02/12/20,"跑馬地草地""A""                                    ",1200,好,4,5,55,蔡約翰,賀銘年,9,70,128,8 6 12,1.12.10,1058,B,,活力爵士
5,6,185,11,14/11/20,"沙田草地""C+3""                                    ",1000,好,4,11,58,蔡約翰,田泰安,6-1/4,56,133,12 12 11,0.58.06,1054,E-/B1,,活力爵士
6,7,790,12,05/07/20,"沙田草地""C+3""                                    ",1200,好/快,4,9,62,蔡約翰,莫雷拉,13-3/4,13,131,7 9 12,1.11.84,1056,E,,活力爵士
7,8,729,6,10/06/20,"跑馬地草地""B""                                    ",1200,好,4,4,64,蔡約翰,莫雷拉,4-1/2,10,133,6 7 6,1.10.55,1041,E,,活力爵士
8,9,706,6,31/05/20,"沙田草地""B""                                    ",1200,好,3,5,66,蔡約翰,蔡明紹,3-3/4,66,115,5 6 6,1.09.52,1042,E,,活力爵士
9,10,657,8,13/05/20,"跑馬地草地""C""                                    ",1200,好,3,2,68,蔡約翰,莫雷拉,3,14,117,5 4 8,1.10.41,1047,E,,活力爵士
10,11,625,11,03/05/20,"沙田草地""B""                                    ",1200,好/快,3,11,70,蔡約翰,莫雷拉,7-1/4,12,118,8 7 11,1.09.85,1052,E,,活力爵士
11,12,581,8,15/04/20,"跑馬地草地""C""                                    ",1200,好,3,6,70,蔡約翰,莫雷拉,4-1/4,11,118,8 8 8,1.10.01,1060,E1,,活力爵士
