,Unnamed: 0,場次,名次,日期,馬場/跑道/賽道,途程,場地狀況,賽事班次,檔位,評分,練馬師,騎師,頭馬距離,獨贏賠率,實際負磅,沿途走位,完成時間,排位體重,配備,賽事重播,馬名
0,1,710,07,30/05/21,"沙田草地""B""                                    ",1400,好/快,4,11,45,葉楚航,潘頓,5-1/2,12,120,10 10 9 7,1.22.29,1076,TT,,深愛
1,2,674,07,16/05/21,"沙田草地""C+3""                                    ",1400,好/快,4,10,47,葉楚航,潘頓,3-1/2,12,122,12 9 6 7,1.22.11,1068,TT,,深愛
2,3,580,04,11/04/21,"沙田草地""C""                                    ",1400,好,4,10,48,葉楚航,馬雅,2,16,123,13 12 10 4,1.22.22,1058,B-/TT,,深愛
3,4,493,05,10/03/21,"跑馬地草地""B""                                    ",1200,好,4,5,50,葉楚航,郭能,5,22,123,9 8 5,1.10.69,1078,B2/TT,,深愛
4,5,445,07,21/02/21,"沙田草地""A+3""                                    ",1400,好,4,13,50,葉楚航,郭能,2-3/4,38,123,14 14 11 7,1.22.42,1078,TT,,深愛
5,6,346,02,17/01/21,"沙田草地""A""                                    ",1400,好,4,6,48,葉楚航,潘頓,頭位,6.9,124,5 5 4 2,1.23.92,1094,TT,,深愛
6,7,310,04,01/01/21,"沙田草地""B+2""                                    ",1400,好,4,5,48,葉楚航,梁家俊,3,25,121,12 11 11 4,1.22.50,1086,CP-/TT,,深愛
7,8,153,WV,01/11/20,"沙田草地""A""                                    ",1400,好/快,4,--,48,葉楚航,潘頓,--,--,122,--,--,--,--,--,深愛
8,9,94,02,11/10/20,"沙田草地""A+3""                                    ",1400,好,4,5,47,葉楚航,郭能,1-1/4,28,122,8 8 8 2,1.22.06,1068,CP1/TT,,深愛
9,10,43,07,20/09/20,"沙田草地""B+2""                                    ",1400,好/快,4,12,49,葉楚航,賀銘年,5-1/2,42,121,11 11 11 7,1.22.78,1067,TT,,深愛
10,11,3,10,06/09/20,"沙田草地""A""                                    ",1200,好,4,1,50,葉楚航,黃皓楠,5-1/4,41,120,9 9 10,1.10.44,1076,TT,,深愛
11,12,781,07,01/07/20,"沙田草地""C""                                    ",1400,好/快,4,11,53,葉楚航,薛恩,5-1/2,31,126,3 4 4 7,1.22.32,1075,TT,,深愛
12,13,746,06,14/06/20,"沙田草地""C+3""                                    ",1400,好/快,4,13,55,葉楚航,賀銘年,4-1/2,19,130,14 10 10 6,1.22.31,1055,TT,,深愛
13,14,690,04,27/05/20,沙田全天候                                    ,1200,濕慢,4,5,57,葉楚航,賀銘年,6-1/2,16,132,12 12 4,1.09.56,1053,TT,,深愛
14,15,629,05,03/05/20,"沙田草地""B""                                    ",1400,好/快,4,10,58,葉楚航,賀銘年,2-1/2,44,133,13 13 12 5,1.22.11,1056,TT,,深愛
15,16,532,13,29/03/20,"沙田草地""A+3""                                    ",1400,好,4,4,58,葉楚航,潘頓,14-3/4,6.7,131,7 10 10 13,1.25.18,1064,TT,,深愛
16,17,366,02,27/01/20,"沙田草地""B+2""                                    ",1400,好,4,9,56,葉楚航,潘頓,短馬頭位,12,129,10 11 9 2,1.22.69,1042,TT,,深愛
17,18,328,05,11/01/20,"沙田草地""A""                                    ",1400,好,4,7,56,葉楚航,陳嘉熙,1,11,119,2 3 3 5,1.23.00,1045,TT,,深愛
18,19,268,01,21/12/19,"沙田草地""A+3""                                    ",1400,好,4,4,50,葉楚航,潘頓,1/2,2.8,123,6 6 4 1,1.23.27,1056,TT2,,深愛
19,20,223,06,04/12/19,"跑馬地草地""B""                                    ",1650,好,4,10,52,葉楚航,莫雷拉,2-3/4,27,126,5 7 7 6,1.40.47,1055,--,,深愛
20,21,98,10,16/10/19,"跑馬地草地""C""                                    ",1000,好,4,1,54,葉楚航,巫顯東,6-1/4,13,124,10 11 10,0.58.17,1033,--,,深愛
21,22,25,07,11/09/19,"跑馬地草地""B""                                    ",1000,好,4,6,54,葉楚航,巫顯東,2-3/4,14,125,8 9 7,0.57.87,1031,--,,深愛
22,23,756,08,23/06/19,"沙田草地""A""                                    ",1400,好/快,4,11,59,葉楚航,黃皓楠,3-1/4,17,129,13 14 11 8,1.22.21,1058,--,,深愛
23,24,692,11,26/05/19,"沙田草地""A""                                    ",1600,好/黏,4,8,59,葉楚航,黃俊,4-3/4,24,128,2 2 2 11,1.36.58,1058,TT-,,深愛
24,25,595,03,22/04/19,"沙田草地""C+3""                                    ",1400,好,4,6,58,葉楚航,莫雷拉,1-1/4,7.4,132,8 11 13 3,1.22.09,1049,TT,,深愛
25,26,501,07,17/03/19,"沙田草地""A""                                    ",1400,好,4,13,58,葉楚航,潘頓,3,4.4,132,14 14 14 7,1.22.92,1045,TT,,深愛
26,27,426,03,17/02/19,"沙田草地""A+3""                                    ",1400,好,4,10,56,葉楚航,潘頓,1/2,3.2,129,10 9 8 3,1.22.33,1054,TT,,深愛
27,28,348,04,20/01/19,"沙田草地""A+3""                                    ",1400,好,4,12,58,葉楚航,潘頓,3,7.8,131,13 12 10 4,1.23.15,1063,B-/TT,,深愛
28,29,268,06,19/12/18,沙田全天候                                    ,1200,好,4,12,60,葉楚航,田泰安,3-3/4,5.8,133,8 8 6,1.09.74,1045,B2/TT,,深愛
29,30,195,03,21/11/18,"跑馬地草地""C+3""                                    ",1650,好/黏,3,1,61,葉楚航,賴維銘                                    ,3,13,115,3 3 3 3,1.41.05,1057,TT,,深愛
30,31,143,11,31/10/18,沙田全天候                                    ,1650,好,3,7,61,葉楚航,利敬國,9-1/2,12,115,7 8 10 11,1.39.87,1062,B-/TT,,深愛
31,32,94,02,13/10/18,沙田全天候                                    ,1200,好,4,6,59,葉楚航,潘頓,頭位,3.6,131,8 7 2,1.09.08,1057,B2/TT,,深愛
32,33,41,11,22/09/18,"沙田草地""A""                                    ",1400,好/快,4,12,60,葉楚航,黃皓楠,9-1/4,12,130,13 14 14 11,1.22.88,1060,TT,,深愛
33,34,759,08,27/06/18,"跑馬地草地""C""                                    ",1650,好/快,3,6,62,葉楚航,莫雷拉,5-3/4,3.4,118,10 10 11 8,1.40.93,1041,TT,,深愛
34,35,722,02,10/06/18,"沙田草地""C""                                    ",1400,好/快,4,11,60,葉楚航,黃皓楠,頭位,12,128,13 13 13 2,1.22.46,1037,B-/TT,,深愛
35,36,596,WV,25/04/18,"跑馬地草地""C""                                    ",1200,好,4,--,60,葉楚航,李寶利,--,--,133,--,--,--,--,--,深愛
36,37,588,03,21/04/18,"沙田草地""C+3""                                    ",1200,好,4,4,60,葉楚航,潘頓,1-1/4,4.6,133,11 8 3,1.09.91,1048,B/TT,,深愛
37,38,508,06,18/03/18,"沙田草地""A""                                    ",1200,好,3,13,61,葉楚航,莫雷拉,3-1/4,6.3,115,9 6 6,1.10.02,1053,B/TT,,深愛
38,39,425,04,14/02/18,"跑馬地草地""B""                                    ",1200,好,3,8,62,葉楚航,梁家俊,3,13,115,11 10 4,1.10.25,1059,B/TT,,深愛
39,40,346,03,13/01/18,"沙田草地""C+3""                                    ",1400,好,3,3,62,葉楚航,田泰安,2-1/4,3.7,115,7 7 9 3,1.22.75,1051,B/TT,,深愛
40,41,271,05,13/12/17,"跑馬地草地""C""                                    ",1200,好,3,8,61,葉楚航,莫雷拉,1,8.8,116,10 11 5,1.10.15,1049,B/TT,,深愛
41,42,177,09,08/11/17,"跑馬地草地""B""                                    ",1200,好,3,4,61,葉楚航,巴度,7-1/2,3.3,118,8 9 9,1.10.76,1045,B/TT,,深愛
42,43,777,09,01/07/17,"沙田草地""A+3""                                    ",1400,好/快,3,12,61,葉楚航,莫雷拉,7-1/4,3.3,116,1 3 3 9,1.22.87,1013,B/TT,,深愛
43,44,702,02,04/06/17,"沙田草地""B""                                    ",1400,好/快,4,13,60,葉楚航,韋紀力                                    ,2-1/4,2.5,133,2 1 1 2,1.23.31,1022,B/TT,,深愛
44,45,535,01,02/04/17,"沙田草地""B+2""                                    ",1200,好/快,4,13,52,葉楚航,莫雷拉,1,6,126,11 8 1,1.09.61,996,B1/TT1,,深愛
