,Unnamed: 0,場次,名次,日期,馬場/跑道/賽道,途程,場地狀況,賽事班次,檔位,評分,練馬師,騎師,頭馬距離,獨贏賠率,實際負磅,沿途走位,完成時間,排位體重,配備,賽事重播,馬名
0,1,693,5,23/05/21,"沙田草地""A""                                    ",2000,好/快,4,2,53,蘇偉賢,黎海榮,2-3/4,29.0,126,11 11 12 11 5,2.02.69,1073,TT,,湛江最醒
1,2,656,7,08/05/21,"沙田草地""C""                                    ",1800,好/快,4,9,55,蘇偉賢,黎海榮,6-1/2,68.0,128,12 13 11 14 7,1.48.66,1080,TT,,湛江最醒
2,3,608,6,21/04/21,"跑馬地草地""C""                                    ",1650,好/快,4,9,57,蘇偉賢,潘頓,3-1/4,9.2,132,6 7 9 6,1.40.30,1069,TT,,湛江最醒
3,4,529,8,24/03/21,"跑馬地草地""C+3""                                    ",1650,好/快,4,4,59,蘇偉賢,周俊樂,3-1/2,5.6,126,9 9 10 8,1.40.25,1067,TT,,湛江最醒
4,5,417,9,10/02/21,"跑馬地草地""B""                                    ",1650,好,4,7,60,蘇偉賢,蘇銘倫,4-1/4,7.7,133,9 9 9 9,1.41.92,1074,TT,,湛江最醒
5,6,339,4,13/01/21,"跑馬地草地""B""                                    ",1650,好,4,8,60,蘇偉賢,彭國年,1,14.0,133,8 6 5 4,1.41.10,1075,TT,,湛江最醒
6,7,251,2,09/12/20,"跑馬地草地""B""                                    ",1650,好,4,6,59,蘇偉賢,潘頓,1-1/4,5.6,133,9 9 5 2,1.40.28,1071,TT,,湛江最醒
7,8,179,2,11/11/20,"跑馬地草地""B""                                    ",1650,好,4,11,57,蘇偉賢,潘頓,頸位,7.6,133,8 7 6 2,1.40.51,1071,TT,,湛江最醒
8,9,123,5,21/10/20,"跑馬地草地""C""                                    ",1650,好/快,4,2,58,蘇偉賢,賀銘年,3-1/4,4.3,132,5 6 5 5,1.39.92,1056,TT,,湛江最醒
9,10,89,3,07/10/20,"跑馬地草地""A""                                    ",1650,好,4,11,58,蘇偉賢,賀銘年,2-1/2,28.0,133,10 11 11 3,1.40.80,1060,TT,,湛江最醒
10,11,708,13,31/05/20,"沙田草地""B""                                    ",1400,好,3,9,61,蘇偉賢,潘明輝,6-1/2,145.0,113,11 11 13 13,1.22.49,1049,TT,,湛江最醒
11,12,639,10,06/05/20,"跑馬地草地""B""                                    ",1200,好/快,3,6,62,蘇偉賢,黎海榮,3-1/2,71.0,117,10 10 10,1.09.90,1051,TT,,湛江最醒
12,13,534,7,29/03/20,"沙田草地""A+3""                                    ",1400,好,3,10,64,蘇偉賢,田泰安,5-1/4,13.0,117,10 10 9 7,1.23.27,1055,TT,,湛江最醒
13,14,496,9,14/03/20,"沙田草地""C+3""                                    ",1400,好,3,12,64,蘇偉賢,楊明綸,2,29.0,117,14 11 9 9,1.21.92,1064,TT,,湛江最醒
14,15,462,4,01/03/20,"沙田草地""B+2""                                    ",1400,好,3,6,64,蘇偉賢,梁家俊,1-3/4,69.0,118,13 13 10 4,1.22.19,1060,TT,,湛江最醒
15,16,414,4,12/02/20,"跑馬地草地""C+3""                                    ",1650,好/快,3,6,64,蘇偉賢,田泰安,1-1/2,15.0,117,3 3 4 4,1.39.45,1061,TT,,湛江最醒
16,17,358,6,22/01/20,"跑馬地草地""A""                                    ",1650,好,3,1,64,蘇偉賢,田泰安,2-1/2,3.5,117,5 7 7 6,1.40.83,1060,TT,,湛江最醒
17,18,281,2,26/12/19,"跑馬地草地""A""                                    ",1650,好,3,3,64,蘇偉賢,田泰安,2-3/4,15.0,118,8 10 11 2,1.40.27,1053,TT,,湛江最醒
18,19,223,1,04/12/19,"跑馬地草地""B""                                    ",1650,好,4,2,58,蘇偉賢,潘頓,3/4,3.2,132,6 6 6 1,1.40.04,1042,TT,,湛江最醒
19,20,154,2,06/11/19,"跑馬地草地""B""                                    ",1650,好,4,12,57,蘇偉賢,潘頓,1-1/4,5.1,130,11 10 11 2,1.40.78,1043,TT,,湛江最醒
20,21,79,3,09/10/19,"跑馬地草地""B""                                    ",1650,好,4,3,57,蘇偉賢,潘頓,1-3/4,4.4,130,8 9 7 3,1.40.03,1030,H-/TT,,湛江最醒
21,22,816,9,14/07/19,"沙田草地""A""                                    ",1600,好/快,3,7,61,蘇偉賢,蔡明紹,4-1/2,62.0,114,9 10 10 9,1.35.18,1033,H/TT,,湛江最醒
22,23,768,8,26/06/19,"跑馬地草地""B""                                    ",1650,好/快,3,4,63,蘇偉賢,梁家俊,5-3/4,14.0,116,9 9 9 8,1.39.73,1020,H/TT,,湛江最醒
23,24,674,12,18/05/19,"沙田草地""C+3""                                    ",1600,好/快,3,13,65,蘇偉賢,貝力斯,9-1/2,28.0,118,12 12 11 12,1.35.66,1024,H/TT,,湛江最醒
24,25,592,5,17/04/19,"跑馬地草地""B""                                    ",1650,好,3,10,65,蘇偉賢,何澤堯,3-1/4,5.4,118,10 10 10 5,1.40.33,1040,H/TT,,湛江最醒
25,26,514,4,20/03/19,"跑馬地草地""C""                                    ",1650,好/快,3,9,63,蘇偉賢,何澤堯,3/4,15.0,115,10 10 8 4,1.39.79,1035,H/TT,,湛江最醒
26,27,458,3,27/02/19,"跑馬地草地""C+3""                                    ",1650,好/快,3,11,63,蘇偉賢,何澤堯,2-1/4,85.0,116,11 10 10 3,1.39.40,1030,H/TT,,湛江最醒
27,28,391,8,02/02/19,沙田全天候                                    ,1650,好,3,5,65,蘇偉賢,梁家俊,4-1/4,72.0,120,11 11 12 8,1.39.93,1035,H/TT,,湛江最醒
28,29,263,13,16/12/18,"沙田草地""C+3""                                    ",1600,好,3,13,68,蘇偉賢,史卓豐,8-1/4,131.0,122,12 12 12 13,1.35.86,1051,H/TT,,湛江最醒
29,30,207,6,25/11/18,"沙田草地""C""                                    ",1600,黏,3,6,70,蘇偉賢,賴維銘                                    ,7-1/4,164.0,123,10 10 10 6,1.38.27,1042,H/TT,,湛江最醒
30,31,169,7,10/11/18,"沙田草地""A""                                    ",1400,好,3,6,72,蘇偉賢,賴維銘                                    ,6-1/2,300.0,126,12 13 13 7,1.22.69,1060,H/TT,,湛江最醒
31,32,117,13,21/10/18,"沙田草地""A""                                    ",1200,好/快,3,7,72,蘇偉賢,麥偉利                                    ,7-3/4,252.0,125,12 13 13,1.10.45,1060,H1/TT1,,湛江最醒
