,Unnamed: 0,場次,名次,日期,馬場/跑道/賽道,途程,場地狀況,賽事班次,檔位,評分,練馬師,騎師,頭馬距離,獨贏賠率,實際負磅,沿途走位,完成時間,排位體重,配備,賽事重播,馬名
0,1,669,3,12/05/21,沙田全天候                                    ,1200,好,3,5,75,徐雨石,黃皓楠,1-1/2,34.0,126,10 8 3,1.08.82,1013,--,,激賞
1,2,599,9,17/04/21,沙田全天候                                    ,1200,好,3,8,77,徐雨石,黃皓楠,5-3/4,19.0,130,10 10 9,1.10.05,1020,--,,激賞
2,3,553,10,31/03/21,沙田全天候                                    ,1200,好,3,9,79,徐雨石,黃皓楠,3-3/4,9.0,130,6 7 10,1.09.25,1005,--,,激賞
3,4,516,7,17/03/21,"跑馬地草地""C""                                    ",1200,好/快,2,2,81,徐雨石,楊明綸,3-1/2,28.0,114,4 4 7,1.09.48,1014,--,,激賞
4,5,481,4,07/03/21,"沙田草地""C""                                    ",1000,好,2,1,83,徐雨石,楊明綸,2,32.0,119,4 6 4,0.56.70,1043,--,,激賞
5,6,294,7,23/12/20,"跑馬地草地""C+3""                                    ",1200,好/快,2,9,85,徐雨石,黃皓楠,4,75.0,117,12 12 7,1.09.42,1013,--,,激賞
6,7,266,12,13/12/20,"沙田草地""A""                                    ",1200,好,2,5,87,徐雨石,黃皓楠,6-3/4,218.0,116,3 5 12,1.09.94,1019,--,,激賞
7,8,212,12,22/11/20,"沙田草地""B+2""                                    ",1200,好/快,2,13,89,徐雨石,黃俊,8-1/2,223.0,120,13 13 12,1.09.50,1032,--,,激賞
8,9,175,7,08/11/20,"跑馬地草地""A""                                    ",1200,好,2,4,89,徐雨石,黃皓楠,2-1/2,23.0,121,5 5 7,1.10.27,1028,--,,激賞
9,10,92,2,07/10/20,"跑馬地草地""A""                                    ",1000,好,2,7,89,徐雨石,黃皓楠,1-3/4,90.0,122,7 7 2,0.56.97,1021,--,,激賞
10,11,799,9,05/07/20,"沙田草地""C+3""                                    ",1200,好/快,2,11,92,蔡約翰,陳嘉熙,6-1/4,67.0,122,7 8 9,1.09.34,1028,--,,激賞
11,12,745,3,14/06/20,沙田全天候                                    ,1200,濕慢,2,2,92,蔡約翰,莫雷拉,1-1/4,2.6,129,2 2 3,1.08.07,1024,--,,激賞
12,13,591,2,19/04/20,沙田全天候                                    ,1200,好,2,1,91,蔡約翰,莫雷拉,2,5.5,128,5 3 2,1.07.61,1019,--,,激賞
13,14,536,9,29/03/20,"沙田草地""A+3""                                    ",1200,好,2,6,93,蔡約翰,潘明輝,6,55.0,126,6 7 9,1.10.28,1007,--,,激賞
14,15,451,5,26/02/20,"跑馬地草地""A""                                    ",1200,好,1,7,93,蔡約翰,潘明輝,3/4,14.0,118,3 1 5,1.09.38,1019,--,,激賞
15,16,434,2,19/02/20,沙田全天候                                    ,1200,好,2,4,92,蔡約翰,莫雷拉,1-1/4,4.2,122,3 3 2,1.07.99,1016,--,,激賞
16,17,379,7,29/01/20,"跑馬地草地""B""                                    ",1200,好,2,10,94,蔡約翰,莫雷拉,3-1/2,33.0,131,3 2 7,1.09.56,1016,--,,激賞
17,18,350,12,19/01/20,"沙田草地""A+3""                                    ",1200,好,2,14,96,蔡約翰,潘明輝,5-3/4,158.0,127,13 13 12,1.09.48,1018,--,,激賞
18,19,292,9,29/12/19,沙田全天候                                    ,1650,濕慢,2,3,98,蔡約翰,薛恩,11,9.8,127,4 4 8 9,1.40.19,1011,--,,激賞
19,20,235,9,08/12/19,"沙田草地""A""                                    ",1200,好,2,3,100,蔡約翰,巴度,3-3/4,26.0,131,6 6 9,1.09.59,1018,--,,激賞
20,21,166,6,09/11/19,"沙田草地""A""                                    ",1400,好/快,1,4,102,蔡約翰,巴度,3-1/2,60.0,127,5 4 4 6,1.20.49,1004,--,,激賞
21,22,107,7,20/10/19,"沙田草地""A""                                    ",1200,好/快,G2,1,104,蔡約翰,蔡明紹,4-1/4,51.0,113,3 3 7,1.09.51,1011,--,,激賞
22,23,60,4,01/10/19,"沙田草地""A+3""                                    ",1000,好/快,G3,2,104,蔡約翰,田泰安,1-1/2,27.0,113,2 2 4,0.55.38,1008,--,,激賞
23,24,689,8,26/05/19,"沙田草地""A""                                    ",1200,好/黏,G3,4,105,蔡約翰,史卓豐,7-1/4,10.0,117,4 4 8,1.10.00,990,--,,激賞
24,25,599,3,22/04/19,沙田全天候                                    ,1200,好,2,5,105,蔡約翰,莫雷拉,2,4.3,133,7 4 3,1.08.47,982,--,,激賞
25,26,478,2,10/03/19,"沙田草地""C+3""                                    ",1200,好,1,3,105,蔡約翰,潘頓,1-1/4,2.5,119,1 1 2,1.10.23,991,--,,激賞
26,27,420,3,13/02/19,"跑馬地草地""B""                                    ",1200,好,1,3,104,蔡約翰,莫雷拉,1/2,2.3,128,5 5 3,1.09.38,995,--,,激賞
27,28,271,1,19/12/18,沙田全天候                                    ,1200,好,2,7,94,蔡約翰,莫雷拉,4,3.8,122,3 3 1,1.07.70,991,--,,激賞
28,29,225,2,02/12/18,沙田全天候                                    ,1200,好,2,11,94,蔡約翰,祈普敦                                    ,3,18.0,131,10 9 2,1.08.22,984,--,,激賞
29,30,162,3,07/11/18,"跑馬地草地""B""                                    ",1200,好,2,12,93,蔡約翰,祈普敦                                    ,1/2,13.0,131,7 5 3,1.10.34,979,--,,激賞
30,31,136,3,28/10/18,"跑馬地草地""A""                                    ",1200,好,2,7,92,蔡約翰,田泰安,3/4,3.6,128,5 4 3,1.10.36,988,--,,激賞
31,32,89,4,10/10/18,"跑馬地草地""B""                                    ",1000,好,2,4,92,蔡約翰,田泰安,1,5.0,126,10 9 4,0.57.51,986,--,,激賞
32,33,795,2,11/07/18,"跑馬地草地""A""                                    ",1200,好/快,2,3,90,蔡約翰,田泰安,1,3.3,119,2 4 2,1.09.15,973,--,,激賞
33,34,704,4,03/06/18,"沙田草地""B""                                    ",1200,好/快,2,3,90,蔡約翰,郭能,3-1/4,15.0,127,4 5 4,1.08.74,969,--,,激賞
34,35,674,1,23/05/18,"跑馬地草地""C""                                    ",1200,好/快,2,4,84,蔡約翰,莫雷拉,鼻位,3.1,120,3 3 1,1.08.56,984,--,,激賞
35,36,648,4,12/05/18,"沙田草地""C""                                    ",1000,好,2,10,84,蔡約翰,蔡明紹,2-1/2,5.5,113,7 8 4,0.55.83,990,--,,激賞
36,37,594,13,21/04/18,"沙田草地""C+3""                                    ",1400,好,2,13,85,蔡約翰,莫雷拉,10,6.8,125,6 3 4 13,1.23.33,990,--,,激賞
37,38,556,4,08/04/18,"沙田草地""C""                                    ",1000,好,2,1,86,蔡約翰,田泰安,2,11.0,119,9 10 4,0.55.79,1000,--,,激賞
38,39,510,4,18/03/18,"沙田草地""A""                                    ",1200,好,2,2,86,蔡約翰,莫雷拉,1-3/4,2.9,119,5 6 4,1.09.73,1009,--,,激賞
39,40,464,7,28/02/18,沙田全天候                                    ,1200,好,2,8,86,蔡約翰,田泰安,3-1/4,7.7,119,6 8 7,1.08.71,1017,--,,激賞
