,Unnamed: 0,場次,名次,日期,馬場/跑道/賽道,途程,場地狀況,賽事班次,檔位,評分,練馬師,騎師,頭馬距離,獨贏賠率,實際負磅,沿途走位,完成時間,排位體重,配備,賽事重播,馬名
0,1,661,6,08/05/21,沙田全天候                                    ,1650,好,2,3,103,苗禮德,莫雷拉,7-3/4,6.5,133,8 8 5 6,1.37.39,1154,B/TT,,烽煙四喜
1,2,554,4,31/03/21,沙田全天候                                    ,1650,好,2,1,103,苗禮德,莫雷拉,2-1/4,3.5,132,5 5 5 4,1.37.61,1145,B/TT,,烽煙四喜
2,3,347,1,17/01/21,沙田全天候                                    ,1650,好,1,5,97,苗禮德,莫雷拉,1-3/4,5.3,121,7 2 1 1,1.37.85,1163,B/TT,,烽煙四喜
3,4,303,4,26/12/20,沙田全天候                                    ,1650,好,2,6,98,苗禮德,莫雷拉,2-1/4,4.1,133,9 10 9 4,1.39.06,1156,B/TT,,烽煙四喜
4,5,208,11,22/11/20,"沙田草地""B+2""                                    ",1800,好/快,2,5,100,苗禮德,史卓豐,5-3/4,71.0,133,6 6 7 6 11,1.47.28,1149,B2/TT,,烽煙四喜
5,6,165,4,04/11/20,沙田全天候                                    ,1650,好,2,2,102,苗禮德,巴度,5,5.7,133,4 4 3 4,1.40.03,1159,TT,,烽煙四喜
6,7,62,11,27/09/20,"沙田草地""A""                                    ",1400,好,G3,8,104,苗禮德,蔡明紹,10,225.0,113,11 11 11 11,1.22.13,1167,TT,,烽煙四喜
7,8,707,10,31/05/20,"沙田草地""B""                                    ",1600,好,G3,11,106,苗禮德,梁家俊,7-1/4,44.0,116,7 7 9 10,1.34.12,1137,TT,,烽煙四喜
8,9,609,7,26/04/20,"沙田草地""A""                                    ",2000,好,G1,6,106,苗禮德,波健士,8,61.0,126,4 6 6 7 7,2.01.27,1145,TT,,烽煙四喜
9,10,292,2,29/12/19,沙田全天候                                    ,1650,濕慢,2,8,104,苗禮德,蘇兆輝,1/2,4.0,133,9 5 3 2,1.38.54,1150,TT,,烽煙四喜
10,11,175,7,17/11/19,"沙田草地""B""                                    ",1600,好/快,G2,5,104,苗禮德,蘇兆輝,6-1/2,31.0,123,6 6 6 7,1.33.93,1144,TT,,烽煙四喜
11,12,127,1,27/10/19,沙田全天候                                    ,1650,好,2,2,96,苗禮德,莫雷拉,1-3/4,2.3,131,5 5 4 1,1.38.52,1139,TT,,烽煙四喜
12,13,18,2,08/09/19,沙田全天候                                    ,1200,好,2,7,94,苗禮德,莫雷拉,1/2,6.4,130,7 5 2,1.08.20,1130,TT,,烽煙四喜
13,14,817,3,14/07/19,"沙田草地""A""                                    ",1400,好/快,2,2,93,苗禮德,梁家俊,1/2,39.0,121,2 4 4 3,1.21.01,1121,TT,,烽煙四喜
14,15,486,4,10/03/19,沙田全天候                                    ,1650,濕慢,2,7,93,苗禮德,蘇兆輝,4-1/4,2.2,131,4 4 4 4,1.39.49,1127,TT,,烽煙四喜
15,16,338,1,12/01/19,沙田全天候                                    ,1650,好,2,10,80,苗禮德,蘇兆輝,1,4.4,115,9 6 5 1,1.37.32,1129,TT,,烽煙四喜
16,17,183,1,18/11/18,沙田全天候                                    ,1650,好,3,11,74,苗禮德,史卓豐,1/2,3.4,129,11 11 8 1,1.39.03,1108,TT,,烽煙四喜
17,18,143,1,31/10/18,沙田全天候                                    ,1650,好,3,2,62,苗禮德,史卓豐,4-3/4,2.1,115,5 6 4 1,1.38.34,1104,TT,,烽煙四喜
18,19,40,1,22/09/18,"沙田草地""A""                                    ",1600,好/快,4,12,57,苗禮德,史卓豐,1/2,18.0,131,6 6 5 1,1.33.98,1103,PC-/TT,,烽煙四喜
19,20,801,1,15/07/18,"沙田草地""A""                                    ",1400,黏,4,3,51,告達理                                    ,祈普敦                                    ,1,12.0,124,9 6 3 1,1.24.22,1052,PC/TT,,烽煙四喜
20,21,792,10,11/07/18,"跑馬地草地""A""                                    ",1650,好/快,4,11,51,告達理                                    ,沈拿,5-1/2,29.0,124,4 1 1 10,1.41.30,1068,PC/TT,,烽煙四喜
21,22,764,1,01/07/18,沙田全天候                                    ,1650,濕慢,4,7,43,告達理                                    ,莫雷拉,5-1/2,4.4,116,4 4 1 1,1.39.51,1070,PC/TT,,烽煙四喜
22,23,719,3,10/06/18,沙田全天候                                    ,1650,好,4,9,43,告達理                                    ,沈拿,3-1/2,11.0,116,4 3 3 3,1.39.26,1071,PC/TT,,烽煙四喜
23,24,691,8,30/05/18,沙田全天候                                    ,1650,好,4,11,45,告達理                                    ,沈拿,2-1/4,16.0,118,13 13 12 8,1.39.39,1073,PC/TT,,烽煙四喜
24,25,642,6,12/05/18,沙田全天候                                    ,1200,好,4,9,47,告達理                                    ,黃俊,6-3/4,3.5,111,8 9 6,1.09.42,1070,PC/TT,,烽煙四喜
25,26,586,7,21/04/18,沙田全天候                                    ,1650,好,4,9,49,告達理                                    ,杜利萊                                    ,2-3/4,6.7,124,5 5 7 7,1.39.07,1061,B-/PC2/TT,,烽煙四喜
26,27,552,9,08/04/18,沙田全天候                                    ,1650,好,4,11,50,告達理                                    ,杜利萊                                    ,5-1/2,7.8,125,5 5 6 9,1.40.08,1074,PC-/B1/TT,,烽煙四喜
27,28,488,4,11/03/18,沙田全天候                                    ,1650,好,4,9,50,告達理                                    ,杜利萊                                    ,2-1/2,8.7,123,9 7 5 4,1.38.78,1066,PC/TT,,烽煙四喜
28,29,462,4,28/02/18,沙田全天候                                    ,1650,好,4,9,50,告達理                                    ,史卓豐,1-1/2,6.8,123,4 5 5 4,1.38.66,1070,PC/TT,,烽煙四喜
29,30,414,1,10/02/18,沙田全天候                                    ,1650,好,4,5,45,告達理                                    ,史卓豐,1-1/4,6.0,118,5 4 3 1,1.38.77,1075,PC/TT,,烽煙四喜
30,31,369,5,24/01/18,沙田全天候                                    ,1650,好,4,14,47,告達理                                    ,沈拿,4-1/4,14.0,120,11 9 10 5,1.39.09,1077,PC/TT,,烽煙四喜
31,32,321,4,07/01/18,沙田全天候                                    ,1650,濕慢,4,2,47,告達理                                    ,沈拿,3/4,7.9,120,4 4 3 4,1.39.35,1073,PC/TT,,烽煙四喜
32,33,275,2,17/12/17,沙田全天候                                    ,1200,好,4,5,47,告達理                                    ,沈拿,1-1/2,14.0,119,9 7 2,1.09.34,1083,PC/TT,,烽煙四喜
33,34,236,6,03/12/17,沙田全天候                                    ,1200,好,4,11,49,告達理                                    ,沈拿,7-1/4,11.0,122,7 9 6,1.09.54,1083,PC/TT,,烽煙四喜
34,35,149,10,29/10/17,"跑馬地草地""A""                                    ",1650,好/快,4,12,51,告達理                                    ,蔡明紹,6-1/2,31.0,125,12 12 12 10,1.41.81,1064,CP-/PC1/TT,,烽煙四喜
35,36,97,6,08/10/17,沙田全天候                                    ,1650,好,4,12,53,告達理                                    ,潘明輝,3-1/2,15.0,119,9 1 1 6,1.40.87,1058,CP/TT,,烽煙四喜
36,37,41,5,16/09/17,沙田全天候                                    ,1650,好,4,8,53,告達理                                    ,杜利萊                                    ,3-1/2,18.0,127,2 2 2 5,1.40.18,1060,CP/TT,,烽煙四喜
37,38,573,13,17/04/17,"沙田草地""C+3""                                    ",1800,好/快,4,12,58,告達理                                    ,何澤堯,9-3/4,146.0,128,12 13 13 13 13,1.49.97,1035,XB-/CP1/TT1,,烽煙四喜
38,39,544,9,02/04/17,"沙田草地""B+2""                                    ",1800,好/快,3,5,60,告達理                                    ,黃皓楠,6-1/2,268.0,108,14 14 14 14 9,1.48.22,1058,XB,,烽煙四喜
39,40,489,13,12/03/17,"沙田草地""C+3""                                    ",1600,好,3,3,62,告達理                                    ,巫顯東,6-1/2,195.0,105,11 13 12 13,1.35.65,1052,XB,,烽煙四喜
40,41,451,9,26/02/17,"沙田草地""B""                                    ",1600,好,3,4,64,告達理                                    ,何澤堯,4-3/4,271.0,117,10 13 13 9,1.35.10,1067,XB,,烽煙四喜
41,42,321,11,08/01/17,"沙田草地""C""                                    ",1400,好/快,3,8,66,告達理                                    ,巴度,5-1/2,138.0,119,9 10 10 11,1.23.16,1079,XB,,烽煙四喜
42,43,252,10,11/12/16,"沙田草地""A""                                    ",1400,好,3,4,66,告達理                                    ,韋紀力                                    ,5-3/4,80.0,120,8 9 11 10,1.23.07,1078,XB1,,烽煙四喜
