,Unnamed: 0,場次,名次,日期,馬場/跑道/賽道,途程,場地狀況,賽事班次,檔位,評分,練馬師,騎師,頭馬距離,獨贏賠率,實際負磅,沿途走位,完成時間,排位體重,配備,賽事重播,馬名
0,1,715,2,30/05/21,"沙田草地""B""                                    ",1200,好/快,3,8,69,文家良,蔡明紹,1-1/2,5.2,122,3 2 2,1.08.95,1225,B,,無敵勇士
1,2,615,1,25/04/21,"沙田草地""A""                                    ",1200,好,3,8,63,文家良,蔡明紹,1/2,17.0,117,2 1 1,1.09.12,1231,B,,無敵勇士
2,3,544,3,28/03/21,"沙田草地""A+3""                                    ",1200,好/快,3,7,63,文家良,蔡明紹,1-1/4,16.0,116,3 5 3,1.08.89,1224,B,,無敵勇士
3,4,467,5,28/02/21,"沙田草地""B+2""                                    ",1200,好,3,8,64,文家良,蔡明紹,1-1/2,44.0,117,2 2 5,1.09.47,1227,B,,無敵勇士
4,5,409,5,06/02/21,"沙田草地""C""                                    ",1000,好,3,6,66,文家良,郭能,4,20.0,121,10 5 5,0.56.21,1227,B1,,無敵勇士
5,6,351,5,17/01/21,"沙田草地""A""                                    ",1000,好,3,10,68,文家良,郭能,3-1/2,13.0,123,7 5 5,0.57.79,1220,--,,無敵勇士
6,7,311,9,01/01/21,"沙田草地""B+2""                                    ",1200,好,3,7,70,文家良,賀銘年,5,63.0,123,6 6 9,1.09.98,1226,--,,無敵勇士
7,8,228,5,29/11/20,"沙田草地""C""                                    ",1200,好,3,1,72,文家良,賀銘年,3-1/2,61.0,125,5 5 5,1.09.67,1227,--,,無敵勇士
8,9,136,11,24/10/20,"沙田草地""C""                                    ",1000,好,3,13,74,文家良,彭國年,4,61.0,128,9 8 11,0.57.25,1226,CP-,,無敵勇士
9,10,83,13,04/10/20,"沙田草地""C+3""                                    ",1000,好,3,11,76,文家良,史卓豐,16-1/4,24.0,129,8 9 13,0.57.89,1208,CP1,,無敵勇士
10,11,7,13,06/09/20,"沙田草地""A""                                    ",1000,好,3,4,76,文家良,史卓豐,7,5.9,129,6 9 13,0.56.88,1222,--,,無敵勇士
11,12,788,5,01/07/20,"沙田草地""C""                                    ",1000,好/快,3,8,76,文家良,莫雷拉,4-3/4,4.3,129,2 2 5,0.56.42,1218,--,,無敵勇士
12,13,725,2,07/06/20,"沙田草地""C""                                    ",1000,黏,3,7,74,文家良,莫雷拉,短馬頭位,2.0,127,3 3 2,0.57.12,1221,--,,無敵勇士
13,14,665,2,17/05/20,"沙田草地""C+3""                                    ",1000,好/快,3,14,71,文家良,史卓豐,頸位,1.9,124,2 1 2,0.55.28,1227,--,,無敵勇士
14,15,603,3,26/04/20,"沙田草地""A""                                    ",1200,好,3,11,71,文家良,史卓豐,1-1/2,3.5,126,1 1 3,1.09.43,1232,--,,無敵勇士
15,16,533,1,29/03/20,"沙田草地""A+3""                                    ",1000,好,3,12,63,文家良,史卓豐,短馬頭位,2.5,118,3 2 1,0.56.40,1227,--,,無敵勇士
16,17,459,2,01/03/20,"沙田草地""B+2""                                    ",1000,好,3,5,61,文家良,蔡明紹,1/2,1.8,115,1 1 2,0.56.28,1230,--,,無敵勇士
17,18,362,1,27/01/20,"沙田草地""B+2""                                    ",1000,好,4,1,55,文家良,蘇兆輝,頸位,2.8,128,3 3 1,0.56.79,1219,--,,無敵勇士
18,19,246,2,15/12/19,"沙田草地""C+3""                                    ",1000,好,4,2,52,文家良,史卓豐,頸位,6.7,127,2 1 2,0.56.45,1242,--,,無敵勇士
19,20,191,3,23/11/19,"沙田草地""C""                                    ",1000,好/快,4,1,52,文家良,史卓豐,5-1/2,50.0,125,11 9 3,0.56.86,1248,--,,無敵勇士
