,Unnamed: 0,場次,名次,日期,馬場/跑道/賽道,途程,場地狀況,賽事班次,檔位,評分,練馬師,騎師,頭馬距離,獨贏賠率,實際負磅,沿途走位,完成時間,排位體重,配備,賽事重播,馬名
0,1,674,1,16/05/21,"沙田草地""C+3""                                    ",1400,好/快,4,4,58,徐雨石,巫顯東,1,45.0,130,14 14 14 1,1.21.55,1065,B,,爆騷
1,2,592,11,14/04/21,"跑馬地草地""B""                                    ",1650,好/快,3,8,61,徐雨石,黃俊,12-1/4,85.0,113,3 4 8 11,1.41.38,1088,B,,爆騷
2,3,540,12,28/03/21,"沙田草地""A+3""                                    ",1400,好/快,3,10,64,徐雨石,黎海榮,8-1/4,185.0,119,12 13 13 12,1.22.63,1077,B,,爆騷
3,4,507,12,13/03/21,"沙田草地""C+3""                                    ",1400,好,3,10,66,徐雨石,黎海榮,5-3/4,194.0,119,13 12 12 12,1.22.79,1082,B,,爆騷
4,5,431,13,14/02/21,"沙田草地""A""                                    ",1600,好,3,3,68,徐雨石,彭國年,13,99.0,122,14 14 14 13,1.36.83,1089,B,,爆騷
5,6,367,13,24/01/21,"沙田草地""A+3""                                    ",1400,好,3,7,70,徐雨石,黎海榮,4-3/4,131.0,124,14 14 14 13,1.22.92,1078,B,,爆騷
6,7,305,9,26/12/20,"沙田草地""A+3""                                    ",1400,好,3,6,72,徐雨石,黎海榮,5-1/4,69.0,126,13 14 12 9,1.22.70,1088,B,,爆騷
7,8,244,12,06/12/20,"沙田草地""C+3""                                    ",1400,好,3,12,74,徐雨石,黎海榮,9-3/4,106.0,130,14 14 13 12,1.23.12,1096,B,,爆騷
8,9,192,13,14/11/20,"沙田草地""C+3""                                    ",1400,好,3,2,76,徐雨石,賀銘年,8-1/4,67.0,124,13 11 11 13,1.22.86,1080,B,,爆騷
9,10,137,12,24/10/20,"沙田草地""C""                                    ",1200,好,3,5,77,徐雨石,賀銘年,11,38.0,132,12 12 12,1.10.39,1064,B,,爆騷
10,11,816,6,12/07/20,"沙田草地""A""                                    ",1600,好/快,3,7,77,徐雨石,莫雷拉,4-1/4,7.5,131,13 13 9 6,1.33.96,1089,B,,爆騷
11,12,757,2,21/06/20,"沙田草地""A""                                    ",1400,好/快,3,9,77,徐雨石,莫雷拉,2,3.8,130,11 12 9 2,1.21.43,1090,B,,爆騷
12,13,708,3,31/05/20,"沙田草地""B""                                    ",1400,好,3,1,75,徐雨石,莫雷拉,頸位,2.7,129,7 7 6 3,1.21.48,1079,B,,爆騷
13,14,607,1,26/04/20,"沙田草地""A""                                    ",1400,好,3,8,68,徐雨石,莫雷拉,1-1/4,7.0,122,7 9 8 1,1.21.51,1089,B,,爆騷
14,15,572,1,12/04/20,"沙田草地""C""                                    ",1400,好,3,8,62,徐雨石,莫雷拉,頸位,2.7,117,9 8 7 1,1.21.27,1075,B,,爆騷
15,16,477,1,08/03/20,"沙田草地""C""                                    ",1400,好,4,1,54,徐雨石,莫雷拉,2-1/4,1.6,129,8 7 6 1,1.22.41,1091,B,,爆騷
16,17,402,1,08/02/20,"沙田草地""C+3""                                    ",1400,好,4,8,46,徐雨石,莫雷拉,2-1/2,2.5,120,11 9 9 1,1.22.07,1089,B1,,爆騷
17,18,345,3,19/01/20,"沙田草地""A+3""                                    ",1400,好,4,14,45,徐雨石,莫雷拉,3/4,4.0,120,14 14 13 3,1.22.12,1087,--,,爆騷
18,19,289,2,29/12/19,"沙田草地""B+2""                                    ",1400,好,4,7,43,徐雨石,利敬國,短馬頭位,4.1,118,9 10 10 2,1.22.44,1086,--,,爆騷
19,20,227,2,08/12/19,"沙田草地""A""                                    ",1400,好,4,5,41,徐雨石,黎海榮,短馬頭位,5.3,116,14 14 13 2,1.22.11,1094,--,,爆騷
20,21,173,3,17/11/19,"沙田草地""B""                                    ",1400,好,4,10,41,徐雨石,黎海榮,2-3/4,10.0,114,14 13 14 3,1.22.49,1086,--,,爆騷
21,22,145,6,03/11/19,"沙田草地""C+3""                                    ",1400,好/快,4,13,43,徐雨石,黎海榮,3-3/4,94.0,118,14 14 14 6,1.21.66,1101,--,,爆騷
22,23,277,7,23/12/18,"沙田草地""A+3""                                    ",1400,好,4,4,47,徐雨石,沈拿,3,22.0,120,13 14 14 7,1.23.51,1095,--,,爆騷
23,24,202,12,25/11/18,"沙田草地""C""                                    ",1600,好,4,8,50,徐雨石,史卓豐,7-1/2,35.0,123,14 14 13 12,1.37.38,1097,--,,爆騷
24,25,149,9,04/11/18,"沙田草地""C+3""                                    ",1400,好,4,13,52,徐雨石,黃俊,3-1/2,193.0,120,14 14 14 9,1.23.52,1097,--,,爆騷
25,26,344,10,13/01/18,"沙田草地""C+3""                                    ",1600,好,4,9,56,徐雨石,李寶利,10-1/2,29.0,129,13 14 14 10,1.37.07,1059,--,,爆騷
26,27,292,5,23/12/17,"沙田草地""A+3""                                    ",1400,好,R,4,56,徐雨石,沈拿,5-1/2,35.0,122,9 8 9 5,1.23.42,1058,--,,爆騷
27,28,237,9,03/12/17,"沙田草地""C+3""                                    ",1400,好,4R,8,58,徐雨石,梁家俊,7-1/2,25.0,129,13 13 12 9,1.23.82,1057,--,,爆騷
28,29,168,11,05/11/17,"沙田草地""C+3""                                    ",1400,好/快,4,10,59,徐雨石,李寶利,5-3/4,45.0,132,14 14 14 11,1.22.95,1041,--,,爆騷
29,30,73,6,01/10/17,"沙田草地""A+3""                                    ",1200,好,4,1,59,徐雨石,羅理雅                                    ,5-1/2,9.5,133,10 10 6,1.10.20,1049,--,,爆騷
30,31,779,1,09/07/17,"沙田草地""B+2""                                    ",1200,好,GRIFFIN,1,--,徐雨石,莫雷拉,1-1/4,4.9,117,11 9 1,1.09.97,1040,--,,爆騷
31,32,697,2,04/06/17,"沙田草地""B""                                    ",1200,好/快,GRIFFIN,4,--,徐雨石,梁家俊,4,8.4,118,5 5 2,1.11.60,1048,--,,爆騷
32,33,643,6,13/05/17,"沙田草地""C""                                    ",1000,好,GRIFFIN,4,--,徐雨石,何澤堯,8-1/4,65.0,118,8 6 6,0.58.44,1042,--,,爆騷
