,Unnamed: 0,場次,名次,日期,馬場/跑道/賽道,途程,場地狀況,賽事班次,檔位,評分,練馬師,騎師,頭馬距離,獨贏賠率,實際負磅,沿途走位,完成時間,排位體重,配備,賽事重播,馬名
0,1,723,10,02/06/21,"跑馬地草地""A""                                    ",1200,好,4,8,47,告東尼,彭國年,10-1/2,43.0,120,10 12 10,1.11.78,1184,CP/H/TT,,牛精麒麟
1,2,560,14,05/04/21,"沙田草地""B+2""                                    ",1400,好,4,8,47,告東尼,潘明輝,51-1/4,175.0,118,8 3 14 14,1.29.72,1183,CP/H/TT,,牛精麒麟
2,3,517,14,21/03/21,"沙田草地""A""                                    ",1200,好,4,2,50,告東尼,田泰安,14-3/4,39.0,125,6 6 14,1.12.30,1180,CP/H1/TT,,牛精麒麟
3,4,483,12,07/03/21,"沙田草地""C""                                    ",1200,好,4,8,52,告東尼,潘頓,7,13.0,126,4 3 12,1.11.02,1183,CP1/TT,,牛精麒麟
4,5,424,11,14/02/21,"沙田草地""A""                                    ",1200,好,4,8,52,告東尼,蘇銘倫,3-1/4,5.5,126,1 1 11,1.10.69,1184,TT1,,牛精麒麟
