,Unnamed: 0,場次,名次,日期,馬場/跑道/賽道,途程,場地狀況,賽事班次,檔位,評分,練馬師,騎師,頭馬距離,獨贏賠率,實際負磅,沿途走位,完成時間,排位體重,配備,賽事重播,馬名
0,1,718,2,30/05/21,"沙田草地""B""                                    ",1200,好/快,2,6,86,蘇偉賢,彭國年,1-1/4,22.0,121,7 5 2,1.08.09,1128,CP,,牛角仔
1,2,622,7,25/04/21,"沙田草地""A""                                    ",1200,好,2,4,88,蘇偉賢,彭國年,4-3/4,31.0,117,11 11 7,1.09.00,1123,CP,,牛角仔
2,3,212,10,22/11/20,"沙田草地""B+2""                                    ",1200,好/快,2,10,90,蘇偉賢,黃皓楠,6-3/4,211.0,123,14 14 10,1.09.20,1109,CP,,牛角仔
3,4,102,11,11/10/20,"沙田草地""A+3""                                    ",1200,好/快,2,10,91,蘇偉賢,賀銘年,6,73.0,124,11 12 11,1.09.59,1107,CP,,牛角仔
4,5,64,11,27/09/20,"沙田草地""A""                                    ",1200,好,2,6,91,蘇偉賢,史卓豐,7-1/4,8.2,128,9 10 11,1.09.90,1109,CP,,牛角仔
5,6,799,12,05/07/20,"沙田草地""C+3""                                    ",1200,好/快,2,2,91,蘇偉賢,史卓豐,7-1/2,8.2,128,12 12 12,1.09.53,1113,CP,,牛角仔
6,7,709,1,31/05/20,"沙田草地""B""                                    ",1200,好,2,1,85,蘇偉賢,史卓豐,1/2,10.0,122,7 6 1,1.08.23,1106,CP,,牛角仔
7,8,434,7,19/02/20,沙田全天候                                    ,1200,好,2,1,87,蘇偉賢,潘明輝,4-1/4,10.0,115,4 4 7,1.08.49,1098,CP,,牛角仔
8,9,379,5,29/01/20,"跑馬地草地""B""                                    ",1200,好,2,4,88,蘇偉賢,薛恩,3-1/4,10.0,125,5 6 5,1.09.50,1089,CP,,牛角仔
9,10,313,6,05/01/20,"沙田草地""C+3""                                    ",1400,好,2,6,88,蘇偉賢,巴度,2-1/2,6.8,125,6 7 7 6,1.21.78,1089,CP,,牛角仔
10,11,235,4,08/12/19,"沙田草地""A""                                    ",1200,好,2,6,88,蘇偉賢,何澤堯,2-1/4,4.2,119,9 9 4,1.09.36,1084,CP,,牛角仔
11,12,178,1,17/11/19,"沙田草地""B""                                    ",1200,好/快,2,2,82,蘇偉賢,何澤堯,1,4.2,120,6 4 1,1.08.56,1085,CP,,牛角仔
12,13,111,2,20/10/19,"沙田草地""A""                                    ",1200,好/快,3,7,80,蘇偉賢,潘頓,3/4,3.5,133,9 8 2,1.08.94,1090,CP,,牛角仔
13,14,65,1,01/10/19,"沙田草地""A+3""                                    ",1200,好/快,3,10,74,蘇偉賢,潘頓,頸位,1.8,127,1 2 1,1.08.34,1094,CP1,,牛角仔
14,15,7,2,01/09/19,"沙田草地""B""                                    ",1200,好,3,6,71,蘇偉賢,潘頓,1-1/4,1.9,126,5 4 2,1.08.66,1092,--,,牛角仔
15,16,731,2,08/06/19,"沙田草地""C""                                    ",1200,好/快,3,12,68,蘇偉賢,黃皓楠,1/2,14.0,118,8 7 2,1.09.17,1069,--,,牛角仔
16,17,669,3,18/05/19,"沙田草地""C+3""                                    ",1200,好,3,7,68,蘇偉賢,貝力斯,3-1/4,4.1,118,6 6 3,1.08.91,1078,--,,牛角仔
17,18,582,1,14/04/19,"沙田草地""C""                                    ",1200,好/黏,3,1,61,蘇偉賢,貝力斯,頸位,5.3,115,4 3 1,1.10.17,1083,--,,牛角仔
18,19,497,1,17/03/19,"沙田草地""A""                                    ",1200,好,4,13,54,蘇偉賢,莫雅,1-1/2,2.1,128,5 4 1,1.09.74,1084,--,,牛角仔
19,20,406,2,10/02/19,"沙田草地""A""                                    ",1200,好,4,2,52,蘇偉賢,韋達                                    ,1-1/4,2.9,123,4 3 2,1.09.97,1087,--,,牛角仔
