,Unnamed: 0,場次,名次,日期,馬場/跑道/賽道,途程,場地狀況,賽事班次,檔位,評分,練馬師,騎師,頭馬距離,獨贏賠率,實際負磅,沿途走位,完成時間,排位體重,配備,賽事重播,馬名
0,1,667,14,12/05/21,沙田全天候                                    ,1650,好,4,14,60,鄭俊偉,周俊樂,21,9.9,128,3 3 5 14,1.41.11,1023,XB1,,牽旺加富
1,2,596,4,17/04/21,沙田全天候                                    ,1650,濕慢,3,7,62,鄭俊偉,田泰安,6-1/4,7.9,116,3 3 3 4,1.38.71,1028,--,,牽旺加富
2,3,535,4,24/03/21,"跑馬地草地""C+3""                                    ",1650,好/快,3,6,63,鄭俊偉,波健士,1-1/2,17.0,116,5 5 5 4,1.39.83,1019,--,,牽旺加富
3,4,478,4,03/03/21,"跑馬地草地""A""                                    ",1650,好,3,3,63,鄭俊偉,波健士,1-1/4,17.0,116,4 5 3 4,1.40.48,1018,--,,牽旺加富
4,5,408,4,06/02/21,沙田全天候                                    ,1800,好,3,9,65,鄭俊偉,波健士,4-1/2,9.7,118,3 3 3 4 4,1.47.46,1030,H-,,牽旺加富
5,6,352,5,17/01/21,沙田全天候                                    ,1650,好,3,9,66,鄭俊偉,波健士,5,71.0,114,4 4 4 5,1.38.69,1037,H,,牽旺加富
6,7,315,11,01/01/21,"沙田草地""B+2""                                    ",1400,好,3,6,68,鄭俊偉,彭國年,4-1/2,170.0,121,3 3 5 11,1.22.60,1052,H,,牽旺加富
7,8,224,6,29/11/20,沙田全天候                                    ,1200,好,3,1,68,鄭俊偉,波健士,6-3/4,127.0,121,8 8 6,1.09.91,1042,H1,,牽旺加富
