,Unnamed: 0,場次,名次,日期,馬場/跑道/賽道,途程,場地狀況,賽事班次,檔位,評分,練馬師,騎師,頭馬距離,獨贏賠率,實際負磅,沿途走位,完成時間,排位體重,配備,賽事重播,馬名
0,1,703,11,26/05/21,"跑馬地草地""C""                                    ",1200,好/快,4,2,46,姚本輝,彭國年,5,38,119,6 6 11,1.10.49,1147,B-/CP1/TT1,,王者奇兵
1,2,531,09,24/03/21,"跑馬地草地""C+3""                                    ",1200,好/快,4,7,48,姚本輝,田泰安,5-1/4,17,122,12 12 9,1.10.22,1156,B,,王者奇兵
2,3,474,07,03/03/21,"跑馬地草地""A""                                    ",1200,好,4,1,50,姚本輝,馬雅,5-3/4,7.4,124,5 4 7,1.10.94,1156,B,,王者奇兵
3,4,433,05,17/02/21,"跑馬地草地""C""                                    ",1200,好,4,2,52,姚本輝,田泰安,4-1/4,9.1,125,7 8 5,1.10.39,1174,B,,王者奇兵
4,5,690,12,27/05/20,沙田全天候                                    ,1200,濕慢,4,10,54,姚本輝,郭能,25-1/2,41,129,6 6 12,1.12.59,1142,B,,王者奇兵
5,6,575,10,15/04/20,"跑馬地草地""C""                                    ",1200,好,4,7,56,姚本輝,梁家俊,5,14,129,10 11 10,1.10.92,1165,B1,,王者奇兵
6,7,523,06,25/03/20,"跑馬地草地""A""                                    ",1200,好,4,5,58,姚本輝,梁家俊,2-1/4,9.9,133,7 6 6,1.10.73,1153,--,,王者奇兵
7,8,402,08,08/02/20,"沙田草地""C+3""                                    ",1400,好,4,6,59,姚本輝,史卓豐,7,21,133,9 10 10 8,1.23.20,1158,--,,王者奇兵
8,9,329,08,11/01/20,"沙田草地""A""                                    ",1400,好,4,5,59,姚本輝,梁家俊,3-1/4,16,133,7 6 8 8,1.23.41,1159,--,,王者奇兵
9,10,268,WV-A,21/12/19,"沙田草地""A+3""                                    ",1400,好,4,--,59,姚本輝,梁家俊,--,--,132,--,--,--,--,--,王者奇兵
10,11,203,02,27/11/19,"跑馬地草地""A""                                    ",1200,好,4,3,57,姚本輝,莫雷拉,1/2,2.2,130,6 7 2,1.10.69,1157,--,,王者奇兵
11,12,137,11,30/10/19,"跑馬地草地""A""                                    ",1200,好,4,2,57,姚本輝,莫雷拉,4-1/4,2.4,130,2 2 11,1.11.03,1156,--,,王者奇兵
12,13,53,01,25/09/19,"跑馬地草地""A""                                    ",1200,好/快,4,6,49,姚本輝,莫雷拉,1-1/2,3.5,122,7 6 1,1.10.32,1145,--,,王者奇兵
13,14,764,08,26/06/19,"跑馬地草地""B""                                    ",1200,好/快,4,5,52,姚本輝,夏禮賢                                    ,3-1/2,11,125,8 8 8,1.10.54,1150,--,,王者奇兵
14,15,613,11,28/04/19,"沙田草地""A""                                    ",1200,好,4,4,52,姚本輝,夏禮賢                                    ,7-1/2,7.5,125,6 6 11,1.10.73,1146,--,,王者奇兵
15,16,511,05,20/03/19,"跑馬地草地""C""                                    ",1200,好/快,4,3,52,姚本輝,夏禮賢                                    ,1,18,125,6 7 5,1.10.44,1161,--,,王者奇兵
16,17,425,14,17/02/19,"沙田草地""A+3""                                    ",1000,好,4,9,52,姚本輝,郭能,14-3/4,3.4,125,5 5 14,0.59.58,1172,--,,王者奇兵
17,18,367,WV-A,27/01/19,"沙田草地""B+2""                                    ",1000,好,4,--,52,姚本輝,郭能,--,--,125,--,--,--,--,--,王者奇兵
