,Unnamed: 0,場次,名次,日期,馬場/跑道/賽道,途程,場地狀況,賽事班次,檔位,評分,練馬師,騎師,頭馬距離,獨贏賠率,實際負磅,沿途走位,完成時間,排位體重,配備,賽事重播,馬名
0,1,704,03,26/05/21,"跑馬地草地""C""                                    ",1650,好/快,4,11,47,葉楚航,莫雷拉,頸位,9.7,120,4 4 4 3,1.39.27,1030,--,,珍珠鳳凰
1,2,627,02,28/04/21,"跑馬地草地""C+3""                                    ",1650,好/快,4,12,46,葉楚航,莫雷拉,3/4,6.7,120,3 3 2 2,1.40.01,1025,B-,,珍珠鳳凰
2,3,463,13,28/02/21,"沙田草地""B+2""                                    ",1400,好,4,4,48,文家良,賀銘年,8-1/4,22,123,7 9 8 13,1.23.46,1056,B,,珍珠鳳凰
3,4,390,13,31/01/21,"沙田草地""B+2""                                    ",1400,好,4,6,48,文家良,賀銘年,6-1/2,34,122,3 3 4 13,1.23.25,1047,B,,珍珠鳳凰
4,5,329,02,10/01/21,"沙田草地""C""                                    ",1400,好,4,3,46,文家良,賀銘年,頸位,32,120,7 6 6 2,1.22.62,1054,B,,珍珠鳳凰
5,6,300,10,26/12/20,沙田全天候                                    ,1650,好,4,6,49,文家良,梁家俊,10-3/4,22,122,5 6 7 10,1.41.00,1050,B,,珍珠鳳凰
6,7,226,08,29/11/20,"沙田草地""C""                                    ",1400,好,4,12,51,文家良,陳嘉熙,3-3/4,117,117,14 14 12 8,1.22.55,1036,B,,珍珠鳳凰
7,8,151,12,01/11/20,"沙田草地""A""                                    ",1400,好/快,4,1,53,文家良,彭國年,4,35,126,6 6 8 12,1.22.50,1043,B,,珍珠鳳凰
8,9,60,11,27/09/20,沙田全天候                                    ,1200,好,4,2,55,文家良,潘頓,10-3/4,3.2,130,9 10 11,1.11.72,1042,B,,珍珠鳳凰
9,10,24,06,13/09/20,"沙田草地""A+3""                                    ",1400,好,4,9,56,文家良,莫雷拉,3-3/4,4.7,130,3 4 4 6,1.22.14,1042,B,,珍珠鳳凰
10,11,781,06,01/07/20,"沙田草地""C""                                    ",1400,好/快,4,12,57,苗禮德,賀銘年,4-1/4,8.8,130,2 2 3 6,1.22.11,1037,B,,珍珠鳳凰
11,12,692,02,27/05/20,沙田全天候                                    ,1200,好,4,2,55,苗禮德,波健士,頸位,7.9,129,6 3 2,1.08.79,1050,B,,珍珠鳳凰
12,13,43,04,21/09/19,"沙田草地""A""                                    ",1400,好/快,4,8,55,苗禮德,陳嘉熙,1-3/4,9.7,119,7 6 5 4,1.21.82,1027,B,,珍珠鳳凰
13,14,5,04,01/09/19,"沙田草地""B""                                    ",1400,好,4,2,55,苗禮德,薛恩,1-1/2,5.9,129,8 9 7 4,1.22.29,1023,B,,珍珠鳳凰
14,15,809,02,14/07/19,"沙田草地""A""                                    ",1400,好/快,4,13,54,苗禮德,利敬國,1-1/2,15,127,9 13 9 2,1.22.60,1013,B,,珍珠鳳凰
15,16,762,04,26/06/19,"跑馬地草地""B""                                    ",1650,好/快,4,1,54,苗禮德,莫雷拉,1-1/2,2.7,128,6 6 9 4,1.40.32,1018,B,,珍珠鳳凰
16,17,671,08,18/05/19,"沙田草地""C+3""                                    ",1400,好/快,4,13,56,苗禮德,夏禮賢                                    ,4-1/4,12,129,14 13 12 8,1.22.56,1010,B,,珍珠鳳凰
17,18,577,05,14/04/19,"沙田草地""C""                                    ",1400,好,4,6,57,苗禮德,蔡明紹,6-1/4,10,131,11 12 13 5,1.22.79,1013,B,,珍珠鳳凰
18,19,445,14,24/02/19,"沙田草地""B+2""                                    ",1400,好,4,13,57,苗禮德,蘇兆輝,8-1/4,6.3,130,14 12 12 14,1.23.44,1001,B,,珍珠鳳凰
19,20,399,06,07/02/19,"沙田草地""C+3""                                    ",1400,好,4,13,57,苗禮德,蘇兆輝,3-3/4,5.3,133,6 3 4 6,1.23.42,1007,B,,珍珠鳳凰
20,21,296,01,29/12/18,"沙田草地""B+2""                                    ",1400,好,4,9,49,苗禮德,蘇兆輝,2,2.6,122,7 8 7 1,1.22.33,1007,B,,珍珠鳳凰
21,22,204,02,25/11/18,"沙田草地""C""                                    ",1400,好,4,5,47,苗禮德,蘇兆輝,3/4,5.2,121,12 13 9 2,1.23.19,1004,B,,珍珠鳳凰
22,23,95,10,13/10/18,"沙田草地""C""                                    ",1400,好,4,4,47,苗禮德,利敬國,4-3/4,10,120,3 4 4 10,1.22.72,1011,B,,珍珠鳳凰
23,24,722,WX,10/06/18,"沙田草地""C""                                    ",1400,好/快,4,--,48,麥菲文                                    ,史卓豐,--,--,121,--,--,--,--,--,珍珠鳳凰
24,25,643,11,12/05/18,"沙田草地""C""                                    ",1400,好,4,12,50,麥菲文                                    ,史卓豐,9,33,125,10 13 12 11,1.23.84,1036,CP-/B1,,珍珠鳳凰
25,26,571,07,15/04/18,"沙田草地""C+3""                                    ",1600,好/黏,4,6,52,麥菲文                                    ,史卓豐,2-1/4,14,125,3 4 5 7,1.36.85,1044,CP,,珍珠鳳凰
26,27,522,06,25/03/18,"沙田草地""A+3""                                    ",1400,好,4,2,52,麥菲文                                    ,祈普敦                                    ,1-1/4,13,125,9 8 5 6,1.22.42,1047,CP,,珍珠鳳凰
27,28,450,06,25/02/18,"沙田草地""B""                                    ",1200,好,4,9,52,麥菲文                                    ,貝湯美                                    ,3-1/2,141,125,12 13 6,1.10.42,1053,CP1,,珍珠鳳凰
28,29,392,WV,04/02/18,"沙田草地""C""                                    ",1200,好,4,--,52,麥菲文                                    ,柏寶                                    ,--,--,125,--,--,--,--,--,珍珠鳳凰
