,Unnamed: 0,場次,名次,日期,馬場/跑道/賽道,途程,場地狀況,賽事班次,檔位,評分,練馬師,騎師,頭馬距離,獨贏賠率,實際負磅,沿途走位,完成時間,排位體重,配備,賽事重播,馬名
0,1,724,02,02/06/21,"跑馬地草地""A""                                    ",1800,好,4,10,57,霍利時,田泰安,3/4,8.3,130,9 9 9 9 2,1.49.50,1071,--,,甲烷
1,2,566,02,08/04/21,"跑馬地草地""A""                                    ",1800,好/快,4,8,57,霍利時,周俊樂,4-3/4,5.1,126,10 10 9 8 2,1.49.31,1068,--,,甲烷
2,3,473,02,03/03/21,"跑馬地草地""A""                                    ",1800,好,4,5,55,霍利時,田泰安,頸位,5.6,128,8 8 8 10 2,1.49.58,1070,--,,甲烷
3,4,438,07,17/02/21,"跑馬地草地""C""                                    ",1650,好,4,6,57,霍利時,薛恩,2-1/4,10,130,8 8 5 7,1.40.45,1081,--,,甲烷
4,5,339,05,13/01/21,"跑馬地草地""B""                                    ",1650,好,4,9,57,霍利時,郭能,1,10,130,9 9 10 5,1.41.10,1081,--,,甲烷
5,6,287,05,23/12/20,"跑馬地草地""C+3""                                    ",1650,好,4,11,59,霍利時,賀銘年,4-3/4,12,132,11 12 12 5,1.39.75,1078,--,,甲烷
6,7,231,04,02/12/20,"跑馬地草地""A""                                    ",2200,好,4,2,59,霍利時,周俊樂,4-3/4,4.2,126,2 2 3 4 4 4,2.18.03,1073,--,,甲烷
7,8,167,02,08/11/20,"跑馬地草地""A""                                    ",1800,好,4,6,57,霍利時,郭能,頸位,9.3,131,3 5 4 4 2,1.50.13,1069,CP-,,甲烷
8,9,114,10,18/10/20,"沙田草地""B+2""                                    ",1600,好/快,4,1,59,霍利時,郭能,6-1/4,13,132,7 5 5 10,1.35.19,1058,CP,,甲烷
9,10,767,04,24/06/20,"跑馬地草地""C""                                    ",1650,好/快,3,2,60,霍利時,田泰安,3-1/2,4.7,114,5 5 4 4,1.39.95,1060,CP,,甲烷
10,11,710,05,03/06/20,"跑馬地草地""A""                                    ",2200,好,3,6,60,霍利時,田泰安,4-3/4,4,118,5 6 6 5 5 5,2.19.34,1055,B-/CP1,,甲烷
11,12,635,03,06/05/20,"跑馬地草地""B""                                    ",1650,好/快,4,8,58,霍利時,田泰安,頸位,5.5,132,11 11 9 3,1.39.71,1046,B,,甲烷
12,13,576,03,15/04/20,"跑馬地草地""C""                                    ",1650,好,4,9,56,霍利時,郭能,頸位,5,129,11 11 10 3,1.40.17,1046,B,,甲烷
13,14,522,05,25/03/20,"跑馬地草地""A""                                    ",1650,好,4,9,56,霍利時,史卓豐,2-3/4,4.3,131,2 2 2 5,1.41.17,1048,B1,,甲烷
14,15,467,02,04/03/20,"跑馬地草地""B""                                    ",1650,好,4,10,54,霍利時,史卓豐,頸位,5.9,127,8 9 8 2,1.40.63,1061,--,,甲烷
15,16,393,01,05/02/20,"跑馬地草地""C""                                    ",1650,好,4,7,48,霍利時,希威森,3/4,16,121,6 6 6 1,1.39.90,1074,--,,甲烷
16,17,328,08,11/01/20,"沙田草地""A""                                    ",1400,好,4,1,50,霍利時,希威森,2-1/2,30,123,7 9 9 8,1.23.26,1077,--,,甲烷
17,18,269,12,21/12/19,"沙田草地""A+3""                                    ",1200,好,4,6,51,霍利時,巴度,10-1/2,11,126,9 10 12,1.11.78,1079,--,,甲烷
18,19,181,06,20/11/19,"跑馬地草地""C+3""                                    ",1200,好/快,4,10,52,霍利時,希威森,3-1/4,4.4,127,2 2 6,1.10.32,1070,--,,甲烷
19,20,151,WXNR,06/11/19,"跑馬地草地""B""                                    ",1200,好,4,--,52,霍利時,希威森,--,--,127,--,--,--,--,--,甲烷
20,21,120,03,23/10/19,"跑馬地草地""C+3""                                    ",1200,好/快,4,6,52,霍利時,希威森,2,102,125,7 6 3,1.10.00,1093,--,,甲烷
