,Unnamed: 0,場次,名次,日期,馬場/跑道/賽道,途程,場地狀況,賽事班次,檔位,評分,練馬師,騎師,頭馬距離,獨贏賠率,實際負磅,沿途走位,完成時間,排位體重,配備,賽事重播,馬名
0,1,441,7,21/02/21,沙田全天候                                    ,1200,好,4,3,52,鄭俊偉,潘頓,9-1/2,1.5,126,3 1 7,1.10.22,1262,--,,發財好市
1,2,4,3,06/09/20,"沙田草地""A""                                    ",1200,好,4,7,52,鄭俊偉,楊明綸,1-1/4,3.3,125,1 1 3,1.09.59,1272,--,,發財好市
