,Unnamed: 0,場次,名次,日期,馬場/跑道/賽道,途程,場地狀況,賽事班次,檔位,評分,練馬師,騎師,頭馬距離,獨贏賠率,實際負磅,沿途走位,完成時間,排位體重,配備,賽事重播,馬名
0,1,607,5,21/04/21,"跑馬地草地""C""                                    ",1650,好/快,4,2,43,容天鵬,蔡明紹,3-1/2,7.9,116,6 6 6 5,1.40.17,1151,--,,皆大開心
1,2,560,8,05/04/21,"沙田草地""B+2""                                    ",1400,好,4,10,45,容天鵬,馬雅,6-1/2,44.0,118,12 12 10 8,1.22.57,1146,--,,皆大開心
2,3,463,8,28/02/21,"沙田草地""B+2""                                    ",1400,好,4,1,47,容天鵬,馬雅,4,13.0,122,4 5 4 8,1.22.76,1136,V-,,皆大開心
3,4,112,9,18/10/20,"沙田草地""B+2""                                    ",1400,好,4,13,49,容天鵬,史卓豐,3-1/2,20.0,122,3 4 4 9,1.22.99,1156,V2,,皆大開心
4,5,59,8,27/09/20,"沙田草地""A""                                    ",1200,好,4,1,51,容天鵬,史卓豐,3,7.1,124,6 6 8,1.10.20,1144,V-,,皆大開心
5,6,3,5,06/09/20,"沙田草地""A""                                    ",1200,好,4,4,51,容天鵬,潘頓,3-1/2,4.5,124,8 8 5,1.10.15,1156,V1,,皆大開心
6,7,770,7,27/06/20,"沙田草地""B""                                    ",1200,好/快,4,13,52,容天鵬,楊明綸,6-3/4,13.0,125,13 13 7,1.09.53,1145,--,,皆大開心
