,Unnamed: 0,場次,名次,日期,馬場/跑道/賽道,途程,場地狀況,賽事班次,檔位,評分,練馬師,騎師,頭馬距離,獨贏賠率,實際負磅,沿途走位,完成時間,排位體重,配備,賽事重播,馬名
0,1,668,5,12/05/21,"沙田草地""C+3""                                    ",1400,好/快,3,10,66,大衛希斯,楊明綸,2-3/4,27,120,11 10 10 5,1.21.50,1038,XB,,皇帝金
1,2,628,4,28/04/21,"跑馬地草地""C+3""                                    ",1200,好/快,3,3,65,大衛希斯,楊明綸,3/4,11,120,6 5 4,1.10.09,1039,XB,,皇帝金
2,3,431,6,14/02/21,"沙田草地""A""                                    ",1600,好,3,6,65,大衛希斯,史卓豐,2,10,120,6 5 5 6,1.35.07,1036,XB,,皇帝金
3,4,382,5,27/01/21,"跑馬地草地""C+3""                                    ",1650,好,3,9,66,大衛希斯,史卓豐,2-1/4,34,120,8 8 8 5,1.40.68,1039,XB,,皇帝金
4,5,332,4,10/01/21,"沙田草地""C""                                    ",1200,好,3,7,68,大衛希斯,薛恩,4,145,123,9 8 4,1.09.75,1046,XB,,皇帝金
5,6,275,8,16/12/20,"跑馬地草地""C""                                    ",1200,好,3,4,68,大衛希斯,楊明綸,3-1/4,53,122,5 5 8,1.09.94,1053,XB1,,皇帝金
