,Unnamed: 0,場次,名次,日期,馬場/跑道/賽道,途程,場地狀況,賽事班次,檔位,評分,練馬師,騎師,頭馬距離,獨贏賠率,實際負磅,沿途走位,完成時間,排位體重,配備,賽事重播,馬名
0,1,685,1,19/05/21,"跑馬地草地""B""                                    ",1650,好/快,4,7,49,羅富全,莫雷拉,1,2.6,124,1 1 1 1,1.39.64,1201,--,,皇寶
1,2,608,3,21/04/21,"跑馬地草地""C""                                    ",1650,好/快,4,3,48,羅富全,莫雷拉,1-1/4,2.6,123,2 3 5 3,1.39.97,1205,--,,皇寶
2,3,529,4,24/03/21,"跑馬地草地""C+3""                                    ",1650,好/快,4,7,48,羅富全,莫雷拉,1-1/4,2.1,122,1 1 1 4,1.39.91,1195,--,,皇寶
3,4,471,2,03/03/21,"跑馬地草地""A""                                    ",1650,好,4,10,47,羅富全,薛恩,1-1/4,15.0,121,5 3 2 2,1.40.76,1211,--,,皇寶
4,5,426,4,14/02/21,"沙田草地""A""                                    ",1600,好,4,7,48,羅富全,薛恩,2-1/2,95.0,124,7 7 4 4,1.35.75,1221,--,,皇寶
5,6,386,14,31/01/21,"沙田草地""B+2""                                    ",1600,好,4,13,50,羅富全,楊明綸,12-3/4,122.0,123,2 2 3 14,1.36.51,1234,--,,皇寶
6,7,346,8,17/01/21,"沙田草地""A""                                    ",1400,好,4,3,52,羅富全,楊明綸,3-1/4,99.0,128,10 6 7 8,1.24.40,1234,--,,皇寶
7,8,281,11,20/12/20,"沙田草地""C+3""                                    ",1400,好,4,7,52,羅富全,賀銘年,6-1/2,156.0,125,12 10 11 11,1.22.55,1240,--,,皇寶
