,Unnamed: 0,場次,名次,日期,馬場/跑道/賽道,途程,場地狀況,賽事班次,檔位,評分,練馬師,騎師,頭馬距離,獨贏賠率,實際負磅,沿途走位,完成時間,排位體重,配備,賽事重播,馬名
0,1,371,8,24/01/21,"沙田草地""A+3""                                    ",1600,好,4YO,6,89,大衛希斯,賀銘年,5-1/4,244,126,6 5 6 8,1.34.64,1051,CP1/XB1,,皇者峰範
1,2,316,13,01/01/21,"沙田草地""B+2""                                    ",1600,好,2,10,91,大衛希斯,薛恩,8-1/2,59,127,3 2 3 13,1.36.57,1072,--,,皇者峰範
2,3,267,10,13/12/20,"沙田草地""A""                                    ",1600,好,2,12,91,大衛希斯,莫雷拉,6,23,124,11 11 12 10,1.35.50,1064,--,,皇者峰範
