,Unnamed: 0,場次,名次,日期,馬場/跑道/賽道,途程,場地狀況,賽事班次,檔位,評分,練馬師,騎師,頭馬距離,獨贏賠率,實際負磅,沿途走位,完成時間,排位體重,配備,賽事重播,馬名
0,1,698,6,23/05/21,"沙田草地""A""                                    ",1400,好/快,4,2,59,羅富全,潘頓,4-3/4,2.3,132,6 7 8 6,1.22.08,1062,TT,,皇龍福將
1,2,601,2,17/04/21,"沙田草地""C+3""                                    ",1400,好,4,10,58,羅富全,潘頓,1-3/4,3.1,132,8 10 8 2,1.22.62,1067,TT,,皇龍福將
2,3,541,6,28/03/21,"沙田草地""A+3""                                    ",1200,好/快,4,5,58,羅富全,田泰安,3-1/2,5.1,131,10 10 6,1.09.22,1070,TT,,皇龍福將
3,4,483,1,07/03/21,"沙田草地""C""                                    ",1200,好,4,7,52,羅富全,田泰安,短馬頭位,2.7,126,5 5 1,1.09.90,1067,TT,,皇龍福將
4,5,425,8,14/02/21,"沙田草地""A""                                    ",1200,好,4,13,52,羅富全,史卓豐,3-1/4,14.0,126,14 14 8,1.10.26,1064,TT1,,皇龍福將
