,Unnamed: 0,場次,名次,日期,馬場/跑道/賽道,途程,場地狀況,賽事班次,檔位,評分,練馬師,騎師,頭馬距離,獨贏賠率,實際負磅,沿途走位,完成時間,排位體重,配備,賽事重播,馬名
0,1,690,4,23/05/21,"沙田草地""A""                                    ",1400,好/快,5,10,20,賀賢,巫顯東,3,18.0,110,14 14 14 4,1.22.38,1084,V,,盛勢
1,2,565,6,08/04/21,"跑馬地草地""A""                                    ",1650,好,5,8,22,賀賢,馬雅,5-3/4,16.0,118,8 8 10 6,1.41.04,1069,V,,盛勢
2,3,536,7,28/03/21,"沙田草地""A+3""                                    ",1400,好,5,12,24,賀賢,潘明輝,5-1/2,11.0,115,13 14 13 7,1.22.63,1098,V,,盛勢
3,4,482,11,07/03/21,"沙田草地""C""                                    ",1400,好,5,1,26,賀賢,潘明輝,5-1/4,4.8,117,9 7 8 11,1.24.00,1104,V,,盛勢
4,5,460,8,28/02/21,"沙田草地""B+2""                                    ",1200,好,5,4,27,賀賢,潘明輝,3-1/2,9.4,119,6 8 8,1.10.38,1106,V,,盛勢
5,6,297,10,26/12/20,"沙田草地""A+3""                                    ",1400,好,5,14,27,葉楚航,潘明輝,9-1/4,8.2,118,14 14 13 10,1.23.51,1110,V,,盛勢
6,7,242,11,06/12/20,沙田全天候                                    ,1650,好,5,12,27,葉楚航,梁家俊,7,37.0,122,3 7 9 11,1.40.86,1116,V,,盛勢
7,8,131,1,24/10/20,"沙田草地""C""                                    ",1400,好,5,9,22,葉楚航,潘明輝,3/4,9.1,113,12 11 11 1,1.22.27,1093,V,,盛勢
8,9,56,2,27/09/20,"沙田草地""A""                                    ",1400,好,5,11,21,葉楚航,潘明輝,2-1/4,21.0,113,13 13 11 2,1.22.36,1082,V1,,盛勢
9,10,32,10,16/09/20,"跑馬地草地""C""                                    ",1650,好/快,5,8,23,葉楚航,梁家俊,6-1/2,25.0,117,12 12 11 10,1.41.27,1081,--,,盛勢
10,11,1,3,06/09/20,"沙田草地""A""                                    ",1600,好,5,1,23,葉楚航,梁家俊,1-1/4,7.3,119,5 3 3 3,1.36.07,1085,P-/TT-,,盛勢
11,12,769,10,27/06/20,沙田全天候                                    ,1650,好,5,12,27,葉楚航,賀銘年,6-3/4,13.0,120,8 8 7 10,1.41.26,1086,P2/TT,,盛勢
12,13,699,3,31/05/20,"沙田草地""B""                                    ",1400,好,5,1,28,葉楚航,史卓豐,2-3/4,5.9,121,5 6 6 3,1.22.87,1084,P-/TT,,盛勢
13,14,691,5,27/05/20,沙田全天候                                    ,1800,好,5,10,28,葉楚航,田泰安,4-1/4,10.0,121,3 5 5 4 5,1.50.16,1081,P1/TT,,盛勢
14,15,574,5,15/04/20,"跑馬地草地""C""                                    ",1650,好,5,10,30,葉楚航,潘明輝,2-3/4,20.0,121,12 12 11 5,1.40.37,1084,TT,,盛勢
15,16,539,8,01/04/20,沙田全天候                                    ,1650,濕慢,5,10,32,葉楚航,蔡明紹,5,23.0,125,10 10 10 8,1.40.48,1087,TT,,盛勢
16,17,472,4,08/03/20,"沙田草地""C""                                    ",1400,好,5,1,34,葉楚航,潘頓,4,3.0,127,13 11 9 4,1.23.32,1086,TT1,,盛勢
17,18,373,9,29/01/20,"跑馬地草地""B""                                    ",1650,好,5,11,36,葉楚航,潘明輝,4-1/4,12.0,127,8 3 1 9,1.41.78,1089,--,,盛勢
18,19,307,10,05/01/20,"沙田草地""C+3""                                    ",1400,好,5,7,38,葉楚航,潘頓,4-1/2,2.5,131,8 7 8 10,1.23.79,1092,--,,盛勢
19,20,209,5,01/12/19,沙田全天候                                    ,1650,好,5,11,40,葉楚航,蘇狄雄,4-3/4,47.0,131,6 3 3 5,1.40.27,1082,--,,盛勢
20,21,173,8,17/11/19,"沙田草地""B""                                    ",1400,好,4,8,42,葉楚航,巫顯東,5-1/2,61.0,112,7 2 2 8,1.22.95,1082,--,,盛勢
21,22,117,9,23/10/19,"跑馬地草地""C+3""                                    ",1650,好/快,4,1,43,葉楚航,蘇狄雄,5-3/4,33.0,116,5 5 12 9,1.41.73,1040,--,,盛勢
22,23,100,10,16/10/19,"跑馬地草地""C""                                    ",1800,好,4,4,45,葉楚航,黃皓楠,15-3/4,90.0,119,6 4 4 6 10,1.51.58,1078,--,,盛勢
23,24,61,12,01/10/19,"沙田草地""A+3""                                    ",1600,好/快,4,14,47,葉楚航,蘇狄雄,8-3/4,145.0,118,6 5 3 12,1.35.50,1067,--,,盛勢
24,25,12,9,08/09/19,"沙田草地""C""                                    ",1600,好,4,8,48,葉楚航,潘明輝,7-1/4,79.0,118,5 5 6 9,1.35.74,1073,--,,盛勢
25,26,773,6,01/07/19,沙田全天候                                    ,1650,好,4,6,48,葉楚航,蘇狄雄,8-3/4,117.0,120,11 12 8 6,1.41.95,1063,--,,盛勢
26,27,661,9,15/05/19,"跑馬地草地""A""                                    ",1650,好,4,4,48,葉楚航,利敬國,5-1/2,15.0,122,5 5 5 9,1.41.12,1067,--,,盛勢
27,28,588,1,17/04/19,"跑馬地草地""B""                                    ",1650,好,4,6,43,葉楚航,利敬國,短馬頭位,167.0,119,8 8 7 1,1.39.98,1068,--,,盛勢
28,29,510,11,20/03/19,"跑馬地草地""C""                                    ",1650,好/快,4,4,44,葉楚航,蘇狄雄,10-1/4,139.0,116,10 11 12 11,1.41.77,1048,--,,盛勢
29,30,492,12,13/03/19,"跑馬地草地""B""                                    ",1650,好,4,10,44,葉楚航,賴維銘                                    ,15-1/4,111.0,117,4 4 8 12,1.42.51,1057,--,,盛勢
30,31,446,7,24/02/19,沙田全天候                                    ,1650,好,4,11,44,葉楚航,貝力斯,9-3/4,80.0,117,8 9 9 7,1.39.85,1065,--,,盛勢
31,32,313,1,06/01/19,"沙田草地""C+3""                                    ",1400,好,5,1,39,葉楚航,潘頓,頸位,2.2,132,9 8 5 1,1.23.01,1090,--,,盛勢
32,33,192,10,21/11/18,"跑馬地草地""C+3""                                    ",1000,好,5,8,40,葉楚航,賴維銘                                    ,6-1/2,18.0,133,10 10 10,0.58.39,1075,--,,盛勢
33,34,157,12,07/11/18,"跑馬地草地""B""                                    ",1650,好,4,8,42,葉楚航,黃皓楠,13-1/4,113.0,112,3 3 5 12,1.42.46,1082,--,,盛勢
34,35,128,7,28/10/18,"跑馬地草地""A""                                    ",1650,好,4,1,44,葉楚航,賴維銘                                    ,7-1/2,32.0,119,4 4 5 7,1.41.77,1086,--,,盛勢
35,36,105,10,18/10/18,"跑馬地草地""C""                                    ",1650,好,4,7,46,葉楚航,賴維銘                                    ,5-1/2,34.0,119,3 4 6 10,1.41.23,1083,--,,盛勢
36,37,74,4,07/10/18,沙田全天候                                    ,1650,好,4,8,47,葉楚航,賴維銘                                    ,4-1/4,60.0,120,2 2 3 4,1.40.08,1094,--,,盛勢
37,38,25,10,09/09/18,"沙田草地""C""                                    ",1600,好/快,4,8,47,葉楚航,黃俊,14-1/2,12.0,110,3 3 5 10,1.36.73,1081,--,,盛勢
38,39,5,9,02/09/18,"沙田草地""B""                                    ",1200,好,4,12,47,葉楚航,李寶利,5-3/4,31.0,120,12 11 9,1.10.62,1088,--,,盛勢
39,40,780,1,08/07/18,"沙田草地""C""                                    ",1400,好/快,5,3,40,葉楚航,潘頓,2,3.2,133,8 8 6 1,1.21.93,1066,--,,盛勢
40,41,699,8,03/06/18,"沙田草地""B""                                    ",1600,好/快,4,5,42,葉楚航,賴維銘                                    ,4,26.0,117,6 7 10 8,1.35.82,1060,--,,盛勢
41,42,678,5,27/05/18,"沙田草地""A""                                    ",1600,好,4,9,43,葉楚航,黃皓楠,2,15.0,111,1 1 1 5,1.36.30,1061,--,,盛勢
42,43,644,3,12/05/18,"沙田草地""C""                                    ",1600,好,4,13,43,葉楚航,馬雅,1-3/4,48.0,116,8 8 7 3,1.34.99,1056,--,,盛勢
43,44,571,10,15/04/18,"沙田草地""C+3""                                    ",1600,好/黏,4,7,44,葉楚航,李寶利,4-1/4,10.0,117,9 10 10 10,1.37.17,1059,--,,盛勢
44,45,487,3,11/03/18,"沙田草地""C+3""                                    ",1400,好,4,3,44,葉楚航,李寶利,1-1/4,7.3,121,7 7 9 3,1.22.54,1066,--,,盛勢
45,46,471,5,03/03/18,"沙田草地""C""                                    ",1400,好,4,10,45,葉楚航,李寶利,2-3/4,51.0,119,12 14 14 5,1.22.56,1082,CP-,,盛勢
46,47,421,8,14/02/18,"跑馬地草地""B""                                    ",1650,好,4,12,47,葉楚航,韋達                                    ,6-1/2,21.0,120,11 12 12 8,1.41.72,1096,CP1,,盛勢
47,48,359,10,21/01/18,"沙田草地""A""                                    ",1400,好,4,9,49,葉楚航,韋達                                    ,3-1/4,17.0,122,14 13 12 10,1.23.52,1090,--,,盛勢
48,49,277,4,17/12/17,"沙田草地""C+3""                                    ",1400,好,4,14,51,葉楚航,韋達                                    ,3-1/4,36.0,124,9 9 9 4,1.23.41,1079,--,,盛勢
49,50,211,8,22/11/17,"跑馬地草地""C+3""                                    ",1200,好,4,7,51,葉楚航,莫雷拉,2-3/4,4.2,128,9 9 8,1.11.11,1079,--,,盛勢
50,51,110,6,14/10/17,"沙田草地""C""                                    ",1400,好,4,6,51,葉楚航,韋達                                    ,2,19.0,125,3 5 5 6,1.23.63,1058,--,,盛勢
51,52,67,6,27/09/17,"跑馬地草地""C+3""                                    ",1650,好/快,4,4,52,葉楚航,韋達                                    ,2,9.9,125,7 7 7 6,1.40.84,1063,--,,盛勢
52,53,42,7,16/09/17,"沙田草地""C+3""                                    ",1400,好/快,4,10,52,葉楚航,韋達                                    ,3-1/2,20.0,123,9 9 9 7,1.22.51,1061,--,,盛勢
53,54,23,7,10/09/17,"沙田草地""C""                                    ",1400,好,4,4,52,葉楚航,韋達                                    ,5,6.5,125,6 6 6 7,1.22.93,1059,--,,盛勢
54,55,800,1,16/07/17,"沙田草地""C""                                    ",1400,好/黏,4,3,46,葉楚航,韋達                                    ,1/2,5.6,120,7 7 6 1,1.23.73,1047,--,,盛勢
55,56,751,1,25/06/17,"沙田草地""A""                                    ",1400,好/快,5,8,39,葉楚航,韋達                                    ,1-1/4,6.5,132,12 10 11 1,1.22.48,1045,--,,盛勢
56,57,661,6,21/05/17,"沙田草地""C+3""                                    ",1200,好,4,6,41,葉楚航,黃皓楠,5-1/2,21.0,108,3 3 6,1.10.85,1041,--,,盛勢
57,58,637,4,10/05/17,"跑馬地草地""A""                                    ",1200,好/快,4,6,42,葉楚航,韋達                                    ,3,17.0,118,5 5 4,1.11.17,1038,--,,盛勢
58,59,591,8,23/04/17,沙田全天候                                    ,1650,濕慢,4,10,44,葉楚航,史卓豐,4-3/4,9.4,117,11 12 12 8,1.39.80,1037,--,,盛勢
59,60,547,4,05/04/17,沙田全天候                                    ,1650,好,4,5,46,葉楚航,韋達                                    ,5,3.9,119,3 3 3 4,1.39.12,1042,--,,盛勢
60,61,455,8,01/03/17,沙田全天候                                    ,1650,好,4,14,48,葉楚航,韋達                                    ,3-1/2,14.0,123,14 14 14 8,1.39.99,1052,B-,,盛勢
61,62,421,9,15/02/17,"跑馬地草地""C""                                    ",1200,好/快,4,5,50,葉楚航,史卓豐,5-1/4,11.0,123,6 8 9,1.11.07,1057,B,,盛勢
62,63,393,12,05/02/17,"沙田草地""C""                                    ",1400,好,4,1,52,葉楚航,蘇狄雄,7-1/4,12.0,123,7 5 5 12,1.23.45,1065,B,,盛勢
63,64,339,4,14/01/17,"沙田草地""C+3""                                    ",1400,好,4,14,52,葉楚航,蘇狄雄,2,25.0,123,13 11 8 4,1.23.17,1063,B1,,盛勢
64,65,225,6,30/11/16,"跑馬地草地""A""                                    ",1200,好,4,3,53,葉楚航,史卓豐,2,9.0,126,6 5 6,1.10.78,1063,--,,盛勢
65,66,187,7,16/11/16,"跑馬地草地""C""                                    ",1000,好,4,2,55,葉楚航,史卓豐,4,25.0,128,10 10 7,0.58.11,1058,--,,盛勢
66,67,99,7,12/10/16,"跑馬地草地""B""                                    ",1000,好,4,2,56,葉楚航,史卓豐,2,14.0,129,7 8 7,0.58.28,1042,--,,盛勢
67,68,61,7,28/09/16,"跑馬地草地""C+3""                                    ",1000,好,4,11,57,葉楚航,蘇狄雄,2-1/2,35.0,131,12 12 7,0.58.35,1029,--,,盛勢
68,69,41,7,21/09/16,"跑馬地草地""C""                                    ",1200,好/快,4,8,59,葉楚航,蘇狄雄,3-3/4,31.0,130,9 10 7,1.10.97,1032,--,,盛勢
69,70,6,6,03/09/16,"沙田草地""B""                                    ",1200,好,4,2,59,葉楚航,蘇狄雄,4-3/4,73.0,127,9 11 6,1.09.94,1043,--,,盛勢
70,71,782,10,10/07/16,"沙田草地""B+2""                                    ",1200,好/快,3,6,62,葉楚航,蘇狄雄,8-1/2,137.0,111,13 14 10,1.09.77,1039,--,,盛勢
71,72,751,10,26/06/16,"沙田草地""A""                                    ",1200,好/快,3,4,64,葉楚航,吳嘉晉                                    ,7-3/4,54.0,108,6 6 10,1.09.72,1038,--,,盛勢
72,73,710,11,12/06/16,"沙田草地""C""                                    ",1400,好/黏,4,14,65,葉楚航,蔣嘉琦                                    ,7,6.1,126,7 6 7 11,1.23.56,1039,--,,盛勢
73,74,626,3,07/05/16,"沙田草地""C""                                    ",1200,好,3,12,65,葉楚航,蘇狄雄,4,97.0,111,12 10 3,1.09.52,1028,--,,盛勢
