,Unnamed: 0,場次,名次,日期,馬場/跑道/賽道,途程,場地狀況,賽事班次,檔位,評分,練馬師,騎師,頭馬距離,獨贏賠率,實際負磅,沿途走位,完成時間,排位體重,配備,賽事重播,馬名
0,1,655,13,08/05/21,"沙田草地""C""                                    ",1400,好/快,5,13,35,霍利時,史卓豐,22,23.0,127,3 3 8 13,1.25.56,1158,B-/SR2/TT,,睡眠攻略
1,2,594,12,17/04/21,"沙田草地""C+3""                                    ",1200,好,5,8,37,霍利時,賀銘年,6-1/2,30.0,131,9 10 12,1.11.61,1152,SR-/B2/TT,,睡眠攻略
2,3,338,4,13/01/21,"跑馬地草地""B""                                    ",1650,好,5,12,39,霍利時,田泰安,3-1/2,10.0,133,12 12 10 4,1.41.85,1176,SR/TT,,睡眠攻略
3,4,270,7,16/12/20,"跑馬地草地""C""                                    ",1800,好,5,10,39,霍利時,田泰安,4,9.2,133,7 7 8 8 7,1.50.54,1160,SR/TT,,睡眠攻略
4,5,232,3,02/12/20,"跑馬地草地""A""                                    ",1800,好,5,10,38,霍利時,巴度,1/2,11.0,133,5 7 7 8 3,1.51.04,1154,SR/TT,,睡眠攻略
5,6,159,10,04/11/20,沙田全天候                                    ,1650,好,5,14,40,霍利時,周俊樂,12-1/2,6.9,123,2 2 2 10,1.42.88,1143,SR/TT,,睡眠攻略
6,7,116,6,18/10/20,沙田全天候                                    ,1200,好,4,11,41,霍利時,黎海榮,6-3/4,49.0,114,12 12 6,1.10.40,1124,SR/TT,,睡眠攻略
7,8,89,9,07/10/20,"跑馬地草地""A""                                    ",1650,好,4,4,43,霍利時,黎海榮,6-3/4,16.0,118,3 3 3 9,1.41.50,1129,SR/TT,,睡眠攻略
8,9,51,4,23/09/20,"跑馬地草地""C+3""                                    ",1800,好/快,4,6,44,霍利時,田泰安,3-1/4,5.8,117,2 5 4 4 4,1.49.31,1131,SR/TT,,睡眠攻略
9,10,29,8,16/09/20,"跑馬地草地""C""                                    ",1650,好,4,10,46,霍利時,巴度,4,6.2,120,10 10 9 8,1.39.66,1126,SR/TT,,睡眠攻略
10,11,823,4,15/07/20,"跑馬地草地""B""                                    ",1650,好/快,4,6,47,霍利時,田泰安,1-3/4,6.3,120,8 9 9 4,1.39.49,1112,SR/TT,,睡眠攻略
11,12,763,6,24/06/20,"跑馬地草地""C""                                    ",1650,好/快,4,12,49,霍利時,田泰安,1-3/4,8.5,122,9 9 9 6,1.40.39,1110,SR/TT,,睡眠攻略
12,13,714,6,03/06/20,"跑馬地草地""A""                                    ",1650,好,4,6,51,霍利時,賀銘年,3,6.6,125,2 2 3 6,1.40.91,1119,SR/TT1,,睡眠攻略
13,14,633,4,06/05/20,"跑馬地草地""B""                                    ",1650,好,4,4,53,霍利時,田泰安,3-1/4,8.8,127,8 8 8 4,1.39.97,1108,B-/SR2,,睡眠攻略
14,15,584,10,19/04/20,"沙田草地""C+3""                                    ",1800,好,4,3,55,霍利時,郭能,6-1/2,10.0,128,6 7 7 8 10,1.48.47,1101,B,,睡眠攻略
15,16,550,5,05/04/20,"沙田草地""B+2""                                    ",1600,好,4,9,57,霍利時,郭能,4-1/4,11.0,130,7 7 7 5,1.36.29,1105,SR-/B1,,睡眠攻略
16,17,510,4,22/03/20,"沙田草地""A""                                    ",1600,好,4,4,59,霍利時,郭能,3,8.8,133,7 6 5 4,1.35.30,1115,SR,,睡眠攻略
17,18,479,12,08/03/20,"沙田草地""C""                                    ",1600,好,3,7,61,霍利時,潘明輝,10-3/4,22.0,112,1 1 2 12,1.36.68,1121,SR,,睡眠攻略
18,19,444,9,23/02/20,"沙田草地""A+3""                                    ",1600,好,3,11,63,霍利時,希威森,3,39.0,117,14 14 13 9,1.34.73,1118,SR,,睡眠攻略
19,20,385,5,02/02/20,"沙田草地""C""                                    ",1600,好,3,6,65,霍利時,希威森,3-1/4,86.0,118,8 8 8 5,1.35.07,1127,SR,,睡眠攻略
20,21,303,13,01/01/20,"沙田草地""C""                                    ",1600,好,3,10,67,霍利時,郭能,7-1/2,33.0,120,3 3 5 13,1.35.88,1122,SR,,睡眠攻略
21,22,228,13,08/12/19,"沙田草地""A""                                    ",1800,好,3,14,69,霍利時,田泰安,6-1/4,45.0,123,10 9 9 7 13,1.48.67,1125,SR,,睡眠攻略
22,23,197,5,23/11/19,"沙田草地""C""                                    ",1600,好/快,3,11,70,霍利時,郭能,3,168.0,123,10 10 12 5,1.34.37,1124,SR,,睡眠攻略
23,24,148,10,03/11/19,"沙田草地""C+3""                                    ",1400,好/快,3,13,70,霍利時,郭能,4-3/4,127.0,124,12 11 11 10,1.21.92,1117,SR1,,睡眠攻略
