,Unnamed: 0,場次,名次,日期,馬場/跑道/賽道,途程,場地狀況,賽事班次,檔位,評分,練馬師,騎師,頭馬距離,獨贏賠率,實際負磅,沿途走位,完成時間,排位體重,配備,賽事重播,馬名
0,1,176,11,11/11/20,"跑馬地草地""B""                                    ",1000,好,5,5,32,鄭俊偉,楊明綸,9-1/2,80,125,8 11 11,0.59.28,1022,B,,祥勝寶駒
1,2,131,13,24/10/20,"沙田草地""C""                                    ",1400,好,5,11,35,鄭俊偉,黃俊,16,125,123,6 5 9 13,1.24.85,1017,CP-/B2,,祥勝寶駒
2,3,70,8,01/10/20,"沙田草地""B""                                    ",1200,好,5,9,37,鄭俊偉,周俊樂,5-1/2,92,120,3 3 8,1.10.30,1020,H-/CP2,,祥勝寶駒
3,4,20,10,13/09/20,"沙田草地""A+3""                                    ",1400,好,5,1,39,鄭俊偉,薛恩,8-1/4,63,132,8 9 8 10,1.23.03,1012,H,,祥勝寶駒
4,5,793,8,05/07/20,沙田全天候                                    ,1200,好,4,5,44,鄭俊偉,楊明綸,10,42,118,11 12 8,1.11.30,1026,B-/H2,,祥勝寶駒
5,6,604,14,26/04/20,"沙田草地""A""                                    ",1200,好,4,10,47,鄭俊偉,黎海榮,12-1/2,448,120,10 12 14,1.11.40,1010,H-/B,,祥勝寶駒
6,7,509,14,22/03/20,"沙田草地""A""                                    ",1200,好,4,9,49,鄭俊偉,潘明輝,19,54,122,3 10 14,1.12.53,1015,CP-/B1/H1,,祥勝寶駒
7,8,457,13,01/03/20,"沙田草地""B+2""                                    ",1200,好,4,4,51,鄭俊偉,田泰安,7-3/4,12,126,6 6 13,1.10.69,1021,CP,,祥勝寶駒
8,9,381,4,02/02/20,"沙田草地""C""                                    ",1200,好,4,2,52,鄭俊偉,潘頓,2,16,127,4 1 4,1.10.61,1020,CP1,,祥勝寶駒
9,10,325,12,11/01/20,"沙田草地""A""                                    ",1200,好,4,14,52,鄭俊偉,田泰安,5-1/2,71,125,10 8 12,1.10.31,1028,--,,祥勝寶駒
