,Unnamed: 0,場次,名次,日期,馬場/跑道/賽道,途程,場地狀況,賽事班次,檔位,評分,練馬師,騎師,頭馬距離,獨贏賠率,實際負磅,沿途走位,完成時間,排位體重,配備,賽事重播,馬名
0,1,690,3,23/05/21,"沙田草地""A""                                    ",1400,好/快,5,3,34,容天鵬,梁家俊,2,9.7,127,10 10 9 3,1.22.25,1197,B-/V1,,福星高照
1,2,576,8,11/04/21,"沙田草地""C""                                    ",1400,好,5,10,36,容天鵬,史卓豐,4-1/4,15.0,127,9 12 11 8,1.22.95,1212,B2,,福星高照
2,3,501,6,13/03/21,"沙田草地""C+3""                                    ",1600,好,5,1,38,容天鵬,史卓豐,3-1/4,7.5,131,6 9 9 6,1.36.69,1212,--,,福星高照
3,4,422,7,14/02/21,"沙田草地""A""                                    ",1400,好,5,11,40,容天鵬,蘇銘倫,3,10.0,133,7 7 8 7,1.24.30,1210,--,,福星高照
4,5,386,9,31/01/21,"沙田草地""B+2""                                    ",1600,好,4,8,42,容天鵬,巴度,3-3/4,11.0,115,10 11 11 9,1.35.05,1211,--,,福星高照
5,6,323,4,06/01/21,"跑馬地草地""A""                                    ",1650,好,4,7,42,容天鵬,梁家俊,1-3/4,22.0,118,4 4 4 4,1.40.98,1204,--,,福星高照
6,7,245,6,06/12/20,"沙田草地""C+3""                                    ",1400,好,4,13,44,容天鵬,巴度,7,45.0,119,14 14 8 6,1.22.96,1215,--,,福星高照
7,8,187,6,14/11/20,"沙田草地""C+3""                                    ",1400,好,4,14,46,容天鵬,彭國年,3,84.0,119,13 14 13 6,1.22.34,1215,--,,福星高照
8,9,150,8,01/11/20,"沙田草地""A""                                    ",1200,好/快,4,10,48,容天鵬,史卓豐,3,145.0,122,10 10 8,1.09.49,1221,--,,福星高照
9,10,93,8,11/10/20,"沙田草地""A+3""                                    ",1200,好,4,6,50,容天鵬,巴度,8,19.0,123,3 5 8,1.10.37,1210,B-,,福星高照
10,11,41,13,20/09/20,"沙田草地""B+2""                                    ",1200,好/快,4,8,52,容天鵬,賀銘年,10-3/4,35.0,125,6 9 13,1.10.40,1205,CP-/B1,,福星高照
11,12,6,8,06/09/20,"沙田草地""A""                                    ",1000,好,4,5,52,容天鵬,潘頓,4-3/4,9.2,125,8 9 8,0.56.68,1190,CP1,,福星高照
