,Unnamed: 0,場次,名次,日期,馬場/跑道/賽道,途程,場地狀況,賽事班次,檔位,評分,練馬師,騎師,頭馬距離,獨贏賠率,實際負磅,沿途走位,完成時間,排位體重,配備,賽事重播,馬名
0,1,61,8,27/09/20,沙田全天候                                    ,1200,好,3,12,64,容天鵬,巫顯東,6-1/4,288,116,12 12 8,1.11.13,1095,CP/TT1,,競駿披星
1,2,586,12,19/04/20,沙田全天候                                    ,1650,好,3,7,69,容天鵬,楊明綸,23-3/4,410,122,11 10 14 12,1.41.78,1099,CP,,競駿披星
2,3,534,12,29/03/20,"沙田草地""A+3""                                    ",1400,好,3,7,71,容天鵬,黎海榮,17-1/2,674,124,9 11 12 12,1.25.21,1090,CP,,競駿披星
3,4,482,12,08/03/20,"沙田草地""C""                                    ",1200,好,3,9,71,容天鵬,楊明綸,10-3/4,185,124,10 12 12,1.10.93,1082,CP1,,競駿披星
