,Unnamed: 0,場次,名次,日期,馬場/跑道/賽道,途程,場地狀況,賽事班次,檔位,評分,練馬師,騎師,頭馬距離,獨贏賠率,實際負磅,沿途走位,完成時間,排位體重,配備,賽事重播,馬名
0,1,472,9,03/03/21,"跑馬地草地""A""                                    ",1200,好,4,4,48,蘇偉賢,彭國年,5-1/4,17.0,121,2 2 9,1.10.86,1065,TT1,,競駿翩翩
1,2,350,6,17/01/21,"沙田草地""A""                                    ",1200,好,4,7,50,蘇偉賢,彭國年,3-1/2,32.0,123,3 4 6,1.11.06,1079,--,,競駿翩翩
2,3,252,9,09/12/20,"跑馬地草地""B""                                    ",1000,好,4,5,52,蘇偉賢,巴米高,3-1/2,23.0,126,12 11 9,0.57.75,1077,--,,競駿翩翩
3,4,130,8,24/10/20,"沙田草地""C""                                    ",1000,好,4,13,52,蘇偉賢,彭國年,3-3/4,8.8,129,11 9 8,0.58.05,1091,--,,競駿翩翩
