,Unnamed: 0,場次,名次,日期,馬場/跑道/賽道,途程,場地狀況,賽事班次,檔位,評分,練馬師,騎師,頭馬距離,獨贏賠率,實際負磅,沿途走位,完成時間,排位體重,配備,賽事重播,馬名
0,1,686,5,19/05/21,"跑馬地草地""B""                                    ",1200,好/快,3,4,68,蘇保羅,波健士,2-3/4,2.2,125,2 2 5,1.09.58,1170,--,,箭意
1,2,587,1,14/04/21,"跑馬地草地""B""                                    ",1200,好/快,4,10,60,蘇保羅,潘頓,1-1/4,3.6,133,2 2 1,1.10.08,1174,--,,箭意
2,3,511,1,17/03/21,"跑馬地草地""C""                                    ",1200,好/快,4,11,53,蘇保羅,潘頓,1-1/4,2.5,127,1 1 1,1.09.81,1184,--,,箭意
3,4,475,2,03/03/21,"跑馬地草地""A""                                    ",1200,好,4,6,52,蘇保羅,波健士,1,3.1,127,3 3 2,1.09.96,1183,--,,箭意
4,5,418,1,10/02/21,"跑馬地草地""B""                                    ",1200,好,4,2,45,蘇保羅,波健士,頸位,6.7,118,3 3 1,1.10.61,1177,--,,箭意
5,6,511,6,22/03/20,"沙田草地""A""                                    ",1200,好,4,7,48,蘇保羅,薛恩,5,13.0,121,6 6 6,1.09.64,1184,--,,箭意
6,7,457,4,01/03/20,"沙田草地""B+2""                                    ",1200,好,4,13,50,蘇保羅,薛恩,4,30.0,125,10 11 4,1.10.09,1176,--,,箭意
7,8,402,9,08/02/20,"沙田草地""C+3""                                    ",1400,好,4,11,52,蘇保羅,彭國年,7-1/2,17.0,126,12 11 11 9,1.23.26,1186,--,,箭意
8,9,343,7,19/01/20,"沙田草地""A+3""                                    ",1200,好,4,13,52,蘇保羅,薛恩,3-1/4,11.0,125,13 11 7,1.09.99,1182,--,,箭意
