,Unnamed: 0,場次,名次,日期,馬場/跑道/賽道,途程,場地狀況,賽事班次,檔位,評分,練馬師,騎師,頭馬距離,獨贏賠率,實際負磅,沿途走位,完成時間,排位體重,配備,賽事重播,馬名
0,1,542,9,28/03/21,"沙田草地""A+3""                                    ",1400,好/快,4,12,60,姚本輝,陳嘉熙,7,21.0,126,4 6 9 9,1.22.29,1076,B/XB,,精彩有你
1,2,468,11,28/02/21,"沙田草地""B+2""                                    ",1000,好,3,5,61,姚本輝,黃皓楠,10-1/4,96.0,112,13 14 11,0.57.63,1078,B/XB,,精彩有你
2,3,440,8,17/02/21,"跑馬地草地""C""                                    ",1200,好,3,11,61,姚本輝,波健士,4-1/4,28.0,114,11 11 8,1.09.95,1076,B/XB,,精彩有你
3,4,393,3,03/02/21,"跑馬地草地""A""                                    ",1200,好,4,11,60,姚本輝,波健士,頸位,24.0,133,10 10 3,1.10.25,1070,CP-/XB/B2,,精彩有你
4,5,361,11,20/01/21,"跑馬地草地""C""                                    ",1650,好,3,5,62,姚本輝,梁家俊,6-3/4,16.0,118,5 3 2 11,1.40.93,1076,CP/XB,,精彩有你
5,6,237,11,02/12/20,"跑馬地草地""A""                                    ",1800,好,3,5,64,姚本輝,彭國年,6-1/4,10.0,118,2 4 3 4 11,1.50.51,1092,CP/XB,,精彩有你
6,7,148,6,01/11/20,"沙田草地""A""                                    ",2000,好,3,4,65,姚本輝,史卓豐,4,5.8,121,1 1 1 1 6,2.01.72,1089,CP/XB,,精彩有你
7,8,40,4,20/09/20,"沙田草地""B+2""                                    ",1600,好/快,3,7,65,姚本輝,史卓豐,2,13.0,119,7 9 9 4,1.34.16,1086,B-/XB/CP1,,精彩有你
8,9,787,5,01/07/20,"沙田草地""C""                                    ",1600,好/快,3,10,65,姚本輝,潘頓,2-3/4,3.0,120,6 6 5 5,1.34.97,1054,B/XB,,精彩有你
9,10,727,3,07/06/20,"沙田草地""C""                                    ",1600,黏,3,4,65,姚本輝,何澤堯,1-3/4,3.5,118,6 6 6 3,1.35.89,1042,B/XB,,精彩有你
10,11,666,3,17/05/20,"沙田草地""C+3""                                    ",1600,好/快,3,6,64,姚本輝,莫雷拉,1/2,2.3,122,7 6 4 3,1.34.38,1047,B/XB,,精彩有你
11,12,605,2,26/04/20,"沙田草地""A""                                    ",1600,好,3,4,62,姚本輝,莫雷拉,1/2,2.5,115,5 6 7 2,1.34.49,1049,B/XB,,精彩有你
12,13,479,3,08/03/20,"沙田草地""C""                                    ",1600,好,3,10,60,姚本輝,莫雷拉,3/4,3.5,115,6 5 1 3,1.35.10,1040,B/XB,,精彩有你
13,14,419,1,16/02/20,"沙田草地""A""                                    ",1600,好,4,8,54,姚本輝,莫雷拉,1-1/2,3.7,127,3 5 3 1,1.35.79,1058,B/XB,,精彩有你
14,15,344,3,19/01/20,"沙田草地""A+3""                                    ",1600,好,4,5,54,姚本輝,莫雷拉,1-1/4,2.0,129,2 3 3 3,1.34.93,1061,B/XB,,精彩有你
15,16,251,2,15/12/19,"沙田草地""C+3""                                    ",1600,好,4,8,52,姚本輝,蔡明紹,頸位,5.1,125,4 4 4 2,1.34.55,1062,XB/B1,,精彩有你
16,17,167,3,09/11/19,"沙田草地""A""                                    ",1600,好/快,4,5,52,姚本輝,蔡明紹,1-1/2,17.0,125,4 3 3 3,1.34.70,1063,XB,,精彩有你
17,18,72,4,06/10/19,"沙田草地""B+2""                                    ",1400,好,4,1,52,姚本輝,蔡明紹,1-3/4,138.0,125,4 4 3 4,1.22.99,1057,XB1,,精彩有你
18,19,34,11,15/09/19,"沙田草地""C+3""                                    ",1200,好/快,4,8,52,姚本輝,黎海榮,4-1/2,200.0,125,7 8 11,1.10.01,1062,--,,精彩有你
