,Unnamed: 0,場次,名次,日期,馬場/跑道/賽道,途程,場地狀況,賽事班次,檔位,評分,練馬師,騎師,頭馬距離,獨贏賠率,實際負磅,沿途走位,完成時間,排位體重,配備,賽事重播,馬名
0,1,699,2,23/05/21,"沙田草地""A""                                    ",1200,好/快,3,9,72,大衛希斯,潘頓,1-1/2,8.1,129,2 2 2,1.08.99,1120,B,,精彩勇士
1,2,664,4,12/05/21,"沙田草地""C+3""                                    ",1000,好/快,3,4,72,大衛希斯,田泰安,2-1/4,17.0,126,1 5 4,0.55.72,1125,B,,精彩勇士
2,3,595,2,17/04/21,"沙田草地""C+3""                                    ",1000,好,3,6,70,大衛希斯,潘頓,頸位,7.2,123,1 2 2,0.56.65,1115,B,,精彩勇士
3,4,538,3,28/03/21,"沙田草地""A+3""                                    ",1000,好/快,3,4,71,大衛希斯,周俊樂,3-1/4,24.0,121,4 4 3,0.55.75,1119,B,,精彩勇士
4,5,400,12,03/02/21,"跑馬地草地""A""                                    ",1200,好,3,10,73,大衛希斯,郭能,8-1/2,13.0,127,8 8 12,1.10.71,1127,B,,精彩勇士
5,6,351,4,17/01/21,"沙田草地""A""                                    ",1000,好,3,9,75,大衛希斯,周俊樂,3-1/4,12.0,123,2 3 4,0.57.73,1152,CP-/B2,,精彩勇士
6,7,304,6,26/12/20,"沙田草地""A+3""                                    ",1000,好,3,11,76,大衛希斯,郭能,4,23.0,130,2 3 6,0.57.13,1132,B-/CP2,,精彩勇士
7,8,246,5,06/12/20,"沙田草地""C+3""                                    ",1000,好,3,10,76,大衛希斯,郭能,2-1/2,15.0,131,2 4 5,0.56.56,1127,B,,精彩勇士
8,9,53,6,23/09/20,"跑馬地草地""C+3""                                    ",1200,好/快,3,7,76,大衛希斯,潘頓,3,3.6,129,2 2 6,1.09.58,1128,B,,精彩勇士
9,10,7,1,06/09/20,"沙田草地""A""                                    ",1000,好,3,11,70,大衛希斯,潘頓,頸位,3.0,123,3 2 1,0.55.78,1129,CP-/B1,,精彩勇士
10,11,819,3,12/07/20,"沙田草地""A""                                    ",1200,好/快,3,2,70,約翰摩亞,郭能,2,7.9,123,4 4 3,1.09.25,1131,CP,,精彩勇士
11,12,788,2,01/07/20,"沙田草地""C""                                    ",1000,好/快,3,10,68,約翰摩亞,潘頓,1-1/4,16.0,121,1 1 2,0.55.86,1122,CP,,精彩勇士
12,13,732,8,10/06/20,"跑馬地草地""B""                                    ",1000,好/快,3,6,69,約翰摩亞,潘頓,7-3/4,4.0,125,7 6 8,0.58.03,1111,CP,,精彩勇士
13,14,702,4,31/05/20,"沙田草地""B""                                    ",1200,好,3,7,69,約翰摩亞,郭能,1-1/4,19.0,122,4 4 4,1.09.32,1122,CP1,,精彩勇士
