,Unnamed: 0,場次,名次,日期,馬場/跑道/賽道,途程,場地狀況,賽事班次,檔位,評分,練馬師,騎師,頭馬距離,獨贏賠率,實際負磅,沿途走位,完成時間,排位體重,配備,賽事重播,馬名
0,1,633,12,02/05/21,"沙田草地""B""                                    ",1000,好,4,8,52,苗禮德,田泰安,13,12.0,126,5 7 12,0.58.35,1058,--,,綠魔勇士
1,2,530,11,24/03/21,"跑馬地草地""C+3""                                    ",1000,好/快,4,9,52,苗禮德,田泰安,6-1/2,8.6,125,9 8 11,0.58.26,1076,--,,綠魔勇士
