,Unnamed: 0,場次,名次,日期,馬場/跑道/賽道,途程,場地狀況,賽事班次,檔位,評分,練馬師,騎師,頭馬距離,獨贏賠率,實際負磅,沿途走位,完成時間,排位體重,配備,賽事重播,馬名
0,1,679,9,16/05/21,"沙田草地""C+3""                                    ",1400,好/快,2,3,98,告東尼,潘頓,10-1/4,6.3,131,6 6 7 9,1.21.90,1084,B/TT,,美麗笑容
1,2,526,2,21/03/21,"沙田草地""A""                                    ",1600,好,2,13,95,告東尼,潘頓,頸位,6.1,131,2 2 2 2,1.34.53,1072,B/TT,,美麗笑容
2,3,462,3,28/02/21,"沙田草地""B+2""                                    ",1400,好,2,2,95,告東尼,蔡明紹,1-1/4,4.2,132,5 5 8 3,1.21.33,1081,B/TT,,美麗笑容
3,4,428,1,14/02/21,"沙田草地""A""                                    ",1400,好,1,3,86,告東尼,蔡明紹,1-1/4,3.6,113,4 5 5 1,1.21.34,1070,B/TT,,美麗笑容
4,5,388,1,31/01/21,"沙田草地""B+2""                                    ",1400,好,2,8,81,告東尼,蔡明紹,3/4,6.8,115,4 4 4 1,1.21.09,1092,B/TT,,美麗笑容
5,6,335,7,10/01/21,"沙田草地""C""                                    ",1400,好,2,10,82,告東尼,何澤堯,4,10.0,117,7 11 10 7,1.21.71,1069,B/TT,,美麗笑容
6,7,285,3,20/12/20,"沙田草地""C+3""                                    ",1400,好,2,8,82,告東尼,波健士,1-3/4,5.6,118,8 8 7 3,1.21.92,1090,B/TT,,美麗笑容
7,8,211,2,22/11/20,"沙田草地""B+2""                                    ",1400,好/快,3,13,80,告東尼,周俊樂,1/2,5.3,126,6 1 1 2,1.21.21,1094,B/TT,,美麗笑容
8,9,138,6,24/10/20,"沙田草地""C""                                    ",1400,好,2,13,81,告東尼,波健士,2-3/4,61.0,116,2 1 1 6,1.21.22,1103,B1/TT,,美麗笑容
9,10,688,11,24/05/20,"沙田草地""A""                                    ",1400,好,3,6,82,告東尼,莫雷拉,15-1/4,3.6,131,2 3 5 11,1.23.60,1100,TT,,美麗笑容
10,11,607,4,26/04/20,"沙田草地""A""                                    ",1400,好,3,12,82,告東尼,田泰安,1-1/2,8.5,131,8 6 7 4,1.21.75,1105,TT,,美麗笑容
11,12,572,2,12/04/20,"沙田草地""C""                                    ",1400,好,3,6,80,告東尼,潘頓,頸位,12.0,130,5 5 5 2,1.21.34,1099,TT1,,美麗笑容
