,Unnamed: 0,場次,名次,日期,馬場/跑道/賽道,途程,場地狀況,賽事班次,檔位,評分,練馬師,騎師,頭馬距離,獨贏賠率,實際負磅,沿途走位,完成時間,排位體重,配備,賽事重播,馬名
0,1,693,7,23/05/21,"沙田草地""A""                                    ",2000,好/快,4,14,54,苗禮德,班德禮,3-1/4,12.0,127,13 14 13 14 7,2.02.77,1115,B,,翡翠綠
1,2,597,13,17/04/21,"沙田草地""C+3""                                    ",1800,好,4,12,56,苗禮德,莫雷拉,13-1/4,9.9,130,10 12 12 13 13,1.52.25,1115,B,,翡翠綠
2,3,537,3,28/03/21,"沙田草地""A+3""                                    ",2000,好,4,10,56,苗禮德,莫雷拉,1-3/4,6.6,130,9 10 10 11 3,2.02.31,1111,CP-/B2,,翡翠綠
3,4,444,9,21/02/21,"沙田草地""A+3""                                    ",1800,好,4,10,58,苗禮德,莫雷拉,3-1/2,4.4,131,10 11 11 11 9,1.48.35,1141,CP,,翡翠綠
4,5,365,3,24/01/21,"沙田草地""A+3""                                    ",1800,好,4,14,58,苗禮德,梁家俊,3-1/2,18.0,132,13 12 12 12 3,1.47.85,1121,CP1,,翡翠綠
5,6,239,2,06/12/20,沙田全天候                                    ,1800,好,4,8,57,苗禮德,史卓豐,3/4,9.5,133,4 5 4 5 2,1.49.12,1109,--,,翡翠綠
6,7,167,12,08/11/20,"跑馬地草地""A""                                    ",1800,好,4,3,59,苗禮德,彭國年,4-1/4,11.0,133,5 6 6 7 12,1.50.78,1106,B-,,翡翠綠
7,8,114,11,18/10/20,"沙田草地""B+2""                                    ",1600,好/快,4,9,60,苗禮德,賀銘年,7,8.2,133,2 2 2 11,1.35.30,1108,B,,翡翠綠
8,9,5,4,06/09/20,"沙田草地""A""                                    ",1400,好,4,8,60,苗禮德,巴度,1-1/2,10.0,133,8 8 6 4,1.22.50,1115,XB-/B,,翡翠綠
9,10,723,4,07/06/20,"沙田草地""C""                                    ",1600,黏,4,3,60,苗禮德,史卓豐,1-1/4,8.2,133,6 6 6 4,1.35.91,1115,B/XB,,翡翠綠
10,11,631,12,03/05/20,"沙田草地""B""                                    ",1400,好/快,3,7,61,苗禮德,波健士,9-3/4,10.0,115,13 12 14 12,1.22.97,1113,B/XB,,翡翠綠
11,12,560,11,08/04/20,"跑馬地草地""B""                                    ",1000,好,3,11,61,苗禮德,波健士,6-1/2,32.0,118,12 12 11,0.57.82,1121,B/XB,,翡翠綠
12,13,303,9,01/01/20,"沙田草地""C""                                    ",1600,好,3,14,62,苗禮德,利敬國,4-1/4,6.1,115,12 13 14 9,1.35.35,1112,B/XB,,翡翠綠
13,14,255,3,15/12/19,"沙田草地""C+3""                                    ",1600,好,3,1,62,苗禮德,蘇兆輝,1-1/4,5.3,117,7 7 6 3,1.34.94,1113,B/XB,,翡翠綠
14,15,217,8,01/12/19,"沙田草地""C+3""                                    ",1400,好,3,6,62,苗禮德,蘇兆輝,4,2.7,117,7 10 14 8,1.22.30,1114,B/XB,,翡翠綠
15,16,114,9,20/10/19,"沙田草地""A""                                    ",1400,好/快,3,11,62,苗禮德,田泰安,6-3/4,3.4,115,10 10 9 9,1.21.68,1112,B/XB,,翡翠綠
16,17,62,1,01/10/19,"沙田草地""A+3""                                    ",1400,好/快,4,3,53,苗禮德,杜美爾,3-1/4,3.7,126,6 4 3 1,1.21.52,1102,B/XB,,翡翠綠
17,18,754,2,23/06/19,"沙田草地""A""                                    ",1400,好/快,4,2,52,苗禮德,郭能,1/2,4.2,126,5 4 2 2,1.21.60,1122,B/XB,,翡翠綠
18,19,637,8,05/05/19,"沙田草地""B""                                    ",1600,好/黏,4,14,53,苗禮德,郭能,4,3.4,126,8 8 8 8,1.37.53,1124,B/XB,,翡翠綠
19,20,557,5,07/04/19,"沙田草地""B+2""                                    ",1400,好/快,4,8,53,苗禮德,貝力斯,5-1/4,3.2,126,13 14 13 5,1.22.45,1122,XB/B1,,翡翠綠
20,21,462,2,02/03/19,"沙田草地""C""                                    ",1400,好,4,1,50,苗禮德,田泰安,頸位,4.1,123,5 5 5 2,1.22.78,1119,XB,,翡翠綠
21,22,351,8,20/01/19,"沙田草地""A+3""                                    ",1200,好/快,4,10,52,苗禮德,田泰安,4-3/4,9.5,121,14 13 8,1.10.32,1134,XB,,翡翠綠
22,23,255,4,16/12/18,"沙田草地""C+3""                                    ",1200,好,4,7,52,苗禮德,田泰安,5-1/2,15.0,127,7 8 4,1.11.02,1148,XB1,,翡翠綠
