,Unnamed: 0,場次,名次,日期,馬場/跑道/賽道,途程,場地狀況,賽事班次,檔位,評分,練馬師,騎師,頭馬距離,獨贏賠率,實際負磅,沿途走位,完成時間,排位體重,配備,賽事重播,馬名
0,1,623,7,28/04/21,"跑馬地草地""C+3""                                    ",1650,好,5,3,40,葉楚航,莫雷拉,6-1/2,5.5,133,7 7 7 7,1.40.87,1012,--,,老表醒
1,2,597,10,17/04/21,"沙田草地""C+3""                                    ",1800,好,4,10,42,葉楚航,黃皓楠,4-1/4,75.0,113,13 13 13 12 10,1.50.80,1015,--,,老表醒
2,3,513,10,17/03/21,"跑馬地草地""C""                                    ",1800,好/快,4,10,44,葉楚航,賀銘年,5-1/4,17.0,118,12 12 12 12 10,1.49.60,1048,--,,老表醒
3,4,473,6,03/03/21,"跑馬地草地""A""                                    ",1800,好,4,4,45,葉楚航,潘頓,3-1/4,3.2,120,4 5 5 5 6,1.50.07,1041,--,,老表醒
4,5,414,5,10/02/21,"跑馬地草地""B""                                    ",1800,好,4,5,45,葉楚航,田泰安,2,4.5,118,6 6 8 8 5,1.50.65,1054,--,,老表醒
5,6,365,4,24/01/21,"沙田草地""A+3""                                    ",1800,好,4,10,45,葉楚航,田泰安,4-1/4,12.0,119,11 11 11 11 4,1.47.98,1053,--,,老表醒
6,7,270,1,16/12/20,"跑馬地草地""C""                                    ",1800,好,5,12,38,葉楚航,潘頓,1-1/4,15.0,132,10 9 10 9 1,1.49.91,1032,--,,老表醒
7,8,203,8,22/11/20,"沙田草地""B+2""                                    ",2000,好,4,2,40,葉楚航,蔡明紹,7-1/2,11.0,113,4 6 6 5 8,2.01.89,1047,--,,老表醒
8,9,133,5,24/10/20,"沙田草地""C""                                    ",1800,好,4,10,42,葉楚航,潘明輝,3,87.0,113,5 5 5 4 5,1.48.11,1047,--,,老表醒
9,10,89,11,07/10/20,"跑馬地草地""A""                                    ",1650,好,4,10,44,葉楚航,梁家俊,18-1/4,45.0,119,2 1 2 11,1.43.34,1049,--,,老表醒
10,11,813,8,12/07/20,"沙田草地""A""                                    ",1800,好/快,4,9,49,葉楚航,蘇狄雄,5-1/2,246.0,120,11 13 13 13 8,1.48.33,1040,--,,老表醒
11,12,763,11,24/06/20,"跑馬地草地""C""                                    ",1650,好/快,4,11,54,葉楚航,楊明綸,9,98.0,127,10 11 10 11,1.41.56,1032,--,,老表醒
12,13,723,11,07/06/20,"沙田草地""C""                                    ",1600,黏,4,8,58,葉楚航,陳嘉熙,9,70.0,124,9 10 12 11,1.37.12,1024,--,,老表醒
13,14,676,10,20/05/20,"跑馬地草地""C+3""                                    ",1650,好/快,3,8,62,葉楚航,楊明綸,8-3/4,190.0,117,9 9 11 10,1.40.42,1016,--,,老表醒
14,15,659,8,13/05/20,"跑馬地草地""C""                                    ",1650,好,3,11,65,葉楚航,楊明綸,6-1/4,343.0,120,11 11 11 8,1.41.00,1021,--,,老表醒
15,16,607,14,26/04/20,"沙田草地""A""                                    ",1400,好,3,10,68,葉楚航,蘇狄雄,13-3/4,693.0,120,13 13 14 14,1.23.70,1014,--,,老表醒
16,17,534,11,29/03/20,"沙田草地""A+3""                                    ",1400,好,3,4,70,葉楚航,蘇狄雄,17,530.0,121,12 13 14 11,1.25.13,1011,--,,老表醒
17,18,461,13,01/03/20,"沙田草地""B+2""                                    ",1200,好,3,9,70,葉楚航,潘明輝,10,217.0,123,10 12 13,1.10.62,1020,--,,老表醒
