,Unnamed: 0,場次,名次,日期,馬場/跑道/賽道,途程,場地狀況,賽事班次,檔位,評分,練馬師,騎師,頭馬距離,獨贏賠率,實際負磅,沿途走位,完成時間,排位體重,配備,賽事重播,馬名
0,1,584,4,11/04/21,"沙田草地""C""                                    ",1400,好,2,14,92,韋達,潘頓,3/4,10.0,125,4 7 5 4,1.21.35,1215,H/XB/CP1,,聚才
1,2,502,2,13/03/21,"沙田草地""C+3""                                    ",1400,好,2,4,90,韋達,潘頓,頸位,5.2,125,5 6 5 2,1.20.85,1227,H/XB,,聚才
2,3,429,5,14/02/21,"沙田草地""A""                                    ",1200,好,2,7,91,韋達,何澤堯,2,51.0,128,11 11 5,1.08.89,1218,H/XB1,,聚才
3,4,267,14,13/12/20,"沙田草地""A""                                    ",1600,好,2,5,91,韋達,莫雅,10-1/2,8.5,124,12 12 14 14,1.36.20,1206,H,,聚才
4,5,190,3,14/11/20,"沙田草地""C+3""                                    ",1400,好,1,7,91,韋達,巴度,1-1/4,5.5,114,4 4 4 3,1.22.01,1207,H1,,聚才
5,6,64,6,27/09/20,"沙田草地""A""                                    ",1200,好,2,10,91,韋達,巴度,3-1/2,9.9,128,13 12 6,1.09.33,1257,--,,聚才
6,7,10,10,06/09/20,"沙田草地""A""                                    ",1400,好,2,8,91,韋達,巴度,6,4.6,126,2 1 2 10,1.22.09,1217,--,,聚才
7,8,463,1,01/03/20,"沙田草地""B+2""                                    ",1400,好,2,2,85,韋達,巴度,頸位,2.5,123,2 3 4 1,1.21.12,1205,--,,聚才
8,9,371,1,27/01/20,"沙田草地""B+2""                                    ",1200,好,3,9,77,韋達,巴度,1,3.6,130,8 7 1,1.09.06,1191,--,,聚才
9,10,296,1,01/01/20,"沙田草地""C""                                    ",1200,好,3,12,70,韋達,巴度,1-1/4,2.1,125,4 2 1,1.09.74,1202,--,,聚才
10,11,229,2,08/12/19,"沙田草地""A""                                    ",1200,好,3,3,68,韋達,巴度,頸位,6.5,121,9 8 2,1.09.08,1203,--,,聚才
