,Unnamed: 0,場次,名次,日期,馬場/跑道/賽道,途程,場地狀況,賽事班次,檔位,評分,練馬師,騎師,頭馬距離,獨贏賠率,實際負磅,沿途走位,完成時間,排位體重,配備,賽事重播,馬名
0,1,726,12,02/06/21,"跑馬地草地""A""                                    ",1200,好,3,7,61,蔡約翰,莫雷拉,12-1/2,4.0,115,8 9 12,1.11.57,1121,--,,聲勢
1,2,684,1,19/05/21,"跑馬地草地""B""                                    ",1200,好/快,4,8,55,蔡約翰,莫雷拉,短馬頭位,5.5,128,2 2 1,1.09.62,1128,--,,聲勢
2,3,635,2,02/05/21,"沙田草地""B""                                    ",1200,好,4,5,53,蔡約翰,莫雷拉,頸位,5.2,128,3 2 2,1.09.10,1110,--,,聲勢
3,4,578,3,11/04/21,"沙田草地""C""                                    ",1200,好,4,3,52,蔡約翰,莫雷拉,3/4,3.7,129,2 2 3,1.09.57,1103,--,,聲勢
4,5,221,13,29/11/20,"沙田草地""C""                                    ",1000,好,4,9,52,蔡約翰,莫雷拉,21-1/4,9.7,130,8 10 13,1.00.19,1108,--,,聲勢
5,6,186,7,14/11/20,"沙田草地""C+3""                                    ",1200,好,4,12,52,蔡約翰,莫雷拉,5,8.1,130,2 1 7,1.10.17,1103,--,,聲勢
6,7,150,1,01/11/20,"沙田草地""A""                                    ",1200,好/快,4,2,47,蔡約翰,田泰安,短馬頭位,6.0,121,5 4 1,1.09.02,1095,--,,聲勢
7,8,115,7,18/10/20,"沙田草地""B+2""                                    ",1200,好/快,4,7,49,蔡約翰,史卓豐,3-1/2,45.0,122,7 6 7,1.09.64,1121,--,,聲勢
8,9,703,11,31/05/20,"沙田草地""B""                                    ",1200,好,4,13,52,蔡約翰,莫雷拉,5-1/4,4.2,125,5 6 11,1.10.21,1091,--,,聲勢
9,10,604,7,26/04/20,"沙田草地""A""                                    ",1200,好,4,11,52,蔡約翰,莫雷拉,5,4.9,125,3 5 7,1.10.20,1129,--,,聲勢
