,Unnamed: 0,場次,名次,日期,馬場/跑道/賽道,途程,場地狀況,賽事班次,檔位,評分,練馬師,騎師,頭馬距離,獨贏賠率,實際負磅,沿途走位,完成時間,排位體重,配備,賽事重播,馬名
0,1,707,10,26/05/21,"跑馬地草地""C""                                    ",1650,好/快,2,8,90,姚本輝,薛恩,6-1/2,33,128,4 3 4 10,1.39.01,1160,CP,,英之星
1,2,651,04,05/05/21,"跑馬地草地""A""                                    ",1200,好/快,2,1,92,姚本輝,班德禮,3-3/4,12,126,5 4 4,1.09.26,1142,CP,,英之星
2,3,584,10,11/04/21,"沙田草地""C""                                    ",1400,好,2,10,94,姚本輝,何澤堯,3-3/4,58,127,8 9 9 10,1.21.81,1157,CP,,英之星
3,4,516,05,17/03/21,"跑馬地草地""C""                                    ",1200,好/快,2,4,95,姚本輝,梁家俊,2-1/4,39,128,6 7 5,1.09.25,1158,CP,,英之星
4,5,481,08,07/03/21,"沙田草地""C""                                    ",1000,好,2,2,96,姚本輝,蔡明紹,5-1/2,26,132,8 9 8,0.57.24,1148,CP,,英之星
5,6,294,11,23/12/20,"跑馬地草地""C+3""                                    ",1200,好/快,2,4,96,姚本輝,梁家俊,5-1/2,7.8,131,5 8 11,1.09.68,1170,CP,,英之星
6,7,175,02,08/11/20,"跑馬地草地""A""                                    ",1200,好,2,1,93,姚本輝,梁家俊,短馬頭位,10,128,7 6 2,1.09.89,1168,CP,,英之星
7,8,827,07,15/07/20,"跑馬地草地""B""                                    ",1650,好/快,2,6,93,姚本輝,梁家俊,3-1/4,26,128,8 9 9 7,1.39.12,1160,CP,,英之星
8,9,799,01,05/07/20,"沙田草地""C+3""                                    ",1200,好/快,2,12,87,姚本輝,梁家俊,頸位,16,124,11 10 1,1.08.32,1159,CP,,英之星
9,10,678,06,20/05/20,"跑馬地草地""C+3""                                    ",1200,好/快,2,3,87,姚本輝,何澤堯,3-1/2,5.9,120,8 8 6,1.09.33,1137,CP,,英之星
10,11,618,01,29/04/20,"跑馬地草地""A""                                    ",1200,好/快,3,1,80,姚本輝,何澤堯,1-1/4,3,133,6 6 1,1.09.40,1138,CP,,英之星
11,12,579,WV,15/04/20,"跑馬地草地""C""                                    ",1200,好,3,--,80,姚本輝,何澤堯,--,--,133,--,--,--,--,--,英之星
12,13,526,02,25/03/20,"跑馬地草地""A""                                    ",1200,好,3,12,79,姚本輝,何澤堯,1-1/4,12,133,12 9 2,1.09.74,1136,CP,,英之星
13,14,482,05,08/03/20,"沙田草地""C""                                    ",1200,好,3,12,79,姚本輝,何澤堯,2,29,132,12 11 5,1.09.55,1145,CP,,英之星
14,15,406,11,08/02/20,"沙田草地""C+3""                                    ",1400,好,3,7,79,姚本輝,希威森,9-1/4,10,132,7 7 9 11,1.22.76,1151,CP,,英之星
15,16,347,04,19/01/20,"沙田草地""A+3""                                    ",1200,好,3,6,78,姚本輝,蘇兆輝,頭位,3.9,133,5 5 4,1.09.36,1146,CP,,英之星
16,17,288,01,29/12/19,"沙田草地""B+2""                                    ",1200,好,3,6,69,姚本輝,蘇兆輝,2-1/4,2.4,126,4 6 1,1.09.72,1148,CP,,英之星
17,18,229,07,08/12/19,"沙田草地""A""                                    ",1200,好,3,13,69,姚本輝,利敬國,3-1/4,4.5,122,10 12 7,1.09.53,1135,CP,,英之星
18,19,172,01,17/11/19,"沙田草地""B""                                    ",1200,好,3,11,61,姚本輝,利敬國,1-1/4,6.9,115,7 7 1,1.08.79,1144,CP,,英之星
19,20,108,04,20/10/19,"沙田草地""A""                                    ",1000,好/快,3,8,63,姚本輝,利敬國,3-1/4,22,116,9 10 4,0.55.97,1150,CP,,英之星
20,21,57,07,25/09/19,"跑馬地草地""A""                                    ",1200,好/快,3,7,65,姚本輝,貝力斯,5-3/4,27,119,7 6 7,1.10.57,1155,CP1,,英之星
21,22,785,09,03/07/19,"跑馬地草地""C""                                    ",1200,好,3,2,68,姚本輝,梁家俊,8-1/4,26,122,5 7 9,1.11.17,1112,--,,英之星
22,23,602,13,22/04/19,"沙田草地""C+3""                                    ",1400,好/快,3,13,70,姚本輝,李寶利,8-1/4,39,125,12 9 8 13,1.22.76,1124,--,,英之星
23,24,494,06,13/03/19,"跑馬地草地""B""                                    ",1200,好,3,4,72,姚本輝,李寶利,4-1/4,7.1,125,6 6 6,1.10.83,1118,--,,英之星
24,25,438,04,20/02/19,"跑馬地草地""C""                                    ",1200,好/快,3,9,73,姚本輝,李寶利,4-1/2,14,129,11 11 4,1.09.39,1131,--,,英之星
25,26,325,03,09/01/19,"跑馬地草地""A""                                    ",1000,好,3,9,73,姚本輝,李寶利,2-1/4,97,128,9 9 3,0.57.69,1155,--,,英之星
26,27,295,13,29/12/18,"沙田草地""B+2""                                    ",1000,好,3,7,73,姚本輝,李寶利,6-1/4,19,128,10 12 13,0.58.41,1156,--,,英之星
