,Unnamed: 0,場次,名次,日期,馬場/跑道/賽道,途程,場地狀況,賽事班次,檔位,評分,練馬師,騎師,頭馬距離,獨贏賠率,實際負磅,沿途走位,完成時間,排位體重,配備,賽事重播,馬名
0,1,518,8,21/03/21,"沙田草地""A""                                    ",1200,好,4,13,56,蘇保羅,梁家俊,7-1/2,27.0,129,13 13 8,1.10.64,1132,B,,荷花福星
1,2,464,11,28/02/21,"沙田草地""B+2""                                    ",1200,好,4,13,56,蘇保羅,梁家俊,3-1/2,21.0,131,14 13 11,1.10.11,1152,B,,荷花福星
2,3,405,1,06/02/21,"沙田草地""C""                                    ",1200,好,4,1,51,蘇保羅,梁家俊,1,4.9,124,7 5 1,1.09.25,1145,B,,荷花福星
3,4,350,7,17/01/21,"沙田草地""A""                                    ",1200,好,4,11,53,蘇保羅,梁家俊,4-1/4,9.0,126,11 10 7,1.11.14,1145,B,,荷花福星
4,5,298,4,26/12/20,"沙田草地""A+3""                                    ",1200,好,4,10,55,蘇保羅,梁家俊,3-1/2,11.0,129,12 13 4,1.09.77,1143,B2,,荷花福星
5,6,226,4,29/11/20,"沙田草地""C""                                    ",1400,好,4,8,56,蘇保羅,梁家俊,2-1/4,15.0,129,9 10 11 4,1.22.33,1158,--,,荷花福星
6,7,179,7,11/11/20,"跑馬地草地""B""                                    ",1650,好,4,5,57,蘇保羅,巴度,5-1/4,8.6,133,3 2 4 7,1.41.31,1151,--,,荷花福星
7,8,135,4,24/10/20,"沙田草地""C""                                    ",1400,好,4,2,57,蘇保羅,巴度,1-3/4,7.1,130,7 8 9 4,1.21.96,1147,--,,荷花福星
8,9,59,5,27/09/20,"沙田草地""A""                                    ",1200,好,4,9,57,蘇保羅,郭能,1-1/4,12.0,130,10 12 5,1.09.90,1147,--,,荷花福星
9,10,4,6,06/09/20,"沙田草地""A""                                    ",1200,好,4,5,57,蘇保羅,郭能,3-1/2,4.4,130,8 8 6,1.09.94,1128,--,,荷花福星
10,11,662,1,17/05/20,"沙田草地""C+3""                                    ",1200,好/快,4,8,51,蘇保羅,郭能,1/2,3.1,125,7 8 1,1.09.67,1132,--,,荷花福星
11,12,604,5,26/04/20,"沙田草地""A""                                    ",1200,好,4,5,51,蘇保羅,薛恩,1-1/4,4.3,124,12 9 5,1.09.62,1132,--,,荷花福星
12,13,476,6,08/03/20,"沙田草地""C""                                    ",1200,好,4,7,51,蘇保羅,薛恩,1-1/2,2.7,127,11 9 6,1.10.08,1123,--,,荷花福星
13,14,418,2,16/02/20,"沙田草地""A""                                    ",1200,好,4,10,49,蘇保羅,薛恩,1/2,17.0,122,12 12 2,1.10.10,1134,B-,,荷花福星
14,15,160,7,09/11/19,"沙田草地""A""                                    ",1200,好,4R,4,51,蘇保羅,潘頓,7-3/4,3.1,123,8 8 7,1.10.11,1113,B,,荷花福星
15,16,106,7,20/10/19,"沙田草地""A""                                    ",1200,好/快,4,9,53,蘇保羅,潘頓,6-1/2,6.9,126,12 11 7,1.09.50,1112,B,,荷花福星
16,17,787,2,07/07/19,"沙田草地""C""                                    ",1200,好,GRIFFIN,4,--,蘇保羅,莫雷拉,3-1/4,1.7,120,5 4 2,1.10.00,1138,B1,,荷花福星
17,18,684,3,26/05/19,"沙田草地""A""                                    ",1200,好,GRIFFIN,5,--,蘇保羅,莫雷拉,3-1/4,9.9,120,5 4 3,1.10.62,1133,--,,荷花福星
18,19,629,2,05/05/19,"沙田草地""B""                                    ",1000,好,GRIFFIN,3,--,蘇保羅,梁家俊,3-1/4,11.0,120,7 6 2,0.57.17,1125,--,,荷花福星
