,Unnamed: 0,場次,名次,日期,馬場/跑道/賽道,途程,場地狀況,賽事班次,檔位,評分,練馬師,騎師,頭馬距離,獨贏賠率,實際負磅,沿途走位,完成時間,排位體重,配備,賽事重播,馬名
0,1,676,5,16/05/21,"沙田草地""C+3""                                    ",1200,好/快,3,3,80,丁冠豪,楊明綸,2,28.0,133,4 3 5,1.08.87,1283,B/TT,,行星夢
1,2,18,11,09/09/20,"跑馬地草地""B""                                    ",1200,好,3,1,80,沈集成,莫雷拉,5,2.9,133,9 9 11,1.10.43,1303,B/TT,,行星夢
2,3,817,11,12/07/20,"沙田草地""A""                                    ",1400,好/快,2,6,81,沈集成,巫顯東,7-3/4,12.0,115,4 6 11 11,1.22.02,1293,B/TT,,行星夢
3,4,745,4,14/06/20,沙田全天候                                    ,1200,濕慢,2,4,81,沈集成,潘明輝,2-1/4,10.0,116,8 7 4,1.08.21,1305,B/TT,,行星夢
4,5,718,2,03/06/20,"跑馬地草地""A""                                    ",1200,好,3,11,80,沈集成,莫雷拉,1/2,7.7,133,3 4 2,1.09.39,1297,B/TT,,行星夢
5,6,647,5,09/05/20,"沙田草地""C""                                    ",1200,好/快,3,4,80,沈集成,莫雷拉,1-1/4,1.9,133,6 6 5,1.09.46,1296,B/TT,,行星夢
6,7,589,1,19/04/20,"沙田草地""C+3""                                    ",1200,好,3,1,73,沈集成,莫雷拉,1/2,1.6,126,5 4 1,1.08.66,1303,B/TT,,行星夢
7,8,529,1,29/03/20,"沙田草地""A+3""                                    ",1200,好,3,6,65,沈集成,莫雷拉,2,1.5,118,4 3 1,1.09.67,1299,B/TT,,行星夢
8,9,499,2,14/03/20,"沙田草地""C+3""                                    ",1200,好,3,8,63,沈集成,利敬國,頸位,2.5,116,6 8 2,1.09.00,1309,B/TT,,行星夢
9,10,424,4,16/02/20,"沙田草地""A""                                    ",1200,好,3,8,63,沈集成,莫雷拉,2,2.4,118,9 6 4,1.10.33,1318,B/TT,,行星夢
10,11,362,2,27/01/20,"沙田草地""B+2""                                    ",1000,好,4,11,60,沈集成,薛恩,頸位,5.1,133,2 2 2,0.56.85,1311,B1/TT,,行星夢
11,12,269,2,21/12/19,"沙田草地""A+3""                                    ",1200,好,4,2,58,沈集成,薛恩,頭位,2.1,133,3 3 2,1.10.11,1327,TT,,行星夢
12,13,189,1,23/11/19,"沙田草地""C""                                    ",1200,好,4,6,52,沈集成,薛恩,短馬頭位,4.0,125,2 2 1,1.09.10,1321,TT1,,行星夢
