,Unnamed: 0,場次,名次,日期,馬場/跑道/賽道,途程,場地狀況,賽事班次,檔位,評分,練馬師,騎師,頭馬距離,獨贏賠率,實際負磅,沿途走位,完成時間,排位體重,配備,賽事重播,馬名
0,1,694,6,23/05/21,"沙田草地""A""                                    ",1600,好/快,4,14,60,容天鵬,薛恩,1-1/4,14.0,133,14 14 9 6,1.35.63,1071,B/TT,,觀世界
1,2,616,8,25/04/21,"沙田草地""A""                                    ",1600,好,3,4,61,容天鵬,巴度,2,6.9,119,12 12 12 8,1.35.17,1069,B/TT,,觀世界
2,3,522,7,21/03/21,"沙田草地""A""                                    ",1400,好,3,12,61,容天鵬,潘明輝,2-1/2,12.0,112,14 14 14 7,1.22.04,1070,B/TT,,觀世界
3,4,469,8,28/02/21,"沙田草地""B+2""                                    ",1400,好,3,11,61,容天鵬,巴度,4-3/4,8.6,115,13 13 12 8,1.21.94,1082,B/TT,,觀世界
4,5,423,2,14/02/21,"沙田草地""A""                                    ",1400,好,4,13,59,容天鵬,薛恩,頸位,5.7,132,12 11 7 2,1.22.57,1093,B/TT,,觀世界
5,6,349,1,17/01/21,"沙田草地""A""                                    ",1200,好,4,8,52,容天鵬,薛恩,1-3/4,75.0,127,12 14 1,1.09.97,1106,B/TT,,觀世界
6,7,288,10,23/12/20,"跑馬地草地""C+3""                                    ",1200,好,4,12,52,容天鵬,潘頓,5-3/4,20.0,125,11 11 10,1.10.65,1118,B1/TT1,,觀世界
