,Unnamed: 0,場次,名次,日期,馬場/跑道/賽道,途程,場地狀況,賽事班次,檔位,評分,練馬師,騎師,頭馬距離,獨贏賠率,實際負磅,沿途走位,完成時間,排位體重,配備,賽事重播,馬名
0,1,721,10,02/06/21,"跑馬地草地""A""                                    ",1200,好,4,5,48,大衛希斯,梁家俊,6,31.0,121,5 6 10,1.10.87,1027,SR/TT,,請讓路
1,2,645,9,05/05/21,"跑馬地草地""A""                                    ",1000,好/快,4,8,50,大衛希斯,梁家俊,7,8.9,123,5 5 9,0.57.84,1043,XB-/SR1/TT1,,請讓路
2,3,130,11,24/10/20,"沙田草地""C""                                    ",1000,好,4,12,52,大衛希斯,楊明綸,5-3/4,3.4,129,3 3 11,0.58.36,1044,XB1,,請讓路
3,4,79,5,04/10/20,"沙田草地""C+3""                                    ",1000,好,4,4,52,大衛希斯,楊明綸,2-3/4,4.3,127,2 5 5,0.56.31,1054,--,,請讓路
