,Unnamed: 0,場次,名次,日期,馬場/跑道/賽道,途程,場地狀況,賽事班次,檔位,評分,練馬師,騎師,頭馬距離,獨贏賠率,實際負磅,沿途走位,完成時間,排位體重,配備,賽事重播,馬名
0,1,464,9,28/02/21,"沙田草地""B+2""                                    ",1200,好,4,9,57,丁冠豪,楊明綸,2-1/2,37,132,11 12 9,1.09.95,1121,--,,變數
1,2,376,1,27/01/21,"跑馬地草地""C+3""                                    ",1200,好,4,2,52,丁冠豪,楊明綸,短馬頭位,64,125,8 9 1,1.10.01,1132,--,,變數
