,Unnamed: 0,場次,名次,日期,馬場/跑道/賽道,途程,場地狀況,賽事班次,檔位,評分,練馬師,騎師,頭馬距離,獨贏賠率,實際負磅,沿途走位,完成時間,排位體重,配備,賽事重播,馬名
0,1,666,2,12/05/21,沙田全天候                                    ,1200,好,4,10,41,何良,黎海榮,3/4,14,115,4 3 2,1.08.88,1137,V-/B1,,豐彩華庭
1,2,600,5,17/04/21,沙田全天候                                    ,1200,好,4,12,42,何良,黎海榮,1-3/4,41,117,12 6 5,1.09.31,1132,V,,豐彩華庭
2,3,548,4,31/03/21,沙田全天候                                    ,1200,好,4,6,43,何良,潘明輝,2-1/4,13,115,6 5 4,1.09.42,1121,V,,豐彩華庭
3,4,480,4,07/03/21,沙田全天候                                    ,1200,濕慢,4,12,45,何良,黎海榮,5,40,120,9 7 4,1.09.33,1119,V,,豐彩華庭
4,5,407,12,06/02/21,沙田全天候                                    ,1650,好,4,7,48,何良,黎海榮,8-3/4,65,122,2 3 4 12,1.40.26,1124,V1,,豐彩華庭
5,6,310,9,01/01/21,"沙田草地""B+2""                                    ",1400,好,4,10,50,何良,黎海榮,6-1/4,336,123,11 12 13 9,1.23.02,1144,--,,豐彩華庭
6,7,259,11,13/12/20,"沙田草地""A""                                    ",1400,好,4,9,52,何良,黎海榮,10,171,125,7 7 10 11,1.23.96,1144,--,,豐彩華庭
7,8,199,9,18/11/20,"跑馬地草地""C""                                    ",1200,好,4,2,52,何良,黎海榮,4,81,125,7 10 9,1.10.79,1139,--,,豐彩華庭
