,Unnamed: 0,場次,名次,日期,馬場/跑道/賽道,途程,場地狀況,賽事班次,檔位,評分,練馬師,騎師,頭馬距離,獨贏賠率,實際負磅,沿途走位,完成時間,排位體重,配備,賽事重播,馬名
0,1,558,12,05/04/21,"沙田草地""B+2""                                    ",1200,好,4,6,52,丁冠豪,梁家俊,13,209,125,14 14 12,1.11.68,1048,TT1,,財來有方
1,2,492,12,10/03/21,"跑馬地草地""B""                                    ",1200,好,4,10,52,丁冠豪,郭能,14-1/4,73,125,12 9 12,1.12.35,1043,--,,財來有方
