,Unnamed: 0,場次,名次,日期,馬場/跑道/賽道,途程,場地狀況,賽事班次,檔位,評分,練馬師,騎師,頭馬距離,獨贏賠率,實際負磅,沿途走位,完成時間,排位體重,配備,賽事重播,馬名
0,1,500,7,13/03/21,沙田全天候                                    ,1800,好,4,1,52,賀賢,巫顯東,3-1/2,108,122,4 6 7 8 7,1.48.88,1228,B,,赤火驍龍
1,2,465,10,28/02/21,"沙田草地""B+2""                                    ",1600,好,4,1,56,賀賢,巫顯東,6-3/4,121,126,4 4 4 10,1.35.65,1243,B,,赤火驍龍
2,3,414,9,10/02/21,"跑馬地草地""B""                                    ",1800,好,4,10,60,賀賢,巫顯東,8-1/2,136,130,11 11 11 11 9,1.51.66,1239,B,,赤火驍龍
3,4,391,13,31/01/21,"沙田草地""B+2""                                    ",1600,好,3,13,63,賀賢,巫顯東,12-3/4,282,113,13 13 13 13,1.35.98,1251,B,,赤火驍龍
4,5,343,11,13/01/21,"跑馬地草地""B""                                    ",1650,好,3,1,66,賀賢,潘明輝,19-3/4,112,117,3 3 4 11,1.43.21,1255,B,,赤火驍龍
5,6,305,12,26/12/20,"沙田草地""A+3""                                    ",1400,好,3,5,69,賀賢,何澤堯,7-3/4,106,123,12 12 13 12,1.23.08,1238,B1,,赤火驍龍
6,7,229,12,29/11/20,"沙田草地""C""                                    ",1600,好,3,13,71,賀賢,梁家俊,9-3/4,296,124,13 13 12 12,1.35.77,1246,--,,赤火驍龍
7,8,181,8,11/11/20,"跑馬地草地""B""                                    ",1650,好,3,2,73,賀賢,郭能,5,125,128,8 7 5 8,1.41.14,1233,--,,赤火驍龍
8,9,101,13,11/10/20,"沙田草地""A+3""                                    ",1400,好/快,3,13,73,賀賢,薛恩,12-3/4,203,126,13 13 13 13,1.23.04,1236,--,,赤火驍龍
