,Unnamed: 0,場次,名次,日期,馬場/跑道/賽道,途程,場地狀況,賽事班次,檔位,評分,練馬師,騎師,頭馬距離,獨贏賠率,實際負磅,沿途走位,完成時間,排位體重,配備,賽事重播,馬名
0,1,621,13,25/04/21,"沙田草地""A""                                    ",1600,好,2,12,90,呂健威,何澤堯,4-3/4,17.0,119,14 13 14 13,1.35.64,1138,B/H1/XB2,,超級綠洲
1,2,526,12,21/03/21,"沙田草地""A""                                    ",1600,好,2,5,92,呂健威,周俊樂,5-1/4,19.0,121,6 7 6 12,1.35.33,1150,XB-/B,,超級綠洲
2,3,428,6,14/02/21,"沙田草地""A""                                    ",1400,好,1,6,94,姚本輝,梁家俊,6-1/4,15.0,118,9 8 9 6,1.22.32,1129,B/XB,,超級綠洲
3,4,372,8,24/01/21,"沙田草地""A+3""                                    ",1800,好,2,1,95,姚本輝,彭國年,2-1/4,9.5,129,5 5 7 7 8,1.48.08,1125,B/XB,,超級綠洲
4,5,316,11,01/01/21,"沙田草地""B+2""                                    ",1600,好,2,8,97,姚本輝,何澤堯,6-1/2,29.0,133,7 9 12 11,1.36.23,1148,B/XB,,超級綠洲
5,6,267,8,13/12/20,"沙田草地""A""                                    ",1600,好,2,14,98,姚本輝,巴米高,5-1/4,20.0,131,9 10 7 8,1.35.38,1144,B/XB,,超級綠洲
6,7,227,4,29/11/20,"沙田草地""C""                                    ",1600,好,1,2,98,姚本輝,梁家俊,1,11.0,121,7 6 7 4,1.34.27,1140,B/XB,,超級綠洲
7,8,155,8,01/11/20,"沙田草地""A""                                    ",1800,好/快,G3,8,98,姚本輝,黃皓楠,3-1/4,91.0,113,9 10 10 9 8,1.46.42,1138,B/XB,,超級綠洲
8,9,46,8,20/09/20,"沙田草地""B+2""                                    ",1600,好/快,2,4,98,姚本輝,薛恩,4,11.0,133,6 6 5 8,1.34.27,1135,B/XB,,超級綠洲
9,10,10,4,06/09/20,"沙田草地""A""                                    ",1400,好,2,5,98,姚本輝,周俊樂,2-1/2,4.7,123,6 7 8 4,1.21.51,1141,B/XB,,超級綠洲
10,11,817,1,12/07/20,"沙田草地""A""                                    ",1400,好/快,2,5,93,姚本輝,周俊樂,頸位,15.0,120,5 5 5 1,1.20.78,1135,B/XB,,超級綠洲
11,12,716,9,03/06/20,"跑馬地草地""A""                                    ",1800,好,2,2,93,姚本輝,賀銘年,4-1/2,7.8,129,5 5 6 6 9,1.49.49,1129,B/XB,,超級綠洲
12,13,667,2,17/05/20,"沙田草地""C+3""                                    ",1800,好/快,2,1,91,姚本輝,潘頓,頸位,2.4,128,5 4 4 2 2,1.47.53,1141,XB/B1,,超級綠洲
13,14,516,10,22/03/20,"沙田草地""A""                                    ",2000,好/快,4YO,4,91,羅富全,波健士,9-1/2,38.0,126,7 7 7 7 10,2.01.65,1136,XB,,超級綠洲
14,15,442,4,23/02/20,"沙田草地""A+3""                                    ",2000,好,2,7,88,羅富全,莫雷拉,短馬頭位,4.8,124,7 7 7 6 4,2.00.87,1144,XB1,,超級綠洲
15,16,390,4,02/02/20,"沙田草地""C""                                    ",1800,好,2,5,87,羅富全,莫雷拉,1-1/4,3.7,123,5 7 10 11 4,1.46.90,1143,--,,超級綠洲
16,17,312,4,05/01/20,"沙田草地""C+3""                                    ",1800,好,2,12,87,羅富全,利敬國,1-3/4,11.0,122,10 11 11 11 4,1.47.06,1140,--,,超級綠洲
17,18,282,7,26/12/19,"跑馬地草地""A""                                    ",1650,好,2,12,88,羅富全,潘頓,3-1/2,6.0,124,10 9 9 7,1.40.39,1157,--,,超級綠洲
18,19,236,5,08/12/19,"沙田草地""A""                                    ",1600,好,2,8,88,羅富全,潘頓,2,10.0,125,3 4 4 5,1.34.21,1148,--,,超級綠洲
