,Unnamed: 0,場次,名次,日期,馬場/跑道/賽道,途程,場地狀況,賽事班次,檔位,評分,練馬師,騎師,頭馬距離,獨贏賠率,實際負磅,沿途走位,完成時間,排位體重,配備,賽事重播,馬名
0,1,715,1,30/05/21,"沙田草地""B""                                    ",1200,好/快,3,6,65,羅富全,潘頓,1-1/2,3.4,119,9 6 1,1.08.70,1017,--,,超音鼠
1,2,658,4,08/05/21,"沙田草地""C""                                    ",1200,好/快,3,2,67,羅富全,潘頓,3-1/4,4.4,122,8 8 4,1.09.20,1013,--,,超音鼠
2,3,581,6,11/04/21,"沙田草地""C""                                    ",1200,好,3,10,68,羅富全,蔡明紹,2-1/2,41.0,121,10 10 6,1.08.99,1017,--,,超音鼠
3,4,503,4,13/03/21,"沙田草地""C+3""                                    ",1000,好,3,10,68,羅富全,蔡明紹,1-3/4,264.0,121,8 9 4,0.56.25,1021,--,,超音鼠
4,5,468,14,28/02/21,"沙田草地""B+2""                                    ",1000,好,3,7,68,羅富全,潘明輝,12-1/2,137.0,120,14 13 14,0.57.98,1030,--,,超音鼠
