,Unnamed: 0,場次,名次,日期,馬場/跑道/賽道,途程,場地狀況,賽事班次,檔位,評分,練馬師,騎師,頭馬距離,獨贏賠率,實際負磅,沿途走位,完成時間,排位體重,配備,賽事重播,馬名
0,1,683,11,19/05/21,"跑馬地草地""B""                                    ",1200,好/快,4,4,56,容天鵬,班德禮,5-3/4,24.0,129,9 10 11,1.10.78,1227,V,,軍力勁
1,2,600,12,17/04/21,沙田全天候                                    ,1200,好,4,2,58,容天鵬,陳嘉熙,8-1/2,14.0,126,8 10 12,1.10.39,1224,V,,軍力勁
2,3,552,3,31/03/21,沙田全天候                                    ,1200,好,4,11,59,容天鵬,郭能,3,32.0,132,1 1 3,1.09.32,1223,V,,軍力勁
3,4,510,12,17/03/21,"跑馬地草地""C""                                    ",1200,好/快,4,11,59,容天鵬,田泰安,9-1/2,31.0,133,10 11 12,1.11.68,1221,V,,軍力勁
4,5,432,2,17/02/21,"跑馬地草地""C""                                    ",1200,好,4,4,59,容天鵬,田泰安,1-3/4,14.0,133,3 3 2,1.10.04,1223,V,,軍力勁
5,6,387,10,31/01/21,沙田全天候                                    ,1200,好,3,2,61,容天鵬,巫顯東,6-1/4,42.0,111,9 7 10,1.09.47,1212,V,,軍力勁
6,7,332,12,10/01/21,"沙田草地""C""                                    ",1200,好,3,5,63,容天鵬,楊明綸,10,268.0,118,3 5 12,1.10.72,1193,V,,軍力勁
7,8,291,7,23/12/20,"跑馬地草地""C+3""                                    ",1200,好/快,3,5,65,容天鵬,陳嘉熙,7-1/2,146.0,113,5 6 7,1.10.01,1200,V,,軍力勁
8,9,806,11,08/07/20,"跑馬地草地""A""                                    ",1200,好,3,11,68,約翰摩亞,波健士,15-1/2,32.0,122,3 5 11,1.11.97,1227,V,,軍力勁
9,10,697,11,27/05/20,沙田全天候                                    ,1200,好,3,8,70,約翰摩亞,潘頓,10-1/2,5.3,125,6 7 11,1.10.28,1218,V,,軍力勁
10,11,630,7,03/05/20,沙田全天候                                    ,1200,好,3,10,70,約翰摩亞,莫雷拉,6-1/2,5.3,125,6 5 7,1.09.55,1221,V,,軍力勁
11,12,590,2,19/04/20,沙田全天候                                    ,1200,好,3,4,68,約翰摩亞,莫雷拉,1/2,5.8,121,1 1 2,1.08.94,1215,V,,軍力勁
12,13,542,2,01/04/20,沙田全天候                                    ,1200,濕慢,3,1,68,約翰摩亞,莫雷拉,3,3.8,125,3 2 2,1.09.03,1220,V,,軍力勁
13,14,478,3,08/03/20,沙田全天候                                    ,1200,好,3,10,68,約翰摩亞,郭能,1-3/4,12.0,122,2 2 3,1.09.29,1214,CP-/V1,,軍力勁
14,15,404,5,08/02/20,沙田全天候                                    ,1200,好,3,5,70,約翰摩亞,郭能,2-1/4,12.0,124,2 1 5,1.09.55,1216,CP2,,軍力勁
15,16,296,9,01/01/20,"沙田草地""C""                                    ",1200,好,3,10,72,約翰摩亞,郭能,6-3/4,50.0,127,2 4 9,1.10.81,1214,B-,,軍力勁
16,17,196,7,23/11/19,沙田全天候                                    ,1200,好,3,5,73,約翰摩亞,潘頓,6-3/4,7.0,129,2 2 7,1.10.08,1204,B,,軍力勁
17,18,130,3,27/10/19,沙田全天候                                    ,1200,好,3,7,73,約翰摩亞,蔡明紹,2,10.0,126,1 1 3,1.09.60,1221,B,,軍力勁
18,19,89,9,12/10/19,沙田全天候                                    ,1200,好,3,4,74,約翰摩亞,潘頓,7-1/2,8.2,127,3 3 9,1.09.69,1222,CP-/B2,,軍力勁
19,20,646,5,08/05/19,沙田全天候                                    ,1200,濕慢,3,1,74,約翰摩亞,史卓豐,4,4.3,127,6 3 5,1.10.32,1198,CP,,軍力勁
20,21,601,9,22/04/19,沙田全天候                                    ,1200,好,3,12,74,約翰摩亞,史卓豐,5-1/2,11.0,127,3 3 9,1.09.34,1222,CP,,軍力勁
21,22,550,1,03/04/19,沙田全天候                                    ,1200,好,3,6,65,約翰摩亞,史卓豐,2-1/2,12.0,118,2 1 1,1.09.35,1202,CP,,軍力勁
22,23,272,10,19/12/18,沙田全天候                                    ,1200,好,3,2,65,約翰摩亞,蘇兆輝,9-1/4,4.9,122,4 3 10,1.09.68,1195,CP,,軍力勁
23,24,232,2,05/12/18,"跑馬地草地""B""                                    ",1200,好,3,11,61,約翰摩亞,史卓豐,1/2,19.0,116,1 1 2,1.10.27,1191,CP1,,軍力勁
24,25,171,4,10/11/18,沙田全天候                                    ,1200,好,3,8,61,約翰摩亞,蔡明紹,1-3/4,6.1,116,1 2 4,1.09.38,1203,--,,軍力勁
25,26,94,1,13/10/18,沙田全天候                                    ,1200,好,4,11,56,約翰摩亞,韋達                                    ,頭位,4.9,128,1 1 1,1.09.06,1203,--,,軍力勁
26,27,37,1,22/09/18,沙田全天候                                    ,1200,好,4,11,48,約翰摩亞,韋達                                    ,2-3/4,7.2,121,2 3 1,1.09.22,1198,B-/H-,,軍力勁
27,28,783,3,08/07/18,沙田全天候                                    ,1200,好,4,10,49,約翰摩亞,韋達                                    ,2,8.7,122,1 1 3,1.08.78,1184,H/B1,,軍力勁
28,29,698,12,03/06/18,"沙田草地""B""                                    ",1200,好/快,4,5,50,約翰摩亞,韋達                                    ,8-3/4,20.0,123,7 11 12,1.10.53,1185,H,,軍力勁
29,30,640,8,12/05/18,"沙田草地""C""                                    ",1000,好,4,5,50,約翰摩亞,莫雷拉,5,4.8,125,6 8 8,0.57.57,1197,H,,軍力勁
30,31,585,3,21/04/18,"沙田草地""C+3""                                    ",1000,好,4,1,49,約翰摩亞,莫雷拉,3/4,8.5,126,2 2 3,0.56.32,1184,H,,軍力勁
31,32,548,5,08/04/18,"沙田草地""C""                                    ",1000,好,4,13,51,約翰摩亞,韋達                                    ,4-1/4,9.8,126,3 3 5,0.57.60,1188,H,,軍力勁
32,33,521,8,25/03/18,"沙田草地""A+3""                                    ",1000,好,4,13,52,約翰摩亞,韋達                                    ,8-1/4,8.3,125,12 11 8,0.57.83,1188,H,,軍力勁
33,34,466,5,03/03/18,"沙田草地""C""                                    ",1000,好,4,4,52,約翰摩亞,韋達                                    ,3,9.2,126,6 5 5,0.57.76,1203,H1,,軍力勁
