,Unnamed: 0,場次,名次,日期,馬場/跑道/賽道,途程,場地狀況,賽事班次,檔位,評分,練馬師,騎師,頭馬距離,獨贏賠率,實際負磅,沿途走位,完成時間,排位體重,配備,賽事重播,馬名
0,1,180,8,11/11/20,"跑馬地草地""B""                                    ",1200,好,4,6,49,丁冠豪,黃皓楠,4-3/4,3.8,121,3 2 8,1.10.94,1117,TT,,軒轅又牽
1,2,124,6,21/10/20,"跑馬地草地""C""                                    ",1000,好/快,4,9,49,丁冠豪,黃皓楠,4,4.9,119,5 6 6,0.57.61,1120,TT,,軒轅又牽
2,3,90,2,07/10/20,"跑馬地草地""A""                                    ",1200,好,4,3,47,丁冠豪,黃皓楠,3/4,12.0,117,2 2 2,1.10.42,1113,TT,,軒轅又牽
3,4,34,6,16/09/20,"跑馬地草地""C""                                    ",1200,好/快,4,9,49,丁冠豪,黃皓楠,6,54.0,120,1 1 6,1.10.19,1112,TT,,軒轅又牽
4,5,753,6,21/06/20,"沙田草地""A""                                    ",1200,好/快,4,9,52,丁冠豪,潘明輝,6-1/4,178.0,123,2 1 6,1.09.89,1152,TT,,軒轅又牽
5,6,675,11,20/05/20,"跑馬地草地""C+3""                                    ",1200,好/快,4,8,52,丁冠豪,田泰安,7-3/4,17.0,127,8 7 11,1.10.97,1126,TT1,,軒轅又牽
