,Unnamed: 0,場次,名次,日期,馬場/跑道/賽道,途程,場地狀況,賽事班次,檔位,評分,練馬師,騎師,頭馬距離,獨贏賠率,實際負磅,沿途走位,完成時間,排位體重,配備,賽事重播,馬名
0,1,692,8,23/05/21,"沙田草地""A""                                    ",1200,好/快,G3,9,103,羅富全,巴度,4-1/2,68.0,121,8 9 8,1.08.88,1164,B,,載譽歸來
1,2,617,10,25/04/21,"沙田草地""A""                                    ",1200,好,G1,13,105,羅富全,賀銘年,6-1/2,135.0,126,13 13 10,1.09.69,1157,B,,載譽歸來
2,3,563,10,05/04/21,"沙田草地""B+2""                                    ",1200,好,G2,5,107,羅富全,史卓豐,5,26.0,123,8 8 10,1.09.06,1164,B,,載譽歸來
3,4,428,8,14/02/21,"沙田草地""A""                                    ",1400,好,1,4,109,羅富全,巴度,7,9.2,133,2 2 2 8,1.22.46,1169,B,,載譽歸來
4,5,368,6,24/01/21,"沙田草地""A+3""                                    ",1200,好,G1,11,110,羅富全,巴度,4-1/4,20.0,126,11 11 6,1.08.69,1159,B,,載譽歸來
5,6,313,4,01/01/21,"沙田草地""B+2""                                    ",1400,好,G3,3,110,羅富全,巴度,3-1/2,22.0,119,6 6 8 4,1.21.54,1163,B,,載譽歸來
6,7,262,5,13/12/20,"沙田草地""A""                                    ",1200,好,G1,13,107,羅富全,賀銘年,1-1/4,144.0,126,13 13 5,1.08.65,1144,B,,載譽歸來
7,8,207,6,22/11/20,"沙田草地""B+2""                                    ",1200,好/快,G2,9,107,羅富全,何澤堯,1-1/2,49.0,123,8 8 6,1.08.26,1161,B,,載譽歸來
8,9,8,7,06/09/20,"沙田草地""A""                                    ",1200,好,1,4,107,羅富全,何澤堯,3-1/4,11.0,125,6 6 7,1.08.92,1132,B,,載譽歸來
9,10,751,3,21/06/20,"沙田草地""A""                                    ",1400,好/快,G3,2,108,羅富全,莫雷拉,1-1/2,4.1,118,3 2 2 3,1.21.11,1178,B,,載譽歸來
10,11,682,4,24/05/20,"沙田草地""A""                                    ",1200,好,G3,3,108,羅富全,何澤堯,1/2,6.6,115,6 6 4,1.09.05,1170,B,,載譽歸來
11,12,608,7,26/04/20,"沙田草地""A""                                    ",1600,好,G1,3,109,羅富全,梁家俊,8-1/2,70.0,126,3 4 4 7,1.34.49,1176,B,,載譽歸來
12,13,547,7,05/04/20,"沙田草地""B+2""                                    ",1600,好,G2,7,109,羅富全,何澤堯,6-1/2,36.0,123,7 7 7 7,1.34.54,1171,B,,載譽歸來
13,14,498,4,14/03/20,"沙田草地""C+3""                                    ",1600,好,1,1,108,羅富全,史卓豐,頸位,16.0,120,6 7 7 4,1.33.72,1169,B,,載譽歸來
14,15,451,2,26/02/20,"跑馬地草地""A""                                    ",1200,好,1,4,106,羅富全,何澤堯,頸位,5.6,133,4 5 2,1.09.28,1164,B,,載譽歸來
15,16,370,9,27/01/20,"沙田草地""B+2""                                    ",1400,好,1,11,106,羅富全,莫雷拉,2-1/2,3.6,130,9 8 6 9,1.21.96,1155,B,,載譽歸來
16,17,300,2,01/01/20,"沙田草地""C""                                    ",1400,好,G3,7,105,羅富全,巴度,2,13.0,117,5 5 5 2,1.21.01,1164,B,,載譽歸來
17,18,235,1,08/12/19,"沙田草地""A""                                    ",1200,好,2,10,98,羅富全,莫雷拉,3/4,5.5,129,10 7 1,1.09.00,1168,B,,載譽歸來
18,19,146,3,03/11/19,"沙田草地""C+3""                                    ",1200,好/快,2,4,98,羅富全,莫雷拉,2-1/2,1.8,130,3 3 3,1.08.27,1157,B,,載譽歸來
19,20,67,1,01/10/19,"沙田草地""A+3""                                    ",1200,好/快,2,1,86,羅富全,莫雷拉,3,3.5,119,4 3 1,1.08.39,1143,B,,載譽歸來
20,21,37,2,15/09/19,"沙田草地""C+3""                                    ",1200,好/快,2,4,84,羅富全,利敬國,短馬頭位,3.1,117,3 3 2,1.08.20,1143,B,,載譽歸來
21,22,786,4,03/07/19,"跑馬地草地""C""                                    ",1650,好,2,11,84,羅富全,潘頓,4-1/2,3.2,120,1 2 2 4,1.39.38,1139,B,,載譽歸來
22,23,683,2,22/05/19,"跑馬地草地""B""                                    ",1200,好/快,2,2,80,羅富全,田泰安,2,2.9,118,3 3 2,1.09.09,1159,B,,載譽歸來
23,24,608,2,24/04/19,"跑馬地草地""C""                                    ",1200,好,3,11,77,羅富全,潘頓,頸位,2.5,130,2 2 2,1.09.15,1154,B,,載譽歸來
24,25,544,2,31/03/19,"沙田草地""A+3""                                    ",1200,好,3,13,76,羅富全,田泰安,1-3/4,13.0,129,1 1 2,1.09.57,1162,B,,載譽歸來
25,26,496,1,13/03/19,"跑馬地草地""B""                                    ",1200,好,3,3,71,羅富全,潘頓,頭位,3.6,124,2 2 1,1.10.18,1173,B1,,載譽歸來
