,Unnamed: 0,場次,名次,日期,馬場/跑道/賽道,途程,場地狀況,賽事班次,檔位,評分,練馬師,騎師,頭馬距離,獨贏賠率,實際負磅,沿途走位,完成時間,排位體重,配備,賽事重播,馬名
0,1,477,6,03/03/21,"跑馬地草地""A""                                    ",1200,好,3,7,80,韋達,周俊樂,5,7.1,126,1 1 6,1.10.51,1100,B/XB,,輝煌芯
1,2,400,2,03/02/21,"跑馬地草地""A""                                    ",1200,好,3,4,79,韋達,周俊樂,1-3/4,11.0,126,1 1 2,1.09.63,1111,XB/B1,,輝煌芯
2,3,311,14,01/01/21,"沙田草地""B+2""                                    ",1200,好,3,13,80,韋達,蘇銘倫,9-3/4,25.0,133,9 9 14,1.10.73,1131,XB,,輝煌芯
3,4,156,14,01/11/20,"沙田草地""A""                                    ",1200,好/快,3,4,80,韋達,周俊樂,9,8.7,123,7 10 14,1.10.39,1105,XB,,輝煌芯
4,5,99,3,11/10/20,"沙田草地""A+3""                                    ",1200,好,3,6,80,韋達,周俊樂,1,6.3,123,3 2 3,1.08.76,1101,XB,,輝煌芯
5,6,26,10,13/09/20,"沙田草地""A+3""                                    ",1200,好,3,1,80,韋達,巴度,6,6.5,133,3 3 10,1.09.81,1107,XB,,輝煌芯
6,7,669,1,17/05/20,"沙田草地""C+3""                                    ",1200,好/快,3,11,74,韋達,莫雷拉,1/2,3.7,127,2 1 1,1.08.89,1093,XB,,輝煌芯
7,8,461,12,01/03/20,"沙田草地""B+2""                                    ",1200,好,3,12,74,韋達,巴度,8-1/4,2.4,129,12 11 12,1.10.34,1096,XB,,輝煌芯
8,9,389,1,02/02/20,"沙田草地""C""                                    ",1200,好,3,9,68,韋達,巴度,短馬頭位,1.5,122,1 1 1,1.09.47,1105,XB,,輝煌芯
9,10,325,1,11/01/20,"沙田草地""A""                                    ",1200,好,4,9,60,韋達,巴度,1-1/2,1.6,133,5 4 1,1.09.41,1098,XB,,輝煌芯
10,11,266,1,21/12/19,"沙田草地""A+3""                                    ",1200,好,4,4,52,韋達,巴度,2,2.2,128,3 1 1,1.10.08,1088,XB1,,輝煌芯
