,Unnamed: 0,場次,名次,日期,馬場/跑道/賽道,途程,場地狀況,賽事班次,檔位,評分,練馬師,騎師,頭馬距離,獨贏賠率,實際負磅,沿途走位,完成時間,排位體重,配備,賽事重播,馬名
0,1,610,10,21/04/21,"跑馬地草地""C""                                    ",1000,好/快,4,2,53,沈集成,潘頓,8-1/2,4.5,125,9 8 10,0.58.69,1119,B-/V1/TT,,辣得交關
1,2,494,3,10/03/21,"跑馬地草地""B""                                    ",1000,好,4,8,52,沈集成,潘頓,1/2,7.2,126,1 1 3,0.57.67,1115,B1/TT,,辣得交關
2,3,235,11,02/12/20,"跑馬地草地""A""                                    ",1200,好,4,4,52,沈集成,巴度,14-1/2,11.0,125,3 4 11,1.12.37,1141,TT1,,辣得交關
