,Unnamed: 0,場次,名次,日期,馬場/跑道/賽道,途程,場地狀況,賽事班次,檔位,評分,練馬師,騎師,頭馬距離,獨贏賠率,實際負磅,沿途走位,完成時間,排位體重,配備,賽事重播,馬名
0,1,528,11,24/03/21,"跑馬地草地""C+3""                                    ",1650,好/快,5,9,34,徐雨石,馬雅,6-1/4,109,126,3 3 3 11,1.41.30,1114,B/H2,,進優
1,2,345,WV,17/01/21,"沙田草地""A""                                    ",1600,好,5,--,34,徐雨石,巫顯東,--,--,124,--,--,--,--,--,進優
2,3,96,14,11/10/20,"沙田草地""A+3""                                    ",1600,好,5,5,37,徐雨石,郭能,13,38,131,5 7 6 14,1.37.18,1128,H-/B,,進優
3,4,56,08,27/09/20,"沙田草地""A""                                    ",1400,好,5,14,39,徐雨石,黎海榮,6-1/2,210,133,14 14 13 8,1.23.03,1131,B/H,,進優
4,5,811,13,12/07/20,"沙田草地""A""                                    ",1400,好/快,4,13,45,徐雨石,黃皓楠,11-1/2,272,118,10 11 13 13,1.23.57,1141,B/H,,進優
5,6,750,11,21/06/20,"沙田草地""A""                                    ",1200,好/快,4,13,48,徐雨石,波健士,9-1/2,226,121,14 14 11,1.10.51,1130,B/H,,進優
6,7,599,11,22/04/20,"跑馬地草地""C+3""                                    ",1200,好/黏,4,8,50,徐雨石,巫顯東,13,164,121,6 7 11,1.13.54,1120,H/B1,,進優
7,8,502,07,18/03/20,"跑馬地草地""C+3""                                    ",1200,好,4,11,52,徐雨石,波健士,7-3/4,344,126,11 10 7,1.10.62,1094,H,,進優
8,9,454,13,01/03/20,"沙田草地""B+2""                                    ",1000,好,4,5,52,徐雨石,巫顯東,8-1/2,350,124,3 9 13,0.57.67,1087,H1,,進優
