,Unnamed: 0,場次,名次,日期,馬場/跑道/賽道,途程,場地狀況,賽事班次,檔位,評分,練馬師,騎師,頭馬距離,獨贏賠率,實際負磅,沿途走位,完成時間,排位體重,配備,賽事重播,馬名
0,1,717,1,30/05/21,"沙田草地""B""                                    ",1200,好/快,3,7,64,文家良,田泰安,1,6.1,117,8 7 1,1.08.29,1228,B/TT,,都柏名駒
1,2,658,5,08/05/21,"沙田草地""C""                                    ",1200,好/快,3,1,66,文家良,梁家俊,3-1/2,5.9,121,7 7 5,1.09.25,1226,B/TT,,都柏名駒
2,3,581,5,11/04/21,"沙田草地""C""                                    ",1200,好,3,2,67,文家良,梁家俊,2-1/4,21.0,120,5 5 5,1.08.96,1238,B/TT1,,都柏名駒
3,4,523,11,21/03/21,"沙田草地""A""                                    ",1200,好,3,6,67,文家良,賀銘年,8,16.0,122,9 11 11,1.10.22,1232,B,,都柏名駒
4,5,467,2,28/02/21,"沙田草地""B+2""                                    ",1200,好,3,6,67,文家良,賀銘年,1,7.9,120,9 10 2,1.09.38,1237,B,,都柏名駒
5,6,373,3,24/01/21,"沙田草地""A+3""                                    ",1200,好,3,1,67,文家良,賀銘年,2,11.0,120,5 5 3,1.09.19,1245,B,,都柏名駒
6,7,283,6,20/12/20,"沙田草地""C+3""                                    ",1200,好,3,7,67,文家良,賀銘年,2-1/2,8.4,120,8 9 6,1.09.46,1250,B,,都柏名駒
7,8,210,3,22/11/20,"沙田草地""B+2""                                    ",1200,好/快,3,14,65,文家良,賀銘年,1/2,49.0,118,2 3 3,1.08.70,1242,B,,都柏名駒
8,9,156,9,01/11/20,"沙田草地""A""                                    ",1200,好/快,3,6,65,文家良,史卓豐,2-1/2,19.0,120,10 12 9,1.09.34,1238,B,,都柏名駒
9,10,93,1,11/10/20,"沙田草地""A+3""                                    ",1200,好,4,2,57,文家良,史卓豐,2-1/4,3.4,130,4 3 1,1.09.08,1229,B,,都柏名駒
10,11,59,7,27/09/20,"沙田草地""A""                                    ",1200,好,4,6,58,文家良,何澤堯,2-1/2,7.3,131,8 9 7,1.10.10,1226,B,,都柏名駒
11,12,6,4,06/09/20,"沙田草地""A""                                    ",1000,好,4,8,58,文家良,何澤堯,1-3/4,5.8,131,11 12 4,0.56.19,1218,B,,都柏名駒
12,13,792,4,05/07/20,"沙田草地""C+3""                                    ",1000,好/快,4,10,58,文家良,賀銘年,5-1/4,8.5,130,5 5 4,0.55.92,1209,B,,都柏名駒
13,14,740,3,14/06/20,"沙田草地""C+3""                                    ",1000,好,4,14,58,文家良,賀銘年,6,4.1,129,5 5 3,0.56.17,1203,B,,都柏名駒
14,15,661,1,17/05/20,"沙田草地""C+3""                                    ",1000,好/快,4,6,51,文家良,賀銘年,1-1/4,3.7,127,5 4 1,0.56.01,1206,B,,都柏名駒
15,16,624,4,03/05/20,"沙田草地""B""                                    ",1000,好,4,8,53,文家良,賀銘年,3,6.7,126,5 3 4,0.56.26,1212,B,,都柏名駒
16,17,552,3,05/04/20,"沙田草地""B+2""                                    ",1200,好,4,3,53,文家良,莫雷拉,3-1/4,2.9,126,7 9 3,1.10.62,1221,B,,都柏名駒
17,18,493,3,14/03/20,"沙田草地""C+3""                                    ",1000,好,4,6,52,文家良,莫雷拉,1-1/2,4.5,126,13 10 3,0.57.08,1220,B,,都柏名駒
18,19,399,3,08/02/20,"沙田草地""C+3""                                    ",1000,好,4,12,52,文家良,莫雷拉,1-1/2,1.9,128,8 2 3,0.57.41,1228,H-/B1,,都柏名駒
19,20,294,5,01/01/20,"沙田草地""C""                                    ",1200,好,4,7,52,文家良,莫雷拉,2-3/4,1.6,127,2 5 5,1.10.57,1225,H1,,都柏名駒
