,Unnamed: 0,場次,名次,日期,馬場/跑道/賽道,途程,場地狀況,賽事班次,檔位,評分,練馬師,騎師,頭馬距離,獨贏賠率,實際負磅,沿途走位,完成時間,排位體重,配備,賽事重播,馬名
0,1,667,1,12/05/21,沙田全天候                                    ,1650,好,4,1,52,苗禮德,莫雷拉,9,2.9,125,5 4 3 1,1.37.76,1029,B,,金津一號
1,2,552,2,31/03/21,沙田全天候                                    ,1200,好,4,2,50,苗禮德,史卓豐,1-1/4,5.9,123,7 5 2,1.09.03,1035,CP-/B1,,金津一號
2,3,423,13,14/02/21,"沙田草地""A""                                    ",1400,好,4,8,52,苗禮德,史卓豐,7-3/4,21.0,125,10 13 14 13,1.23.74,1069,CP,,金津一號
3,4,241,6,06/12/20,沙田全天候                                    ,1200,好,4,9,52,苗禮德,史卓豐,6,3.9,125,8 8 6,1.10.05,1062,CP,,金津一號
4,5,161,2,04/11/20,沙田全天候                                    ,1200,好,4,9,52,苗禮德,史卓豐,4-1/4,25.0,125,8 7 2,1.10.17,1076,CP1,,金津一號
5,6,19,6,13/09/20,沙田全天候                                    ,1200,好,4,5,52,苗禮德,巴度,6-3/4,32.0,127,8 8 6,1.10.11,1074,--,,金津一號
