,Unnamed: 0,場次,名次,日期,馬場/跑道/賽道,途程,場地狀況,賽事班次,檔位,評分,練馬師,騎師,頭馬距離,獨贏賠率,實際負磅,沿途走位,完成時間,排位體重,配備,賽事重播,馬名
0,1,712,8,30/05/21,"沙田草地""B""                                    ",1400,好/快,4,7,44,鄭俊偉,彭國年,3-1/4,21.0,117,9 11 10 8,1.22.39,1042,P,,金碧科
1,2,598,8,17/04/21,沙田全天候                                    ,1650,好,4,8,47,鄭俊偉,班德禮,5-1/4,66.0,121,10 10 12 8,1.39.83,1043,P2,,金碧科
2,3,539,13,28/03/21,"沙田草地""A+3""                                    ",1400,好/快,4,10,50,鄭俊偉,賀銘年,16-1/4,30.0,124,10 12 14 13,1.23.82,1036,--,,金碧科
3,4,484,8,07/03/21,"沙田草地""C""                                    ",1400,好,4,7,52,鄭俊偉,賀銘年,3,13.0,126,12 12 12 8,1.22.60,1041,B-,,金碧科
4,5,366,8,24/01/21,"沙田草地""A+3""                                    ",1400,好,4,6,54,鄭俊偉,潘頓,4,12.0,127,10 8 7 8,1.22.60,1038,B,,金碧科
5,6,329,7,10/01/21,"沙田草地""C""                                    ",1400,好,4,14,56,鄭俊偉,周俊樂,2-1/4,18.0,123,14 14 13 7,1.22.93,1039,B2,,金碧科
6,7,279,10,20/12/20,"沙田草地""C+3""                                    ",1400,好,4,7,58,鄭俊偉,陳嘉熙,6-3/4,20.0,125,10 12 13 10,1.23.32,1038,--,,金碧科
7,8,226,7,29/11/20,"沙田草地""C""                                    ",1400,好,4,1,60,鄭俊偉,薛恩,3-1/4,12.0,133,12 11 10 7,1.22.50,1038,--,,金碧科
8,9,187,8,14/11/20,"沙田草地""C+3""                                    ",1400,好,4,5,60,鄭俊偉,田泰安,3-3/4,8.0,133,10 11 12 8,1.22.43,1037,--,,金碧科
9,10,97,2,11/10/20,"沙田草地""A+3""                                    ",1400,好,4,9,59,鄭俊偉,周俊樂,短馬頭位,7.8,123,9 9 9 2,1.21.92,1024,P-,,金碧科
10,11,57,2,27/09/20,"沙田草地""A""                                    ",1400,好,4,5,57,鄭俊偉,薛恩,頸位,6.7,130,8 8 7 2,1.22.70,1048,P1,,金碧科
11,12,629,3,03/05/20,"沙田草地""B""                                    ",1400,好/快,4,1,56,鄭俊偉,郭能,1,12.0,131,9 8 6 3,1.21.88,1036,--,,金碧科
12,13,569,2,12/04/20,"沙田草地""C""                                    ",1400,好,4,5,54,鄭俊偉,薛恩,頸位,11.0,128,12 11 10 2,1.22.10,1035,--,,金碧科
13,14,420,7,16/02/20,"沙田草地""A""                                    ",1400,好,4,4,54,鄭俊偉,利敬國,5-3/4,6.7,125,8 8 7 7,1.23.18,1033,--,,金碧科
14,15,329,1,11/01/20,"沙田草地""A""                                    ",1400,好,4,4,49,鄭俊偉,薛恩,1/2,7.1,123,10 8 7 1,1.22.88,1029,--,,金碧科
15,16,250,4,15/12/19,"沙田草地""C+3""                                    ",1400,好,4,14,49,鄭俊偉,李寶利,2,13.0,122,13 13 13 4,1.22.07,1037,--,,金碧科
16,17,194,2,23/11/19,"沙田草地""C""                                    ",1400,好/快,4,9,48,鄭俊偉,李寶利,1-3/4,11.0,121,14 13 13 2,1.21.58,1026,--,,金碧科
17,18,162,5,09/11/19,"沙田草地""A""                                    ",1400,好/快,4,7,48,鄭俊偉,李寶利,2-3/4,6.5,121,7 8 8 5,1.21.94,1024,--,,金碧科
18,19,91,2,12/10/19,"沙田草地""C""                                    ",1400,好/快,4,3,45,鄭俊偉,李寶利,短馬頭位,17.0,118,6 7 5 2,1.21.13,1024,B-,,金碧科
19,20,41,7,21/09/19,"沙田草地""A""                                    ",1400,好/快,4,3,46,鄭俊偉,李寶利,4,17.0,122,8 7 7 7,1.22.17,1012,B,,金碧科
20,21,793,5,07/07/19,"沙田草地""C""                                    ",1400,好,4,10,48,鄭俊偉,梁家俊,5-3/4,20.0,121,12 11 8 5,1.22.95,1019,B,,金碧科
21,22,733,7,12/06/19,沙田全天候                                    ,1650,濕慢,4,5,50,鄭俊偉,史卓豐,7,24.0,119,6 9 9 7,1.41.39,1014,B,,金碧科
22,23,688,6,26/05/19,"沙田草地""A""                                    ",1400,好/黏,4,6,52,鄭俊偉,李寶利,2-1/2,13.0,125,9 9 10 6,1.23.51,1017,B,,金碧科
23,24,637,12,05/05/19,"沙田草地""B""                                    ",1600,好/黏,4,7,53,鄭俊偉,李寶利,9-1/4,15.0,126,10 12 11 12,1.38.38,1017,B,,金碧科
24,25,560,5,07/04/19,"沙田草地""B+2""                                    ",1400,好/快,4,3,53,鄭俊偉,李寶利,2,8.0,126,9 9 6 5,1.22.42,1024,B,,金碧科
25,26,480,4,10/03/19,"沙田草地""C+3""                                    ",1400,好,4,4,53,鄭俊偉,李寶利,3,3.9,127,8 8 8 4,1.23.52,1024,B,,金碧科
26,27,426,2,17/02/19,"沙田草地""A+3""                                    ",1400,好,4,5,51,鄭俊偉,李寶利,1/2,7.6,124,8 10 9 2,1.22.32,1025,B,,金碧科
27,28,317,1,06/01/19,"沙田草地""C+3""                                    ",1400,好,4,14,46,鄭俊偉,李寶利,頭位,12.0,120,14 14 10 1,1.22.42,1018,B,,金碧科
28,29,257,5,16/12/18,"沙田草地""C+3""                                    ",1600,好,4,9,46,鄭俊偉,田泰安,3-3/4,6.1,123,4 4 2 5,1.36.03,1013,B,,金碧科
29,30,203,2,25/11/18,"沙田草地""C""                                    ",1400,好,4,12,46,鄭俊偉,史卓豐,3-1/2,8.6,120,9 9 7 2,1.23.04,1022,H-/B1,,金碧科
30,31,110,4,21/10/18,"沙田草地""A""                                    ",1600,好/快,4,8,47,鄭俊偉,史卓豐,2-1/2,7.4,121,4 4 4 4,1.35.29,1020,H,,金碧科
31,32,58,5,01/10/18,"沙田草地""A+3""                                    ",1400,好,4,11,47,鄭俊偉,李寶利,2-1/4,7.6,123,13 11 10 5,1.22.71,1018,H,,金碧科
32,33,6,3,02/09/18,"沙田草地""B""                                    ",1400,好,4,7,46,鄭俊偉,李寶利,1/2,8.8,118,8 7 7 3,1.22.35,1004,H,,金碧科
33,34,801,5,15/07/18,"沙田草地""A""                                    ",1400,黏,4,14,49,鄭俊偉,李寶利,2-1/2,8.3,122,11 12 12 5,1.24.61,1008,H,,金碧科
34,35,786,6,08/07/18,"沙田草地""C""                                    ",1400,好/快,4,1,50,鄭俊偉,莫雷拉,2-3/4,3.5,123,5 4 4 6,1.22.86,1018,H,,金碧科
35,36,722,5,10/06/18,"沙田草地""C""                                    ",1400,好/快,4,13,51,鄭俊偉,杜利萊                                    ,1-1/2,10.0,124,12 12 10 5,1.22.68,1021,H,,金碧科
36,37,643,6,12/05/18,"沙田草地""C""                                    ",1400,好,4,7,52,鄭俊偉,杜利萊                                    ,3-1/4,19.0,127,13 10 10 6,1.22.94,1013,H,,金碧科
37,38,506,5,18/03/18,"沙田草地""A""                                    ",1200,好,4,1,52,鄭俊偉,杜利萊                                    ,4-3/4,59.0,123,9 9 5,1.10.62,1012,H1,,金碧科
