,Unnamed: 0,場次,名次,日期,馬場/跑道/賽道,途程,場地狀況,賽事班次,檔位,評分,練馬師,騎師,頭馬距離,獨贏賠率,實際負磅,沿途走位,完成時間,排位體重,配備,賽事重播,馬名
0,1,687,8,19/05/21,"跑馬地草地""B""                                    ",1200,好/快,3,1,62,丁冠豪,賀銘年,6,15.0,118,5 5 8,1.10.57,1038,B,,銀河飛馬
1,2,631,7,28/04/21,"跑馬地草地""C+3""                                    ",1000,好,3,12,62,丁冠豪,賀銘年,3-3/4,56.0,118,12 11 7,0.57.95,1033,B,,銀河飛馬
2,3,568,2,08/04/21,"跑馬地草地""A""                                    ",1000,好/快,3,4,62,丁冠豪,賀銘年,3-1/4,16.0,118,7 6 2,0.56.93,1024,B,,銀河飛馬
3,4,514,4,17/03/21,"跑馬地草地""C""                                    ",1000,好/快,3,7,63,丁冠豪,賀銘年,3,41.0,117,6 6 4,0.56.71,1029,B,,銀河飛馬
4,5,419,4,10/02/21,"跑馬地草地""B""                                    ",1000,好,3,4,63,丁冠豪,梁家俊,2-3/4,28.0,118,11 8 4,0.57.50,1022,B,,銀河飛馬
5,6,344,11,13/01/21,"跑馬地草地""B""                                    ",1200,好,3,6,63,丁冠豪,賀銘年,4,21.0,117,6 8 11,1.10.50,1027,B,,銀河飛馬
6,7,269,1,16/12/20,"跑馬地草地""C""                                    ",1200,好,4,4,58,丁冠豪,賀銘年,1/2,13.0,133,5 5 1,1.10.04,1022,B,,銀河飛馬
7,8,215,3,25/11/20,"跑馬地草地""C+3""                                    ",1200,好,4,3,58,丁冠豪,郭能,1,13.0,131,6 5 3,1.10.00,1021,B,,銀河飛馬
8,9,169,6,08/11/20,"跑馬地草地""A""                                    ",1000,好,4,4,58,丁冠豪,梁家俊,3-1/4,7.5,133,4 2 6,0.57.92,1017,B,,銀河飛馬
9,10,106,7,14/10/20,"跑馬地草地""B""                                    ",1000,好,4,10,58,丁冠豪,梁家俊,3-1/2,17.0,132,9 9 7,0.57.46,1008,B,,銀河飛馬
10,11,13,1,09/09/20,"跑馬地草地""B""                                    ",1000,好,4,6,52,丁冠豪,梁家俊,3/4,29.0,125,6 6 1,0.57.04,996,B,,銀河飛馬
11,12,793,7,05/07/20,沙田全天候                                    ,1200,好,4,7,56,丁冠豪,潘頓,9-3/4,8.0,130,6 10 7,1.11.28,1007,B,,銀河飛馬
12,13,734,6,10/06/20,"跑馬地草地""B""                                    ",1200,好/快,4,11,58,丁冠豪,潘頓,6-3/4,10.0,131,11 10 6,1.10.62,972,H-/P-/B1,,銀河飛馬
13,14,636,8,06/05/20,"跑馬地草地""B""                                    ",1200,好/快,4,7,59,丁冠豪,潘頓,3-1/4,9.2,133,11 11 8,1.10.77,1004,H/P,,銀河飛馬
14,15,558,7,08/04/20,"跑馬地草地""B""                                    ",1200,好,4,2,59,丁冠豪,梁家俊,2-1/4,15.0,133,8 9 7,1.10.58,997,H/P,,銀河飛馬
15,16,503,8,18/03/20,"跑馬地草地""C+3""                                    ",1000,好,3,6,61,丁冠豪,梁家俊,3-1/4,14.0,116,11 11 8,0.57.35,1004,H/P,,銀河飛馬
16,17,432,4,19/02/20,沙田全天候                                    ,1200,好,3,3,62,丁冠豪,梁家俊,4-3/4,44.0,116,11 10 4,1.09.10,1004,H/P,,銀河飛馬
17,18,341,4,15/01/20,"跑馬地草地""C+3""                                    ",1200,好,3,1,64,丁冠豪,梁家俊,3-3/4,18.0,117,5 4 4,1.10.04,991,H/P,,銀河飛馬
18,19,193,9,23/11/19,沙田全天候                                    ,1200,好,3,8,64,丁冠豪,蔡明紹,11-1/2,10.0,120,6 7 9,1.10.05,1003,H/P,,銀河飛馬
19,20,158,2,06/11/19,"跑馬地草地""B""                                    ",1000,好,3,10,64,丁冠豪,梁家俊,2-3/4,56.0,120,9 10 2,0.57.42,1010,H/P,,銀河飛馬
20,21,103,10,16/10/19,"跑馬地草地""C""                                    ",1200,好,3,11,66,丁冠豪,梁家俊,5-3/4,30.0,120,10 10 10,1.10.47,1014,H/P,,銀河飛馬
21,22,47,4,21/09/19,沙田全天候                                    ,1200,好,3,3,68,丁冠豪,梁家俊,4-1/2,84.0,121,6 6 4,1.09.48,1021,H/P,,銀河飛馬
22,23,19,7,08/09/19,沙田全天候                                    ,1200,好,3,9,70,丁冠豪,蔡明紹,6,255.0,123,9 7 7,1.09.06,1031,H1/P1,,銀河飛馬
23,24,776,10,01/07/19,"沙田草地""B""                                    ",1200,好/快,3,13,74,丁冠豪,波健士,8-1/4,209.0,127,13 11 10,1.09.64,993,--,,銀河飛馬
24,25,544,12,31/03/19,"沙田草地""A+3""                                    ",1200,好,3,6,74,丁冠豪,巫顯東,9,208.0,124,3 4 12,1.10.75,1000,--,,銀河飛馬
