,Unnamed: 0,場次,名次,日期,馬場/跑道/賽道,途程,場地狀況,賽事班次,檔位,評分,練馬師,騎師,頭馬距離,獨贏賠率,實際負磅,沿途走位,完成時間,排位體重,配備,賽事重播,馬名
0,1,584,3,11/04/21,"沙田草地""C""                                    ",1400,好,2,3,89,蔡約翰,莫雷拉,3/4,2.1,122,5 3 3 3,1.21.33,1054,B,,銀馳
1,2,524,9,21/03/21,"沙田草地""A""                                    ",2000,好,4YO,1,89,蔡約翰,蔡明紹,5-3/4,6.9,126,2 2 2 1 9,2.02.23,1059,B,,銀馳
2,3,469,1,28/02/21,"沙田草地""B+2""                                    ",1400,好,3,9,79,蔡約翰,莫雷拉,2-1/4,1.9,133,1 1 1 1,1.21.18,1066,B1,,銀馳
3,4,411,2,06/02/21,"沙田草地""C""                                    ",1400,好,3,9,76,蔡約翰,田泰安,1,5.3,133,1 2 2 2,1.21.81,1072,--,,銀馳
4,5,312,6,01/01/21,"沙田草地""B+2""                                    ",1200,好,3,8,76,蔡約翰,田泰安,3,14.0,130,8 10 6,1.09.74,1067,--,,銀馳
