,Unnamed: 0,場次,名次,日期,馬場/跑道/賽道,途程,場地狀況,賽事班次,檔位,評分,練馬師,騎師,頭馬距離,獨贏賠率,實際負磅,沿途走位,完成時間,排位體重,配備,賽事重播,馬名
0,1,647,11,05/05/21,"跑馬地草地""A""                                    ",1200,好/快,4,8,46,鄭俊偉,賀銘年,8-1/4,13.0,121,3 5 11,1.10.95,1131,B,,鋼鐵福陞
1,2,610,9,21/04/21,"跑馬地草地""C""                                    ",1000,好/快,4,5,48,鄭俊偉,賀銘年,3-3/4,9.4,120,7 9 9,0.57.94,1135,B1,,鋼鐵福陞
2,3,509,5,17/03/21,"跑馬地草地""C""                                    ",1200,好/快,4,12,50,鄭俊偉,賀銘年,5,92.0,123,3 4 5,1.10.06,1140,--,,鋼鐵福陞
3,4,445,11,21/02/21,"沙田草地""A+3""                                    ",1400,好,4,2,52,鄭俊偉,賀銘年,4-1/4,22.0,125,4 4 5 11,1.22.68,1149,--,,鋼鐵福陞
4,5,349,13,17/01/21,"沙田草地""A""                                    ",1200,好,4,6,52,鄭俊偉,賀銘年,8-1/2,22.0,127,3 3 13,1.11.32,1160,--,,鋼鐵福陞
