,Unnamed: 0,場次,名次,日期,馬場/跑道/賽道,途程,場地狀況,賽事班次,檔位,評分,練馬師,騎師,頭馬距離,獨贏賠率,實際負磅,沿途走位,完成時間,排位體重,配備,賽事重播,馬名
0,1,717,13,30/05/21,"沙田草地""B""                                    ",1200,好/快,3,10,78,呂健威,郭能,9-1/4,86,131,12 13 13,1.09.76,1159,B/H/TT,,錶之銳
1,2,659,12,08/05/21,沙田全天候                                    ,1650,好,3,10,80,呂健威,周俊樂,14,8.5,128,6 2 4 12,1.39.13,1188,B/H/TT,,錶之銳
2,3,593,12,14/04/21,"跑馬地草地""B""                                    ",1800,好/快,2,9,80,呂健威,楊明綸,15,24,117,10 11 2 3 12,1.51.81,1176,B/H/TT,,錶之銳
3,4,547,02,31/03/21,沙田全天候                                    ,1800,好,3,1,79,呂健威,周俊樂,1,3.2,126,4 4 4 3 2,1.48.12,1164,B/H/TT,,錶之銳
4,5,506,03,13/03/21,沙田全天候                                    ,1650,好,3,5,80,呂健威,楊明綸,3-1/4,37,129,6 6 3 3,1.37.36,1170,B/H/TT,,錶之銳
5,6,448,08,21/02/21,沙田全天候                                    ,1200,好,2,11,82,呂健威,楊明綸,2-1/4,65,115,12 10 8,1.08.38,1173,B/H/TT,,錶之銳
6,7,352,09,17/01/21,沙田全天候                                    ,1650,好,3,10,84,呂健威,潘明輝,11-1/2,8.6,130,8 5 5 9,1.39.71,1149,B/H/TT,,錶之銳
7,8,303,07,26/12/20,沙田全天候                                    ,1650,好,2,5,85,呂健威,潘明輝,5,5.7,118,2 3 2 7,1.39.50,1166,B/H/TT,,錶之銳
8,9,267,09,13/12/20,"沙田草地""A""                                    ",1600,好,2,9,85,呂健威,潘明輝,5-1/2,56,116,1 1 1 9,1.35.43,1169,B/H/TT,,錶之銳
9,10,208,07,22/11/20,"沙田草地""B+2""                                    ",1800,好/快,2,6,85,呂健威,巴度,2-1/2,22,118,2 3 3 5 7,1.46.77,1160,B/H/TT,,錶之銳
10,11,160,01,04/11/20,沙田全天候                                    ,1800,好,3,4,75,呂健威,潘明輝,5,4.5,126,4 3 3 2 1,1.49.45,1141,B/H/TT,,錶之銳
11,12,134,13,24/10/20,"沙田草地""C""                                    ",1600,好,3,10,77,呂健威,彭國年,8-3/4,46,131,8 9 11 13,1.34.96,1151,B/H/TT,,錶之銳
12,13,80,04,04/10/20,沙田全天候                                    ,1650,好,3,12,78,呂健威,波健士,2-1/2,15,131,5 3 3 4,1.40.31,1139,B/H/TT,,錶之銳
13,14,25,03,13/09/20,沙田全天候                                    ,1200,好,3,7,78,呂健威,潘頓,2-1/2,3,131,9 8 3,1.08.98,1143,B/H/TT,,錶之銳
14,15,796,02,05/07/20,沙田全天候                                    ,1200,好,3,7,76,呂健威,莫雷拉,1/2,9.3,129,6 4 2,1.09.08,1140,PC-/H/B2/TT,,錶之銳
15,16,697,WV,27/05/20,沙田全天候                                    ,1200,好,3,--,76,呂健威,史卓豐,--,--,131,--,--,--,--,--,錶之銳
16,17,630,05,03/05/20,沙田全天候                                    ,1200,好,3,1,78,呂健威,何澤堯,4-1/2,6.8,133,12 11 5,1.09.22,1136,H/PC/TT,,錶之銳
17,18,590,05,19/04/20,沙田全天候                                    ,1200,好,3,7,80,呂健威,何澤堯,2-1/2,6,133,10 11 5,1.09.28,1139,H/PC/TT,,錶之銳
18,19,544,09,01/04/20,沙田全天候                                    ,1650,濕慢,2,10,81,呂健威,何澤堯,11-1/4,12,118,11 10 11 9,1.39.73,1142,B-/H/PC1/TT,,錶之銳
19,20,481,14,08/03/20,"沙田草地""C""                                    ",1000,好,2,2,81,呂健威,楊明綸,7-1/4,173,118,14 14 14,0.56.25,1136,B/H/TT,,錶之銳
20,21,434,05,19/02/20,沙田全天候                                    ,1200,好,2,3,81,呂健威,何澤堯,4,6.3,115,10 8 5,1.08.45,1153,B/H/TT,,錶之銳
21,22,310,11,05/01/20,沙田全天候                                    ,1200,好,3,6,81,呂健威,何澤堯,7-1/4,2.3,130,12 12 11,1.10.24,1145,B/H/TT,,錶之銳
22,23,252,01,15/12/19,沙田全天候                                    ,1200,好,3,10,75,呂健威,何澤堯,1/2,1.4,128,5 4 1,1.09.08,1140,B/H/TT,,錶之銳
23,24,193,01,23/11/19,沙田全天候                                    ,1200,好,3,12,64,呂健威,何澤堯,4,2.3,120,8 6 1,1.08.22,1128,B/H/TT,,錶之銳
24,25,132,05,27/10/19,沙田全天候                                    ,1200,好,3,2,63,呂健威,蔡明紹,1,6.8,116,6 5 5,1.09.34,1139,H/B2/TT,,錶之銳
25,26,89,02,12/10/19,沙田全天候                                    ,1200,好,3,2,62,呂健威,何澤堯,2-1/2,12,116,9 8 2,1.08.89,1136,B-/XB-/H2/TT1,,錶之銳
26,27,720,12,05/06/19,"跑馬地草地""A""                                    ",1200,好,3,2,65,約翰摩亞,梁家俊,15-3/4,11,120,3 4 12,1.12.34,1173,H-/XB/B1,,錶之銳
27,28,681,06,22/05/19,"跑馬地草地""B""                                    ",1200,好/快,3,10,67,約翰摩亞,梁家俊,3-1/2,43,120,7 7 6,1.10.18,1170,H/XB,,錶之銳
28,29,633,09,05/05/19,"沙田草地""B""                                    ",1400,好/黏,3,3,69,約翰摩亞,莫雷拉,9-3/4,3.4,125,4 6 4 9,1.24.85,1169,H/XB,,錶之銳
29,30,602,07,22/04/19,"沙田草地""C+3""                                    ",1400,好/快,3,1,69,約翰摩亞,史卓豐,4-3/4,17,124,4 3 4 7,1.22.20,1180,H/XB,,錶之銳
30,31,535,08,27/03/19,"跑馬地草地""C+3""                                    ",1200,好/快,3,5,71,約翰摩亞,沈拿,4-3/4,12,124,3 4 8,1.10.48,1177,H/XB,,錶之銳
31,32,494,05,13/03/19,"跑馬地草地""B""                                    ",1200,好,3,1,72,約翰摩亞,沈拿,2-1/2,30,125,5 4 5,1.10.53,1176,XB/H1,,錶之銳
32,33,413,06,10/02/19,沙田全天候                                    ,1200,好,3,2,72,約翰摩亞,韋達                                    ,8-3/4,11,129,9 8 6,1.09.40,1170,XB1,,錶之銳
