,Unnamed: 0,場次,名次,日期,馬場/跑道/賽道,途程,場地狀況,賽事班次,檔位,評分,練馬師,騎師,頭馬距離,獨贏賠率,實際負磅,沿途走位,完成時間,排位體重,配備,賽事重播,馬名
0,1,691,8,23/05/21,"沙田草地""A""                                    ",1200,好/快,4,10,49,苗禮德,田泰安,6-3/4,27.0,124,11 9 8,1.09.98,1141,B-,,鎂之妙
1,2,520,10,21/03/21,"沙田草地""A""                                    ",1400,好,4,7,49,賀賢,潘明輝,7-1/2,10.0,121,14 14 14 10,1.23.18,1164,B,,鎂之妙
2,3,423,3,14/02/21,"沙田草地""A""                                    ",1400,好,4,10,48,賀賢,潘明輝,1,34.0,119,14 14 12 3,1.22.66,1163,B,,鎂之妙
3,4,151,14,01/11/20,"沙田草地""A""                                    ",1400,好/快,4,10,50,賀賢,蔡明紹,7-1/4,23.0,123,13 13 14 14,1.23.04,1183,B,,鎂之妙
4,5,115,8,18/10/20,"沙田草地""B+2""                                    ",1200,好/快,4,2,52,賀賢,莫雷拉,4-1/4,6.2,125,8 8 8,1.09.74,1171,B,,鎂之妙
5,6,742,3,14/06/20,"沙田草地""C+3""                                    ",1400,好/快,4,7,52,賀賢,莫雷拉,2-1/2,36.0,125,13 11 10 3,1.21.81,1173,B,,鎂之妙
6,7,680,12,24/05/20,"沙田草地""A""                                    ",1400,好,4,14,52,賀賢,蘇狄雄,8,339.0,123,14 14 14 12,1.23.14,1178,B1,,鎂之妙
