,Unnamed: 0,場次,名次,日期,馬場/跑道/賽道,途程,場地狀況,賽事班次,檔位,評分,練馬師,騎師,頭馬距離,獨贏賠率,實際負磅,沿途走位,完成時間,排位體重,配備,賽事重播,馬名
0,1,641,06,02/05/21,"沙田草地""B""                                    ",1200,好,3,2,66,方嘉柏,田泰安,3-1/4,13,119,11 11 6,1.09.42,1346,--,,鐘意寶
1,2,787,WV,01/07/20,"沙田草地""C""                                    ",1600,好/快,3,--,66,方嘉柏,楊明綸,--,--,119,--,--,--,--,--,鐘意寶
2,3,726,07,07/06/20,"沙田草地""C""                                    ",1400,黏,3,12,68,方嘉柏,薛恩,3-3/4,62,121,10 10 9 7,1.23.44,1320,--,,鐘意寶
3,4,683,08,24/05/20,"沙田草地""A""                                    ",1200,好,3,8,68,方嘉柏,史卓豐,6-1/2,18,123,11 10 8,1.09.78,1324,--,,鐘意寶
