,Unnamed: 0,場次,名次,日期,馬場/跑道/賽道,途程,場地狀況,賽事班次,檔位,評分,練馬師,騎師,頭馬距離,獨贏賠率,實際負磅,沿途走位,完成時間,排位體重,配備,賽事重播,馬名
0,1,700,4,26/05/21,"跑馬地草地""C""                                    ",1200,好/快,5,1,28,文家良,巴度,1/2,6.6,121,2 3 4,1.09.89,1118,B/TT,,鑲藍旗
1,2,575,7,11/04/21,"沙田草地""C""                                    ",1000,好,5,10,30,文家良,陳嘉熙,4-1/2,8.6,116,6 4 7,0.58.15,1120,B/TT2,,鑲藍旗
2,3,276,3,20/12/20,"沙田草地""C+3""                                    ",1000,好,5,7,30,文家良,陳嘉熙,1-1/2,118.0,116,13 3 3,0.57.87,1136,B1,,鑲藍旗
3,4,129,12,24/10/20,"沙田草地""C""                                    ",1400,好,5,9,33,文家良,梁家俊,8-3/4,152.0,127,5 5 5 12,1.23.85,1132,--,,鑲藍旗
4,5,55,10,27/09/20,"沙田草地""A""                                    ",1000,好,5,2,36,文家良,周俊樂,6-1/4,39.0,120,4 5 10,0.58.26,1128,--,,鑲藍旗
5,6,755,9,21/06/20,"沙田草地""A""                                    ",1600,好/快,4,10,40,文家良,蔡明紹,5,123.0,115,13 11 8 9,1.35.67,1126,--,,鑲藍旗
6,7,662,9,17/05/20,"沙田草地""C+3""                                    ",1200,好/快,4,12,42,文家良,蔡明紹,4-3/4,216.0,116,10 11 9,1.10.43,1122,--,,鑲藍旗
7,8,568,11,12/04/20,"沙田草地""C""                                    ",1200,好,4,9,45,文家良,梁家俊,6-1/4,212.0,120,10 10 11,1.10.50,1122,--,,鑲藍旗
8,9,418,10,16/02/20,"沙田草地""A""                                    ",1200,好,4,12,48,文家良,蔡明紹,8-1/4,292.0,121,5 7 10,1.11.30,1114,--,,鑲藍旗
9,10,325,11,11/01/20,"沙田草地""A""                                    ",1200,好,4,7,50,文家良,梁家俊,5-1/4,253.0,123,8 10 11,1.10.27,1120,--,,鑲藍旗
10,11,170,12,17/11/19,"沙田草地""B""                                    ",1200,好,4,11,52,文家良,梁家俊,8,231.0,128,12 12 12,1.10.91,1110,H-/TT-,,鑲藍旗
11,12,42,12,21/09/19,沙田全天候                                    ,1200,好,4,1,52,文家良,黎海榮,25-1/4,90.0,125,8 11 12,1.13.38,1114,H1/TT1,,鑲藍旗
