,Unnamed: 0,場次,名次,日期,馬場/跑道/賽道,途程,場地狀況,賽事班次,檔位,評分,練馬師,騎師,頭馬距離,獨贏賠率,實際負磅,沿途走位,完成時間,排位體重,配備,賽事重播,馬名
0,1,698,4,23/05/21,"沙田草地""A""                                    ",1400,好/快,4,3,43,容天鵬,潘明輝,2-3/4,29,114,7 6 6 4,1.21.77,1059,B/TT,,閃耀中華
1,2,637,3,02/05/21,"沙田草地""B""                                    ",1400,好,4,14,43,容天鵬,潘明輝,2-1/4,113,114,14 13 9 3,1.21.94,1059,B/TT,,閃耀中華
2,3,555,8,05/04/21,"沙田草地""B+2""                                    ",1200,好,4,7,45,容天鵬,波健士,3-1/2,36,119,12 10 8,1.10.26,1057,B/TT,,閃耀中華
3,4,484,13,07/03/21,"沙田草地""C""                                    ",1400,好,4,13,48,容天鵬,巫顯東,5-3/4,134,119,6 2 3 13,1.23.05,1050,CP-/B1/TT,,閃耀中華
4,5,445,12,21/02/21,"沙田草地""A+3""                                    ",1400,好,4,9,50,容天鵬,彭國年,5,176,123,8 9 8 12,1.22.78,1062,CP/TT,,閃耀中華
5,6,366,11,24/01/21,"沙田草地""A+3""                                    ",1400,好,4,4,52,容天鵬,史卓豐,5-3/4,105,125,8 9 9 11,1.22.88,1061,CP1/TT,,閃耀中華
6,7,306,10,01/01/21,"沙田草地""B+2""                                    ",1200,好,4,12,52,容天鵬,史卓豐,6-1/2,36,126,14 13 10,1.10.74,1059,TT1,,閃耀中華
