,Unnamed: 0,場次,名次,日期,馬場/跑道/賽道,途程,場地狀況,賽事班次,檔位,評分,練馬師,騎師,頭馬距離,獨贏賠率,實際負磅,沿途走位,完成時間,排位體重,配備,賽事重播,馬名
0,1,712,3,30/05/21,"沙田草地""B""                                    ",1400,好/快,4,3,50,韋達,周俊樂,1-1/4,27.0,118,8 6 6 3,1.22.09,1108,XB-/H,,閃耀光芒
1,2,657,12,08/05/21,"沙田草地""C""                                    ",1400,好/快,4,5,52,韋達,周俊樂,4-1/2,12.0,121,8 10 11 12,1.22.51,1113,H/XB1,,閃耀光芒
2,3,555,5,05/04/21,"沙田草地""B+2""                                    ",1200,好,4,3,52,韋達,周俊樂,1-1/4,8.9,119,10 11 5,1.09.89,1098,H1,,閃耀光芒
