,Unnamed: 0,場次,名次,日期,馬場/跑道/賽道,途程,場地狀況,賽事班次,檔位,評分,練馬師,騎師,頭馬距離,獨贏賠率,實際負磅,沿途走位,完成時間,排位體重,配備,賽事重播,馬名
0,1,699,09,23/05/21,"沙田草地""A""                                    ",1200,好/快,3,4,67,蘇保羅,田泰安,5-1/4,13,124,4 4 9,1.09.56,1200,CP,,閃電俠
1,2,544,04,28/03/21,"沙田草地""A+3""                                    ",1200,好/快,3,3,68,蘇保羅,郭能,1-1/2,60,121,8 8 4,1.08.96,1216,CP,,閃電俠
2,3,485,08,07/03/21,"沙田草地""C""                                    ",1200,好,3,2,70,蘇保羅,郭能,4-3/4,13,123,5 4 8,1.10.21,1219,CP,,閃電俠
3,4,244,14,06/12/20,"沙田草地""C+3""                                    ",1400,好,3,4,71,蘇保羅,巴度,10-1/2,5.9,127,5 4 4 14,1.23.22,1228,CP,,閃電俠
4,5,174,11,08/11/20,"跑馬地草地""A""                                    ",1200,好,3,3,71,蘇保羅,田泰安,2-3/4,3.7,124,10 10 11,1.10.41,1235,B-/CP1,,閃電俠
5,6,119,03,18/10/20,"沙田草地""B+2""                                    ",1200,好/快,3,3,71,蘇保羅,潘頓,1-1/2,2.8,124,8 6 3,1.09.19,1224,B1,,閃電俠
6,7,45,04,20/09/20,"沙田草地""B+2""                                    ",1200,好/快,3,7,71,蘇保羅,潘頓,1-1/2,5.9,124,10 11 4,1.08.91,1222,--,,閃電俠
7,8,76,01,06/10/19,"沙田草地""B+2""                                    ",1200,好/黏,3,4,64,蘇保羅,田泰安,1-1/4,3.2,117,4 4 1,1.09.40,1208,--,,閃電俠
8,9,755,01,23/06/19,"沙田草地""A""                                    ",1200,好/快,4,5,53,蘇保羅,潘頓,3-1/4,2.3,127,7 5 1,1.08.96,1201,--,,閃電俠
9,10,685,06,26/05/19,"沙田草地""A""                                    ",1200,好/黏,4,14,53,蘇保羅,田泰安,3-1/2,5.1,131,9 10 6,1.10.92,1201,--,,閃電俠
10,11,561,WV,07/04/19,"沙田草地""B+2""                                    ",1200,好/快,4,--,53,蘇保羅,田泰安,--,--,126,--,--,--,--,--,閃電俠
11,12,497,02,17/03/19,"沙田草地""A""                                    ",1200,好,4,10,52,蘇保羅,田泰安,1-1/2,32,126,13 11 2,1.09.99,1201,--,,閃電俠
