,Unnamed: 0,場次,名次,日期,馬場/跑道/賽道,途程,場地狀況,賽事班次,檔位,評分,練馬師,騎師,頭馬距離,獨贏賠率,實際負磅,沿途走位,完成時間,排位體重,配備,賽事重播,馬名
0,1,637,14,02/05/21,"沙田草地""B""                                    ",1400,好,4,4,40,何良,楊明綸,21-1/4,144,113,7 8 10 14,1.24.96,1057,P/TT,,開心財星
1,2,512,12,17/03/21,"跑馬地草地""C""                                    ",1650,好/快,4,11,45,何良,賀銘年,26,163,118,4 4 8 12,1.43.68,1046,P/TT,,開心財星
2,3,417,11,10/02/21,"跑馬地草地""B""                                    ",1650,好,4,9,49,何良,巫顯東,6-1/2,112,119,11 10 10 11,1.42.28,1060,P/TT,,開心財星
3,4,365,13,24/01/21,"沙田草地""A+3""                                    ",1800,好,4,7,53,何良,潘明輝,13-1/2,57,125,1 1 1 2 13,1.49.43,1068,H-/P/TT,,開心財星
4,5,323,8,06/01/21,"跑馬地草地""A""                                    ",1650,好,4,3,56,何良,巫顯東,5-1/4,154,127,11 10 10 8,1.41.53,1076,XB-/H/P/TT,,開心財星
5,6,272,12,16/12/20,"跑馬地草地""C""                                    ",1650,好,4,12,59,何良,巫顯東,8-1/4,98,130,11 12 12 12,1.41.30,1071,H/P/XB/TT,,開心財星
6,7,181,12,11/11/20,"跑馬地草地""B""                                    ",1650,好,3,10,61,何良,巫顯東,11-3/4,37,113,1 2 3 12,1.42.23,1061,H/P/XB/TT,,開心財星
7,8,145,8,28/10/20,"跑馬地草地""C+3""                                    ",1200,好,3,4,63,何良,巫顯東,4-3/4,91,115,9 8 8,1.10.50,1062,H/XB/P1/TT1,,開心財星
8,9,785,5,01/07/20,"沙田草地""C""                                    ",1200,好/快,3,9,66,何良,蘇狄雄,8-1/2,128,121,9 9 5,1.09.74,1057,H/XB1,,開心財星
9,10,748,10,14/06/20,"沙田草地""C+3""                                    ",1200,好/快,3,8,68,何良,蘇狄雄,10-1/4,153,124,12 12 10,1.10.89,1062,H,,開心財星
10,11,708,14,31/05/20,"沙田草地""B""                                    ",1400,好,3,6,70,何良,蘇狄雄,8-1/2,348,122,9 10 10 14,1.22.81,1060,H,,開心財星
11,12,669,12,17/05/20,"沙田草地""C+3""                                    ",1200,好/快,3,10,70,何良,蘇狄雄,8,97,121,12 12 12,1.10.18,1058,H1,,開心財星
