,Unnamed: 0,場次,名次,日期,馬場/跑道/賽道,途程,場地狀況,賽事班次,檔位,評分,練馬師,騎師,頭馬距離,獨贏賠率,實際負磅,沿途走位,完成時間,排位體重,配備,賽事重播,馬名
0,1,643,2,05/05/21,"跑馬地草地""A""                                    ",1200,好,4,7,51,沈集成,潘頓,頭位,6.0,124,3 3 2,1.09.72,1028,TT,,開心有利
1,2,457,12,24/02/21,"跑馬地草地""C+3""                                    ",1200,好/快,4,12,51,沈集成,潘頓,9-1/2,11.0,124,3 4 12,1.11.45,1044,TT,,開心有利
2,3,393,2,03/02/21,"跑馬地草地""A""                                    ",1200,好,4,2,50,沈集成,潘頓,頸位,6.0,123,4 3 2,1.10.24,1050,TT,,開心有利
3,4,337,11,13/01/21,"跑馬地草地""B""                                    ",1200,好,4,10,52,沈集成,潘頓,10-1/4,5.8,126,2 2 11,1.12.29,1050,TT,,開心有利
4,5,269,7,16/12/20,"跑馬地草地""C""                                    ",1200,好,4,11,52,沈集成,周俊樂,2-3/4,14.0,120,6 7 7,1.10.48,1045,TT1,,開心有利
