,Unnamed: 0,場次,名次,日期,馬場/跑道/賽道,途程,場地狀況,賽事班次,檔位,評分,練馬師,騎師,頭馬距離,獨贏賠率,實際負磅,沿途走位,完成時間,排位體重,配備,賽事重播,馬名
0,1,666,WV-A,12/05/21,沙田全天候                                    ,1200,好,4,--,52,呂健威,何澤堯,--,--,126,--,--,--,--,--,陽明滿滿
1,2,600,07,17/04/21,沙田全天候                                    ,1200,好,4,1,54,呂健威,何澤堯,3,15,129,6 7 7,1.09.50,1104,B,,陽明滿滿
2,3,548,05,31/03/21,沙田全天候                                    ,1200,好,4,4,56,呂健威,何澤堯,3-1/2,5.5,130,7 7 5,1.09.61,1095,B,,陽明滿滿
3,4,480,07,07/03/21,沙田全天候                                    ,1200,濕慢,4,6,58,呂健威,何澤堯,7,5.5,133,4 3 7,1.09.65,1108,B,,陽明滿滿
4,5,441,03,21/02/21,沙田全天候                                    ,1200,好,4,4,59,呂健威,何澤堯,3-3/4,8.9,133,6 4 3,1.09.32,1098,B,,陽明滿滿
5,6,362,09,20/01/21,"跑馬地草地""C""                                    ",1200,好,3,10,61,呂健威,潘明輝,7-1/4,47,113,1 1 9,1.10.84,1113,B,,陽明滿滿
6,7,291,06,23/12/20,"跑馬地草地""C+3""                                    ",1200,好/快,3,10,62,呂健威,何澤堯,6-1/4,68,117,11 11 6,1.09.78,1104,B,,陽明滿滿
7,8,236,05,02/12/20,"跑馬地草地""A""                                    ",1000,好,3,12,63,呂健威,何澤堯,5-1/4,77,117,10 10 5,0.57.71,1100,B,,陽明滿滿
8,9,126,07,21/10/20,"跑馬地草地""C""                                    ",1000,好/快,3,7,63,呂健威,潘明輝,3,34,114,12 11 7,0.57.09,1086,B,,陽明滿滿
9,10,61,06,27/09/20,沙田全天候                                    ,1200,好,3,2,63,呂健威,何澤堯,4,5.9,118,8 6 6,1.10.75,1077,B,,陽明滿滿
10,11,784,01,01/07/20,沙田全天候                                    ,1200,好,4,6,57,呂健威,何澤堯,頸位,5.1,130,5 5 1,1.09.89,1067,B,,陽明滿滿
11,12,692,01,27/05/20,沙田全天候                                    ,1200,好,4,12,52,呂健威,何澤堯,頸位,3.4,126,5 5 1,1.08.73,1065,B,,陽明滿滿
12,13,654,05,13/05/20,"跑馬地草地""C""                                    ",1200,好,4,5,52,呂健威,何澤堯,3-1/2,4.1,127,2 2 5,1.10.71,1055,B,,陽明滿滿
13,14,587,03,19/04/20,沙田全天候                                    ,1200,好,4,6,52,呂健威,何澤堯,1-1/4,6.1,126,2 2 3,1.08.74,1068,B,,陽明滿滿
14,15,538,01,01/04/20,沙田全天候                                    ,1200,濕慢,4,4,47,呂健威,何澤堯,頸位,5,121,6 3 1,1.09.47,1059,B,,陽明滿滿
15,16,448,08,26/02/20,"跑馬地草地""A""                                    ",1000,好,4,7,49,呂健威,何澤堯,3-1/2,8.6,122,10 11 8,0.57.40,1042,B1/TT-,,陽明滿滿
16,17,183,09,20/11/19,"跑馬地草地""C+3""                                    ",1650,好/快,4,6,51,蘇偉賢,何澤堯,3-1/4,28,124,8 7 7 9,1.40.13,1071,TT,,陽明滿滿
17,18,117,11,23/10/19,"跑馬地草地""C+3""                                    ",1650,好/快,4,3,52,蘇偉賢,梁家俊,8-3/4,10,127,4 3 10 11,1.42.24,1066,TT,,陽明滿滿
18,19,53,06,25/09/19,"跑馬地草地""A""                                    ",1200,好/快,4,9,53,蘇偉賢,何澤堯,4-1/2,19,126,10 10 6,1.11.02,1060,H-/TT,,陽明滿滿
19,20,754,09,23/06/19,"沙田草地""A""                                    ",1400,好/快,4,7,56,蘇偉賢,潘明輝,7-1/2,21,127,4 2 4 9,1.22.71,1045,H/TT,,陽明滿滿
20,21,707,05,02/06/19,"沙田草地""B""                                    ",1400,好/快,4,10,56,蘇偉賢,貝力斯,3/4,80,129,3 2 2 5,1.22.15,1054,H/TT,,陽明滿滿
21,22,650,05,11/05/19,"沙田草地""C""                                    ",1400,好,4,3,58,蘇偉賢,貝力斯,4-3/4,116,131,3 3 3 5,1.22.37,1062,H/TT,,陽明滿滿
22,23,577,08,14/04/19,"沙田草地""C""                                    ",1400,好,4,8,59,蘇偉賢,黃俊,7-1/2,91,128,7 7 9 8,1.22.99,1061,H/TT,,陽明滿滿
23,24,511,11,20/03/19,"跑馬地草地""C""                                    ",1200,好/快,4,8,60,蘇偉賢,史卓豐,3-3/4,23,133,9 9 11,1.10.88,1073,H/TT,,陽明滿滿
24,25,454,06,27/02/19,"跑馬地草地""C+3""                                    ",1000,好/快,4,12,60,蘇偉賢,黃俊,2-3/4,29,126,4 7 6,0.57.27,1058,H/TT,,陽明滿滿
25,26,359,05,23/01/19,"跑馬地草地""C""                                    ",1000,好,4,9,60,蘇偉賢,何澤堯,4-1/2,6.4,131,2 3 5,0.57.84,1083,H/TT,,陽明滿滿
26,27,286,01,26/12/18,"跑馬地草地""C+3""                                    ",1000,好,4,2,54,蘇偉賢,何澤堯,頭位,6.7,125,2 2 1,0.57.58,1068,P-/H/TT,,陽明滿滿
27,28,212,04,28/11/18,"跑馬地草地""A""                                    ",1200,好,4,7,54,蘇偉賢,韋達                                    ,2-1/2,4.9,127,2 3 4,1.11.07,1068,H/P/TT,,陽明滿滿
28,29,156,03,07/11/18,"跑馬地草地""B""                                    ",1200,好,4,4,53,蘇偉賢,韋達                                    ,3/4,4.5,126,1 1 3,1.10.39,1064,H/P/TT,,陽明滿滿
29,30,68,03,03/10/18,"跑馬地草地""A""                                    ",1200,好,4,3,52,蘇偉賢,梁家俊,3/4,7.2,125,1 1 3,1.10.89,1043,H/P/TT,,陽明滿滿
30,31,773,02,04/07/18,"跑馬地草地""C+3""                                    ",1200,好,4,5,50,蘇偉賢,何澤堯,頸位,13,121,2 3 2,1.10.20,1041,H/P/TT,,陽明滿滿
31,32,727,07,13/06/18,"跑馬地草地""B""                                    ",1200,好,4,3,52,蘇偉賢,莫雷拉,5-1/2,7,125,3 3 7,1.11.12,1042,H/P/TT,,陽明滿滿
32,33,670,05,23/05/18,"跑馬地草地""C""                                    ",1000,好/快,4,4,54,蘇偉賢,何澤堯,2-3/4,6.1,125,6 6 5,0.57.64,1036,H/P1/TT,,陽明滿滿
33,34,409,05,10/02/18,"沙田草地""C+3""                                    ",1000,好,4,14,54,蘇偉賢,羅理雅                                    ,4-1/2,5,127,12 6 5,0.57.73,1062,H/TT,,陽明滿滿
34,35,355,02,21/01/18,"沙田草地""A""                                    ",1000,好,4,12,52,蘇偉賢,羅理雅                                    ,頸位,2.8,130,3 6 2,0.57.70,1067,H1/TT1,,陽明滿滿
