,Unnamed: 0,場次,名次,日期,馬場/跑道/賽道,途程,場地狀況,賽事班次,檔位,評分,練馬師,騎師,頭馬距離,獨贏賠率,實際負磅,沿途走位,完成時間,排位體重,配備,賽事重播,馬名
0,1,726,10,02/06/21,"跑馬地草地""A""                                    ",1200,好,3,4,70,呂健威,黃皓楠,4-3/4,81.0,120,1 1 10,1.10.33,1163,B/TT,,雙天至尊
1,2,659,1,08/05/21,沙田全天候                                    ,1650,好,3,3,63,呂健威,黃皓楠,2-1/4,20.0,113,1 1 1 1,1.36.89,1167,B/TT,,雙天至尊
2,3,596,8,17/04/21,沙田全天候                                    ,1650,濕慢,3,3,64,呂健威,波健士,12,9.6,118,9 9 7 8,1.39.65,1173,B/TT,,雙天至尊
3,4,540,11,28/03/21,"沙田草地""A+3""                                    ",1400,好/快,3,3,64,呂健威,潘明輝,6-1/2,114.0,117,1 1 1 11,1.22.33,1155,B/TT,,雙天至尊
4,5,506,10,13/03/21,沙田全天候                                    ,1650,好,3,8,64,呂健威,潘明輝,9,12.0,111,4 4 5 10,1.38.31,1177,B/TT,,雙天至尊
5,6,407,1,06/02/21,沙田全天候                                    ,1650,好,4,5,57,呂健威,周俊樂,2,10.0,124,1 1 1 1,1.38.86,1185,B/TT,,雙天至尊
6,7,348,8,17/01/21,沙田全天候                                    ,1650,好,4,5,59,呂健威,周俊樂,10-1/4,5.9,126,1 2 4 8,1.40.18,1208,B/TT,,雙天至尊
7,8,300,12,26/12/20,沙田全天候                                    ,1650,好,4,10,60,呂健威,何澤堯,12-1/4,6.3,133,3 1 1 12,1.41.21,1184,B/TT,,雙天至尊
8,9,247,6,06/12/20,沙田全天候                                    ,1650,好,3,2,60,呂健威,莫雷拉,1-3/4,3.5,115,7 5 5 6,1.39.10,1194,B/TT,,雙天至尊
9,10,163,3,04/11/20,沙田全天候                                    ,1650,好,4,2,60,呂健威,周俊樂,1,2.8,123,1 1 1 3,1.40.26,1183,B/TT,,雙天至尊
10,11,81,4,04/10/20,沙田全天候                                    ,1650,好,4,14,60,呂健威,莫雷拉,3-3/4,4.8,133,2 2 2 4,1.40.49,1183,B/TT,,雙天至尊
11,12,38,1,20/09/20,沙田全天候                                    ,1650,濕慢,4,1,50,呂健威,莫雷拉,3-1/2,2.7,123,1 1 1 1,1.38.02,1171,B/TT,,雙天至尊
12,13,773,2,27/06/20,沙田全天候                                    ,1650,好,4,14,51,呂健威,何澤堯,1-1/2,38.0,125,5 5 6 2,1.40.12,1199,B/TT,,雙天至尊
13,14,694,8,27/05/20,沙田全天候                                    ,1200,好,4,12,51,呂健威,何澤堯,4-3/4,15.0,125,7 7 8,1.09.79,1191,B/TT,,雙天至尊
14,15,626,2,03/05/20,沙田全天候                                    ,1200,好,4,1,50,呂健威,何澤堯,1-1/4,35.0,123,5 3 2,1.09.04,1194,B/TT,,雙天至尊
15,16,568,8,12/04/20,"沙田草地""C""                                    ",1200,好,4,5,52,呂健威,何澤堯,3-1/2,37.0,127,5 6 8,1.10.10,1189,B/TT,,雙天至尊
16,17,512,13,22/03/20,"沙田草地""A""                                    ",1400,好,4,8,54,呂健威,何澤堯,11,26.0,128,13 13 14 13,1.23.53,1193,B1/TT,,雙天至尊
17,18,436,13,23/02/20,"沙田草地""A+3""                                    ",1400,好,4,6,56,呂健威,何澤堯,4-1/2,16.0,132,8 7 7 13,1.23.41,1197,TT,,雙天至尊
18,19,366,5,27/01/20,"沙田草地""B+2""                                    ",1400,好,4,4,57,呂健威,何澤堯,1-3/4,34.0,130,6 5 3 5,1.22.95,1202,TT,,雙天至尊
19,20,268,11,21/12/19,"沙田草地""A+3""                                    ",1400,好,4,13,59,呂健威,貝力斯,4-3/4,120.0,132,11 12 11 11,1.24.04,1214,TT,,雙天至尊
20,21,232,9,08/12/19,"沙田草地""A""                                    ",1400,好,3,3,61,呂健威,潘明輝,5-1/4,205.0,114,8 8 9 9,1.22.17,1218,TT,,雙天至尊
21,22,158,12,06/11/19,"跑馬地草地""B""                                    ",1000,好,3,8,63,呂健威,黃皓楠,7,108.0,116,11 11 12,0.58.07,1215,TT,,雙天至尊
22,23,122,9,23/10/19,"跑馬地草地""C+3""                                    ",1200,好/快,3,7,65,呂健威,潘明輝,5,61.0,120,9 10 9,1.10.52,1229,TT,,雙天至尊
23,24,55,10,25/09/19,"跑馬地草地""A""                                    ",1200,好/快,3,8,67,呂健威,黃皓楠,3-1/2,224.0,119,12 12 10,1.10.70,1231,TT,,雙天至尊
24,25,803,11,10/07/19,"跑馬地草地""A""                                    ",1000,好,3,12,71,呂健威,蔡明紹,10-3/4,144.0,125,11 11 11,0.58.99,1210,TT1,,雙天至尊
25,26,687,11,26/05/19,"沙田草地""A""                                    ",1000,好/黏,3,2,71,呂健威,巫顯東,24,152.0,123,10 11 11,0.59.80,1211,--,,雙天至尊
