,Unnamed: 0,場次,名次,日期,馬場/跑道/賽道,途程,場地狀況,賽事班次,檔位,評分,練馬師,騎師,頭馬距離,獨贏賠率,實際負磅,沿途走位,完成時間,排位體重,配備,賽事重播,馬名
0,1,676,10,16/05/21,"沙田草地""C+3""                                    ",1200,好/快,3,5,61,葉楚航,黃俊,14,178,109,6 9 10,1.10.81,1002,H,,雲彩飛揚
1,2,615,10,25/04/21,"沙田草地""A""                                    ",1200,好,3,3,64,葉楚航,潘明輝,10-3/4,284,116,8 11 10,1.10.83,993,H,,雲彩飛揚
2,3,583,11,11/04/21,"沙田草地""C""                                    ",1400,好,3,11,66,葉楚航,黃皓楠,9-1/4,200,116,8 8 9 11,1.22.88,994,H,,雲彩飛揚
3,4,525,14,21/03/21,"沙田草地""A""                                    ",1200,好,3,12,68,葉楚航,黃皓楠,8,473,120,14 14 14,1.10.25,1006,H,,雲彩飛揚
4,5,467,13,28/02/21,"沙田草地""B+2""                                    ",1200,好,3,12,68,葉楚航,黃皓楠,7,226,118,12 12 13,1.10.35,1008,H1,,雲彩飛揚
