,Unnamed: 0,場次,名次,日期,馬場/跑道/賽道,途程,場地狀況,賽事班次,檔位,評分,練馬師,騎師,頭馬距離,獨贏賠率,實際負磅,沿途走位,完成時間,排位體重,配備,賽事重播,馬名
0,1,700,6,26/05/21,"跑馬地草地""C""                                    ",1200,好/快,5,5,38,方嘉柏,潘頓,2-1/2,3.4,131,5 7 6,1.10.17,1097,XB1/TT1,,電子寶貝
1,2,681,10,19/05/21,"跑馬地草地""B""                                    ",1650,好/快,5,11,40,方嘉柏,何澤堯,18-1/2,9.7,133,6 5 8 10,1.42.26,1103,--,,電子寶貝
2,3,643,7,05/05/21,"跑馬地草地""A""                                    ",1200,好,4,2,42,方嘉柏,巴度,3-1/4,4.9,115,6 8 7,1.10.20,1106,--,,電子寶貝
3,4,588,6,14/04/21,"跑馬地草地""B""                                    ",1200,好/快,4,10,44,方嘉柏,田泰安,2-1/4,14.0,117,12 11 6,1.10.69,1098,--,,電子寶貝
4,5,511,6,17/03/21,"跑馬地草地""C""                                    ",1200,好/快,4,4,46,方嘉柏,陳嘉熙,3-1/2,16.0,113,5 5 6,1.10.36,1114,--,,電子寶貝
5,6,475,8,03/03/21,"跑馬地草地""A""                                    ",1200,好,4,12,48,方嘉柏,陳嘉熙,5-3/4,51.0,116,12 12 8,1.10.73,1117,--,,電子寶貝
6,7,435,4,17/02/21,"跑馬地草地""C""                                    ",1200,好,4,2,50,方嘉柏,史卓豐,3-1/2,47.0,125,6 6 4,1.10.72,1110,--,,電子寶貝
7,8,393,8,03/02/21,"跑馬地草地""A""                                    ",1200,好,4,3,52,方嘉柏,陳嘉熙,2-1/2,60.0,118,11 11 8,1.10.60,1101,--,,電子寶貝
8,9,364,10,24/01/21,"沙田草地""A+3""                                    ",1000,好,4,8,52,方嘉柏,何澤堯,7-3/4,120.0,125,10 13 10,0.57.77,1109,--,,電子寶貝
