,Unnamed: 0,場次,名次,日期,馬場/跑道/賽道,途程,場地狀況,賽事班次,檔位,評分,練馬師,騎師,頭馬距離,獨贏賠率,實際負磅,沿途走位,完成時間,排位體重,配備,賽事重播,馬名
0,1,710,2,30/05/21,"沙田草地""B""                                    ",1400,好/快,4,1,47,賀賢,潘明輝,1-3/4,9.7,118,7 7 8 2,1.21.70,1005,B,,霹靂狂龍
1,2,580,7,11/04/21,"沙田草地""C""                                    ",1400,好,4,8,48,賀賢,潘明輝,4-3/4,9.8,121,7 3 4 7,1.22.66,1011,B,,霹靂狂龍
2,3,532,4,24/03/21,"跑馬地草地""C+3""                                    ",1650,好/快,4,6,48,賀賢,周俊樂,1,5.9,115,2 3 5 4,1.39.78,1015,B,,霹靂狂龍
3,4,484,3,07/03/21,"沙田草地""C""                                    ",1400,好,4,12,46,賀賢,周俊樂,頸位,4.0,114,4 1 1 3,1.22.19,1016,B,,霹靂狂龍
4,5,435,2,17/02/21,"跑馬地草地""C""                                    ",1200,好,4,7,44,賀賢,潘頓,1-1/4,4.3,120,3 2 2,1.10.35,1005,B,,霹靂狂龍
5,6,259,2,13/12/20,"沙田草地""A""                                    ",1400,好,4,10,43,賀賢,潘明輝,1-1/4,7.9,114,4 2 2 2,1.22.53,1010,B,,霹靂狂龍
6,7,149,1,01/11/20,"沙田草地""A""                                    ",1200,好/快,5,10,36,賀賢,薛恩,1-1/2,6.4,129,8 4 1,1.09.41,1004,B,,霹靂狂龍
7,8,78,1,04/10/20,"沙田草地""C+3""                                    ",1400,好,5,5,31,賀賢,薛恩,頸位,16.0,124,9 7 7 1,1.22.01,997,B,,霹靂狂龍
8,9,731,8,10/06/20,"跑馬地草地""B""                                    ",1650,好/快,5,6,36,賀賢,薛恩,6-1/4,12.0,129,9 10 11 8,1.41.55,1004,B1,,霹靂狂龍
9,10,672,6,20/05/20,"跑馬地草地""C+3""                                    ",1650,好/快,4,1,39,賀賢,巫顯東,4-1/2,14.0,110,5 5 5 6,1.39.94,1013,--,,霹靂狂龍
10,11,584,11,19/04/20,"沙田草地""C+3""                                    ",1800,好,4,9,41,賀賢,蔡明紹,8-3/4,14.0,114,8 2 2 2 11,1.48.85,1015,--,,霹靂狂龍
11,12,550,4,05/04/20,"沙田草地""B+2""                                    ",1600,好,4,10,43,賀賢,潘明輝,3-3/4,45.0,114,10 9 10 4,1.36.22,1013,--,,霹靂狂龍
12,13,520,8,25/03/20,"跑馬地草地""A""                                    ",1650,好,4,7,45,賀賢,潘明輝,4-3/4,19.0,118,7 10 12 8,1.41.13,1018,H-,,霹靂狂龍
13,14,467,7,04/03/20,"跑馬地草地""B""                                    ",1650,好,4,12,47,賀賢,潘明輝,2-3/4,46.0,118,11 10 10 7,1.41.01,1026,H,,霹靂狂龍
14,15,411,9,12/02/20,"跑馬地草地""C+3""                                    ",1200,好/快,4,12,49,賀賢,潘明輝,8-1/2,44.0,121,12 12 9,1.10.56,1033,H,,霹靂狂龍
15,16,315,4,08/01/20,"跑馬地草地""C""                                    ",1200,好,4,1,50,賀賢,莫雷拉,2,11.0,124,5 6 5,1.10.18,1015,H,,霹靂狂龍
16,17,250,12,15/12/19,"沙田草地""C+3""                                    ",1400,好,4,10,52,賀賢,潘明輝,6-1/4,23.0,123,12 12 12 12,1.22.74,1027,H,,霹靂狂龍
17,18,182,5,20/11/19,"跑馬地草地""C+3""                                    ",1200,好/快,4,10,52,賀賢,潘明輝,7,73.0,123,11 10 5,1.10.03,1023,H1,,霹靂狂龍
