,Unnamed: 0,場次,名次,日期,馬場/跑道/賽道,途程,場地狀況,賽事班次,檔位,評分,練馬師,騎師,頭馬距離,獨贏賠率,實際負磅,沿途走位,完成時間,排位體重,配備,賽事重播,馬名
0,1,708,05,26/05/21,"跑馬地草地""C""                                    ",1200,好/快,3,2,63,方嘉柏,蔡明紹,1-3/4,4.5,116,6 7 5,1.09.47,1193,B-/TT,,青心星
1,2,669,05,12/05/21,沙田全天候                                    ,1200,好,3,3,65,方嘉柏,何澤堯,2-1/4,5.9,119,6 6 5,1.08.95,1199,B1/TT,,青心星
2,3,639,05,02/05/21,"沙田草地""B""                                    ",1200,好,3,11,65,方嘉柏,莫雷拉,4-3/4,5.2,119,3 2 5,1.09.60,1198,TT,,青心星
3,4,599,02,17/04/21,沙田全天候                                    ,1200,好,3,10,63,方嘉柏,莫雷拉,短馬頭位,4.3,119,3 4 2,1.09.14,1202,TT,,青心星
4,5,562,02,05/04/21,"沙田草地""B+2""                                    ",1200,好,3,11,62,方嘉柏,莫雷拉,1/2,5.7,115,1 1 2,1.09.27,1214,TT,,青心星
5,6,514,03,17/03/21,"跑馬地草地""C""                                    ",1000,好/快,3,9,63,方嘉柏,莫雷拉,2-1/2,2.3,116,2 2 3,0.56.62,1209,TT1,,青心星
6,7,332,WV,10/01/21,"沙田草地""C""                                    ",1200,好,3,--,63,丁冠豪,波健士,--,--,118,--,--,--,--,--,青心星
7,8,283,04,20/12/20,"沙田草地""C+3""                                    ",1200,好,3,8,64,丁冠豪,莫雷拉,1-3/4,9.7,117,3 2 4,1.09.34,1203,--,,青心星
8,9,217,03,25/11/20,"跑馬地草地""C+3""                                    ",1200,好,3,2,64,丁冠豪,莫雷拉,2,4.4,117,3 4 3,1.09.55,1204,--,,青心星
9,10,61,10,27/09/20,沙田全天候                                    ,1200,好,3,7,64,丁冠豪,莫雷拉,14-1/4,3.4,119,7 9 10,1.12.40,1203,--,,青心星
10,11,794,03,05/07/20,沙田全天候                                    ,1200,好,3,6,62,丁冠豪,莫雷拉,頸位,2.1,116,2 2 3,1.09.46,1210,--,,青心星
11,12,713,02,03/06/20,"跑馬地草地""A""                                    ",1200,好,4,5,60,丁冠豪,潘頓,3/4,1.6,133,3 2 2,1.10.08,1195,--,,青心星
12,13,616,01,29/04/20,"跑馬地草地""A""                                    ",1200,好/快,4,10,52,丁冠豪,潘頓,2,4.9,127,1 1 1,1.09.53,1182,--,,青心星
13,14,509,06,22/03/20,"沙田草地""A""                                    ",1200,好,4,4,52,丁冠豪,潘頓,2,4.7,127,6 5 6,1.09.80,1220,--,,青心星
