,Unnamed: 0,場次,名次,日期,馬場/跑道/賽道,途程,場地狀況,賽事班次,檔位,評分,練馬師,騎師,頭馬距離,獨贏賠率,實際負磅,沿途走位,完成時間,排位體重,配備,賽事重播,馬名
0,1,692,4,23/05/21,"沙田草地""A""                                    ",1200,好/快,G3,3,104,蘇保羅,田泰安,1-1/4,14.0,122,5 5 4,1.08.37,1135,B/H,,韋小寶
1,2,622,5,25/04/21,"沙田草地""A""                                    ",1200,好,2,2,104,蘇保羅,田泰安,4-1/4,6.7,133,9 8 5,1.08.93,1123,B/H,,韋小寶
2,3,545,1,28/03/21,"沙田草地""A+3""                                    ",1200,好/快,2,5,99,蘇保羅,周俊樂,頸位,6.4,126,1 1 1,1.08.28,1126,B/H,,韋小寶
3,4,481,2,07/03/21,"沙田草地""C""                                    ",1000,好,2,7,97,蘇保羅,周俊樂,1/2,2.6,126,3 2 2,0.56.45,1126,B/H,,韋小寶
4,5,429,2,14/02/21,"沙田草地""A""                                    ",1200,好,2,2,95,蘇保羅,周俊樂,短馬頭位,7.6,125,6 7 2,1.08.59,1129,B/H,,韋小寶
5,6,392,6,31/01/21,"沙田草地""B+2""                                    ",1200,好,2,6,95,蘇保羅,周俊樂,4-1/4,5.6,125,11 10 6,1.09.06,1142,B/H1,,韋小寶
6,7,314,5,01/01/21,"沙田草地""B+2""                                    ",1200,好,2,3,95,蘇保羅,田泰安,3/4,4.9,132,11 12 5,1.09.34,1139,B,,韋小寶
7,8,266,4,13/12/20,"沙田草地""A""                                    ",1200,好,2,11,95,蘇保羅,田泰安,2,14.0,127,14 14 4,1.09.18,1141,B,,韋小寶
8,9,212,2,22/11/20,"沙田草地""B+2""                                    ",1200,好/快,2,4,93,蘇保羅,田泰安,1-1/2,8.4,129,11 4 2,1.08.38,1133,B,,韋小寶
9,10,154,6,01/11/20,"沙田草地""A""                                    ",1000,好/快,2,12,93,蘇保羅,田泰安,3-1/4,7.2,130,12 8 6,0.55.79,1134,B,,韋小寶
10,11,536,6,29/03/20,"沙田草地""A+3""                                    ",1200,好,2,5,93,蘇保羅,田泰安,3-1/2,3.8,128,12 8 6,1.09.86,1115,B,,韋小寶
11,12,481,3,08/03/20,"沙田草地""C""                                    ",1000,好,2,5,91,蘇保羅,田泰安,頸位,3.2,128,10 8 3,0.55.17,1114,B,,韋小寶
12,13,407,2,08/02/20,"沙田草地""C+3""                                    ",1200,好,2,9,88,蘇保羅,田泰安,鼻位,3.3,118,10 8 2,1.09.02,1110,B,,韋小寶
13,14,350,1,19/01/20,"沙田草地""A+3""                                    ",1200,好,2,4,81,蘇保羅,田泰安,短馬頭位,6.2,114,6 5 1,1.08.56,1111,B,,韋小寶
14,15,272,1,21/12/19,"沙田草地""A+3""                                    ",1000,好,3,9,75,蘇保羅,田泰安,1,5.7,128,12 4 1,0.56.55,1121,B,,韋小寶
15,16,214,1,01/12/19,"沙田草地""C+3""                                    ",1000,好,3,11,67,蘇保羅,田泰安,1-1/2,2.5,120,11 5 1,0.56.21,1113,B,,韋小寶
16,17,142,1,03/11/19,"沙田草地""C+3""                                    ",1000,好/快,4,5,60,蘇保羅,田泰安,1/2,12.0,133,14 13 1,0.56.32,1125,B1,,韋小寶
17,18,88,3,12/10/19,"沙田草地""C""                                    ",1000,好/快,4,12,60,蘇保羅,陳嘉熙,3,6.0,123,9 5 3,0.56.54,1126,--,,韋小寶
18,19,671,4,18/05/19,"沙田草地""C+3""                                    ",1400,好/快,4,3,60,蘇保羅,蔡明紹,2-1/4,5.2,133,7 8 8 4,1.22.22,1129,--,,韋小寶
19,20,613,2,28/04/19,"沙田草地""A""                                    ",1200,好,4,5,57,蘇保羅,蔡明紹,短馬頭位,25.0,130,10 10 2,1.09.55,1121,--,,韋小寶
20,21,538,1,31/03/19,"沙田草地""A+3""                                    ",1200,好,4,2,52,蘇保羅,蔡明紹,頭位,13.0,128,7 8 1,1.10.44,1108,--,,韋小寶
21,22,490,9,13/03/19,"跑馬地草地""B""                                    ",1200,好,4,7,52,蘇保羅,蔡明紹,5,19.0,125,9 10 9,1.10.59,1110,--,,韋小寶
