,Unnamed: 0,場次,名次,日期,馬場/跑道/賽道,途程,場地狀況,賽事班次,檔位,評分,練馬師,騎師,頭馬距離,獨贏賠率,實際負磅,沿途走位,完成時間,排位體重,配備,賽事重播,馬名
0,1,701,5,26/05/21,"跑馬地草地""C""                                    ",1200,好/快,5,8,22,何良,蔡明紹,3,11.0,115,6 6 5,1.10.09,1172,B/H,,飛帥
1,2,594,6,17/04/21,"沙田草地""C+3""                                    ",1200,好,5,2,24,何良,蔡明紹,2-3/4,7.8,118,4 4 6,1.11.01,1169,B/H,,飛帥
2,3,565,8,08/04/21,"跑馬地草地""A""                                    ",1650,好,5,2,26,何良,潘明輝,7-1/2,3.9,118,5 7 8 8,1.41.30,1167,B/H,,飛帥
3,4,491,5,10/03/21,"跑馬地草地""B""                                    ",1200,好,5,10,28,何良,蔡明紹,2,36.0,121,12 12 5,1.11.03,1175,CP-/H/B1/TT-,,飛帥
4,5,375,7,27/01/21,"跑馬地草地""C+3""                                    ",1650,好,5,11,31,何良,郭能,6-1/4,106.0,122,10 9 8 7,1.41.48,1173,H/CP1/TT1,,飛帥
5,6,296,12,26/12/20,"沙田草地""A+3""                                    ",1200,好,5,12,35,何良,郭能,6-1/4,100.0,128,7 7 12,1.11.02,1188,H,,飛帥
6,7,194,9,18/11/20,"跑馬地草地""C""                                    ",1200,好,5,10,38,何良,郭能,3-3/4,63.0,131,10 9 9,1.10.41,1158,H,,飛帥
7,8,171,9,08/11/20,"跑馬地草地""A""                                    ",1200,好,4,6,40,何良,巫顯東,5,88.0,110,10 11 9,1.11.31,1166,H,,飛帥
8,9,130,12,24/10/20,"沙田草地""C""                                    ",1000,好,4,4,42,何良,波健士,6-3/4,149.0,119,12 14 12,0.58.52,1156,H,,飛帥
9,10,243,11,11/12/19,"跑馬地草地""C""                                    ",1650,好,4,4,46,何良,黎海榮,5-3/4,22.0,120,3 4 4 11,1.41.09,1172,H,,飛帥
10,11,194,8,23/11/19,"沙田草地""C""                                    ",1400,好/快,4,7,48,何良,黎海榮,5-1/2,88.0,121,4 4 5 8,1.22.19,1171,H,,飛帥
11,12,151,7,06/11/19,"跑馬地草地""B""                                    ",1200,好,4,12,50,何良,黎海榮,5-1/2,120.0,125,11 10 7,1.10.13,1155,H,,飛帥
12,13,98,11,16/10/19,"跑馬地草地""C""                                    ",1000,好,4,4,52,何良,黎海榮,6-3/4,93.0,125,12 12 11,0.58.24,1154,H,,飛帥
13,14,58,9,01/10/19,"沙田草地""A+3""                                    ",1200,好/快,4,1,52,何良,黎海榮,5-3/4,170.0,128,7 9 9,1.10.03,1154,H1,,飛帥
