,Unnamed: 0,場次,名次,日期,馬場/跑道/賽道,途程,場地狀況,賽事班次,檔位,評分,練馬師,騎師,頭馬距離,獨贏賠率,實際負磅,沿途走位,完成時間,排位體重,配備,賽事重播,馬名
0,1,701,11,26/05/21,"跑馬地草地""C""                                    ",1200,好/快,5,11,40,蔡約翰,莫雷拉,8-1/2,13.0,133,9 7 11,1.11.00,1196,B,,首飾傳奇
1,2,672,4,16/05/21,"沙田草地""C+3""                                    ",1200,好/快,4,1,42,蔡約翰,波健士,4-1/4,55.0,115,9 6 4,1.09.09,1197,B,,首飾傳奇
2,3,629,12,28/04/21,"跑馬地草地""C+3""                                    ",1200,好,4,4,44,蔡約翰,黃皓楠,6-1/4,61.0,114,11 11 12,1.11.13,1190,B,,首飾傳奇
3,4,555,14,05/04/21,"沙田草地""B+2""                                    ",1200,好,4,11,45,蔡約翰,楊明綸,9-1/4,46.0,119,11 12 14,1.11.17,1190,B,,首飾傳奇
4,5,483,9,07/03/21,"沙田草地""C""                                    ",1200,好,4,1,45,蔡約翰,波健士,4-3/4,33.0,119,6 7 9,1.10.65,1189,B,,首飾傳奇
5,6,425,9,14/02/21,"沙田草地""A""                                    ",1200,好,4,14,45,蔡約翰,蔡明紹,5-1/4,25.0,119,12 11 9,1.10.56,1182,B,,首飾傳奇
6,7,402,1,06/02/21,"沙田草地""C""                                    ",1200,好,5,4,40,蔡約翰,莫雷拉,短馬頭位,3.9,133,7 6 1,1.10.09,1177,B,,首飾傳奇
7,8,317,9,06/01/21,"跑馬地草地""A""                                    ",1200,好,5,1,40,蔡約翰,莫雷拉,3-3/4,2.3,133,5 6 9,1.10.62,1177,B,,首飾傳奇
8,9,296,2,26/12/20,"沙田草地""A+3""                                    ",1200,好,5,2,39,蔡約翰,莫雷拉,1/2,8.0,132,8 8 2,1.10.11,1188,B,,首飾傳奇
9,10,250,7,09/12/20,"跑馬地草地""B""                                    ",1200,好,5,11,39,蔡約翰,巴米高,2-3/4,37.0,132,12 12 7,1.11.06,1182,B,,首飾傳奇
10,11,233,2,02/12/20,"跑馬地草地""A""                                    ",1000,好,5,1,37,蔡約翰,史卓豐,短馬頭位,5.2,130,8 6 2,0.58.11,1173,B,,首飾傳奇
11,12,196,5,18/11/20,"跑馬地草地""C""                                    ",1200,好,5,11,39,蔡約翰,郭能,3-1/4,33.0,133,9 8 5,1.10.64,1156,B,,首飾傳奇
12,13,168,10,08/11/20,"跑馬地草地""A""                                    ",1200,好,4,7,41,蔡約翰,波健士,3,45.0,114,10 9 10,1.11.09,1184,B,,首飾傳奇
13,14,141,6,28/10/20,"跑馬地草地""C+3""                                    ",1200,好,4,12,43,蔡約翰,田泰安,4-1/2,32.0,116,11 11 6,1.10.64,1178,V-/B2,,首飾傳奇
14,15,105,10,14/10/20,"跑馬地草地""B""                                    ",1200,好,4,4,45,蔡約翰,巴度,4-3/4,38.0,119,12 11 10,1.10.99,1175,V,,首飾傳奇
15,16,58,10,27/09/20,"沙田草地""A""                                    ",1400,好,4,5,47,蔡約翰,莫雷拉,6-1/2,22.0,120,10 8 8 10,1.23.57,1171,V,,首飾傳奇
16,17,14,7,09/09/20,"跑馬地草地""B""                                    ",1200,好,4,5,49,蔡約翰,蔡明紹,6,22.0,122,8 9 7,1.10.89,1165,V,,首飾傳奇
17,18,824,6,15/07/20,"跑馬地草地""B""                                    ",1200,好/快,4,10,51,蔡約翰,波健士,4,30.0,125,10 10 6,1.10.60,1156,V,,首飾傳奇
18,19,733,6,10/06/20,"跑馬地草地""B""                                    ",1200,好/快,4,6,52,蔡約翰,波健士,2-3/4,11.0,126,5 5 6,1.10.69,1148,V,,首飾傳奇
19,20,713,4,03/06/20,"跑馬地草地""A""                                    ",1200,好,4,1,52,蔡約翰,賀銘年,1-3/4,16.0,125,8 8 4,1.10.24,1153,V,,首飾傳奇
20,21,675,12,20/05/20,"跑馬地草地""C+3""                                    ",1200,好/快,4,7,52,蔡約翰,史卓豐,7-3/4,15.0,127,11 11 12,1.10.98,1145,V,,首飾傳奇
21,22,636,4,06/05/20,"跑馬地草地""B""                                    ",1200,好/快,4,3,52,蔡約翰,史卓豐,2-1/4,3.5,126,8 7 4,1.10.61,1163,V,,首飾傳奇
22,23,599,1,22/04/20,"跑馬地草地""C+3""                                    ",1200,好/黏,4,5,44,蔡約翰,史卓豐,1-1/2,4.8,118,5 5 1,1.11.45,1162,V,,首飾傳奇
23,24,558,4,08/04/20,"跑馬地草地""B""                                    ",1200,好,4,5,44,蔡約翰,何澤堯,3/4,8.2,118,4 6 4,1.10.37,1145,V,,首飾傳奇
24,25,484,2,11/03/20,"跑馬地草地""C""                                    ",1200,好,4,4,44,蔡約翰,利敬國,1-1/2,4.3,117,6 7 2,1.10.80,1152,V,,首飾傳奇
25,26,436,12,23/02/20,"沙田草地""A+3""                                    ",1400,好,4,14,46,蔡約翰,莫雷拉,4-1/2,11.0,122,4 3 4 12,1.23.38,1162,V,,首飾傳奇
26,27,411,3,12/02/20,"跑馬地草地""C+3""                                    ",1200,好/快,4,1,46,蔡約翰,巴度,3-1/2,15.0,120,6 6 3,1.09.78,1159,V,,首飾傳奇
27,28,372,10,29/01/20,"跑馬地草地""B""                                    ",1200,好,4,10,48,蔡約翰,莫雷拉,3-3/4,18.0,123,8 10 10,1.10.65,1158,B-/V1,,首飾傳奇
28,29,329,10,11/01/20,"沙田草地""A""                                    ",1400,好,4,12,50,蔡約翰,利敬國,4,20.0,124,1 2 2 10,1.23.53,1159,B,,首飾傳奇
29,30,286,7,29/12/19,"沙田草地""B+2""                                    ",1200,好,4,11,52,蔡約翰,巴度,2-1/2,5.3,128,5 5 7,1.11.00,1155,B,,首飾傳奇
30,31,210,3,01/12/19,"沙田草地""C+3""                                    ",1200,好,4,2,52,蔡約翰,莫雷拉,2-3/4,10.0,125,6 5 3,1.10.12,1171,B1,,首飾傳奇
