,Unnamed: 0,場次,名次,日期,馬場/跑道/賽道,途程,場地狀況,賽事班次,檔位,評分,練馬師,騎師,頭馬距離,獨贏賠率,實際負磅,沿途走位,完成時間,排位體重,配備,賽事重播,馬名
0,1,555,13,05/04/21,"沙田草地""B+2""                                    ",1200,好,4,2,52,何良,馬雅,7-3/4,82,126,6 7 13,1.10.96,1058,H,,馬上精彩
1,2,518,13,21/03/21,"沙田草地""A""                                    ",1200,好,4,4,52,何良,潘明輝,12-3/4,102,123,4 8 13,1.11.47,1054,H1,,馬上精彩
