,Unnamed: 0,場次,名次,日期,馬場/跑道/賽道,途程,場地狀況,賽事班次,檔位,評分,練馬師,騎師,頭馬距離,獨贏賠率,實際負磅,沿途走位,完成時間,排位體重,配備,賽事重播,馬名
0,1,715,13,30/05/21,"沙田草地""B""                                    ",1200,好/快,3,2,68,呂健威,賀銘年,14,80,121,6 8 13,1.10.94,1070,XB,,駿龍飛騰
1,2,678,13,16/05/21,"沙田草地""C+3""                                    ",1600,好/快,3,13,71,呂健威,巴度,9-1/2,99,128,2 2 2 13,1.35.53,1068,XB,,駿龍飛騰
2,3,592,9,14/04/21,"跑馬地草地""B""                                    ",1650,好/快,3,3,74,呂健威,何澤堯,8-1/2,45,131,7 8 9 9,1.40.79,1053,XB,,駿龍飛騰
3,4,507,13,13/03/21,"沙田草地""C+3""                                    ",1400,好,3,4,76,呂健威,巴度,6-1/2,49,129,2 2 1 13,1.22.92,1057,XB,,駿龍飛騰
4,5,431,14,14/02/21,"沙田草地""A""                                    ",1600,好,3,4,78,呂健威,巴度,13-1/4,48,132,5 6 7 14,1.36.85,1049,XB,,駿龍飛騰
5,6,354,7,17/01/21,"沙田草地""A""                                    ",1400,好,3,7,80,呂健威,潘頓,3-1/2,25,133,11 11 11 7,1.22.48,1060,H-/XB,,駿龍飛騰
6,7,267,13,13/12/20,"沙田草地""A""                                    ",1600,好,2,10,80,呂健威,巴度,9-3/4,38,113,7 8 10 13,1.36.10,1074,H1/XB1,,駿龍飛騰
