,Unnamed: 0,場次,名次,日期,馬場/跑道/賽道,途程,場地狀況,賽事班次,檔位,評分,練馬師,騎師,頭馬距離,獨贏賠率,實際負磅,沿途走位,完成時間,排位體重,配備,賽事重播,馬名
0,1,492,6,10/03/21,"跑馬地草地""B""                                    ",1200,好,4,8,57,容天鵬,何澤堯,4-1/2,11.0,130,9 8 6,1.10.78,1117,V/TT,,騰龍駒
1,2,425,3,14/02/21,"沙田草地""A""                                    ",1200,好,4,4,57,容天鵬,潘頓,1-1/2,7.3,131,4 3 3,1.09.99,1132,V/TT,,騰龍駒
2,3,360,2,20/01/21,"跑馬地草地""C""                                    ",1200,好,4,7,56,容天鵬,蘇銘倫,1-1/2,19.0,129,8 6 2,1.09.88,1145,V/TT,,騰龍駒
3,4,271,8,16/12/20,"跑馬地草地""C""                                    ",1200,好,4,12,58,容天鵬,周俊樂,6-1/4,14.0,124,12 12 8,1.10.87,1117,B-/V1/TT,,騰龍駒
4,5,215,10,25/11/20,"跑馬地草地""C+3""                                    ",1200,好,4,7,60,容天鵬,潘頓,2-1/2,9.2,133,2 2 10,1.10.25,1111,B/TT,,騰龍駒
5,6,164,5,04/11/20,沙田全天候                                    ,1200,好,3,1,62,容天鵬,波健士,4-1/4,11.0,115,8 7 5,1.09.74,1100,B/TT,,騰龍駒
6,7,794,9,05/07/20,沙田全天候                                    ,1200,好,3,8,65,苗禮德,賀銘年,10-3/4,8.9,118,9 7 9,1.11.10,1103,B/TT,,騰龍駒
7,8,747,6,14/06/20,沙田全天候                                    ,1200,濕慢,3,8,67,苗禮德,賀銘年,4-1/2,10.0,121,10 9 6,1.08.72,1098,B/TT,,騰龍駒
8,9,697,3,27/05/20,沙田全天候                                    ,1200,好,3,9,67,苗禮德,梁家俊,1-1/2,44.0,122,11 11 3,1.08.84,1097,B/TT,,騰龍駒
9,10,559,6,08/04/20,"跑馬地草地""B""                                    ",1200,好,3,8,69,苗禮德,梁家俊,5-3/4,34.0,123,9 9 6,1.10.33,1107,B/TT,,騰龍駒
10,11,526,10,25/03/20,"跑馬地草地""A""                                    ",1200,好,3,4,72,苗禮德,薛恩,6-1/2,53.0,126,3 3 10,1.10.60,1101,B/TT,,騰龍駒
11,12,462,12,01/03/20,"沙田草地""B+2""                                    ",1400,好,3,14,72,苗禮德,希威森,9-1/2,140.0,126,11 9 14 12,1.23.46,1104,B/TT1,,騰龍駒
12,13,406,6,08/02/20,"沙田草地""C+3""                                    ",1400,好,3,2,74,苗禮德,彭國年,4-3/4,46.0,127,5 5 5 6,1.22.06,1114,B,,騰龍駒
13,14,378,7,29/01/20,"跑馬地草地""B""                                    ",1200,好,3,7,76,苗禮德,梁家俊,6-3/4,39.0,131,8 7 7,1.10.84,1104,B,,騰龍駒
14,15,259,8,18/12/19,"跑馬地草地""C+3""                                    ",1200,好/快,3,2,78,苗禮德,蘇兆輝,2-1/2,4.3,131,2 1 8,1.10.35,1113,B,,騰龍駒
15,16,178,9,17/11/19,"沙田草地""B""                                    ",1200,好/快,2,6,80,苗禮德,巴度,5-1/2,35.0,118,7 8 9,1.09.45,1110,B,,騰龍駒
16,17,123,7,23/10/19,"跑馬地草地""C+3""                                    ",1200,好/快,2,9,81,苗禮德,利敬國,3-1/4,25.0,117,8 5 7,1.09.75,1095,B,,騰龍駒
17,18,37,11,15/09/19,"沙田草地""C+3""                                    ",1200,好/快,2,5,81,苗禮德,田泰安,6,21.0,114,6 9 11,1.09.15,1102,B,,騰龍駒
18,19,806,8,10/07/19,"跑馬地草地""A""                                    ",1200,好,2,12,81,苗禮德,陳嘉熙,4,31.0,108,4 3 8,1.10.38,1105,B,,騰龍駒
19,20,625,1,01/05/19,"跑馬地草地""C+3""                                    ",1200,好,3,2,76,苗禮德,杜美爾,短馬頭位,6.1,130,7 6 1,1.09.39,1069,B,,騰龍駒
20,21,565,10,07/04/19,"沙田草地""B+2""                                    ",1400,好/快,3,11,76,苗禮德,黃俊,3-3/4,30.0,126,6 4 4 10,1.22.82,1068,B2,,騰龍駒
21,22,487,7,10/03/19,"沙田草地""C+3""                                    ",1200,好,3,1,76,苗禮德,蘇兆輝,5-1/4,5.9,131,4 5 7,1.10.37,1086,--,,騰龍駒
22,23,402,1,07/02/19,"沙田草地""C+3""                                    ",1200,好,3,2,71,苗禮德,蘇兆輝,平頭馬,2.8,125,5 5 1,1.09.59,1068,--,,騰龍駒
23,24,346,7,16/01/19,"跑馬地草地""B""                                    ",1200,好,3,4,71,苗禮德,李寶利,1-1/2,2.9,126,7 8 7,1.10.24,1070,B-,,騰龍駒
24,25,159,2,07/11/18,"跑馬地草地""B""                                    ",1200,好,3,7,71,麥菲文                                    ,李寶利,3-1/2,12.0,124,2 2 2,1.10.44,1120,B1,,騰龍駒
25,26,117,6,21/10/18,"沙田草地""A""                                    ",1200,好/快,3,12,71,麥菲文                                    ,李寶利,3-1/4,18.0,124,2 3 6,1.09.74,1133,--,,騰龍駒
26,27,63,3,01/10/18,"沙田草地""A+3""                                    ",1200,好,3,1,70,麥菲文                                    ,李寶利,1-1/4,109.0,124,4 3 3,1.09.52,1135,--,,騰龍駒
