,Unnamed: 0,場次,名次,日期,馬場/跑道/賽道,途程,場地狀況,賽事班次,檔位,評分,練馬師,騎師,頭馬距離,獨贏賠率,實際負磅,沿途走位,完成時間,排位體重,配備,賽事重播,馬名
0,1,433,8,17/02/21,"跑馬地草地""C""                                    ",1200,好,4,9,52,韋達,史卓豐,6-1/2,25,125,2 2 8,1.10.76,1198,--,,魅力仔
1,2,377,5,27/01/21,"跑馬地草地""C+3""                                    ",1200,好,4,4,52,韋達,田泰安,3-3/4,19,126,6 6 5,1.10.52,1196,--,,魅力仔
