,Unnamed: 0,場次,名次,日期,馬場/跑道/賽道,途程,場地狀況,賽事班次,檔位,評分,練馬師,騎師,頭馬距離,獨贏賠率,實際負磅,沿途走位,完成時間,排位體重,配備,賽事重播,馬名
0,1,665,1,12/05/21,沙田全天候                                    ,1200,好,4,3,55,容天鵬,梁家俊,1-1/2,8.5,129,2 1 1,1.08.98,1279,B/TT,,鱷臨天下
1,2,551,4,31/03/21,沙田全天候                                    ,1200,好,4,3,56,容天鵬,馬雅,1-3/4,32.0,130,2 2 4,1.09.48,1269,B/TT,,鱷臨天下
2,3,480,11,07/03/21,沙田全天候                                    ,1200,濕慢,4,8,57,容天鵬,陳嘉熙,19-1/4,22.0,125,2 4 11,1.11.64,1284,B/TT,,鱷臨天下
3,4,385,11,31/01/21,沙田全天候                                    ,1200,好,4,5,57,容天鵬,梁家俊,8,11.0,130,7 8 11,1.09.93,1285,B/TT,,鱷臨天下
4,5,116,10,18/10/20,沙田全天候                                    ,1200,好,4,3,57,容天鵬,薛恩,9-1/2,9.2,130,2 1 10,1.10.86,1254,B/TT,,鱷臨天下
5,6,793,2,05/07/20,沙田全天候                                    ,1200,好,4,2,55,容天鵬,周俊樂,1-1/4,5.1,119,8 6 2,1.09.91,1258,B/TT,,鱷臨天下
6,7,694,1,27/05/20,沙田全天候                                    ,1200,好,4,8,50,容天鵬,梁家俊,短馬頭位,6.9,124,4 3 1,1.09.03,1248,B/TT,,鱷臨天下
7,8,626,4,03/05/20,沙田全天候                                    ,1200,好,4,12,50,容天鵬,梁家俊,2-1/4,6.1,123,1 1 4,1.09.19,1247,B/TT,,鱷臨天下
8,9,427,1,19/02/20,沙田全天候                                    ,1200,好,5,6,40,容天鵬,梁家俊,3-1/2,5.0,133,1 1 1,1.09.64,1261,B/TT,,鱷臨天下
9,10,267,10,21/12/19,"沙田草地""A+3""                                    ",1200,好,5,11,40,容天鵬,梁家俊,6,4.7,133,1 1 10,1.11.51,1255,B/TT,,鱷臨天下
10,11,211,1,01/12/19,沙田全天候                                    ,1200,好,5,11,29,容天鵬,梁家俊,5-3/4,14.0,122,1 1 1,1.08.92,1256,B/TT,,鱷臨天下
11,12,696,7,29/05/19,"跑馬地草地""C""                                    ",1000,好,5,7,33,容天鵬,楊明綸,4-1/2,45.0,124,5 5 7,0.58.02,1243,B/TT,,鱷臨天下
12,13,642,11,08/05/19,沙田全天候                                    ,1200,濕慢,5,11,36,容天鵬,楊明綸,10,28.0,127,2 2 11,1.11.96,1240,B/TT,,鱷臨天下
13,14,548,13,03/04/19,沙田全天候                                    ,1650,好,5,12,38,容天鵬,黃皓楠,31-1/4,54.0,129,1 1 2 13,1.45.53,1239,B/TT,,鱷臨天下
14,15,461,7,02/03/19,沙田全天候                                    ,1200,好,5,5,40,容天鵬,莫雷拉,7-1/2,3.4,133,1 1 7,1.10.11,1255,XB-/B2/TT,,鱷臨天下
15,16,323,9,09/01/19,"跑馬地草地""A""                                    ",1000,好,4,3,41,容天鵬,楊明綸,6-1/4,14.0,113,8 9 9,0.58.81,1262,B-/XB/TT,,鱷臨天下
16,17,256,4,16/12/18,"沙田草地""C+3""                                    ",1000,好,4,13,41,容天鵬,利敬國,1,27.0,115,7 5 4,0.57.14,1255,B/XB/TT,,鱷臨天下
17,18,193,10,21/11/18,"跑馬地草地""C+3""                                    ",1200,好,4,6,43,容天鵬,楊明綸,9-1/4,27.0,114,2 2 10,1.11.26,1255,B/XB/TT,,鱷臨天下
18,19,141,5,31/10/18,沙田全天候                                    ,1200,好,4,5,44,容天鵬,利敬國,2,6.9,117,3 3 5,1.09.68,1241,B/XB1/TT,,鱷臨天下
19,20,94,8,13/10/18,沙田全天候                                    ,1200,好,4,9,46,容天鵬,李寶利,2-3/4,10.0,118,3 2 8,1.09.50,1247,B/TT,,鱷臨天下
20,21,24,3,09/09/18,沙田全天候                                    ,1200,好,4,7,46,容天鵬,李寶利,2-3/4,5.3,118,1 1 3,1.10.52,1257,B/TT,,鱷臨天下
21,22,745,2,24/06/18,沙田全天候                                    ,1200,好,4,8,46,容天鵬,梁家俊,2,19.0,119,3 3 2,1.09.11,1256,B1/TT,,鱷臨天下
22,23,642,10,12/05/18,沙田全天候                                    ,1200,好,4,8,48,容天鵬,馬雅,13,14.0,122,5 7 10,1.10.43,1247,TT,,鱷臨天下
23,24,569,7,15/04/18,沙田全天候                                    ,1200,濕慢,4,6,50,容天鵬,楊明綸,3,20.0,121,4 4 7,1.09.98,1239,TT,,鱷臨天下
24,25,521,6,25/03/18,"沙田草地""A+3""                                    ",1000,好,4,10,52,容天鵬,潘頓,7-1/2,8.8,125,7 3 6,0.57.70,1255,TT,,鱷臨天下
25,26,447,7,25/02/18,"沙田草地""B""                                    ",1200,好,4,7,52,容天鵬,梁家俊,3-3/4,8.9,123,2 2 7,1.11.10,1281,TT1,,鱷臨天下
