,Unnamed: 0,場次,名次,日期,馬場/跑道/賽道,途程,場地狀況,賽事班次,檔位,評分,練馬師,騎師,頭馬距離,獨贏賠率,實際負磅,沿途走位,完成時間,排位體重,配備,賽事重播,馬名
0,1,660,12,08/05/21,"沙田草地""C""                                    ",1400,好/快,3,11,71,葉楚航,馬雅,15,115.0,127,10 7 10 12,1.23.77,1042,B,,鴻圖巨星
1,2,478,12,03/03/21,"跑馬地草地""A""                                    ",1650,好,3,11,73,羅富全,潘明輝,23,107.0,124,2 2 5 12,1.43.96,1082,B,,鴻圖巨星
2,3,415,6,10/02/21,"跑馬地草地""B""                                    ",1650,好,3,4,74,羅富全,何澤堯,10,27.0,129,3 4 5 6,1.41.49,1080,B,,鴻圖巨星
3,4,361,12,20/01/21,"跑馬地草地""C""                                    ",1650,好,3,1,74,羅富全,周俊樂,7-3/4,11.0,122,3 5 5 12,1.41.07,1078,B,,鴻圖巨星
4,5,292,9,23/12/20,"跑馬地草地""C+3""                                    ",1650,好/快,3,2,74,羅富全,陳嘉熙,2-3/4,19.0,120,5 6 7 9,1.40.33,1080,B,,鴻圖巨星
5,6,220,11,25/11/20,"跑馬地草地""C+3""                                    ",1650,好,3,12,74,羅富全,巴度,4-3/4,21.0,127,2 2 3 11,1.40.36,1072,B,,鴻圖巨星
6,7,127,1,21/10/20,"跑馬地草地""C""                                    ",1650,好/快,3,1,69,羅富全,莫雷拉,頸位,5.3,125,3 3 2 1,1.39.34,1064,B,,鴻圖巨星
7,8,33,3,16/09/20,"跑馬地草地""C""                                    ",1650,好/快,3,7,69,羅富全,莫雷拉,2-3/4,9.2,125,2 2 2 3,1.40.30,1051,B,,鴻圖巨星
8,9,808,9,08/07/20,"跑馬地草地""A""                                    ",1800,好,3,10,70,羅富全,陳嘉熙,7-1/2,39.0,119,5 2 2 3 9,1.50.42,1072,B,,鴻圖巨星
9,10,735,9,10/06/20,"跑馬地草地""B""                                    ",1650,好/快,3,12,70,羅富全,梁家俊,5-1/4,19.0,123,1 2 1 9,1.40.90,1069,B,,鴻圖巨星
10,11,619,3,29/04/20,"跑馬地草地""A""                                    ",1650,好/快,3,11,69,羅富全,莫雷拉,3/4,11.0,122,2 3 2 3,1.39.79,1068,B,,鴻圖巨星
11,12,580,5,15/04/20,"跑馬地草地""C""                                    ",1650,好,3,2,69,羅富全,莫雷拉,1-1/4,4.4,122,3 3 4 5,1.40.20,1061,B,,鴻圖巨星
12,13,506,2,18/03/20,"跑馬地草地""C+3""                                    ",1650,好,3,10,67,羅富全,莫雷拉,3/4,3.6,123,2 2 2 2,1.40.10,1071,B,,鴻圖巨星
13,14,414,1,12/02/20,"跑馬地草地""C+3""                                    ",1650,好/快,3,1,62,羅富全,莫雷拉,3/4,2.4,115,2 4 3 1,1.39.21,1061,H-/B2,,鴻圖巨星
14,15,336,2,15/01/20,"跑馬地草地""C+3""                                    ",1650,好,4,11,60,羅富全,莫雷拉,頸位,4.0,133,6 5 6 2,1.39.37,1060,H,,鴻圖巨星
15,16,240,2,11/12/19,"跑馬地草地""C""                                    ",1800,好,4,6,58,羅富全,莫雷拉,鼻位,4.7,133,3 3 3 3 2,1.50.57,1056,H,,鴻圖巨星
16,17,155,7,06/11/19,"跑馬地草地""B""                                    ",1800,好,4,5,60,羅富全,潘頓,1-3/4,7.7,133,4 5 5 4 7,1.49.49,1030,H,,鴻圖巨星
17,18,101,8,16/10/19,"跑馬地草地""C""                                    ",1800,好,3,5,62,羅富全,陳嘉熙,2-1/2,12.0,108,1 2 4 3 8,1.49.85,1052,H,,鴻圖巨星
18,19,56,3,25/09/19,"跑馬地草地""A""                                    ",1650,好/快,3,8,62,羅富全,陳嘉熙,1-1/2,28.0,107,3 3 2 3,1.39.89,1046,H,,鴻圖巨星
19,20,10,9,01/09/19,"沙田草地""B""                                    ",1400,好,3,13,64,羅富全,陳嘉熙,4-3/4,54.0,108,3 4 4 9,1.22.37,1033,H,,鴻圖巨星
20,21,766,10,26/06/19,"跑馬地草地""B""                                    ",1650,好/快,3,5,69,羅富全,梁家俊,6-3/4,33.0,125,4 5 4 10,1.40.28,1041,H,,鴻圖巨星
21,22,719,9,05/06/19,"跑馬地草地""A""                                    ",1650,好,3,9,72,羅富全,潘明輝,5-1/2,51.0,122,10 9 6 9,1.41.50,1044,H,,鴻圖巨星
22,23,701,6,29/05/19,"跑馬地草地""C""                                    ",1650,好,3,1,74,羅富全,梁家俊,5-1/4,62.0,127,4 4 6 6,1.40.79,1049,H,,鴻圖巨星
23,24,638,11,05/05/19,"沙田草地""B""                                    ",2000,好/黏,3,9,77,羅富全,貝力斯,11-1/4,68.0,128,5 5 5 7 11,2.04.99,1054,V-/H,,鴻圖巨星
24,25,534,10,27/03/19,"跑馬地草地""C+3""                                    ",2200,好/快,3,4,80,羅富全,李寶利,12-3/4,54.0,130,4 5 6 7 8 10,2.16.92,1053,XB-/H/V,,鴻圖巨星
25,26,502,11,17/03/19,"沙田草地""A""                                    ",2000,好,3,8,82,羅富全,貝力斯,7-3/4,75.0,132,11 11 11 12 11,2.03.44,1055,B-/XB/V1/H2,,鴻圖巨星
26,27,468,8,02/03/19,"沙田草地""C""                                    ",1800,好,2,5,84,羅富全,田泰安,5-1/2,50.0,117,3 5 5 6 8,1.47.63,1059,B/XB,,鴻圖巨星
27,28,407,7,10/02/19,"沙田草地""A""                                    ",2000,好,2,2,86,羅富全,巴度,6,43.0,123,7 7 6 6 7,2.02.24,1058,B/XB,,鴻圖巨星
28,29,373,12,27/01/19,"沙田草地""B+2""                                    ",1600,好,4YO,2,86,羅富全,利敬國,6,330.0,126,7 5 5 12,1.35.24,1049,B/XB1,,鴻圖巨星
29,30,321,10,06/01/19,"沙田草地""C+3""                                    ",1600,好,2,11,88,羅富全,利敬國,6-1/4,77.0,125,4 4 4 10,1.36.29,1069,H-/B,,鴻圖巨星
30,31,262,10,16/12/18,"沙田草地""C+3""                                    ",1400,好,2,2,88,羅富全,潘頓,8-3/4,30.0,119,7 8 10 10,1.22.55,1066,B1/H1,,鴻圖巨星
