,Unnamed: 0,場次,名次,日期,馬場/跑道/賽道,途程,場地狀況,賽事班次,檔位,評分,練馬師,騎師,頭馬距離,獨贏賠率,實際負磅,沿途走位,完成時間,排位體重,配備,賽事重播,馬名
0,1,705,10,26/05/21,"跑馬地草地""C""                                    ",1200,好/快,4,5,45,鄭俊偉,彭國年,5-3/4,141,120,7 8 10,1.10.47,1047,CP,,齊齊出擊
1,2,643,12,05/05/21,"跑馬地草地""A""                                    ",1200,好,4,9,49,鄭俊偉,黃皓楠,8-1/2,98,119,12 12 12,1.11.07,1043,B-/CP1,,齊齊出擊
2,3,579,14,11/04/21,"沙田草地""C""                                    ",1400,好,4,5,52,鄭俊偉,黃皓楠,14-1/4,106,123,4 6 12 14,1.24.12,1046,B,,齊齊出擊
3,4,518,14,21/03/21,"沙田草地""A""                                    ",1200,好,4,12,52,鄭俊偉,蔡明紹,13,174,125,14 14 14,1.11.53,1040,B1,,齊齊出擊
