,Unnamed: 0,場次,名次,日期,馬場/跑道/賽道,途程,場地狀況,賽事班次,檔位,評分,練馬師,騎師,頭馬距離,獨贏賠率,實際負磅,沿途走位,完成時間,排位體重,配備,賽事重播,馬名
0,1,726,8,02/06/21,"跑馬地草地""A""                                    ",1200,好,3,11,66,鄭俊偉,賀銘年,4-1/4,7.1,119,7 5 8,1.10.25,1155,CP,,齊齊友福
1,2,624,1,28/04/21,"跑馬地草地""C+3""                                    ",1200,好,4,6,59,鄭俊偉,賀銘年,1,4.5,133,2 2 1,1.09.30,1145,CP1,,齊齊友福
2,3,541,8,28/03/21,"沙田草地""A+3""                                    ",1200,好/快,4,1,59,鄭俊偉,賀銘年,4-1/4,12.0,132,4 5 8,1.09.32,1145,--,,齊齊友福
3,4,483,3,07/03/21,"沙田草地""C""                                    ",1200,好,4,9,59,鄭俊偉,賀銘年,1-1/4,8.4,133,7 6 3,1.10.11,1164,--,,齊齊友福
4,5,424,3,14/02/21,"沙田草地""A""                                    ",1200,好,4,7,57,鄭俊偉,彭國年,頭位,8.1,131,3 3 3,1.10.22,1165,--,,齊齊友福
5,6,350,1,17/01/21,"沙田草地""A""                                    ",1200,好,4,12,52,鄭俊偉,賀銘年,短馬頭位,14.0,125,1 2 1,1.10.48,1159,--,,齊齊友福
6,7,278,5,20/12/20,"沙田草地""C+3""                                    ",1000,好,4,4,52,鄭俊偉,賀銘年,5-1/4,27.0,125,12 10 5,0.57.41,1175,--,,齊齊友福
